epoch,loss,val_loss
0,0.17311399403235894,0.10468489392098236
1,0.0892688238696991,0.07841381708185034
2,0.06901728205507894,0.06368824881637482
3,0.06235671580302344,0.05961357603098053
4,0.0567844776566223,0.05083557011025951
5,0.0496358976846071,0.04945610778225437
6,0.04219482461218354,0.03757111192184729
7,0.03933544508922252,0.03903578477011201
8,0.0385073505633836,0.043060477517233554
9,0.04026739410073351,0.04529755401712472
10,0.0353568278857582,0.02657910416398165
11,0.03445753605990149,0.05814051544903862
12,0.034123278939895495,0.049584850310197284
13,0.03437417240249072,0.03129938879030468
14,0.027720432170182108,0.02517010128947347
15,0.02817116388984078,0.029400725388089407
16,0.025069208878973168,0.024458870200562307
17,0.025378700599616333,0.024452916000276544
18,0.029652716954507465,0.027587773187208006
19,0.0290816147937525,0.025939759369807254
20,0.024752065291454038,0.024982817093205902
21,0.022913168921477073,0.02196104932155963
22,0.02262909317479955,0.05493890594664576
23,0.02805804203656747,0.03739972261457624
24,0.030139613299549436,0.02830821227491043
25,0.03983348588958728,0.03627165014125648
26,0.026277398018331694,0.022578655956011637
27,0.02442972256104461,0.023753029974243636
28,0.0239389699338068,0.02563150830996159
29,0.02595141735359681,0.024434011461890958
30,0.028805463644061727,0.033048651969882104
31,0.028151904121875095,0.02496467821517608
32,0.03567216610707206,0.05410649835322443
33,0.031301243206877695,0.026688503980601314
34,0.026192489773225632,0.025697961508428006
35,0.025245120416847254,0.025527945560151043
36,0.025142957538300804,0.0232160530819748
37,0.02398581687378869,0.024992497092452496
38,0.023909269585657558,0.022785974681177473
39,0.025984951798959696,0.08153504001501516
40,0.036743212001417565,0.031018810299678685
41,0.028933665684635023,0.026519161459402533
42,0.02649586758301627,0.02087672539172957
43,0.02235588764058624,0.027057489728659463
44,0.01716110823217401,0.01563834967407756
45,0.014629065777159495,0.017836181550553536
46,0.014100620010532706,0.012309693436608036
47,0.012002400911154804,0.011799232611225384
48,0.011508016613498926,0.010980269809171921
49,0.01037547213258408,0.008789690144157189
50,0.009795752042780916,0.012127700502871762
51,0.009179802887014402,0.007592535922641924
52,0.009511135807588434,0.00822940620284266
53,0.008214892436870092,0.00933048962420639
54,0.010843689507469058,0.008624080549440425
55,0.008881530827480845,0.009164396471299095
56,0.007623107668826078,0.006211659617261886
57,0.00786700611245438,0.010489926520579193
58,0.008370467112027406,0.006583815263202024
59,0.007456835495664639,0.007434646158325526
60,0.00826958742960141,0.005486105582489387
61,0.009450825148926143,0.007716560130975641
62,0.007807351450408272,0.006324094002397515
63,0.008007376798340004,0.020682078828092816
64,0.010370953018396653,0.010006532008335548
65,0.008062299495346273,0.00798978988226759
66,0.022745983269762435,0.025817153915092525
67,0.023954020175103136,0.02295460526985076
68,0.034440767861974184,0.14738108296514782
69,0.039896888916732834,0.01592983245473258
70,0.013399613623639091,0.010768365175202313
71,0.009837531122110254,0.009306571777504241
72,0.008585652815539845,0.0085056527314124
73,0.007131166098141324,0.010403154367153205
74,0.0074329497910541695,0.006301160489783079
75,0.006986469827327344,0.006386023814162944
76,0.006738220850064558,0.009174903143188477
77,0.007358082647466634,0.008769832217026482
78,0.007315980925538885,0.006855719836190602
79,0.007237951233175298,0.0058887962076589525
80,0.007341363734072841,0.005798702623479027
81,0.007511362712793082,0.00854083643814559
82,0.007924515853649367,0.0064037091823863695
83,0.007122152942425603,0.005543086233996472
84,0.007344264542586435,0.012878694264299068
85,0.008007451923166533,0.006698312198165466
86,0.008846211389245408,0.009609223428147755
87,0.007349711150298719,0.007799166123123271
88,0.007876200968385498,0.008125550233800884
89,0.02124875708673742,0.05436623503689984
90,0.04271561535392448,0.04009005352384289
