epoch,loss,val_loss
0,0.17439979585192852,0.12046436717308875
1,0.1011730065281919,0.08613680787649132
2,0.0834636322254662,0.08233934877868139
3,0.08326908835261274,0.08380731900870188
4,0.07846513953950289,0.0779396527826833
5,0.07669565975546933,0.07492913141693765
6,0.0743120009843394,0.07564818400422137
7,0.07549157081771907,0.07670289464441922
8,0.07708136346652734,0.07779234134972142
9,0.07779110430908813,0.07834636642294035
10,0.07860743509327098,0.07826210058572824
11,0.07871804628774322,0.07707534391130155
12,0.07823046763761819,0.07789185255671827
13,0.07778683532294418,0.07751331929390884
14,0.07713042690361337,0.07724529439502564
15,0.07653972462450953,0.07720882563771653
16,0.07612488235381963,0.07565382201203984
17,0.07488966866029348,0.07569025638024451
18,0.07515404661961025,0.07549786685885834
19,0.0670447590664851,0.05307550222304927
20,0.051552655001124034,0.05181152434415392
21,0.05122329453698737,0.0502836972992535
22,0.050931917987376764,0.05032642733455645
23,0.051772805340260526,0.05093561252836364
24,0.052597379685639385,0.05342610635233847
25,0.05274595305931082,0.05157346510708379
26,0.05184987887180299,0.05604063975606364
27,0.05156777077000871,0.04920290934176264
28,0.04957934803694939,0.04717020939185851
29,0.049641563672480064,0.048879547454798986
30,0.04869937791908197,0.049991161001650665
31,0.048631368590582855,0.04659769467968308
32,0.04799319798652407,0.04877179208334356
33,0.04768313189073623,0.04614538454466103
34,0.047639111564647285,0.04549648903821901
35,0.04647361615495525,0.06463968502717782
36,0.04636955882707755,0.04877112348047221
37,0.04598170502794732,0.044599648129897695
38,0.045654510961567085,0.04356003220721597
39,0.045058058081961554,0.043555862925235174
40,0.0441185261259119,0.04116381336688619
41,0.04263205306945468,0.04275225305484333
42,0.04172016825261924,0.04262050749600263
43,0.04184900952739824,0.041010123560677014
44,0.04183278274353888,0.04184073597874901
45,0.04081094419683436,0.039657874196038626
46,0.04017938803181612,0.03914790658167054
47,0.039956896577021485,0.035304947908388506
48,0.037620587633263106,0.035570339788554124
49,0.03528146143052742,0.03193815978098405
50,0.033109082223223646,0.03197901046760645
51,0.031884849122126135,0.029453839052647892
52,0.031248786670567512,0.02984739844882074
53,0.030395893222219843,0.028984551145250437
54,0.029602143082687323,0.029350001800102613
55,0.029204213915826033,0.028642979127831973
56,0.029622279138838074,0.029368142308498237
57,0.031085830539179078,0.03172488120732198
58,0.03561352283584414,0.037779443383499124
59,0.04180352529026955,0.041188206441329984
60,0.042582005560159876,0.044325861200725555
61,0.04388565379831431,0.042792873955445676
62,0.0438865323742326,0.04579467610136298
63,0.043525398334415315,0.04369381246845743
64,0.04299613378263063,0.03984556556771191
65,0.04198863908207769,0.04335584995449295
66,0.04213370950810677,0.042618072760051036
67,0.04230610641251079,0.04103167987507257
68,0.041370071768522455,0.039399564716062305
69,0.04154251790423092,0.04065261372227601
70,0.040517585536689875,0.038116595601249886
71,0.04111601055400978,0.039101135806013675
72,0.040364308522449883,0.03740428363126662
73,0.03966537803756914,0.03642807932072205
74,0.03922077249452698,0.03725112619756147
75,0.03919536081238759,0.03779878836322132
76,0.0385165788474486,0.037681900785137744
77,0.03838815159952755,0.03725638479617702
78,0.038351294390267604,0.036217084350012946
79,0.037298676770010725,0.038653656381646195
80,0.03715391578428227,0.03525333313364021
81,0.036933659674893086,0.03582990295073604
82,0.036546949390991984,0.03515831324335808
83,0.03639321338287074,0.034987108751061216
84,0.03631125940985198,0.034418218752226684
85,0.035688923155184654,0.03618622342772905
