epoch,loss,val_loss
0,0.2628511336686419,0.17003679617757203
1,0.13715518065255514,0.13254948336728087
2,0.13014807615825216,0.1300653529007226
3,0.1292220382488889,0.1327997395487968
4,0.12775244359537472,0.12647346805284224
5,0.1267702854532513,0.12689221759151076
6,0.12631678130391308,0.12634364135075293
7,0.12556609575696986,0.12546292654199684
8,0.12529297822790084,0.12537239530750777
9,0.12538248735318464,0.12570983089136156
10,0.1253237435631424,0.12548778526008647
11,0.12488653332733517,0.12449863227268045
12,0.1252060907957651,0.124653607501039
13,0.12482162757957582,0.12403489903921015
14,0.12461852116717233,0.1259093984855661
15,0.12469842867980853,0.12366582181572255
16,0.12474280927511905,0.12410606800239671
17,0.12461553620015212,0.12327592014890067
18,0.12419612255456636,0.12443925881348168
19,0.12413707561344266,0.1238528115479327
20,0.12362858589342553,0.12396556824657422
21,0.12383897842572843,0.12510839593909157
22,0.12367607466132044,0.12719196025884894
23,0.12507769822192896,0.12494259736344113
24,0.12369468302535211,0.1240863849797772
25,0.12345619884421595,0.1232668548210832
26,0.12315401506366776,0.12580471630513246
27,0.12306897280265769,0.12297014138810543
28,0.12311463587456566,0.12441231567344989
29,0.12277224020873137,0.12354814075962614
30,0.12345382041758675,0.12325546296567737
31,0.12320778844096392,0.12428849132256707
32,0.12268053306092461,0.12470883954295796
33,0.12274566118260749,0.12224220889660911
34,0.1230503519495233,0.12226077404987558
35,0.12328441237374176,0.12310414997112497
36,0.12246615213336799,0.1222980950900957
37,0.12270780817734347,0.1256932652516448
38,0.1226555532236084,0.12218555622831892
39,0.12291301088295967,0.12285255975345033
40,0.12262870505344954,0.12410326707805341
41,0.1226048036742744,0.12434500754585207
42,0.12280777530918877,0.1237138543974817
43,0.12271038286215205,0.12393268437110823
44,0.12301774847683765,0.12477766473107951
45,0.12289705828463526,0.12358012126248562
46,0.1230581805860396,0.12430538609917934
47,0.12347473162445996,0.12241686126121688
48,0.1234885479549138,0.12460714738577863
49,0.12300786729768026,0.12447873761123245
50,0.12305327372061167,0.12486203014850616
51,0.1234469784856986,0.12482926663490572
52,0.12389198146897445,0.12251520691396876
53,0.12326293810308694,0.1252326243737126
54,0.12356984675478497,0.12337182139964582
55,0.12326829946584267,0.1238127193680502
56,0.12335507831961322,0.12378516860288621
57,0.12337547282187296,0.12623583173177896
58,0.12373265644295706,0.12346350375765783
59,0.12368498193464882,0.12423781611925049
60,0.12356788019458358,0.1230102533264337
61,0.12350365219356345,0.1249613028839995
62,0.12350956930650128,0.12408485408834143
63,0.12404989578621946,0.12526862629069618
64,0.12391343556171794,0.12436714719601663
65,0.12409737784204056,0.12471379307352283
66,0.12436093168435909,0.12544072277685178
67,0.12467479932127144,0.12731196392024702
68,0.1242879398053975,0.12569512615028855
