epoch,loss,val_loss
0,0.16655331539759916,0.12018816546487733
1,0.10415014389345495,0.10155269897586262
2,0.10094131665121166,0.10118204935644214
3,0.1009105784441832,0.10131308092385083
4,0.1048078807137853,0.10341074765787034
5,0.10245323540876619,0.10288250827963369
6,0.10227334477323041,0.1027089301158616
7,0.10224663478722104,0.10332116412312004
8,0.10320449172021103,0.10338481836720725
9,0.10259568969980418,0.10301340171433662
10,0.10252392215194177,0.10356330763969068
11,0.10248245902174859,0.10303616156800112
12,0.10249051482057114,0.10307778992587972
