epoch,loss,val_loss
0,0.13974686112883183,0.09147912804875302
1,0.0728865917846501,0.05934139334941437
2,0.05277456676842068,0.03978015027275778
3,0.040568820785263554,0.04068986513161622
4,0.04275879403539032,0.03526736949677061
5,0.02732358362635882,0.02435022755140099
6,0.025342543220830908,0.023946135221806303
7,0.02534213638250276,0.024803622902886267
8,0.025862048071869415,0.024895712768551678
9,0.026618008432592707,0.02525725590995709
10,0.02573956274907652,0.024295286232077804
11,0.026046343581031837,0.02619067857654996
12,0.025952583937485108,0.023626152124629308
13,0.026171109348023348,0.027800103777397684
14,0.02623052941672474,0.027138628931488214
15,0.026880154372762432,0.024988956183442095
16,0.027103983103293927,0.02922504088578962
17,0.02706061950404581,0.025968588866593336
18,0.027008448476545054,0.026470077483552408
19,0.027715800277186002,0.02720126013647127
20,0.027732902714948382,0.028206820325556946
21,0.02742484824912106,0.027669037645939965
22,0.027527997974487992,0.027845871467922462
23,0.027798225199409145,0.02782479740955647
24,0.02769868993620983,0.026940154055781786
25,0.02754317567818504,0.02664331221348814
26,0.027808486746786404,0.025734976388296464
27,0.027256940822783324,0.02667662649964524
28,0.0277236313667062,0.030061005240551768
29,0.027484383548704458,0.02813285306660604
30,0.027198757901102853,0.025414189326723166
31,0.027741482726288593,0.02512499550247202
32,0.02721227236020622,0.027417660115291117
33,0.02683717462284078,0.025856587969666403
34,0.02751761749476123,0.027035044162183552
35,0.026984682494251847,0.028472246028829862
36,0.027330610299591634,0.029481832021825315
37,0.026836004684404502,0.02569112673860511
38,0.027364345263692733,0.026813792416145225
39,0.027240828304982586,0.02636694889618547
40,0.026777111144243575,0.027205307617336628
41,0.0271554365128779,0.02419180841418167
42,0.026591402320690054,0.02831043440910334
