epoch,loss,val_loss
0,0.16473602691738248,0.12092489496920178
1,0.0850391472927291,0.06910786911809924
2,0.06872273010792111,0.07259832772454974
3,0.069806845523685,0.06367857336715722
4,0.0633993320178976,0.06319185547771751
5,0.06024429843806439,0.06170876329469229
6,0.06081873155552611,0.06252758993510665
7,0.059762991428804056,0.06301448756759809
8,0.059967676557296755,0.05925212373873241
9,0.05942064528163674,0.0583425035028356
10,0.05850142992431406,0.058674840790226224
11,0.05824989068219892,0.055928480235864164
12,0.056949440550675495,0.05485629670810022
13,0.05627773824236471,0.05727351157857662
14,0.05676669422254193,0.05896207966033925
15,0.0561838769208756,0.05592193060217171
16,0.05644816665245379,0.057604247440996376
17,0.05598175159985308,0.05783561974963807
18,0.055584726782201485,0.05730973795385651
19,0.05521347993712345,0.05672140072534285
20,0.05457132486857289,0.05485013173782835
21,0.054441849971346434,0.05698934691681011
22,0.05442331431747722,0.055390824011770305
23,0.054427394915899215,0.054573366549321774
24,0.05504159933383421,0.055419959377823805
25,0.05452924085070761,0.050919030902535314
26,0.05459719852839919,0.05883408276086354
27,0.05588806759146192,0.05483500780015831
28,0.054674412656149605,0.05539183614991646
29,0.05477453262018833,0.05855099247046691
30,0.054073179758590856,0.0544707576090789
31,0.05425192244487891,0.05332201938626328
32,0.05816593728095984,0.06276817426332452
33,0.05808249085867624,0.05850039531889165
34,0.05813644018223722,0.06067413437726372
35,0.05783277437043228,0.06136378368337792
