epoch,loss,val_loss
0,0.15942645590487334,0.10385522218722476
1,0.07122600268867375,0.058777713829147225
2,0.05491735616164337,0.05428691177784032
3,0.05309861490159012,0.05707912953848338
4,0.055604207158970125,0.05556290524981581
5,0.05557965280876743,0.05339145513388145
6,0.053237492848428894,0.05177338334019483
7,0.05199507735282492,0.0531402387830481
8,0.05210662339862397,0.051891044526116155
9,0.052017229075411814,0.050051505938348756
10,0.05183015162531707,0.05027025187095508
11,0.051810176886743206,0.05228931538543084
12,0.05230489656698408,0.052589488375252784
13,0.05218305783889753,0.05211218052500331
14,0.051767127175959084,0.052972688062532546
15,0.05204810769997722,0.0528475111637091
16,0.051824520114990925,0.05121195315432624
17,0.05156248783488735,0.052629328432074664
18,0.05207407543603941,0.05084637404605452
19,0.05183888280051027,0.051285956172535715
20,0.05140444161377841,0.05268122208170187
21,0.05150262991801726,0.05246468790716417
22,0.051725750826269415,0.05234389743622872
23,0.051189226060391044,0.051207382378963
24,0.05135252344594013,0.05319220682087148
25,0.05120995402824488,0.05258388309236013
26,0.05111874516407172,0.05046671748031945
27,0.051008106019499774,0.052350235557523224
28,0.051048114455098825,0.0528009131744845
29,0.051226330871919364,0.0518797170620738
30,0.05157771820334984,0.05234254538812972
31,0.0514530742750894,0.05194711226796483
32,0.05180578028483928,0.05138470238661239
33,0.05173698433940645,0.051144006173255034
34,0.051953430578624796,0.05282792461346526
35,0.052088220041694874,0.05292223087837589
36,0.052258724708565706,0.04999609585283964
37,0.05206859031086155,0.054579644524966435
38,0.0523227781093092,0.05382126712937852
39,0.05254317850744029,0.05252456783530932
40,0.05239023226235125,0.05230313336334082
41,0.05232681021344462,0.052414834052441905
42,0.052338290378915894,0.053246364741341375
43,0.052448803980311424,0.05373763882841007
44,0.052453370522156796,0.05019480398699536
45,0.05284481087355591,0.05295463486764971
46,0.0525540090519652,0.05254281429543021
47,0.05276125578059376,0.052077884420505545
48,0.052488622000272704,0.055507496196332655
49,0.05235534381987951,0.05354145517677139
50,0.05263478121311545,0.05283073158883258
51,0.052961761740852986,0.05364198288523784
52,0.05302602825440663,0.05502799087466456
53,0.052947582276485904,0.05293068664638001
54,0.05316263879779622,0.05156652708468046
55,0.053089461175443456,0.055181000825685125
56,0.05322884161957353,0.0565023984063208
57,0.053201383978819294,0.05365074198360789
58,0.053103471033388285,0.05467589796118691
59,0.05294558491042668,0.05412588101218513
60,0.05301617597528308,0.05103940796621596
61,0.05331443076570638,0.053798259457171954
62,0.05347936192779042,0.05385440229581582
63,0.053887315487547174,0.05575057032687888
64,0.05337159198632153,0.05463995349658881
65,0.0538742266488161,0.05554757862342279
66,0.05416908416804745,0.05449106782416048
