epoch,loss,val_loss
0,0.08027840622192282,0.032039244390947665
1,0.028407777087103358,0.026817653132654027
2,0.026334703221714658,0.026932946336474018
3,0.030246567734473234,0.03339942069555138
4,0.033596223526947695,0.034589706884069336
5,0.03487081234927753,0.03506196162059915
6,0.035386331711443876,0.03666114546329183
7,0.03706457753100698,0.03963957065694334
8,0.038631824429610745,0.03882865734463051
9,0.03885825863666386,0.03948085563993868
10,0.039127453065795195,0.039834422218865455
11,0.039328842527336545,0.03969501292931347
12,0.03933627782560748,0.03975121461695917
13,0.03939610024352821,0.03952745974193244
14,0.03948634619609439,0.03977893348474529
15,0.03943652437209225,0.03993203260163294
16,0.039408748214550725,0.03989857740423862
17,0.03948535925026039,0.0398158698468436
18,0.03942976926239751,0.039879531447423566
19,0.039447813585912775,0.03964354660312021
20,0.03946883815506713,0.0396603764591249
21,0.03942494787615266,0.04011648849546674
22,0.03945221675993155,0.03990991429764639
23,0.03940841466259899,0.03991123877212864
24,0.03945711482879069,0.03984524081766182
25,0.03937062461206096,0.03980815644363484
26,0.03946367475530989,0.03980016356132683
27,0.03942035492077815,0.03971663715748591
28,0.039439181474854146,0.03974052742358823
29,0.03933720636984808,0.03969596980849682
30,0.03943836469527819,0.039757269839649605
31,0.03940061304411537,0.03976811897582959
