epoch,loss,val_loss
0,0.5940465699497173,0.1358436014041622
1,0.08298638926969348,0.054580840725384085
2,0.042866676783771346,0.03443352725200984
3,0.02925556093353114,0.025288800287759483
4,0.022968413533090495,0.021491131759245
5,0.020568135141623582,0.019938336991085343
6,0.01939211359811868,0.019027450200590733
7,0.018670859607420473,0.018440293869990104
8,0.018197227674398683,0.018003610586828384
9,0.017793784592506124,0.01767298239470704
10,0.01748695673583318,0.017384145497076137
11,0.01723007266026297,0.0171079783117503
12,0.016936934271679936,0.016844085869750548
13,0.016682074726116266,0.01656835923455038
14,0.016413957768713208,0.016283379114235164
15,0.016153206421191887,0.016060578702245535
16,0.015959252158907963,0.015864422300796672
17,0.015744090798667534,0.015699424625807326
18,0.01560008404575449,0.0155409750041288
19,0.01545163338183523,0.015457160621675669
20,0.015367656643186017,0.015377419336971657
21,0.015336302982317172,0.015421886465290963
22,0.015397690910307004,0.015449991496757626
23,0.015517748073398542,0.01563009091130301
24,0.015713334204160052,0.01582289367014485
25,0.015895278058308874,0.01598738207413441
26,0.016033216575376517,0.016193103430397225
27,0.016186095117557822,0.016275544278176637
28,0.016294462927174177,0.016408406546443773
29,0.016398782086976284,0.016460152851577904
30,0.01648962579378717,0.01648410331478435
31,0.016482759226890777,0.01652988887170731
32,0.01653038598239708,0.016573441456694628
33,0.016537967869054548,0.01653169885854036
34,0.016567558674015204,0.016549549252970912
35,0.016544560176714195,0.016485734924309443
36,0.016492851637601613,0.01645732233072936
37,0.016473293202452,0.01644704939728425
38,0.016420130106470854,0.016396405561235398
39,0.016382868966008785,0.016369430495289338
40,0.01633014456911696,0.016300625694090912
41,0.016269312240183353,0.016347363136926314
42,0.016231056084658364,0.016278003834205627
43,0.01627239003497586,0.01629804213837836
44,0.01626168745908615,0.016230955772872223
45,0.01620258045845109,0.016275648167320095
46,0.01617384357355553,0.01626949882297979
47,0.016193189187724288,0.016249947898948437
48,0.01613937292417748,0.016201387791679005
49,0.016184550537307153,0.01618746524322381
50,0.016145709042938397,0.016159593134283456
