epoch,loss,val_loss
0,0.15672338660434187,0.09347455436400569
1,0.07253095654429768,0.06611289103363288
2,0.0533630899715719,0.04898654720389476
3,0.03947285245612657,0.032493828023300926
4,0.030301268222175246,0.029603130348032632
5,0.029307217998273797,0.030134002492125805
6,0.02964742730284552,0.029759613783837492
7,0.029493553525240395,0.03107704259249387
8,0.02960950949733301,0.030134324137277273
9,0.029934270002192065,0.030135629757439046
10,0.029894102470492193,0.030765904544396202
11,0.0301001135730367,0.029859314789523642
12,0.030366503034266447,0.031085349228336008
13,0.03023036482850377,0.030915203954856887
14,0.02980736156197475,0.02998459072902669
15,0.029575168863117552,0.029642056023971058
16,0.028891069278549807,0.02770092412564777
17,0.02844603436378886,0.027774265641677353
18,0.02782751719871585,0.02763557492151868
19,0.027753769143891754,0.025561046338954025
20,0.026432699897586346,0.026118773498058603
21,0.025927249980951958,0.024923402050123406
22,0.02613698052901992,0.024963336406479977
23,0.026172086890551637,0.02502734738754163
24,0.025802737022999473,0.026184543167500393
25,0.025962744249130705,0.02771645383181634
26,0.025225689552789875,0.023714742287346578
27,0.024724213155559737,0.025114065687441883
28,0.025071038391819293,0.02559342029803648
29,0.026114936151968346,0.025099143779879964
30,0.02573728708507155,0.027651554608648463
31,0.027408193345728825,0.02355696923219273
32,0.021533010926523464,0.019104080279111486
33,0.02055603329711657,0.021045852200390555
34,0.02138141539397476,0.021604069065370237
35,0.022083639229039588,0.02254520397671537
36,0.023031877576381705,0.02254958837803956
37,0.023607791175129268,0.02426835056026808
38,0.024781532409927733,0.025989172709686793
39,0.02566349639488067,0.025984304691734704
40,0.02671158497186778,0.026708912858541028
41,0.028534552201533395,0.0290636242953171
42,0.030740810992965977,0.03055445189516471
43,0.030507767583421476,0.03202167551761644
44,0.030231606593425515,0.030916268813064366
45,0.030160239465135654,0.028972313941501217
46,0.02984800053347977,0.029297457899142648
47,0.029758264027762233,0.02996429008591241
48,0.02974595363697798,0.02905770339771529
49,0.029657984651226123,0.02963881725746765
50,0.029802415747758295,0.029607052161360503
51,0.02948799719818109,0.030611036790809766
52,0.02974573121094208,0.028969446038378914
53,0.029374477753548216,0.028773168860489962
54,0.029558133280320132,0.03289130920192907
55,0.02935053695061748,0.0298891086307749
56,0.02924817917849139,0.028878821696624476
57,0.029173239909237522,0.02861028313989609
58,0.029459384977996207,0.03076660116045091
59,0.029848478932520277,0.029502241556909767
60,0.029834765006604192,0.0274306607139374
61,0.02978169115827524,0.029528418416194118
62,0.02956949812706283,0.029895952619735707
