epoch,loss,val_loss
0,0.4045474422897557,0.20990061685854558
1,0.15611114352345942,0.13479141945103162
2,0.12953264729010402,0.1238626949636129
3,0.11800644263851462,0.11049458076376188
4,0.10527322264455205,0.10015430941225133
5,0.09817465628198772,0.09519193820720032
6,0.09198862002145568,0.08679182407017665
7,0.0822716973048987,0.07814317487691835
8,0.07095662440410812,0.06098299509395082
9,0.05884356579060654,0.05629554053661197
10,0.05566068269389806,0.054590265915656334
11,0.05410563689972952,0.05310353798455108
12,0.05269919752145557,0.05214547729906174
13,0.052042186697967334,0.051275382593168266
14,0.05158935459874136,0.05126298817011345
15,0.05097516018638222,0.050412573746531235
16,0.050841729802121934,0.05019597624205847
17,0.05092700620849641,0.05068149905131385
18,0.05144433263870928,0.05141107341673022
19,0.051784847881630076,0.051709049258560486
20,0.0518770128619566,0.051965024889738615
21,0.05216140272937042,0.05212442234052667
22,0.05242744051843143,0.05204591403208855
23,0.05240606988291088,0.05223878977589468
24,0.05238926478570028,0.052332490165118824
25,0.05237471524902957,0.05199438058304429
26,0.052411252485333584,0.05183255189372596
27,0.052381425470614036,0.05247299274357643
28,0.052380771061284935,0.05252643735475115
29,0.052557243446675804,0.052539579596755634
30,0.05251061950001023,0.052791944316102464
31,0.05236440325240723,0.05229251181093745
32,0.052414989463693135,0.052143563778854866
33,0.05237545940480072,0.05236914026203265
34,0.05250605476869763,0.05201572524685039
35,0.05225925479265902,0.052174537068478404
36,0.0523279750173231,0.05212343291871267
37,0.052325923972540524,0.06084544324531457
38,0.052255307286263084,0.05242184394031128
39,0.05239925267611095,0.0520434034422287
40,0.05231661705685844,0.052426959966451234
41,0.05264843937209089,0.052174034454193094
42,0.05221801862525616,0.052214463553799356
43,0.05220508958688743,0.052086287613990465
44,0.052282179603807266,0.05235611436845942
45,0.052365382831040426,0.05241202182579718
46,0.05241043825777505,0.05220661738089153
