epoch,loss,val_loss
0,0.17106152462849705,0.11215077025408621
1,0.10708459052179072,0.10633202778041692
2,0.10386344504585084,0.09750572359152639
3,0.09998053304559226,0.099947073759295
4,0.10013423439600676,0.1010478963544732
5,0.10058868073111625,0.10154440830261009
6,0.1009848060296308,0.10128229038514955
7,0.10119198659341112,0.102147545262689
8,0.10135608694131235,0.10196240885505171
9,0.10153387274911745,0.10231369174575844
10,0.10178483663488636,0.1019210609553739
11,0.10188519432962084,0.10283999271461507
12,0.10180096266319236,0.10240061748140707
13,0.10202015608215599,0.10237040011992865
14,0.1020975764706838,0.10266624387550655
15,0.10211714483398518,0.10275110652363009
16,0.10213445683868287,0.10280175007815048
17,0.10226129358120674,0.10221488166956236
18,0.10219964036028639,0.10211647811162726
19,0.10223325393158945,0.10275776465529989
20,0.10232354661257718,0.10288017303127893
21,0.10232227981138191,0.10270887613296509
22,0.1023218542587557,0.10342739308995343
23,0.10242826267659998,0.10240772769337295
24,0.10242827150294725,0.10246548444126757
25,0.10243918155904391,0.1030691319454723
26,0.10228436663568163,0.1029175929519353
27,0.10222457857321587,0.10256344450442172
28,0.10229250322952926,0.10212129374470594
29,0.10233295247923556,0.102946921489139
30,0.10236434664705293,0.10276760167979591
31,0.10241909660428739,0.10256990746851502
32,0.10228866856280182,0.10301891596724691
