epoch,loss,val_loss
0,0.16567141599625612,0.10740755779496684
1,0.10562366424061412,0.1052948956002188
2,0.10531201430385728,0.10583625818531439
3,0.10560577107276276,0.10603970487402853
4,0.10577618284858198,0.10620155946984476
5,0.10609849984292313,0.10681329694030411
6,0.10640031353032274,0.10704853627963055
7,0.10670701027226201,0.10764177017731279
8,0.10719318056611611,0.10769340862250272
9,0.10765869114443744,0.10790205725719351
10,0.10770116783946539,0.10779415814892551
11,0.10759263592872688,0.10783724836716994
