epoch,loss,val_loss
0,0.1078573539436197,0.08352841630772097
1,0.08460036888763273,0.08546535345566207
2,0.08426046513131173,0.08375892892991499
3,0.07980922245972162,0.08035774613218272
4,0.07944098689245711,0.07822490390463664
5,0.0792320373220195,0.0775422430696479
6,0.0782065186746341,0.07882212229431758
7,0.07786879582415453,0.07785545579277585
8,0.07758996727318762,0.0792900856625474
9,0.0771935763355675,0.0802127611944665
10,0.07748446502476383,0.07815048682496786
11,0.07685290798872448,0.07750562615339786
12,0.07659051505451223,0.076275625005188
13,0.07658705565718105,0.07797963990908537
14,0.07601835938850991,0.07798305811873552
15,0.07661161995414707,0.07732213696504589
16,0.07670882684465269,0.07719857672754243
17,0.07637293104582625,0.07702719579114863
18,0.07712156750443433,0.07736961601923889
19,0.07706397767294106,0.08009088199788553
20,0.07777579125094351,0.0783207638302396
21,0.07779062787542859,0.07813499271928465
22,0.07882142978475438,0.07946957414492012
23,0.079225991336669,0.07846992062706126
24,0.07907834630921114,0.08002931945578687
25,0.07944334198837634,0.08047971103102228
26,0.07974573562024452,0.07983363774658755
27,0.08069936668486904,0.08084976036563198
28,0.08029053713098991,0.08151357053634259
29,0.08017498706962517,0.08096687123767485
30,0.08048877156868899,0.08068753876403598
31,0.08081631785739574,0.08110733320546978
32,0.08091870908864396,0.08106924548315879
33,0.08114028476077399,0.08248328040747212
34,0.08169406409830236,0.08250014691803996
35,0.08135019842204716,0.08142889916438142
36,0.08105105224722843,0.07868778275439094
37,0.08087135930445126,0.08061717373437315
38,0.08152629390543552,0.08257947503879443
39,0.0816563692853617,0.08256724874188369
40,0.08171881675246737,0.08249205416296304
41,0.08178567155662606,0.08261811748535124
42,0.08237091039823329,0.08175572153289627
