epoch,loss,val_loss
0,0.1677566233405964,0.14191716956452488
1,0.10316587895226421,0.10209148428928409
2,0.10151967527173597,0.10237357456710457
3,0.1022205226105466,0.10423079092458373
4,0.10550514738455856,0.10309761684996553
5,0.1029786767421676,0.10279023045146192
6,0.10221774539025091,0.10216345299320514
7,0.10177243423523853,0.10135539409417098
8,0.10150058045209073,0.10228404682056115
9,0.1015386469811082,0.10176421026827881
10,0.10169064737171482,0.10168270761442635
11,0.10159502905025947,0.10226930751984949
12,0.10153753535567428,0.10254896924358328
13,0.10175705785683686,0.10146541685900917
14,0.10160894229186239,0.10207661782298016
15,0.10163334652269296,0.10236074115666424
16,0.10170677885544195,0.10171351979921066
17,0.10187338576090041,0.10196349913314655
18,0.10182870021588701,0.10147931968356647
19,0.10179850263156288,0.10190122699822228
20,0.10195109158230248,0.10258858745598662
21,0.10196016389998695,0.10239957084830766
22,0.10198358375486806,0.10228221829401384
23,0.10194574496585974,0.10259338608856924
24,0.10204434600308072,0.10306381509472463
25,0.10205575333629771,0.10226786915792098
26,0.10207113821348317,0.10359889360022714
27,0.102103172017516,0.10239478155394285
28,0.10219396101675636,0.10209305948433015
29,0.10219420692760596,0.10234502320719593
30,0.10213798345874349,0.10208410970813755
31,0.1020788845481823,0.10240720073680004
32,0.10210235590795629,0.10401473703023102
33,0.10223278553961374,0.10222121937922257
34,0.10203692271150083,0.1023315746681184
35,0.1021610543274765,0.10240463697261103
36,0.10229312802414052,0.10293749240598249
37,0.10191511346115102,0.10301352816838963
