epoch,loss,val_loss
0,0.5019155745431194,0.48004961845486666
1,0.232814891718504,0.49152205688084744
2,0.1561613445441554,0.326101854559063
3,0.12761149402913147,0.21676824166793232
4,0.12244275435218661,0.1747333625721377
5,0.11783785701502027,0.14883728406225988
6,0.11461493325984384,0.13232354565646298
7,0.11281361143420061,0.12401778874702232
8,0.1165692915362636,0.11636806799228801
9,0.11154805065140011,0.11639686263808909
10,0.11072327495794597,0.11366098299044972
11,0.11031923331613616,0.11238149391819341
12,0.10995464554921848,0.11140433964572212
13,0.10975087428186822,0.11103807239569435
14,0.1095210187078461,0.11090732423603072
15,0.10921320383708308,0.11035120816424836
16,0.10899584898798484,0.11011552048283954
17,0.1087467148900032,0.1098960007923518
18,0.10846445644934347,0.10940170368944951
19,0.1081095830662044,0.10915434354728507
20,0.10791589806633671,0.10915807767431865
21,0.10787894089860241,0.10890504596538322
22,0.10771324344742017,0.10868579645951588
23,0.10753173609887522,0.10892212795194729
24,0.10760500815909678,0.10848049270783285
25,0.10736187019451397,0.10846190905386163
26,0.10745654454616112,0.10875700235135796
27,0.10747802075673277,0.10863857196513997
28,0.10766393955298297,0.10884646950073021
29,0.10770026928796543,0.10874330373697502
30,0.1077516868006526,0.10893864490727122
31,0.10786119948221942,0.10871718760377677
32,0.10764601040543534,0.10871632397174835
33,0.10782468723734533,0.10880396555560504
34,0.10778328148633476,0.10918231244928153
35,0.10792196348426848,0.10866042318963265
36,0.10781037778131605,0.1090484368362168
37,0.1079401454822285,0.1089565915654796
38,0.10795548464369586,0.10923569932464482
39,0.10790404430993898,0.10905704751264217
40,0.10794017727919451,0.1088452112189559
41,0.107807080459407,0.10906377723512724
42,0.10780916404067062,0.10899826965128728
43,0.10779894061210588,0.10884284759445707
44,0.10780999739104369,0.10922525332186574
45,0.10789059642262346,0.1087935670286186
46,0.10776886484754367,0.10883400808702144
47,0.1077681626743219,0.10899547256471574
48,0.10768656989955526,0.10890970748755359
49,0.1077406272644133,0.10899234412945519
50,0.10769147255758602,0.10879697812389033
51,0.10779644325962216,0.10886441096085911
52,0.10767657215905002,0.10878869619711425
53,0.10764291841448761,0.10880280834759852
54,0.1075648583882437,0.10866161955650462
55,0.10755265474788786,0.1086425840739132
