epoch,loss,val_loss
0,0.2947319553767463,0.2593812901341454
1,0.2098641221424182,0.19852843714823568
2,0.18749488285071939,0.18033125797829105
3,0.17841779973676547,0.1777685639208099
4,0.17970606061718541,0.18353340996469017
5,0.18138661562538833,0.18142961306701802
6,0.18221228947932963,0.17503384081463036
7,0.1657869592845011,0.1569145589878734
8,0.1574282160789656,0.15816720697996461
9,0.15801254655722138,0.1593455020941047
10,0.15764270886052237,0.15545994507908914
11,0.13883777579172052,0.09429178442203255
12,0.08869878761321426,0.09137769832019271
13,0.08626083496043817,0.08506465132841466
14,0.08396361399587872,0.08203144554392786
15,0.08149259296252573,0.08155112283123508
16,0.07950362453548361,0.07866297734588173
17,0.07792440486802377,0.07746302760437707
18,0.07855694923850653,0.08212528533016308
19,0.07825847958727515,0.0780355417608462
20,0.0787605340484616,0.07485894818849798
21,0.07820323207895818,0.07379463709002888
22,0.07695730686259213,0.07969121253316386
23,0.07688302468124339,0.07402012364287591
24,0.07593960212253266,0.07480088338526385
25,0.07636491525814021,0.07598486522120007
26,0.07731720301911509,0.07460251459947419
27,0.07737779357045484,0.07865441305931854
28,0.07581893363587862,0.07450955487558385
29,0.07597400623855355,0.0729620047119441
30,0.07709223494159995,0.07674819509180493
31,0.07614083609563842,0.07323573115145775
32,0.07620076356317214,0.07534444615562412
33,0.07588506171362196,0.07814748806330568
34,0.07606373392611289,0.07388941957758653
35,0.07588949636351482,0.07599448182729632
36,0.0764560025218103,0.0760516558598136
37,0.0759222989233373,0.07508073056200497
38,0.07697114623564896,0.07708968933680534
39,0.0775252162433452,0.07476452606323675
40,0.0770871998797313,0.07510230225682164
41,0.07622142163790958,0.0738190755706748
42,0.07629470745150706,0.07582501533140605
43,0.07641099156628696,0.07780512632844762
44,0.07634529788240635,0.07457743355182558
45,0.07617743662316545,0.0776256230360613
46,0.07616635018901573,0.07211500032854155
47,0.07575784622431754,0.0763247985548642
48,0.075437086344742,0.07489558378706415
49,0.07590444085242556,0.07441187840493156
50,0.07514138461398087,0.07467364958519059
51,0.07512533411586123,0.07629225684157863
52,0.07556777133894481,0.07493941940443669
53,0.07452533705879172,0.07257853269036021
54,0.07441041286257531,0.07276363059843066
55,0.07473811829428402,0.07485257982972483
56,0.0751827638998306,0.0754011296612029
57,0.07516379902760188,0.07355786033780347
58,0.07443353104636632,0.07190541011570191
59,0.07514667610446517,0.07499329522898937
60,0.07479775968870575,0.07595062140013725
61,0.07551900224446012,0.07273775092734064
62,0.07383338639514148,0.07049369829947212
63,0.07310013085913411,0.0716153689746134
64,0.07327126387616904,0.07222049302864753
65,0.07369171013589576,0.07649123809802409
66,0.07351243935471816,0.07137958402580037
67,0.07272454295203173,0.07404381774759895
68,0.07309521515544751,0.07082743343515667
69,0.0727166705083647,0.07293859572865027
70,0.07247779715499528,0.0743689535225388
71,0.07231391273992811,0.0729421594230886
72,0.07173936754214964,0.0739739021402508
73,0.07052208031181523,0.06950382636926168
74,0.07060073942636891,0.0699211498685681
75,0.07023382492417055,0.07077915053858753
76,0.07042818950961152,0.0667143673669097
77,0.07002888399836638,0.06913585756812024
78,0.07008076173891362,0.06923520271596517
79,0.07003825916041383,0.07268586140581727
80,0.06976424148685927,0.06843391661227173
81,0.06978498346549715,0.06917172033507332
82,0.07057445259879437,0.06763111851409653
83,0.07058820530450602,0.07079829778389941
84,0.07062666816748589,0.06836482662569375
85,0.07052081275126822,0.06931244471384582
86,0.07057825863349447,0.06937444334130825
87,0.07134196786976738,0.07335436246530598
88,0.07089377484090037,0.06998933463606574
89,0.07083925796296003,0.06881704637170685
90,0.0706805353738564,0.06823164696239917
91,0.07066539494539623,0.06851820704169224
92,0.07032108732419524,0.07184650958313561
93,0.0703514064107534,0.06980619637182404
94,0.07052725675902206,0.07253398403419503
95,0.07120465248715964,0.0707134712184614
96,0.07048413989176568,0.07036254572628423
97,0.07032838789262265,0.06670532456430847
98,0.07004011692784483,0.06863238574273961
99,0.07013865579351437,0.07000004911196919
100,0.07047160169620403,0.07132544391439388
101,0.07053901278357998,0.06950106815785617
102,0.07091733355292504,0.06882848656767922
103,0.07105522400302758,0.06867556167500359
104,0.0706098977324488,0.06828282577674409
105,0.0701498315304065,0.06881186084993825
106,0.070372534774357,0.06970043179903242
107,0.07071827935109988,0.06870861520260078
108,0.07048550910419887,0.06699296652729717
109,0.06992499690821512,0.07333755167972976
110,0.07127430814978697,0.06941022513979707
111,0.07038447333218383,0.06988594167069742
112,0.07036276728355532,0.0702702994645818
113,0.07057228282117825,0.06861105775894287
114,0.06961441819937966,0.06821191838950554
115,0.06999443077759968,0.06933100255178296
116,0.07072953204754635,0.0677678536656059
117,0.07023208465674322,0.06980299406288737
118,0.07006384752434697,0.06983861297768877
119,0.06990596385215589,0.06748683366045391
120,0.07102351164300855,0.06835287087247799
121,0.07059850091402002,0.06727767097686536
122,0.07078578611977285,0.06979147244271276
123,0.0705046768990352,0.06748135981238913
124,0.07018506950099501,0.0670960515490553
125,0.07021874044057753,0.0706054334070801
126,0.07058903947174787,0.07093922199347684
127,0.07021071998585614,0.07024417741734303
