epoch,loss,val_loss
0,0.16062227017778477,0.11685010787296596
1,0.07676427174422094,0.04358415106559891
2,0.032827977789379806,0.02882560100568122
3,0.02918183753232685,0.029123662977575692
4,0.02959671134440352,0.02868217990190473
5,0.0292727183059251,0.03066654576263563
6,0.029591015966640388,0.030054736682511542
7,0.029711523668752682,0.030509662083052422
8,0.030525562313975668,0.030451145140717326
9,0.03028363939359796,0.030255802913665208
10,0.03004673463579038,0.02973609006336663
11,0.029985786842213546,0.02905059846348902
12,0.029426514500860784,0.028869044506112326
13,0.029295178219604548,0.0281147525087881
14,0.029527034010473106,0.029239569262152314
15,0.028958495095860567,0.02701579077550061
16,0.027819949325075824,0.02713558591914017
17,0.027372788274578817,0.025934683620612173
18,0.02691481662891823,0.025047697407658776
19,0.02590390295385838,0.025770420834845507
20,0.025557158524535304,0.026103903922445677
21,0.02556950237667508,0.021005646353580158
22,0.023010275272323456,0.02379136040348092
23,0.022795769725468377,0.022719633195846214
24,0.02240301257030641,0.02045192545898782
25,0.02141352173247688,0.022633467506155688
26,0.021987200614145334,0.021140091638679852
27,0.021687092023531643,0.01927906447828945
28,0.021618468677260274,0.02154120372280467
29,0.02134323501877552,0.020879050907873693
30,0.02089731151060902,0.019648253054732213
31,0.021270966903268577,0.020263082166250144
32,0.021299360468120074,0.021322459538173938
33,0.021154524940851446,0.020125036378521192
34,0.021249673860095485,0.023070820236039048
35,0.021113328320784962,0.020296890810484858
36,0.02096644433722984,0.02091604718187237
37,0.021375943252222716,0.01906729833720562
38,0.020622962781285448,0.018907862813921313
39,0.02152401803405308,0.022376511638488653
40,0.021510456053675603,0.023488740440408076
41,0.02118786008988353,0.020021287364195724
42,0.020880770052877737,0.019891392567504457
43,0.021224070699970357,0.019620680994844476
44,0.020994149782746243,0.019658281393613794
45,0.021169607608700448,0.01994974413870495
46,0.02123240163128415,0.020340041718324434
47,0.020820007927501372,0.01918428335280026
48,0.021445176206815013,0.022466157244749207
