epoch,loss,val_loss
0,0.1377770989823589,0.10179067190792397
1,0.08451118575726196,0.06794391825042471
2,0.06267098488686658,0.06407572523100506
3,0.05435973860555701,0.05475605061629107
4,0.05482335650711227,0.0552159861735735
5,0.052517017419580266,0.05348098277163581
6,0.05111513796934693,0.048759359542953754
7,0.04955518063452604,0.0494786517160938
8,0.04615722761618243,0.04675497112012135
9,0.04560836453398736,0.04365591490795599
10,0.04444821945113911,0.044696101235209625
11,0.04434562467044587,0.04356757755778677
12,0.045531348385613596,0.04625000934915554
13,0.044520666312089834,0.04267026083551247
14,0.044192201641799926,0.047245496415019315
15,0.04329293376679043,0.04548675174683026
16,0.041508159283801714,0.04455649002727883
17,0.0392828161934678,0.04022152098255921
18,0.04154481665550662,0.039666763235592144
19,0.04205889457302223,0.03897639390319327
20,0.04150962288961184,0.0427338490975637
21,0.04257426378454903,0.039763598699172654
22,0.04188879900615659,0.04298058243052359
23,0.04058549807464285,0.03847501655980274
24,0.041587638885354536,0.04667879034189512
25,0.04314047361103941,0.04622288152940083
26,0.04072793605004093,0.040967012199131445
27,0.04117984130686755,0.03904366825472772
28,0.04331902446423313,0.03644482253653004
29,0.04403491584743432,0.043715165761882335
30,0.04559869527650013,0.04985407360292083
31,0.04464227725252164,0.05335721663172168
32,0.047439579429815144,0.05930063869119067
33,0.048334429991974244,0.04901554730692151
34,0.05100471491245724,0.05084439541412416
35,0.04645690929999264,0.05110411968408557
36,0.04841918135277754,0.04832053912219892
37,0.05083208020142228,0.057705633451055144
38,0.04603237396986078,0.046178512563362965
39,0.04450836842901987,0.04241561689417759
40,0.04616063187341038,0.0509228472081149
41,0.043557316222660646,0.045471770496305366
42,0.04360606325723285,0.04480484000391723
43,0.04072010221717645,0.03787201784709917
44,0.04122695398273514,0.03787110969659467
45,0.041379023653021055,0.039144797296202266
46,0.03967773548508291,0.04251431230376251
47,0.040018253845812604,0.04691052093702033
48,0.03840379536652165,0.03719118151640271
49,0.03800216896815313,0.03941342497469406
50,0.03848803334896989,0.038297298457694036
51,0.038131249660579895,0.05713489820156026
52,0.03747539698994226,0.03722080378701297
53,0.03958700869461711,0.04758409673867022
54,0.036984425792984256,0.0389783177392494
55,0.03593568076981867,0.03936634520281933
56,0.035597287779517595,0.04110305546102979
57,0.037780004482772904,0.037686225841293775
58,0.03714725347779257,0.03648857102268497
