epoch,loss,val_loss
0,0.08172217522599666,0.03858188958140274
1,0.029685232889571256,0.02417368604415688
2,0.022764949119098182,0.022408761217860885
3,0.022278070516830725,0.022070472886537414
4,0.021930842279947158,0.021007435478640524
5,0.019649495275394856,0.016588286681199223
6,0.015245575214372122,0.013736135959948671
7,0.014587513847108319,0.014125114081143721
8,0.015187468877781352,0.015563563900193363
9,0.015771815074618153,0.015721278275409457
10,0.016349474755417315,0.016829515005378808
11,0.016999162442470007,0.01801748911834718
12,0.017531689828921327,0.01805429275558516
13,0.01822271905273652,0.018148273117869693
14,0.018750256292974585,0.019322706927452016
15,0.01912934810435362,0.01916765617449263
16,0.019494563361985698,0.01932461685173937
17,0.019488967844187546,0.01980023833407764
18,0.019929371407176617,0.019766853391630215
19,0.01966891482511132,0.020236782401788396
20,0.02000330670250596,0.0201837994722795
21,0.019948687696223447,0.020011359611092447
22,0.019839306327728012,0.019972060303532334
23,0.019903052258018635,0.019579321348888252
24,0.019846228925104764,0.02041019007839974
25,0.019472902549131452,0.019559084091573694
26,0.019870328043939636,0.019721993009229766
27,0.019578478076487042,0.019535100318332686
28,0.01963027024107109,0.019539730933560286
29,0.019601643273084283,0.020024964022843407
30,0.019314518632392565,0.019514197383690465
31,0.019170956168737676,0.019238174637895733
32,0.019246611243142166,0.019019037217560392
33,0.019160968241848344,0.018673002769863313
34,0.019161172997322586,0.01964075877327522
35,0.01935444730479154,0.020418433374015946
36,0.019374440210483533,0.018989339251080036
