epoch,loss,val_loss
0,0.16735261001532598,0.12294193244911877
1,0.08225089818429794,0.07950644844873928
2,0.07836767193153323,0.0787060767788537
3,0.07503261794741872,0.07425849698336932
4,0.07068588398843646,0.069483285539011
5,0.06785384136483633,0.06748479289526815
6,0.06545850075930237,0.06426741261014622
7,0.06450309975446461,0.06571079168436371
8,0.06448205447883057,0.06481049093987495
9,0.06370684045622294,0.0628914362276833
10,0.06204275822610878,0.06139356646489796
11,0.060982819432191714,0.06036743197087331
12,0.06026636406803112,0.06018832958676068
13,0.06007826728202837,0.05994253558560253
14,0.05833928321572326,0.05913634630009802
15,0.05660253702152929,0.0563458933097317
16,0.05484466991729016,0.052975603097780724
17,0.052171575624665484,0.05203867493742737
18,0.049877975612497634,0.04878134576819878
19,0.04812042501797493,0.04703991744305642
20,0.04695606691171702,0.04650610069073178
21,0.04689314177961087,0.04899046613578262
22,0.04673234833408889,0.04702146933799949
23,0.04685433223533878,0.0464933824232223
24,0.04650013746141339,0.04654518077657179
25,0.04637927173388948,0.08304599617867368
26,0.04577705662825601,0.04685118028801449
27,0.04550419610252769,0.0485952776263526
28,0.04539799033332881,0.046218950727744276
29,0.045337433264933995,0.045874987612019025
30,0.04556260874374307,0.046430590247181144
31,0.04614176067540781,0.046167824243878226
32,0.046072259441101486,0.04533120944519728
33,0.04638749445906932,0.0466012301948142
34,0.04652219626317017,0.04750700506375075
35,0.04674419953073148,0.046889796985376514
36,0.04638922562618717,0.04631909405211341
37,0.046086944368698424,0.04675732767643097
38,0.04561172029097303,0.04608329962983128
39,0.04533366939361147,0.04632572240204254
40,0.045070591679722855,0.04773068897008614
41,0.044629079540618226,0.043978301577428804
42,0.04423719045700882,0.04305649061570416
43,0.043930630005306476,0.04468939144931728
44,0.044165744764103496,0.0446080290422067
45,0.043870973888394546,0.043917237236307846
46,0.04374297384282858,0.043757277410756724
47,0.04354026142677529,0.04287227673636898
48,0.042998671430430346,0.04299547101040948
49,0.04288039088463612,0.042191270941717
50,0.042471135423766626,0.04188505648073006
51,0.04227260510615117,0.042083146863550115
52,0.04255375021295868,0.04241299889717125
53,0.04253198369610891,0.042544791314695046
54,0.042571445154271824,0.04216295966456608
55,0.04247293909557527,0.042533426794746115
56,0.042095148416279225,0.04205504627258832
57,0.042110719284017405,0.04186036861439154
58,0.04206025353271803,0.04152636615752045
59,0.04195792627610939,0.0426228092226252
60,0.04220632491089838,0.04153381125456062
61,0.041836856402081554,0.04166805459261411
62,0.04203705796651798,0.041827641545126734
63,0.041903736768104285,0.0415223774653819
64,0.04228838869064546,0.04314086065813605
65,0.04199959819527457,0.04156790664323974
66,0.042048407502645116,0.04242080892270818
67,0.04224119478945347,0.04309438740880168
68,0.04234495898671478,0.043084482770433745
69,0.04223484428618833,0.04226166630588654
70,0.042467948293490564,0.041783177315153845
71,0.04226779371059294,0.04222444595729354
72,0.042616975494473575,0.04307888194201213
73,0.04239090214030062,0.042704608955882906
74,0.04280588488510663,0.04246661227840369
75,0.04265856367352007,0.04238660160184565
76,0.0432019975545595,0.04223714299917503
77,0.042770876750933655,0.04265461714192931
78,0.04306156421117455,0.04362076560613106
79,0.043097714824284865,0.042867530013810204
80,0.04300856378248079,0.04307552625519983
81,0.0431384870277749,0.043447780133987285
82,0.043251612007046206,0.04289634668083763
83,0.043169320001900435,0.042870352698906065
84,0.04306826499297464,0.04306113547053785
85,0.042994485195758915,0.04282021828601468
86,0.04292848728877082,0.04307834189546889
87,0.04273219959889289,0.04343398005334806
88,0.04326507903867774,0.042955548082784865
89,0.04300671688122429,0.04305609267119733
90,0.04298738903588623,0.04438465967151059
91,0.04298830297972849,0.043034794698480365
92,0.043257846960799394,0.04327308228673103
93,0.043070567850705434,0.0429099031739472
