epoch,loss,val_loss
0,0.09217125447176629,0.05271687077824394
1,0.04153537872931559,0.03939882511509716
2,0.038745823628205854,0.038686204875136514
3,0.03816553408043276,0.038108876097032944
4,0.037536524355316236,0.03741646526879745
5,0.036750652609194974,0.03677670588244955
6,0.03643333361291295,0.03695541812840558
7,0.04111084970031425,0.04305031635719862
8,0.040456749043233105,0.04037099428351413
9,0.03976114744024216,0.0398216602828386
10,0.03954971669544038,0.03982067223117873
11,0.03931512719364189,0.03980247487608805
12,0.039173683762061984,0.03948071229123844
13,0.03912458373464459,0.039378451202549895
14,0.039078889818166755,0.03934432955160325
15,0.039055581477810915,0.039517802780974824
16,0.0390697134603604,0.039270709326818594
17,0.03901836957982023,0.039430180001465844
18,0.03911168705359352,0.039291985291802424
19,0.03903808899753862,0.039450157175006696
20,0.03910413820394795,0.03956061274977585
21,0.03916851425175663,0.03947453106729271
22,0.03910908304291854,0.03950721575292717
23,0.039122395431823866,0.03949576703318481
24,0.03916765120830372,0.03939689817267228
25,0.039162356120576676,0.03940228183754523
26,0.03919952766572257,0.03941409813788526
27,0.039178863090338654,0.03958049020491064
28,0.039153322791881696,0.03935142323351226
29,0.03917340095714032,0.03948911656085299
30,0.03919528799055577,0.0395986522300185
31,0.03912898467527591,0.039503917409711306
32,0.03916210931339424,0.039506976217055
33,0.03920190996057886,0.039457312640281954
34,0.0391994098679339,0.03973716306893395
35,0.03915260542782662,0.03953008600690747
