epoch,loss,val_loss
0,0.16228033553996532,0.12187348908341204
1,0.082072979320201,0.07489671223541838
2,0.07136447095780445,0.06793023589425136
3,0.07979413394709761,0.08491247935307336
4,0.08697507252319635,0.09038226930358416
5,0.09160781096664074,0.09210334910519404
6,0.09398314963094145,0.095478061401383
7,0.09387491622583853,0.09346533814281954
8,0.08595858342189201,0.08164927205798564
9,0.08057298211695002,0.08093536195904605
10,0.08033297310391967,0.08076695422770569
11,0.080802992635446,0.08157174016959853
12,0.08100418873923383,0.09053886623578271
13,0.08057871288199314,0.0815423688577119
14,0.08082275072352396,0.08096648953802113
15,0.08049785268964242,0.08124178495690308
16,0.08071332104462418,0.08074728608860589
17,0.08062250461343,0.08094973521690813
18,0.08113221322699225,0.08153264606173055
19,0.08060006375054567,0.08096863021860935
20,0.08060954817288594,0.08125473982886056
21,0.08085346230857378,0.08053668793040933
22,0.0811531501267549,0.08197506871765396
23,0.08115542646673181,0.0805383131096188
24,0.08106952098657569,0.080112125903909
25,0.08087946474552155,0.08091388195282659
26,0.08090364996144335,0.07986354576195895
27,0.08073058084165641,0.08096548438001638
28,0.08123302156571671,0.08158114676576199
29,0.0807710226050479,0.08049116260721256
30,0.08057753841201369,0.08215486855138072
31,0.0808256537758475,0.08082922543939305
32,0.08076509720177578,0.08115606374550544
33,0.0804425725440899,0.08139049589939727
34,0.08067408839551855,0.08112932672252218
35,0.08088414575294149,0.08086377145882752
36,0.08069098828960475,0.07999126930098507
37,0.08056707457482196,0.08191756310195743
38,0.0811841961541336,0.08134020072273504
39,0.08092578527309911,0.08121647067138692
40,0.08127852855064124,0.08065805408365631
41,0.08123318580605333,0.08230282040496652
42,0.0813225293569237,0.08199292253158934
43,0.08122181037156512,0.08206075162942145
44,0.08136944297692186,0.0813846481109851
45,0.08143976647004807,0.08155388914889582
46,0.08129113673758831,0.08131992415287595
47,0.08182209255479032,0.08145559105754557
48,0.08165615312248874,0.08193401052030692
49,0.08184729997726749,0.08282286539709088
50,0.08207071772653708,0.08310982441469357
51,0.08224665600475933,0.08323429175597434
52,0.08218698848565992,0.08181164979393687
53,0.08226279293795188,0.08292650170888878
54,0.08246670204172317,0.08360734068580565
55,0.08251875918284118,0.08366690053889012
56,0.08281067861236638,0.08235464172162874
57,0.08288574698183844,0.08410685578833063
58,0.08310368286072017,0.0839224779815211
59,0.08321800988188369,0.08292795778285263
60,0.08332362517916994,0.08478790231713557
61,0.08342449217558288,0.08513346036283069
62,0.08371264068819255,0.0847571022990847
63,0.08378726045052401,0.08434958164980774
64,0.08373893469238548,0.08408158255451387
65,0.08383095369850703,0.08534451889281397
66,0.08392256871759177,0.08522190126548532
67,0.08435658492344461,0.08441784174637994
68,0.08411464824093332,0.08444203631018878
69,0.08389660429587657,0.08460991804935655
70,0.08441106207388864,0.0848026638049353
71,0.08438629240131111,0.08529889523018601
72,0.08462609502551653,0.08541229620117227
73,0.08478035389495601,0.08508085215430422
74,0.08455607538028873,0.08525193379728833
75,0.08445938390126521,0.08496419085746877
76,0.08455461229113556,0.0844480409547863
77,0.08428867048115658,0.08553531837679781
78,0.08474338718717524,0.0836564132615912
79,0.08427821576214141,0.08566692908424604
80,0.08439024952318457,0.08598862671320516
81,0.08459101688804672,0.08459019144642702
82,0.08428803595493166,0.08534754465768539
83,0.08417560400770341,0.08479779345389887
84,0.08433746447642262,0.08485772030835276
85,0.08424282289570946,0.08530565156015525
86,0.08433868266719517,0.08581477241339228
87,0.08454042956602278,0.08460297889495894
88,0.08444494418770099,0.0849645643744209
89,0.0842750795799003,0.08520015443792095
90,0.08441622598136929,0.08556211018242418
91,0.08437623116943381,0.08593048822743364
92,0.08460810644735249,0.0841874936749922
93,0.08434064096088509,0.08377436015699073
94,0.0843520529574151,0.08509355665264678
95,0.0842701214656746,0.08497634373058366
96,0.08442476765214682,0.08586200125568386
97,0.08494387334771007,0.08456625210175668
98,0.08451906632748153,0.08484528577153666
99,0.08437295257449627,0.08476861802112802
