epoch,loss,val_loss
0,0.25006759616968444,0.5368789879938892
1,0.12964745509705478,0.18895778658593274
2,0.11751845508790035,0.12008631127080112
3,0.11205028850945542,0.11235321344309372
4,0.11152228721373564,0.11189199525395434
5,0.11137665890985066,0.11172733967498992
6,0.11137774219806436,0.11168727312228204
7,0.1113838584428068,0.11179434476330606
8,0.11135603053023299,0.11186204683079716
9,0.11160835764593453,0.11190781643542137
10,0.11008239142614588,0.10927061336710402
11,0.10755508919830897,0.10790928250918166
12,0.1067490900228683,0.10736671451776161
13,0.10644356206917077,0.10726186304390666
14,0.10632267466289916,0.10732375301755877
15,0.10631190304704707,0.10694703684374396
16,0.1062812646247929,0.10716261721165422
17,0.10627244311652119,0.1070853416008938
18,0.10625187791496825,0.10708884213887149
19,0.10629216976743712,0.10700840177198236
20,0.10629029018725518,0.10688574215207593
21,0.10623892594417698,0.10708852682112707
22,0.10624193375726207,0.10699407278832809
23,0.10621650076562839,0.10704185185629078
24,0.10615756530925143,0.10679851710537615
25,0.10615944762012179,0.10690748885026953
26,0.10613950027181185,0.10699658341053064
27,0.10610287035886141,0.10697679036394667
28,0.1060843998186594,0.10670621463207156
29,0.10609182509348737,0.10683819393450196
30,0.10610727483122279,0.1067997387947769
31,0.10602705818202665,0.10682475809140195
32,0.10600744391516816,0.1067532102717785
33,0.10591635641922577,0.10682735238709408
34,0.10588272225013454,0.10685436069471402
35,0.10593394051900776,0.10717314327078348
36,0.10607306064247228,0.10672374688318233
37,0.10581812255983826,0.10665275980942628
38,0.10586665227092046,0.10643139847899011
39,0.10577175260590707,0.10669780097425502
40,0.10579111779943931,0.10688748672287014
41,0.10582027431550643,0.10702497333335237
42,0.10583558836155277,0.10649205572556207
43,0.10578736388306918,0.10661550109651771
44,0.10579545845647605,0.10642264995668098
45,0.1058006417765606,0.10651502565972525
46,0.10571336694103446,0.10658978947218517
47,0.10573456126401465,0.10640353541277296
48,0.10575114743565198,0.10658304027525006
49,0.1057188938246023,0.10654836744893321
50,0.10573784822373272,0.10617203976967811
51,0.10568429102643216,0.10643758417798857
52,0.1057270322587612,0.10610381336831257
53,0.10570190889503268,0.10716920892319157
54,0.1057561014970239,0.10632231907408916
55,0.10573893866474203,0.10659694271757551
56,0.10568207147703182,0.10637338487130032
57,0.10570672487052415,0.106744263041838
58,0.1057960041117468,0.10640247339631219
59,0.10567473701173834,0.10700327336741133
60,0.10569126155379294,0.10656854143364748
61,0.10576341677305223,0.10633456068967588
62,0.10578013402666692,0.10634534640183295
63,0.10570227831220931,0.10634051730243259
64,0.10581554899470126,0.10651549798654776
65,0.10567609278811253,0.10666384013412313
66,0.10566166405685895,0.10654743032231516
67,0.10576185668043667,0.10605913792290646
68,0.10576343513149723,0.10606881304575687
69,0.10570393142987974,0.10651514005289364
70,0.10569708818773763,0.10639512797651464
71,0.10571164475808993,0.1066770361355655
72,0.1057441269995259,0.1064233555037296
73,0.10576429536385978,0.10613402617829186
74,0.10580022415097097,0.10650018382091267
75,0.10569545978026615,0.10634238559873253
76,0.10571819976222314,0.10656943633246817
77,0.10581513264363142,0.1066252768874733
78,0.10575721294378682,0.10630690639260819
79,0.10574998882570141,0.10652923757458825
80,0.10572863955923217,0.10644834613884728
81,0.10574323443664635,0.1066438394180413
82,0.10567479768543125,0.106563727699967
83,0.10566869974851037,0.10616929657410333
84,0.10570561499904385,0.10617373586171427
85,0.10570837422419223,0.10643660125999631
86,0.10565823248976902,0.10671586730909234
87,0.10563891572798852,0.10641320412000899
88,0.10562119463221918,0.10651881203067143
89,0.10574324619319798,0.10664684545386939
90,0.10568722817513773,0.10667591554942617
91,0.10573127453656886,0.10642747221707169
92,0.10611107354041198,0.10649623487206454
93,0.10562290821215517,0.10659444563226053
94,0.10553868502366552,0.10661136357800266
95,0.10559690175808782,0.1061102797783729
96,0.10559336198486394,0.10639239485421892
97,0.10559481523817868,0.10684480553385585
