epoch,loss,val_loss
0,0.1459996793910468,0.10873868869766064
1,0.09739447460710098,0.09224662743949852
2,0.08824678410967286,0.08659931584522304
3,0.08417236781734928,0.08312445958957206
4,0.08093514228515107,0.07979933107778983
5,0.07765892788851195,0.07552285687652459
6,0.07291165803619426,0.07172696814587856
7,0.07074339498432992,0.07135323569731347
8,0.06742551957936786,0.06275113894300566
9,0.0619732646121205,0.059840396608225266
10,0.05903347852311546,0.06017697108549308
11,0.05893881830106155,0.0577849352639683
12,0.057449559254540525,0.05795515614437511
13,0.05687798760074982,0.05739126260368111
14,0.05505386154821736,0.05331624141690669
15,0.05386627301406994,0.05302849780083079
16,0.05310674434264215,0.05259637252648891
17,0.05246155572047146,0.05335588509183092
18,0.05214061287881659,0.05280382215576842
19,0.051998466321771186,0.051136785190502486
20,0.05156782850754156,0.05186202060122516
21,0.052161365571758635,0.05244000837936021
22,0.051867336931107615,0.05134079688255864
23,0.05139223617806042,0.05075127199503881
24,0.05104998279985288,0.0767606832939711
25,0.05077592697110679,0.04969195070681651
26,0.05030119929501383,0.05208810716691032
27,0.04937377777531279,0.0511106720404448
28,0.049755746288765536,0.04881231430638655
29,0.048638619414026696,0.0474279020260946
30,0.04860372061757066,0.048983360060741325
31,0.04827365370617687,0.05328581604780225
32,0.04906669201003276,0.04937805038389486
33,0.048290707165007586,0.04866042991051922
34,0.048434486873239445,0.05133481305489506
35,0.04818817819479844,0.05060694412267293
36,0.048311942314310706,0.04790151475589861
37,0.04830528194789025,0.05065058267601099
38,0.0485797237298138,0.047715697155261284
39,0.048427473417193674,0.046649985238850916
40,0.0476551388861607,0.048586724821445784
41,0.048335896937443106,0.04693489917792856
42,0.048211813687706453,0.04840258553024343
43,0.04808988526082344,0.048284570856318286
44,0.04850116925392982,0.04742234806517682
45,0.04875214192137825,0.04977076224859248
46,0.04853672330542434,0.05452904635900668
47,0.050113119479778,0.04907239890336144
48,0.04951703956992411,0.05367832210711729
49,0.04961594438953079,0.04999368503725049
50,0.04959945923549761,0.051679988983421694
51,0.05109319791233511,0.04929600544891305
52,0.05101191899259028,0.051633829117150594
53,0.05338216603076239,0.053846809033954245
54,0.054114457815409085,0.053935220810542826
55,0.05307487951670524,0.05236912373491602
56,0.05317859862038462,0.055737438037603414
57,0.05334674599144956,0.05561452967297777
58,0.053797017098021066,0.05488761861080153
59,0.0550621788796904,0.055018094113212734
60,0.054086961703811234,0.05289920996918675
61,0.05541590100331463,0.05582234657118898
62,0.05492672332816368,0.05701104610946673
63,0.05598705358428063,0.05391179833152488
64,0.05615242559620612,0.05800706990527749
65,0.056592270115511024,0.06055427093320506
66,0.058057660303956315,0.05509040686107096
67,0.05710554022571261,0.057308605215684955
68,0.05849290523025915,0.05662536676370354
69,0.058432315268533694,0.06363872102305188
