epoch,loss,val_loss
0,0.1388159993824532,0.08944338895292289
1,0.08014801024294776,0.07351980863496273
2,0.06321669600421576,0.05785210689951702
3,0.05626208074301553,0.05461129789911769
4,0.04875212247006232,0.045694327736074944
5,0.048362164846736846,0.049103936375998664
6,0.04837116772691599,0.04614328321631066
7,0.04652332257833793,0.04517144094726281
8,0.04356864138210801,0.04264292109760602
9,0.04142540247498942,0.041966432515875784
10,0.03927637099755182,0.03893985056804218
11,0.038949470831562194,0.039207214638061566
12,0.0381350008283945,0.038201083973838104
13,0.03843144144562127,0.0384227550502546
14,0.03828957183011097,0.03593211951823618
15,0.034028519872578974,0.030746479823761975
16,0.03094554679553143,0.03004884766745539
17,0.028843949820628937,0.028742057858615666
18,0.027242538747753647,0.027276271294093827
19,0.02518559434859873,0.024905216023796358
20,0.022858913145143447,0.023129837334614715
21,0.021060555865117115,0.023669685023206846
22,0.019737249403316483,0.01984629531309373
23,0.019511240968506018,0.018588227585205057
24,0.019425465068001923,0.02050340179597993
25,0.01949691817724257,0.020264903092264377
26,0.01934899448035218,0.024151988514208755
27,0.022927610456741018,0.024561393391502685
28,0.024166541560430178,0.029037542297154217
29,0.026063485321202437,0.02821031015222244
30,0.029478956398060568,0.03192983356017058
31,0.032912334735444984,0.032984965687416254
32,0.033726342372316344,0.03305095520338019
33,0.03353911253521673,0.03432395278337252
34,0.032590363804492165,0.036278806844374845
35,0.03213828317165899,0.03814489766661351
36,0.03072554197498887,0.03770173814415273
37,0.030605735994285815,0.03007105474478632
38,0.029635413318312615,0.032197455186823175
39,0.029797589988540783,0.030587979543133807
40,0.02920313676049431,0.027247088792974213
41,0.028898915478425154,0.029223852144773306
42,0.028280494329657294,0.03466192248476568
43,0.028639262659753636,0.03246642863811615
44,0.02888124105598715,0.031592716432772665
45,0.02823291628879847,0.02957010393096362
46,0.02918308360321964,0.02895071639458119
47,0.0282306443679509,0.029561924591554652
48,0.02758236431466828,0.02836894980633974
49,0.02778773007692574,0.02967908770880929
50,0.02847279678378031,0.026192292227059155
51,0.02730949585296982,0.02827930773866393
52,0.0267360348933392,0.03166124329335499
53,0.027511062379703105,0.02730309625098154
