epoch,loss,val_loss
0,0.1661280732896688,0.11063995793896955
1,0.08696590883316373,0.08531980504647144
2,0.08580717936360674,0.0868073296810382
3,0.08593469147058985,0.08450019010287528
4,0.08546274660421695,0.08783539977356873
5,0.0847824290811682,0.08531568845661965
6,0.08441564139368818,0.08289604534666277
7,0.08298525479819467,0.08311519820034363
8,0.08189639550366466,0.08079841978195246
9,0.08167522434565089,0.08435950390024267
10,0.08193398814359538,0.07999319326200162
11,0.0818168825263695,0.08319684707845584
12,0.08270215479542407,0.08519641084753818
13,0.08302196434480871,0.08446276356666786
14,0.08368834687603845,0.08428828051312288
15,0.08367132291281157,0.08647503155182927
16,0.08429550546274292,0.08573890165164891
17,0.08404286027097588,0.08481702394930508
18,0.08450286550154026,0.08562419997512025
19,0.08508809740475709,0.08505686029097934
20,0.08473714753735266,0.08585518789672437
