epoch,loss,val_loss
0,0.08663288155923501,0.03763411647177815
1,0.035272861088661074,0.03550265074928821
2,0.03505312017560434,0.03562176300193629
3,0.03543038885864756,0.03593058585414947
4,0.035665456978358524,0.03578365888761176
5,0.03563572225763167,0.03581355185186948
6,0.03580427472498253,0.03645257863503511
7,0.03622617139715514,0.03668675765148184
8,0.036381951681406,0.03695121873537668
9,0.036517634946141214,0.03653288341547056
10,0.03627299801628891,0.036836807940217015
11,0.03630369319934115,0.03620846845921138
12,0.035939881789515155,0.03598914495371606
13,0.035969118006247504,0.036521905590651445
14,0.0360301138876344,0.03669553357393326
15,0.0359428531924288,0.0360577600201755
16,0.035992422100189304,0.03654725464162341
17,0.035321415761570565,0.03628231158690276
18,0.035154041610092376,0.03597176811219015
19,0.03510443334260004,0.0355693261597038
20,0.03473152667968917,0.03512551163888486
21,0.03389144973527137,0.03436366507185192
22,0.03329730420846114,0.032953004696021984
23,0.030999992705351538,0.02855124091251732
24,0.028366234160953765,0.027973139787941064
25,0.02817235687981359,0.02781777727934396
26,0.02841623881452089,0.02773838241944044
27,0.028223020260592254,0.02770910172296163
28,0.028295984037583776,0.028249823145021485
29,0.02820065961651903,0.028346562821303378
30,0.028457042316702916,0.028585425359744582
31,0.02839369780356459,0.02955370665261053
32,0.028417030020321397,0.02818497379575786
33,0.02847142967073132,0.028350409192357272
34,0.02832872496037889,0.028533726954140245
35,0.02854396693771787,0.03086251109520939
36,0.029797233694748914,0.031401877292235626
37,0.03383301667642775,0.034981306542325605
38,0.03546451570408093,0.035617793756577566
39,0.035862912999378216,0.03693943984965311
40,0.03654368213124031,0.03721565639434034
41,0.03729288719838662,0.0382084806950288
42,0.03800252124929218,0.038820506041926856
43,0.03824382139850768,0.038001279525264754
44,0.03776559317045265,0.03817855833126225
45,0.03782827434815663,0.037382777639162666
46,0.037441258255442936,0.03765315282869358
47,0.037771817004914096,0.03760529495334663
48,0.03804716080736866,0.03852828241290779
49,0.03816242739975119,0.038511126830691696
50,0.03843562881783139,0.03838541155538412
51,0.03815451675324703,0.03852743695724547
52,0.03762851771172717,0.03788328954351635
53,0.03807460809116074,0.03846966560221415
54,0.03641946296945369,0.03591236969325236
55,0.03530853102467567,0.035586329904732594
56,0.034227336616181644,0.03347165671771873
57,0.03366407539418561,0.03371556234070421
