epoch,loss,val_loss
0,0.36462060313859435,0.1911367252410258
1,0.16349372681048657,0.1465811567482463
2,0.13323240495509475,0.1199207674967744
3,0.11393235078294404,0.1066500695088574
4,0.09739484219885558,0.0891461741552639
5,0.08467117858995542,0.08038996442881925
6,0.07697193270964588,0.0740822253729663
7,0.07248355022711243,0.06989124771898529
8,0.06920912399959507,0.06733325521896087
9,0.06647780150187006,0.06393212558085654
10,0.06188914966252115,0.059038568385115925
11,0.05721471749311633,0.05491792354747453
12,0.05342285047701413,0.05167749300363879
13,0.05011770102105362,0.048921828761685056
14,0.04757585894646976,0.04697559800678195
15,0.04567961809601334,0.04469062339429227
16,0.043766202475074574,0.04452679941949641
17,0.04301163297203138,0.042310843207441926
18,0.04205341355281053,0.040829888350185486
19,0.04136934086269469,0.040676750119219826
20,0.0408840257150354,0.039890874021384505
21,0.04015588114033643,0.039762270384730555
22,0.03988357930095028,0.039361937922714446
23,0.03959770392563989,0.03957663921326187
24,0.039646799979116513,0.03867072718484061
25,0.03938824675834293,0.0385902526493654
26,0.0390675132491177,0.038272620694037016
27,0.03913811880270306,0.03854597684498744
28,0.03909120299249626,0.038937553886879875
29,0.039143683566011306,0.039052592441968875
30,0.03928636479006111,0.038856797637719286
31,0.039166822553062135,0.03903170344555764
32,0.03913899887945774,0.03917015413294275
33,0.039305610501830526,0.03944176885328052
34,0.039228875532472354,0.039200522814125366
35,0.039285546621318154,0.03957145054837146
36,0.039248135189513124,0.0389295838826175
37,0.039328024838027435,0.03897780286708307
38,0.03917921203777468,0.0391441705947611
39,0.03945981682561856,0.03935747422813052
40,0.03949737939075362,0.03921254424653189
41,0.039504784096083004,0.039011407276025985
42,0.03936912071742981,0.039877174782324894
43,0.03956644129392197,0.03968551024300617
44,0.03960725775272917,0.04015022574761484
45,0.03979780701406711,0.0407213795880163
46,0.03983959576470865,0.03971672417403396
47,0.03971285248051683,0.03939952498747311
48,0.03947247532482961,0.03924117974154857
49,0.03968786753321008,0.039316705741935014
50,0.039448231926186385,0.03920385310310215
51,0.03938036009990912,0.03959249836211141
52,0.039353600660745475,0.03894212135152734
53,0.03910755592999127,0.03834384512200352
54,0.03872631228179764,0.039073889023949995
55,0.0383620468555666,0.03868204793042335
56,0.038269186142287095,0.037979729248662115
57,0.037923443175072104,0.03814450966307471
58,0.03776299659546902,0.037137573318822045
59,0.03714745413127849,0.036648559900796025
60,0.03646928720849214,0.03630286578056656
61,0.03621839766325853,0.035904472639406396
62,0.03580771179811703,0.034764054110060554
63,0.03519131404181702,0.03536630445398867
64,0.0347453451899292,0.03445599562743563
65,0.03426614723247971,0.034029595227507786
66,0.03372474176754101,0.0328407578476085
67,0.033125880018746154,0.032932827115388204
68,0.03253936694918586,0.03214523715614661
69,0.03179056006375786,0.03156318879835513
70,0.031043929483393115,0.030708231789007747
71,0.0305092168419505,0.03098272616021635
72,0.029770273365360273,0.029982762630285008
73,0.029414014436667867,0.02921507290425551
74,0.029065343349588383,0.028845605050120283
75,0.028267997273092836,0.028259113569168378
76,0.027721063740146483,0.027819580691789397
77,0.027451091681977065,0.027315799395341334
78,0.027049045192359164,0.026949419609867124
79,0.026612764286944906,0.026242589113473797
80,0.026135954855502748,0.02645538340380743
81,0.02565144124231655,0.026105359096694578
82,0.02536322235492327,0.025217776287467627
83,0.02483494527828541,0.02496509423336836
84,0.024675397305852838,0.025181559698792922
85,0.024490600020038805,0.02436993854604044
86,0.024214304688064268,0.024370903901949865
87,0.024127123663000922,0.02371956221612307
88,0.023832503820864034,0.02374726627095534
89,0.023830265045719896,0.023780566967300475
90,0.02360981447305039,0.024128308624099724
91,0.023668392268057874,0.02326924854561675
92,0.023349412594088834,0.023346031885873454
93,0.02331538975080974,0.023126803107718454
94,0.02311132348951795,0.02335885970396796
95,0.02307009526180754,0.02323939678007068
96,0.023081951794012796,0.02259590602887834
97,0.022860236483053575,0.023179459600946802
98,0.022776583328003364,0.023292055878356015
99,0.022596148420408142,0.02253771013041463
100,0.02253773377509974,0.02259826281599718
101,0.022597458874650426,0.02203876306850466
102,0.02165504068219595,0.021653340907433698
103,0.021363194832365383,0.020794014148002502
104,0.021470392766080315,0.02096668360482875
105,0.021919117571948338,0.02240791171642157
106,0.021039086967992553,0.021650372355317825
107,0.021866430072850888,0.02181633953637228
108,0.02152924584172708,0.021377505352331037
109,0.021324097629276208,0.021403958152129882
110,0.021222586434581678,0.02137198952491959
111,0.020799600450004892,0.021842855769014773
112,0.020735383217634677,0.020949177601284272
113,0.020883248995343367,0.020795829655880428
114,0.02077437987734231,0.02129498044074452
115,0.020815148071901834,0.021118811179531682
116,0.020720923066341716,0.0215120482190138
117,0.02083381500354202,0.02071527764642201
118,0.020636116791751792,0.02180976500027558
119,0.020628831335912933,0.02085206020938052
120,0.02063326780229426,0.0215036603015713
121,0.02067616891092081,0.021346763821631882
122,0.020735747890351867,0.02010873286457822
123,0.020598010279142934,0.020352659103825936
124,0.024259456709551392,0.023133036738589418
125,0.02124250896325667,0.021808533336093977
126,0.020691416774996273,0.020677321096522046
127,0.01950735677566698,0.020177660729727268
128,0.019571827957592755,0.018932366110061036
129,0.018815497200724653,0.018416263165294936
130,0.019086882652942654,0.019168462751296533
131,0.019485874185643844,0.019772504792264247
132,0.019603645790079467,0.019214569622593408
133,0.019493350910274484,0.01949854672319699
134,0.01963724739340355,0.020008709880022808
135,0.020072486293282534,0.020334743827746058
136,0.019908231739654576,0.019905579243305167
137,0.01944873581002418,0.019652917800322703
138,0.01946711246606162,0.019741654617310558
139,0.019292388860282186,0.019642079041737124
140,0.019278481358485065,0.018770981681457445
141,0.01905625990981297,0.01886095032360531
142,0.019156177295185775,0.019523338314025255
143,0.0190283714337267,0.01950596614895887
144,0.018887748405021682,0.019527957185914692
145,0.018983195153929346,0.018637473372288264
146,0.018786651714385556,0.018736490457162157
147,0.018841133551220957,0.019264712204955278
148,0.018931895355246572,0.01862352699094291
149,0.01887342983858286,0.01870968367907365
150,0.018764615771349528,0.019313196647962248
151,0.01893087724621276,0.017968061354361187
152,0.018393983512068633,0.018716719586640337
153,0.01852501541015794,0.018584259548286988
154,0.018441329536725767,0.01874450598303126
155,0.01852476609860369,0.018028106289050574
156,0.01857744294146506,0.01864537736290703
157,0.018476894828859423,0.018568426058954767
158,0.018241540404508632,0.0188061545875685
159,0.0184758764183183,0.01904682258192535
160,0.018273320250052343,0.017840392899353297
161,0.018401938620106063,0.017919400964158675
162,0.018325683467244978,0.01872417683497765
163,0.018555621790746563,0.01811545192548489
164,0.018199916003639703,0.018806699958895265
165,0.018366669831748346,0.017797676655269084
166,0.018272394220606027,0.018944990035402277
167,0.01834886841964331,0.01879946770912423
168,0.01832060682565736,0.01831084771056813
169,0.018456417039858636,0.019274039024923764
170,0.018370213768006467,0.01876046908717976
171,0.018456707468820655,0.018549903887658488
172,0.018307265207665763,0.018731015064733746
173,0.018628566050164993,0.018572993482438804
174,0.018539425348200436,0.018731622047422434
175,0.018366189022138296,0.018164566041050507
176,0.01837409023183594,0.01805400508055324
177,0.018510708085102714,0.018784530271188708
178,0.018376826333979385,0.01843985290970027
179,0.018528452041826182,0.018333657877703493
180,0.018536931009506055,0.018447177753663946
181,0.018383251622968392,0.01848367103114548
182,0.018545599278363346,0.018667168884399187
183,0.01839743243481258,0.017931120934724903
184,0.018343519132813627,0.019123122663528974
185,0.01839885352958116,0.018071945106879688
186,0.018488090959557002,0.01826152595343699
187,0.0185564468070555,0.018717426009881938
188,0.0183780649021792,0.018560290677677296
189,0.018350310547710608,0.017931176076077908
190,0.01822521175659127,0.018333203149716874
191,0.018579834691739436,0.018050274766846352
192,0.018507089930401146,0.01827567016916098
193,0.018661740428055646,0.018106785411016624
194,0.018418771467900438,0.01862414066562901
195,0.018384708948492957,0.01903062210298469
