epoch,loss,val_loss
0,0.17928379866406977,0.12759296477264367
1,0.10591021221842792,0.1062234830590525
2,0.1064068720602303,0.10762506452901399
3,0.10729813335134353,0.10728506446355143
4,0.10742212650325182,0.10749915764382625
5,0.10741602133908908,0.10672742209522952
6,0.10631439403044901,0.10678501251935019
7,0.10642379341865901,0.10712864759783154
8,0.10658672182775325,0.10721642903295575
9,0.10680394445201286,0.10709716237334634
10,0.10689201425734184,0.10718372077243762
11,0.10689558660526642,0.10729238460900375
12,0.10715386756270719,0.10741441270546737
13,0.10723154667279512,0.10841170043317747
14,0.10733777896868144,0.10750012051522873
15,0.10741476599666044,0.1082592751792593
16,0.10733966366778747,0.10850110781197483
17,0.10750823920007518,0.1077689863947215
18,0.10743230139370635,0.1082125356172424
19,0.10751415817119139,0.1077019845171528
20,0.10754732425502546,0.10769423662487126
21,0.10756692734601306,0.10831474070014592
22,0.10772742793190299,0.10808989452087889
23,0.10773423047279188,0.10776158677444932
24,0.10774074210156259,0.10803194967375652
25,0.10774341040997387,0.10797926455430375
26,0.10776264134714071,0.10794152938646882
27,0.1077423315408895,0.1078071354725931
28,0.10766722637114765,0.10835915303479618
29,0.10770686393637928,0.10786085327074296
30,0.10772657176430563,0.10834330690829135
31,0.10769537282433156,0.10788751277710945
