epoch,loss,val_loss
0,0.729686169945497,0.19349736393416497
1,0.10059633106291532,0.059072652902674695
2,0.04984458682356213,0.036816841231572944
3,0.03108697295564714,0.02480325562047069
4,0.024026791264621424,0.021054370923984468
5,0.021007388156113194,0.01889514471559097
6,0.018857966088432612,0.01700481656252951
7,0.017017676835779767,0.015342232867900134
8,0.015255532347506958,0.01364344912403643
9,0.013370070281364709,0.011836649240459114
10,0.011619889923036576,0.010126670815703207
11,0.010080626377577874,0.008939221017938847
12,0.009130059807427865,0.008209763227343342
13,0.0085651417418694,0.007881107256692643
14,0.00827378605725803,0.007631856751751339
15,0.00810482020633783,0.007529382600727743
16,0.008001338160731751,0.007427680255529461
17,0.007917899526193367,0.007353834836575333
18,0.007788540173196692,0.007270327329995157
19,0.007720368901257209,0.0071662130995237385
20,0.007645715125728312,0.0070834312182363945
21,0.007391175199255312,0.006956208014629618
22,0.0073288065162125686,0.006769294319153195
23,0.007241447224655301,0.006572247706791756
24,0.006881292055609276,0.0063411337746471915
25,0.006608620759478515,0.006008831449140041
26,0.006184334453982744,0.0055320925654847985
27,0.005652487291779229,0.0049699448367817945
28,0.005206955420270896,0.004386570595812116
29,0.00450691420587154,0.0038942936694571282
30,0.004046353061323325,0.0034511779391169788
31,0.0036933618419474844,0.0031744784617755754
32,0.003587377078128789,0.003003755889701546
33,0.003366030642115552,0.00292936007912208
34,0.003267358013486909,0.00282516302533345
35,0.0032272618416819073,0.0027538670026013646
36,0.0031429997241173725,0.0027480105450641236
37,0.0031391388627240438,0.002682839600812713
38,0.003027981631379512,0.002706489294793061
39,0.00300205266233638,0.0026409159380857985
40,0.00307282488865836,0.0025803025074330344
41,0.0029589072558834995,0.0025685264133007567
42,0.0029418211007338642,0.002551701611560518
43,0.002981191214317198,0.002515980227195506
44,0.00290470985431758,0.0024534330462745338
45,0.00301130588619028,0.00260481495385278
46,0.002916138624963317,0.0024520666818138265
47,0.002889523868824842,0.0025128313317209095
48,0.002880775060443531,0.0025173831421017815
49,0.0028379353742339643,0.002451985023688413
50,0.0028671482441838,0.0024178758567986167
51,0.0028727235340754134,0.00240843149981426
52,0.0028867462540516633,0.0024391496527580497
53,0.0027873196690011504,0.0024137657080208225
54,0.0027763512479722966,0.002419439421827691
55,0.002772259410005436,0.0023945150341738893
56,0.002797919945635522,0.0023829814868798634
57,0.002665996985671053,0.00228934504986051
58,0.0027333216084945823,0.002323987955508477
59,0.0026605878182067227,0.0022871731104448572
60,0.002670627170401939,0.002330100271829675
61,0.002705434113841584,0.002271308651928913
62,0.002651488675111032,0.0022481168470732922
63,0.0027427415624842514,0.0024795315429698207
64,0.002762984885223466,0.0022659465830243627
65,0.0026816521395442243,0.002270592890592218
66,0.0026265672001476175,0.0021957356525420394
67,0.0025708115312179105,0.0021729283943086476
68,0.002639865396645746,0.002430333001335172
69,0.0025760223654682658,0.002176362793780833
70,0.002505221775937244,0.002194772046572995
71,0.002527264830338701,0.002101673263095664
72,0.0025442958422813465,0.0022693407745988073
73,0.0024832505641432046,0.0021840710990170178
74,0.0025299288341969406,0.0021092546618462745
75,0.0025270114003347337,0.002081576541416643
76,0.0024945574718079357,0.0021840963210149186
77,0.002481179546473102,0.0020378585682958306
78,0.0025997491129521157,0.0021009354801910466
79,0.002473280251360207,0.0020428343748920036
80,0.00245808690541787,0.0021801695186268637
81,0.0024728957308065578,0.0022268508553779883
82,0.0025335812945481095,0.002066949710048983
83,0.0025191571976574925,0.002030693287473997
84,0.00244281643455784,0.00211918865950266
85,0.0024795974409051115,0.0021306463828444817
86,0.0025119357625860645,0.002063180985977603
87,0.0024582898605717803,0.0021182988305400155
88,0.0025387944233640314,0.002036961917942941
89,0.0024547593190325043,0.002059986876793635
90,0.0024628229953760237,0.0022005203928925333
91,0.0024793432208801134,0.0020574554074925745
92,0.002542846762702716,0.002090212082133809
93,0.0026430682099466804,0.002105208413089291
94,0.0024908567472861362,0.002004689623851749
95,0.002454743991263682,0.002230916860560975
96,0.0025301845108581674,0.0020022578357128972
97,0.0024531050571229298,0.00204672146926952
98,0.0024711896335069326,0.002132039323138694
99,0.002473965651181201,0.0020792034115877972
100,0.00250254707230856,0.0020617017306618557
101,0.0024465606988760364,0.0020530036781270236
102,0.002435584563491277,0.0019944590505624957
103,0.002493010245817598,0.002075922458839738
104,0.0024499706580028463,0.0021482175960079357
105,0.002538843496103851,0.0020595675325648074
106,0.002535860200622846,0.002046071586258776
107,0.0024875694125468693,0.002232160647524353
108,0.0025262255598160867,0.002232922407642116
109,0.002545187219953518,0.0020107258589834804
110,0.002488255969437363,0.002079160226129799
111,0.0025602321416733145,0.002241080093581988
112,0.002465415685016325,0.0020590715192633003
113,0.0025173303819566463,0.0020658963215246565
114,0.002505188335006903,0.002299003524174015
115,0.0025421806552959644,0.0020117845791501553
116,0.0025228654883363492,0.0020931599611100733
117,0.002490609614614746,0.0020685705407473523
118,0.0025270482461103158,0.0020307713920523964
119,0.0024730230739759243,0.0022414638360604244
120,0.0024947521517804864,0.0020968274146149243
121,0.0025065123058633327,0.002094115297720199
122,0.0025018491692583057,0.0021343918949469852
123,0.002483807127528322,0.0020490954331721318
124,0.0025009276110304593,0.0020978389269523533
125,0.0024794564866501873,0.0020326274000176223
126,0.0025388312948646965,0.002038513443002965
127,0.002480485761859525,0.002149139850272737
128,0.0025275277690231216,0.0021507905702509247
129,0.0025105072848843313,0.002172304056010784
130,0.0024597807488164858,0.002094776683659969
131,0.0024855885649281884,0.002084812600715486
132,0.0024581460708720955,0.002134668982012948
