epoch,loss,val_loss
0,0.1571843143609121,0.09282365325476677
1,0.06800696267176876,0.04044337325156817
2,0.038316962899540445,0.034937528768391145
3,0.027842769468520327,0.025626497972394975
4,0.02809119810142534,0.027783335385742673
5,0.029764882151147636,0.028616185916768535
6,0.031205758071250672,0.029922818218158658
7,0.03537844529272698,0.03793639462991032
8,0.038524071472309095,0.03958518367375364
9,0.03878312124509653,0.03890131452453823
10,0.03922106018610043,0.037018238245594096
11,0.039888238648978544,0.03931347138432884
12,0.04184224124667313,0.041134959144110556
13,0.04172143547815813,0.04480893251022299
