epoch,loss,val_loss
0,0.3524317761643423,0.1672222721666074
1,0.134368542495439,0.28171985482924927
2,0.11489619233673044,0.17230501746275148
3,0.0919965833937712,0.1110972095848353
4,0.08532503640337243,0.09572513439731516
5,0.08521195509427076,0.08463245055152378
6,0.07637881895275615,0.0717859943562732
7,0.07021908616300204,0.06965889915200604
8,0.0668631314600019,0.060122959109959684
9,0.053151115385009995,0.058791511716363744
10,0.06483232522670694,0.06609127344453344
11,0.06622472114199929,0.06639481402327907
12,0.06676958814013205,0.06737449725218053
13,0.06641748683641759,0.06741133220523196
14,0.06714416443586921,0.06765466023474673
15,0.0662107163642665,0.06757258688523812
16,0.06665384859668551,0.06823101231641626
17,0.06605285885844299,0.06645124223915347
18,0.06509533297005508,0.065925685193422
19,0.06412091392049972,0.06373324918530546
20,0.06343594554671757,0.062474314026364025
21,0.061938761923310284,0.06243304750678477
22,0.061052259552083335,0.06130939904356342
23,0.060224569491226135,0.05970095920699171
24,0.05917543937250388,0.05870739953341029
25,0.05856017959858779,0.05838141797350068
26,0.05823053212331639,0.059862703364268945
27,0.057841987948385264,0.0574226500238597
28,0.05764014281922107,0.05713642699660141
29,0.05784776175527168,0.05605809403775994
30,0.05699539864413458,0.05766309138854941
31,0.05709603722158858,0.05771542646890564
32,0.056888836926574426,0.05867823098081251
33,0.057197625405615946,0.05679457755237465
34,0.05649356022000694,0.05663475328093452
35,0.056685352211090015,0.057642734644092156
36,0.057239263642320244,0.05756586679825655
37,0.05655099617705928,0.056151319274586206
38,0.056787218332743285,0.05840171005315167
39,0.057051060544096116,0.05611004931492042
40,0.05689860703192836,0.05791506811611843
41,0.057042673801918395,0.05489362353766256
42,0.05678187703474058,0.05621744390950489
43,0.05699676325281175,0.058590759956163974
44,0.05702976248771262,0.05763854641517317
45,0.05695578076249118,0.0581160040444385
46,0.05717836344520823,0.05834996713223943
47,0.05700258062564307,0.057677905283274385
48,0.057158966838336774,0.05839669079635213
49,0.057411017350489195,0.058243631184595065
50,0.057537422242234175,0.058270697667900745
51,0.05809059008646259,0.0587993651193338
52,0.057859904349421995,0.0575847557783362
53,0.057638643980979155,0.058308922657015386
54,0.05736958008590076,0.058026972743546575
55,0.05810640643028428,0.058599708741494026
56,0.05742885493974891,0.057453585349040985
57,0.05767925928155486,0.060139292511492144
58,0.05796525138113901,0.05802566955055698
59,0.05811016932784987,0.05684236674654079
60,0.05706553185562626,0.058429272979168605
61,0.05828325935809923,0.05630436248565718
62,0.05764570603553626,0.05726239444495376
63,0.057502158033809696,0.05861368827998121
64,0.05814239900294158,0.057621293034530945
65,0.058285386126628404,0.05761444712117985
66,0.05819197389171373,0.058539074905152005
67,0.058004618670752676,0.05790262840447129
68,0.057904888510251405,0.05767541446362129
69,0.058226224728863685,0.05760828492061868
70,0.05836450493485808,0.05843856725503632
71,0.05767467486367618,0.05820523933952214
