epoch,loss,val_loss
0,0.18234268325767358,0.1248851680176975
1,0.1174478324042331,0.10016105450460454
2,0.08408639484720169,0.07297173382357151
3,0.07453854304911803,0.06860353740045379
4,0.05966218479043193,0.05221424532294179
5,0.03885482272340192,0.024121236826433568
6,0.019889475140485356,0.01840660917765998
7,0.017743223940850875,0.016853416135686066
8,0.017863773955233236,0.022367493416334854
9,0.017888479601803252,0.01725730076491033
10,0.01790355210550588,0.01750282379015751
11,0.0178977754041493,0.01778966816099568
12,0.017913798479248674,0.017033041273291503
13,0.017350296643253663,0.017788698733582117
14,0.017403402458801925,0.017743385274142567
15,0.01782932144840606,0.0179672989268047
16,0.017774421678890262,0.016665452295927523
17,0.017670482445097297,0.017466519870328545
18,0.01784764168907603,0.01823164044196505
19,0.019820302810451444,0.02064851662195519
20,0.020279709442550663,0.01774402792200199
21,0.01848791981358632,0.018734084173225474
22,0.018404843123386996,0.018089495042093458
23,0.018507412102499263,0.019453022799556803
24,0.021719783487216794,0.01948681759082763
25,0.018222167631603784,0.019065251179927432
26,0.027832797000394593,0.02035610219309343
27,0.02667959278552152,0.02230833618348169
28,0.022650464973914965,0.019135203404350598
29,0.02038603823789828,0.01879690300773215
30,0.019360285690821093,0.019130524872686794
31,0.03857574425712168,0.03827212122434363
32,0.033866834681597256,0.031469831572464815
33,0.030096984378320518,0.02788051577680395
34,0.02582933194041967,0.02727556529277737
35,0.024761933126121308,0.025366929397222182
36,0.024334550282056572,0.021625177461386386
37,0.023202297022397952,0.02133222584389944
38,0.021361195225474073,0.020919690520194635
39,0.023946121744483972,0.01977259636766203
40,0.020142289928252177,0.01994094041329768
41,0.020889925177124954,0.020718684844854975
42,0.01911264501860459,0.02007484411337099
43,0.02832590915980361,0.030681420896781553
44,0.02547125109909869,0.02232519321396488
45,0.02193308678596354,0.022136365693435956
46,0.021203126110654655,0.020378062098736167
