epoch,loss,val_loss
0,0.14302317825533883,0.12590987355857736
1,0.09099176420058183,0.08076283949020818
2,0.07431139487573664,0.06547747306590393
3,0.06268182885256127,0.06113979270962532
4,0.058785964306786384,0.05619543143669357
5,0.056461022128994995,0.0546629980247653
6,0.05405613939634425,0.05582513719879461
7,0.05553705430478691,0.05737452604752784
8,0.05569589646349994,0.0561030100598849
9,0.053683411568212665,0.051821774658294954
10,0.05085951054720379,0.05347774036951957
11,0.049363500717804015,0.04911913622785198
12,0.04787244314817692,0.04782467523932269
13,0.046238046210947084,0.04600658924293123
14,0.04487814259031217,0.045720871517342096
15,0.04362443503406313,0.043725166052297613
16,0.042736215062802736,0.044169873963591615
17,0.04294406059834597,0.04315921727159217
18,0.04337825054685465,0.044733546847726006
19,0.043886321697303714,0.04553170830611178
20,0.04401364736110091,0.046478747721723244
21,0.043538888313358635,0.045398529280850336
22,0.04296059204603461,0.043786930339300645
23,0.04425470520266526,0.047387718533966235
24,0.0446429228206142,0.04562033033961373
25,0.04613331079685526,0.04995634318891716
26,0.046745260041370855,0.05043150287271487
27,0.047299397116203866,0.04415152617675071
28,0.04580417716448351,0.04842896129709581
29,0.045149639710414705,0.04791321667483122
30,0.04624970843025344,0.04445067522040294
31,0.045285739174349415,0.0436660549188093
32,0.044931975584164514,0.04508282016336494
33,0.045683126247448504,0.04480569688831151
34,0.04477058952863363,0.045252711868653074
35,0.04496281511253781,0.04488864200867436
36,0.04462592451752042,0.044004406089046946
37,0.04385447970552029,0.0454856034841656
38,0.04274493804593071,0.04727884530491874
39,0.04341308441724804,0.04210971433731074
40,0.042795855551958084,0.04323457679237168
41,0.042634717417325524,0.04481887083203659
42,0.042102294589141956,0.04042617319226735
43,0.04211689230444715,0.04896019365353291
44,0.04240238667129994,0.040232609798683365
45,0.0419696555491522,0.0431838552419746
46,0.04175231386002877,0.04373018626467676
47,0.0424862004143538,0.03951175180987852
48,0.04076470605594268,0.04542426942849874
49,0.04148930690283303,0.042922364561079805
50,0.04136021785753713,0.041712253303770576
51,0.041323293779167436,0.042159765159039395
52,0.041157814583999454,0.04035047010975083
53,0.041781720056903546,0.04416258572861729
54,0.04042217946297926,0.040056320535049914
55,0.04128584992602098,0.04187932207698227
56,0.041168319447030075,0.04061279463822106
57,0.041155338209929414,0.043890892541963655
58,0.04140425336023839,0.04340027175379157
59,0.042116634768071315,0.04100490355277588
60,0.04215441549198328,0.04213241049644979
61,0.04256637625211625,0.044157398063410146
62,0.04301009945970454,0.04008296524904427
63,0.042539932691364836,0.04446656814972622
64,0.04198941701262308,0.05264572707176114
65,0.04231754231819813,0.041627071471480565
66,0.041778822873922275,0.042272268043979475
67,0.042369655892550706,0.042034149531572
68,0.04226879571243632,0.042196546876016525
69,0.041890783013580894,0.04210281100391683
70,0.041871427203253875,0.043261696338277214
71,0.04204428640844153,0.04143480443775701
72,0.0419358068304382,0.039385714022047234
73,0.04232526704561796,0.045242337411491536
74,0.042117174143056504,0.042722076268744635
75,0.04122425984743116,0.040269395826059526
76,0.04143804207825356,0.04061947587433535
77,0.041532512917983634,0.039695599787495886
78,0.0420983445962413,0.04564548156796804
79,0.04266148587044099,0.046297943788479894
80,0.04230193193141314,0.04033188187556184
81,0.04179282821446872,0.040108089771154085
82,0.04163911790370369,0.045024870159053015
83,0.04245885312676335,0.04122309773666424
84,0.04180133852848618,0.042473470123268624
85,0.042241921709429066,0.040722811187381525
86,0.043076104525443935,0.041834999578574936
87,0.04223989390676542,0.04405247091941224
88,0.04287649084070175,0.04435043141610432
89,0.0425822931251747,0.041952752949994856
90,0.04253239642909105,0.04307250350407944
91,0.042687989425935526,0.04166165615807581
92,0.04184365779352036,0.04063363041619946
93,0.042885487037096666,0.04099960795999891
94,0.043204006179869414,0.042565625157992296
95,0.042902793616151735,0.04277766791437683
96,0.04293322885374752,0.042390983351803996
97,0.0432041335395343,0.04298355281588216
98,0.04225818350684824,0.0452206312710362
99,0.04285221048694053,0.04328888962552504
100,0.04337216754087346,0.04117782085240122
101,0.04289653020308649,0.04535486620586974
102,0.04341530880863242,0.04112017507228968
