epoch,loss,val_loss
0,0.16729919646355174,0.12786726037300564
1,0.10070116384971818,0.08509539976868934
2,0.07705408899332408,0.08101722589843181
3,0.09205884855690238,0.09653084272931858
4,0.10102198241973857,0.1056433985952138
5,0.10523746302016347,0.10509254174173208
6,0.10467445843821045,0.10436092051894248
7,0.10416852425542666,0.10447239661743628
8,0.10403250409759206,0.1041085137952569
9,0.10317054406392108,0.10401074755304708
10,0.10420065703723642,0.10461566726594058
11,0.1042370892090382,0.10399177816314968
12,0.10393675750227188,0.10400711492750714
13,0.10398403952995555,0.1044390506119171
14,0.10425734323420399,0.10422335753853902
15,0.10404842891257635,0.10498102542656844
16,0.10443299831293947,0.10553112246196103
17,0.10423623335709294,0.10502107499642173
18,0.10426397908696358,0.10459390007423996
19,0.1041136663332641,0.10302864239149048
20,0.10378889083195267,0.10543888783186744
21,0.10167675124679347,0.09787776765737745
22,0.09742812756940329,0.09612424105358763
23,0.09685228991327431,0.0952259489374078
24,0.09638527960633393,0.09817145179718992
25,0.09644003947980874,0.09879778028592973
26,0.09718779327391054,0.09738384346582801
27,0.09783808483208398,0.09888155670173543
28,0.09796118849425388,0.09712651603059122
29,0.09902044917515618,0.10061136118614872
30,0.09946443331684712,0.10202278193871431
31,0.0993491731208863,0.09981018478299279
32,0.09976181526669115,0.10209141690475129
