epoch,loss,val_loss
0,0.1321658265116594,0.08108961764479022
1,0.05523619804975036,0.04485052724640108
2,0.03570367007417311,0.021118632106855807
3,0.021253672814060695,0.018044987340599606
4,0.01944413754886551,0.016124663599594052
5,0.016727984857579453,0.02322447826114102
6,0.017245717188097733,0.01878420643408466
7,0.016614687437717195,0.018449185818915963
8,0.016677516609352887,0.016440329668953743
9,0.016498625571046657,0.017745049798239283
10,0.017327645062495,0.018150585599908137
11,0.01699853334784341,0.01628141468148252
12,0.016030500636255142,0.017591862328462275
13,0.017609539584701153,0.016599950934124443
14,0.01902455701042327,0.01686716414605809
15,0.019718345839062706,0.020258033114478827
16,0.020320991981033085,0.023199683077333475
17,0.020396168932592648,0.01985223641017806
18,0.021448762015365868,0.020822455392064027
19,0.021572763798572273,0.02228959661562234
20,0.021279268884669533,0.02684020043748424
21,0.020476850797143058,0.020619882788176884
22,0.020124601954363473,0.020199174353236888
23,0.018297400321814414,0.019843547273465472
24,0.01792240296255985,0.0159829257595652
25,0.01687012876657178,0.01939638254057025
26,0.017074497640698696,0.016768124705767103
27,0.01667712163850129,0.015113963860939033
28,0.016041146281609336,0.01543329158928701
29,0.015683239740546612,0.014749760323460636
30,0.0161443509445857,0.01862784045812363
31,0.015515567739304306,0.01402509827446119
32,0.014827177033489413,0.01686217996711536
33,0.015611242438159544,0.01640678020289731
34,0.015043621460686055,0.014577819338772554
35,0.014454491254832629,0.015177498059972074
36,0.01403517274485289,0.014347337130471864
37,0.014065640673285527,0.014530715453949329
38,0.014466586389499221,0.014392376756817456
39,0.014529156264849751,0.014389950022007315
40,0.013292422553123854,0.01287671450919515
41,0.014226723584807295,0.014765673646322601
42,0.01361847555951225,0.011153912043085744
43,0.013476152337795729,0.015434626905922356
44,0.013501071298925235,0.012907937936478934
45,0.013404590097054256,0.012794361332168283
46,0.014339522496580506,0.014689069500761938
47,0.014411101238333064,0.013309393649966394
48,0.013516998507356425,0.013737073585673307
49,0.013780580769530494,0.013026116449671086
50,0.013935692231658456,0.014091753825727606
51,0.014010075682239663,0.01404477972993017
52,0.014386056436614381,0.016319911937275645
53,0.015491960436212931,0.012859865392381127
54,0.014203959330767513,0.014472898100991605
55,0.01532431436087683,0.015352312703311867
56,0.01545493573331528,0.013647233830631109
57,0.015171696803421616,0.014435032255441868
58,0.016077377429182867,0.014400045126500144
59,0.014855021079309838,0.015941440453422096
60,0.014527483855178365,0.014879487762146797
61,0.014519444945231854,0.014159245835506925
62,0.013887448336848681,0.014468024029075252
63,0.01320790165408457,0.01130970657656841
64,0.013094878087727,0.015911179073537157
65,0.013434217762586168,0.01709359878969644
66,0.012408810162948047,0.01194470042793555
67,0.014155452462027875,0.01631336592890516
68,0.013507673978436288,0.012092815493046062
69,0.012068972319474729,0.011570531114106726
70,0.011699038076041033,0.011550382211151655
71,0.011616852278147433,0.012233609963581847
72,0.011347640893882889,0.010938277532770676
73,0.011294580623805285,0.013981670357328094
74,0.011120716821578005,0.011914008835826037
75,0.010655147778756207,0.009362149763126118
76,0.011002071325754304,0.012342054602684895
77,0.010358786601632785,0.009856903398499163
78,0.011087881911882489,0.009698952955429772
79,0.010681645052476253,0.01230594186199022
80,0.010430299711200021,0.01816631748760744
81,0.010789799796928057,0.010481714813484155
82,0.010520373129745205,0.011570348105177977
83,0.010992492060753986,0.0113585126713424
84,0.01084408866424712,0.016200044500364406
85,0.010571077578424883,0.010486705385254374
86,0.011146216727361428,0.011022253797757833
87,0.010712062536502817,0.010767093207613633
88,0.010981741763701994,0.009801447562411745
89,0.010694562731464085,0.011379526678881452
90,0.010976548630857378,0.01076559876639399
91,0.010526864037891444,0.01096959101240538
92,0.01103743429457267,0.012119836674528322
93,0.010818057647012144,0.010733935557858579
94,0.010681936674439412,0.01069950418224839
95,0.010983352008894337,0.011041112256625222
96,0.011102651913674901,0.010383206909932578
97,0.010822493128469593,0.009496628235505148
98,0.010569626177705044,0.010054523806692629
99,0.012498214477219051,0.011118788867542004
100,0.012575309042804699,0.011903134548056051
101,0.011123797753163212,0.012188429535523163
102,0.011380828868264227,0.011435680233982951
103,0.010815008066975766,0.010439453528195784
104,0.010700669331694964,0.009885064831948835
105,0.010576810186757124,0.010793528539417481
