epoch,loss,val_loss
0,0.295336546943628,0.2315639816430392
1,0.21361911978176554,0.21164011000269684
2,0.21393908532879813,0.21820197078592682
3,0.2185060415479491,0.21494092060151584
4,0.2138071001338349,0.20961077624215982
5,0.21115971234538478,0.2116593296780018
6,0.21262357553703892,0.2128841882981742
7,0.21309499030442927,0.2137146812070517
8,0.21378895119845057,0.21524565182949673
9,0.21429491330155556,0.21628280530882898
10,0.21492351224715953,0.2156705622632577
11,0.21539021999858837,0.21671100792305245
12,0.2163796908111214,0.2161761491596934
13,0.21580782787595912,0.21593481331663802
14,0.21578057783303692,0.21521375628795414
15,0.215378639271124,0.21568947911685907
16,0.21542054962673537,0.2154621097781852
17,0.21514584602926562,0.214567775261054
18,0.21485849270384183,0.21794408344573268
19,0.21469007592073544,0.21571312780067878
20,0.2149183371965643,0.21507025482434405
21,0.21500189100905098,0.2145817641230578
22,0.2148735943100721,0.2143831720668308
23,0.21472807963498586,0.21484073226199718
24,0.21472042075974002,0.21458407851919567
25,0.21490425913692188,0.21477657791753407
26,0.21505925782340513,0.21556447108806168
27,0.2148709492884475,0.2139695868448846
28,0.21498456542535746,0.21514438444361877
29,0.21492136389517383,0.21458270955292746
30,0.2145521999548951,0.21408506048271386
31,0.21467342558238717,0.21426714710955932
32,0.2148598108789046,0.21700981606294908
33,0.21529225915741862,0.21564950594632948
34,0.2149995562079237,0.21450768030103776
