epoch,loss,val_loss
0,0.1785017385912075,0.13002615922440106
1,0.1012910007120227,0.09363921251862466
2,0.08910597485008476,0.08414962881295439
3,0.07705059035314168,0.07247761650497554
4,0.07032102050124217,0.06739990399075758
5,0.06448683976757821,0.06182111106995249
6,0.057486297400425566,0.05608249802051234
7,0.050619382750716424,0.049708037777570824
8,0.04749928679552486,0.04683341255268904
9,0.04449412199578506,0.04399048274746069
10,0.042466118142640084,0.04320815227919897
11,0.041293116103259205,0.04122111957811331
12,0.04041061516133525,0.04023712927853393
13,0.04003318617020627,0.03921356529656036
14,0.039661925661263704,0.039165482083783905
15,0.039705335574267774,0.03968172426017232
16,0.039186593934262305,0.03911793999662057
17,0.03909639715195464,0.039291530086026004
18,0.038770747231803446,0.039842432072267064
19,0.03860044819589475,0.039723762053034864
20,0.037966301591752724,0.03794625594376953
21,0.03788873121636711,0.03685181312727571
22,0.037737105948497635,0.03825631415752228
23,0.03771284068201324,0.03756326867742339
24,0.03745274217747194,0.03671216941493745
25,0.03754245250565495,0.039131642628722804
26,0.03715931564170442,0.037005543261884044
27,0.03675897763245445,0.03685000886656961
28,0.036478275086263195,0.03592824051487418
29,0.036081298774809575,0.03505693700667338
30,0.03523388772244029,0.03531079236844344
31,0.035260490106819246,0.035333268697231704
32,0.035072913634584105,0.035933556141009834
33,0.03473973090795399,0.035384855905713865
34,0.03475856339241818,0.034942091737404146
35,0.034629968711905344,0.035209621396136266
36,0.03495304245087835,0.03401276332215239
37,0.03479882014943637,0.03457888244888683
38,0.03486222576358907,0.035501796125942266
39,0.03470653851034878,0.03418858892680532
40,0.03464284958206206,0.03558435865869744
41,0.034647399342233993,0.03707702311774644
42,0.03479811421139158,0.034605376554716266
43,0.03491168581008863,0.03569572127255852
44,0.03498894849763833,0.035456665333628
45,0.03493936034105569,0.035213976507475736
46,0.035331589270302714,0.034292544596244146
47,0.03518365449208817,0.03593813252194999
48,0.03540668715771249,0.03545758017907015
49,0.03499194561428637,0.03417509426704616
50,0.03521060379598733,0.03501222394965442
51,0.03455275180582091,0.03363105447429226
52,0.03490673562736629,0.0347594635086259
53,0.034725409739618775,0.035619511168329565
54,0.035249912149483545,0.03496764939728222
55,0.034933283957812804,0.03471615435386513
56,0.03481957234061069,0.03446883043449228
57,0.034659632424311006,0.035794685682209816
58,0.034894566415704126,0.0354750053288199
59,0.03495368974314605,0.03691247958269473
60,0.034813275597959784,0.033796515874417635
61,0.03499711961518946,0.035882428747137984
62,0.03464400464837118,0.035488426263408104
63,0.034542191197439065,0.034146710630468056
64,0.034379053217687194,0.03541272733692777
65,0.034553015428922064,0.03428784148927834
66,0.0346339331295112,0.036881980778033466
67,0.03490755763306892,0.03451246024060174
68,0.0346090204992907,0.03428896887326391
69,0.03452184328215299,0.036090975802247696
70,0.03460067056631632,0.0345189786900567
71,0.03475350633763867,0.034119264091105564
72,0.03452642296822809,0.03428072765787098
73,0.03488907527973612,0.034175073532439065
74,0.03458539422282832,0.03474492390934839
75,0.03462777276494377,0.033760552171797104
76,0.03469047232789339,0.03465483327937954
77,0.03469841174191708,0.035644828599907794
78,0.034741261563033796,0.034861911932078514
79,0.03446717406783125,0.033690980764219114
80,0.03468943463800718,0.03322071836116094
81,0.03470970885895139,0.03326425791939319
82,0.03444468159582927,0.03424261636655681
83,0.03468419606540558,0.034254563409297036
84,0.034505188009507366,0.03511041239045131
85,0.034775172850842195,0.03439738028980468
86,0.034864133611011754,0.034306472021830584
87,0.0345330555081296,0.03381715801668713
88,0.03427021013651725,0.03414909274338641
89,0.03419085452668101,0.03313273251433022
90,0.034417191886608835,0.034191993301133046
91,0.0344279609444878,0.034834914116722536
92,0.03430520610468422,0.03365039334124529
93,0.034235990312185695,0.03347427210672784
94,0.03420374595480476,0.03360989919166068
95,0.034157147421110735,0.03425528887356466
96,0.034691575107624016,0.033707386289959174
97,0.0339659380463721,0.03436596485203237
98,0.03398907418064267,0.03400534461675052
99,0.034016599393279244,0.03349795981935845
100,0.03369546570866514,0.033518119730590455
101,0.03405679329086265,0.0344084145849675
102,0.03366570776517538,0.03461179199857136
103,0.03377939978812477,0.03427154394991302
104,0.03368570252234558,0.033070614227720764
105,0.03363854336372907,0.033535298107055196
106,0.03306253736676405,0.03350034392282261
107,0.03348274933223387,0.0327585918024688
108,0.03333543881559543,0.03392551722917956
109,0.03340903313593756,0.03303685085737715
110,0.03364086833646258,0.03352504783848796
111,0.033643639770795784,0.03412683037033962
112,0.03384593963402686,0.0333220001512987
113,0.03369617188344899,0.0323858820284175
114,0.03327237170407002,0.03348293443869773
115,0.03340552880508389,0.03260076503492098
116,0.033151420711768236,0.034760375490269516
117,0.033666895997288414,0.03353858301188171
118,0.03338503476967819,0.03310870812601618
119,0.03300843433552175,0.03295092963875987
120,0.0329536299580793,0.034287607201743335
121,0.033190346740597156,0.03272234122456296
122,0.03284564949155187,0.032990953693167846
123,0.03303639997067831,0.03377638599484712
124,0.033204304742262804,0.03476009779883918
125,0.03305220826983833,0.03303182404414819
126,0.03251120510200659,0.033458551540441556
127,0.0330436304598737,0.034315144152166625
128,0.03262318487016322,0.03287863491607305
129,0.03238461025619059,0.03220470085293172
130,0.03258209572070175,0.03250603891185822
131,0.0326373011341317,0.032213420255055275
132,0.032360140424814346,0.03162273651704886
133,0.032537561236061066,0.03288343373536123
134,0.03410655175664013,0.031881392290249715
135,0.0325271192011978,0.03327218993275111
136,0.03241620692822764,0.03189511597450549
137,0.032551935694510224,0.03207477516308721
138,0.03257833438799631,0.03503930230566904
139,0.0323969268401583,0.033143721753180075
140,0.03230401316283942,0.03278497875548293
141,0.03240436128080844,0.03187362933803376
142,0.03229519792294188,0.03320871554638517
143,0.03227889659903128,0.0332322436184185
144,0.032436602423600344,0.03301219993815614
145,0.032476900968787005,0.03213391226334843
146,0.032285543928424615,0.031726453259246216
147,0.032401828719176455,0.03372208772178654
148,0.03222500660019718,0.03218015423889883
149,0.0323727663195462,0.03190638657127108
150,0.03227160459490036,0.032100502422172064
151,0.03232938496859001,0.032449431311641984
152,0.03232898320600712,0.03316380545767443
153,0.03230273210518747,0.03192135735746435
154,0.03248642930994741,0.03214331152066059
155,0.03203738487804298,0.0317782168324387
156,0.03224458048889915,0.03157705319391148
157,0.03225383519691577,0.03326470532175962
158,0.03233569723775061,0.03225302461008435
159,0.032141278348237774,0.03276848135444012
160,0.03198453052629003,0.032940600205568604
161,0.03219418760261042,0.03283370226980337
162,0.03201359272044864,0.03239394441517489
163,0.03203769586384773,0.03218466113450119
164,0.031940367130888735,0.03173330074856859
165,0.03197846401164191,0.031893137604256924
166,0.03256217886855324,0.03240806946785269
167,0.03232683299435414,0.033445782386113454
168,0.03239585014490439,0.030650361449161476
169,0.03181937117305257,0.031161570449630954
170,0.03216287253095473,0.03132230118681525
171,0.031832684973458786,0.0316408426333998
172,0.031670658385379614,0.032206385919049486
173,0.03204917944491291,0.03181458000555317
174,0.032006268695497116,0.032168722149181664
175,0.03212188626769826,0.0316442488130379
176,0.03269966063257173,0.034672131601665185
177,0.032272029481977105,0.03190802481839905
178,0.03187217446212336,0.03318510687929867
179,0.032414829359947446,0.031546575592826365
180,0.03193902311106618,0.032453824016952855
181,0.03235627160363679,0.03160037870953284
182,0.03233503009811294,0.032056171070687305
183,0.03245044341660756,0.03312757499545413
184,0.032130265843680055,0.03173921318120531
185,0.032273140473128986,0.030921284479824878
186,0.03213378938762166,0.032409618063973175
187,0.03219449121228082,0.030973303920479863
188,0.03232335619819012,0.031500212821724285
189,0.032140516297077294,0.031967036703920496
190,0.03195601528723368,0.03310401714462037
191,0.031940810589326754,0.03227529901902367
192,0.03210174229791125,0.03276950736025138
193,0.031859583552661754,0.03161707350391756
194,0.03169611163830443,0.032234492202325424
195,0.03168287960370239,0.03262941576040628
196,0.03200969673085699,0.03213867199943116
197,0.03210168195475968,0.03224859392268976
198,0.031891737268756715,0.03289249045708185
