epoch,loss,val_loss
0,0.14298643461234278,0.11283542734483329
1,0.10281100212265071,0.0948392465687118
2,0.09438910842727986,0.085228062019446
3,0.07935402365468389,0.0727314452134255
4,0.06639794416004996,0.0613866057937881
5,0.05888063703581012,0.056998648493305944
6,0.056184905809726265,0.05475007869367912
7,0.05484947698901026,0.05533673199689002
8,0.053747462893394736,0.052501291345331554
9,0.05288087306834525,0.05199428846811157
10,0.05219785857805722,0.05226080907007419
11,0.051279140953465904,0.05287416825025403
12,0.04928537769962272,0.04798474421558553
13,0.047207080462067535,0.04751746300622621
14,0.04603118971466637,0.04602785444367845
15,0.04513013816113285,0.04350166099517949
16,0.04387327774966077,0.041799667349413046
17,0.041055788292730454,0.03899058333547358
18,0.038749236893429934,0.038501922823282894
19,0.03707015068440748,0.03668869298830593
20,0.03667343877327385,0.036252214075687274
21,0.03539149578121736,0.03599791159969479
22,0.034681207669391145,0.032231426311931745
23,0.033807594056645456,0.036005144508080685
24,0.034164160449835036,0.033616555065222396
25,0.03282574827311565,0.03145652883866215
26,0.032980036566690574,0.03151084505162704
27,0.03234616431335417,0.03295729495143928
28,0.03211267552763629,0.03479810614776875
29,0.03198047697865706,0.032008356946184584
30,0.031532728967132516,0.031404543447513325
31,0.03167668533035748,0.029929695999354196
32,0.03169506435974134,0.03202650523593836
33,0.03234703791924089,0.03322080875899063
34,0.03219317167634062,0.03169259189936055
35,0.03238698472823504,0.03183598705547573
36,0.03287393777675147,0.03349785976282423
37,0.03307464308322048,0.034147313113111914
38,0.03385046642455313,0.032251882939448764
39,0.03241060857923864,0.033664615870392406
40,0.032932218727019194,0.034150182806843364
41,0.03332518895776819,0.03199927098960884
42,0.033779197766316785,0.03657602154500577
43,0.03430487987675446,0.03519239124048857
44,0.034922316823777055,0.034666718973909764
45,0.03478583479545814,0.03593880268903162
46,0.0359267753025563,0.0355089179430548
47,0.03543865916838082,0.03476114218853173
48,0.03511331165782649,0.03493680774389333
49,0.03556993655967627,0.03718527649906365
50,0.035457862682527395,0.03618877211140194
51,0.03604876155928551,0.03677330038494827
52,0.03566426212052933,0.0336241759977288
53,0.035438609012453964,0.03779391086738977
54,0.036083786111834236,0.036051328009510476
55,0.035674740160576444,0.033451652737965056
56,0.03537381751437505,0.03592602358197451
57,0.03544078603517904,0.03417001329156575
58,0.03496487472179553,0.036089160442117074
59,0.03586604255590317,0.03488731558633867
60,0.03532485071894267,0.03703105421156138
61,0.03545067238239504,0.03842340445626695
