epoch,loss,val_loss
0,0.4875447123790149,0.2896664621045294
1,0.2812011505393006,0.27853278127729
2,0.2768235190166272,0.2761652868567439
3,0.2756431668067722,0.27600680478652256
4,0.27571886198983775,0.27621072504872307
5,0.2757566062142428,0.27588456967917596
6,0.2748320783547265,0.273920000069896
7,0.2718246010758227,0.2716897015225351
8,0.2715057772841099,0.2722459078870049
9,0.27109141720475244,0.2711756833914988
10,0.2705428890234751,0.2704938705878269
11,0.26977347167466376,0.2696750729499883
12,0.26937869350782495,0.26976974918885593
13,0.2692835076297406,0.26942601289538387
14,0.26870219803733125,0.2688922807985906
15,0.26813970409708915,0.26799703625213844
16,0.26731954361323257,0.266869367791991
17,0.26402929308507844,0.26247048911939197
18,0.2620145598237368,0.26211408742695413
19,0.26168072359453287,0.26171743060626096
20,0.26126297127952774,0.261499171969264
21,0.26089577306565237,0.26091974578509675
22,0.2604400155117376,0.260604343620359
23,0.26006029412853154,0.26021122513743206
24,0.2596285383549811,0.2597460717597907
25,0.2595352398620235,0.259703575318125
26,0.259182549780793,0.25936613143101955
27,0.2590807527899266,0.2595009700981011
28,0.2591421956257473,0.2591508946130853
29,0.2588199176114621,0.2589812873147469
30,0.25945346301598704,0.25954140204092413
31,0.2589847782342363,0.25933500642181856
32,0.259224648908269,0.2592616034193874
33,0.25884817631172236,0.2588731265011601
34,0.2587785514281522,0.25893856016970473
35,0.25876084039156005,0.2590431559951454
36,0.2587190801195866,0.2590718661694425
37,0.25835235958857883,0.2583760997867057
38,0.2581817028429106,0.2586558185041468
39,0.25784027503786994,0.2576340091868282
40,0.2583573229378648,0.2585302218265579
41,0.2581679543002332,0.25828411184904043
42,0.2580435748914068,0.2579180421609058
43,0.2579541283069278,0.25786734798712907
44,0.25750706787351413,0.2578510027422901
45,0.2582763736720661,0.25859679242900346
46,0.25786781249095875,0.2580266111510517
47,0.25745858861912163,0.2573412485544194
48,0.2571311410453966,0.2576139057915137
49,0.25714296970864853,0.25698853204733946
50,0.25676751925314456,0.2567954260294326
51,0.2562921338325305,0.2562299515190516
52,0.25614703522264054,0.2562898671358894
53,0.255850281634872,0.2560113973992023
54,0.25517624010332673,0.25485409185843105
55,0.2544743806171379,0.25531520569239813
56,0.2541953766946312,0.25383166389006184
57,0.2527865570821732,0.25257719111141486
58,0.25144398581686256,0.2508945178825646
59,0.2508622484741737,0.25146576211785554
60,0.25058706041624984,0.25010702660823303
61,0.24921200388102985,0.24890471819638266
62,0.2489842389651435,0.2494743074971856
63,0.24897259027123164,0.24847176948587257
64,0.2478182380624431,0.24849706500086524
65,0.24771454952937141,0.24829872956921384
66,0.24727929428184062,0.2479548918372924
67,0.247007514027764,0.24692956008305206
68,0.24663722079148967,0.24658086347881036
69,0.24585658697773227,0.2461026749487646
70,0.24673236138243185,0.2462152172447474
71,0.24563769001564342,0.24581110270454268
72,0.24510679681667036,0.24519003529010464
73,0.2447237476504011,0.24492531338590473
74,0.24465789728694493,0.24499047481129277
75,0.24429699867892324,0.24411828945307817
76,0.2439769782203374,0.24410335756044454
77,0.2440264769357076,0.24389000919124887
78,0.24350965464953706,0.24361394571571154
79,0.24320190554137805,0.243151772546787
80,0.2429319049933736,0.24312756879177258
81,0.24288540456792435,0.2426148554590996
82,0.24226575082154583,0.24240956623063092
83,0.24211308598327788,0.24214252643728218
84,0.24192736948803842,0.24173754403086845
85,0.24209117973975236,0.24184340830148443
86,0.24193592661385724,0.24206525687166527
87,0.24187268731262473,0.24198750432965882
88,0.2414169347376751,0.24145511835931133
89,0.24100048170625257,0.24115511336332243
90,0.2408242849804324,0.2410287638301443
91,0.24078378977058984,0.24069476282869443
92,0.24052455767596082,0.2412750136809925
93,0.2407319579455111,0.241103320173043
94,0.24052908042256685,0.24034011495706126
95,0.24065209592846656,0.2410507367625421
96,0.24065260512889813,0.2404561023497638
97,0.24116822778225708,0.24144570160166146
98,0.2417183162020646,0.24175786291085177
99,0.24140759964259884,0.24123540614755867
100,0.24160020909816338,0.2407948457192697
101,0.24131357379192167,0.24122194461259863
102,0.24122650035136609,0.24098415330534576
103,0.24079697795337338,0.24039594206926668
104,0.24057851989063428,0.24137261765108584
105,0.24038892681840704,0.23996227526862318
106,0.24083091145892033,0.24059541764556655
107,0.24030391944588708,0.24086417996375317
108,0.24084959410839707,0.2414809016374123
109,0.24117047927505392,0.24111120064096744
110,0.24090922666158227,0.24095715318924815
111,0.24150670437122898,0.24141446743880846
112,0.24161090124711143,0.24134374666891423
113,0.2414860082544583,0.24159987042669057
114,0.24175482212925414,0.24180670958762104
115,0.2422620959990888,0.24249310159927856
116,0.24237479639949083,0.2426204940843695
117,0.24255493695406224,0.24261477943612725
118,0.24247203763726233,0.24250766072766275
119,0.2423004122684709,0.24228956614457065
120,0.24255728442891897,0.24223935779334055
121,0.24246481738740402,0.24277802799617387
122,0.24269057143268158,0.243097780853063
123,0.24257109942529603,0.24261698803049236
124,0.2421748516537684,0.2428888006998783
125,0.24242084012995901,0.24217028060858892
126,0.24258344526961745,0.24263411740336535
127,0.24253789982873855,0.2428607194204451
128,0.2421742649696809,0.24197577249373425
129,0.24197288152935217,0.24177723044519267
130,0.24171260375675443,0.24141818304982068
131,0.24204374335223822,0.24234832732716977
132,0.2417576513368544,0.2417255296609302
133,0.24159445003163424,0.24161775260810883
134,0.2418273450921384,0.24184769883622498
135,0.2417989596426725,0.2423137277247121
