epoch,loss,val_loss
0,0.16733947778038746,0.108005131106021
1,0.10348052277172402,0.10230292923213369
2,0.10180940228900749,0.10196117555756407
3,0.10138152453967993,0.10150216740350979
4,0.10127870945169104,0.10182221629601722
5,0.10163526948717096,0.10188107009045044
6,0.10195150941038589,0.10195918487651008
7,0.10229101357795448,0.10251604657452598
8,0.10238146711644128,0.10261016248504101
9,0.1024487169740869,0.10381941788998192
10,0.10258933583156858,0.10302450912456956
11,0.10264204142333792,0.10240764345535634
12,0.10270655875821574,0.10255314104535397
13,0.10279592602468318,0.10338350826464211
14,0.10274973739799169,0.10443959695646493
15,0.10289179081086823,0.10346664005527369
16,0.10281192545863174,0.10380943305937436
17,0.10297021402610387,0.10345075707573917
18,0.10303709025887087,0.10356760081477116
19,0.1029870245191786,0.10353627518089907
20,0.10299722638299806,0.10380801340328395
21,0.10316406460784132,0.10345174124039527
22,0.10318018038638777,0.10354891220062101
23,0.10333996123189834,0.10451030640641629
24,0.10336536191088214,0.10416959577196681
25,0.10345179667408995,0.10420506715115921
26,0.10361479340697365,0.10358545665159503
27,0.10251714880589387,0.10257532313501355
28,0.10235902589621494,0.10278925702458022
29,0.10231274215699576,0.10310897378702284
30,0.10212532122381966,0.10223746562013498
31,0.10174636311715932,0.10218103903903675
32,0.10157734571958331,0.10197042870234578
33,0.1013350059910358,0.10186858726305198
