epoch,loss,val_loss
0,0.2984841284420279,0.2655608585573315
1,0.22551863036043257,0.2167826571399618
2,0.21718035190463733,0.21812962884731715
3,0.21723534284735754,0.21738643480880862
4,0.2161460455944784,0.21532312949388727
5,0.21223486335776884,0.2089936399939687
6,0.211196532376188,0.2107707962170302
7,0.2123881993795947,0.21206634946243916
8,0.21326226935826903,0.21395101395289354
9,0.21453544847685085,0.21524271347810645
10,0.21607526329209764,0.21555684509245354
11,0.2164502254397654,0.21542646562432152
12,0.2172799960886546,0.22351568603289815
13,0.21649374198808755,0.21550785821304608
14,0.21550194131765815,0.2153803536693412
15,0.21570666713251485,0.2166335230138985
16,0.21520585467298922,0.2171948371835835
17,0.2151752714868739,0.21609381335216332
18,0.21406812028442737,0.21196056952980813
19,0.21281779188808683,0.2109792995801006
20,0.2115147820026945,0.2123602719149819
21,0.2109558363136151,0.21095069394915145
22,0.2115487550302661,0.2109896221684017
23,0.2108414294146043,0.21140033058416402
24,0.2109100686536609,0.2136545918570227
25,0.2111982063090296,0.21235209577602954
26,0.21024312355297264,0.21189669936589586
27,0.21034230539600532,0.20988236100728247
28,0.20971426061636728,0.21018111562296077
29,0.20988709907785214,0.2113633588862024
30,0.21096210782047656,0.21231375192457425
31,0.21351146071458416,0.2159927414572888
32,0.2174297353918318,0.2154175842970304
33,0.21551744692283664,0.21482649945375387
34,0.21540214421508982,0.21456854588748342
35,0.2145961461712321,0.21443900041393907
