epoch,loss,val_loss
0,0.4579169508650434,0.45761408773857304
1,0.452702304775671,0.4544270196907522
2,0.45154315533397865,0.4533216602800395
3,0.45141942535849405,0.45567294854109175
4,0.4513544796420325,0.45674142573137594
5,0.45130498877627484,0.45508491665995204
6,0.4512900567645554,0.45443610664701123
7,0.45128085842426063,0.45414149580080865
8,0.451278216976056,0.4537549003805809
9,0.4512817970187449,0.45398365533907015
10,0.45127019481502656,0.45366461618546905
11,0.4512724428296947,0.45368238345035533
12,0.45128368395123836,0.4538178926344076
13,0.45127202376282566,0.45355445718144277
14,0.45127407159450816,0.4534875266694985
15,0.4512771391134849,0.4533962135533225
16,0.45128110634813684,0.45309977530962664
17,0.45127691224896366,0.45310659917114093
18,0.45127828544278226,0.45285298604144764
19,0.4512803038294843,0.4527033903557387
20,0.45127522785791296,0.45287030803564504
21,0.451272329576105,0.4526348755457501
22,0.45127119320473796,0.45301512062502547
23,0.45128271057546665,0.452667693642057
24,0.45127219133239854,0.4524161939604036
25,0.4512771971934705,0.45234855929508677
26,0.4512722977488447,0.4523439194004462
27,0.45127505364177894,0.45222953561731655
28,0.4512737207561374,0.45216514940513997
29,0.45127311884928095,0.45227246632139423
30,0.4512715078800988,0.4521555518106673
31,0.4512738918753074,0.4521506510574985
32,0.4512803418744954,0.45210965418777976
33,0.4512763589644413,0.4521060014392037
34,0.4512725595852359,0.4521093070977489
35,0.4512782022773886,0.4521155038167853
36,0.45127687706268854,0.4521099838715608
37,0.45126782525643455,0.4521243881078433
38,0.45126608847904737,0.45212493814533866
39,0.45127175742392533,0.45212786347732453
40,0.4512768367068659,0.452196034231615
41,0.4512707369504787,0.4520976418054471
42,0.4512726003936917,0.45218685452827057
43,0.4512685686468983,0.4522101654485162
44,0.4512728271629218,0.4520875561067977
45,0.451280272121338,0.45216949217039104
46,0.45126976467055574,0.45211232070764784
47,0.45127268441670615,0.45209835120421654
48,0.4512684735701048,0.45219145118954995
49,0.45126977126947126,0.4521085043638451
50,0.45126718573337743,0.45224907542648707
51,0.4512695200104031,0.4521646951725846
52,0.4512649139435552,0.45218044131312113
53,0.45126919768792356,0.4521932213110724
54,0.45126824970725626,0.4521980922854408
55,0.4512689750400379,0.45219159688456567
56,0.4512661955387091,0.45210928771565445
57,0.4512755063702639,0.45214129552750865
58,0.45126810760425623,0.4521858734743936
59,0.4512681532010948,0.45222267336796473
60,0.45126939910969477,0.45216105065669426
61,0.45127173693631767,0.45215459016240667
62,0.4512676125426563,0.45223182679728063
63,0.4512659553810656,0.4520893434228724
64,0.4512697090681413,0.4521294548790005
65,0.4512706558576686,0.45212861048770686
66,0.4512684795019819,0.45210527425783303
67,0.4512687401472331,0.45212471713300945
68,0.45126802917959974,0.4521054998804663
69,0.4512663131756939,0.45212141453231897
70,0.45126547468461387,0.4521602855344033
71,0.4512670353876887,0.45224296950221343
72,0.4512651814021271,0.45217981106574456
73,0.4512662240069547,0.45210271871456875
74,0.45127271960298126,0.4521193586895573
