epoch,loss,val_loss
0,0.1815867887960254,0.1363415072048002
1,0.11513344576652292,0.08910726976963884
2,0.09805487550729565,0.09971230187774552
3,0.08613732018821436,0.08709139954342839
4,0.08905621498322887,0.08932328359433395
5,0.09038087022271182,0.09224991937298048
6,0.09121731298861743,0.092811864666235
7,0.09260625291547234,0.0938152454046631
8,0.09349102537623412,0.09505678395187186
9,0.09755759299111119,0.09955237337168316
10,0.1003583349722276,0.10099245190926208
11,0.10180754666562847,0.10118888175642764
12,0.10174285368524867,0.1022029517787408
13,0.10211463618002159,0.10192573750898795
14,0.10200547002297607,0.10133103450029594
15,0.10193709248928524,0.10308024408361906
16,0.1023892287572892,0.10211604073255572
17,0.10247384822316212,0.10268571388914347
18,0.10270465925323972,0.10305636651349426
19,0.10307567947202449,0.10331670989906497
20,0.10319684659072059,0.10383824640686529
21,0.10327898280964576,0.10382208229287365
22,0.1035149596589837,0.10455261037965036
23,0.10345105091921336,0.1038032276666155
24,0.10361716909398087,0.10434007915743901
25,0.1037861420203456,0.10353678932976516
26,0.10374155241570217,0.10432377135367872
27,0.10394891614107776,0.10449140170778735
28,0.10394667002032225,0.10434326444823816
29,0.10410555838037738,0.10464071831133014
30,0.10421116707279242,0.10520825141654207
31,0.10425269142758074,0.10496727223107452
32,0.10428047488085466,0.10441041888335416
33,0.10432559472741745,0.10468068467813302
