epoch,loss,val_loss
0,0.3405968383323851,0.17014172897860114
1,0.13483694271980334,0.19249614294627188
2,0.1243828468197446,0.16630805015046482
3,0.11305428440455528,0.14164810663569885
4,0.1098073490922876,0.12037558013304256
5,0.10824037794705679,0.1111296210099885
6,0.10666464084534527,0.10692611493717147
7,0.10523549848490005,0.10491087228859515
8,0.10426844359873581,0.104623302329264
9,0.10401916940459054,0.10403123506195637
10,0.10346842844852155,0.10342694342065817
11,0.10189972228879075,0.10006411083707117
12,0.08994132520364438,0.08312624662338323
13,0.09026601186378015,0.09301046649583607
14,0.09234202302974477,0.09275704080087516
15,0.0905151441038179,0.08995470545756694
16,0.08958955223468854,0.0898019881373611
17,0.08830053405128985,0.08978278149910207
18,0.08857495427060184,0.08923662577968182
19,0.08856149457341475,0.08937295802061071
20,0.0888243738791163,0.08885397034055526
21,0.08875859608586363,0.08882852471429904
22,0.09025119392158125,0.0900434197559541
23,0.09258430387428719,0.09052059547159741
24,0.0913146223417289,0.09334010059262414
25,0.09308050561556332,0.09319225231210547
26,0.0928609202579438,0.09664664239914472
27,0.10012788990204283,0.10287988204112086
28,0.10232914407714475,0.10263846797578996
29,0.10125983088946552,0.09983798959119732
30,0.0961812144334463,0.09179235028063301
31,0.09165624040755913,0.09179152147851784
32,0.09228804234644587,0.09256961764716312
33,0.09164148351128439,0.09382386012230695
34,0.0937521537895397,0.09399275926265928
35,0.09304831789242182,0.09373429928624734
36,0.09258584051633434,0.09366566253842193
37,0.0940247522078925,0.09336735840354647
38,0.0919989112862866,0.09300666836391026
39,0.09543326299944274,0.09752308202711917
40,0.0985456396409457,0.10195741384351169
41,0.10419938610278541,0.10590561005362584
42,0.10583880502018903,0.1064063263226421
