epoch,loss,val_loss
0,0.0914203280524956,0.05340353480371887
1,0.0449706617858913,0.042587100621533376
2,0.04059663988191256,0.0395791138174643
3,0.03925686173266072,0.039427630071129115
4,0.03894410060821391,0.0393007479272871
5,0.038730652182460495,0.038841778522720465
6,0.03862403525556211,0.03885222448957842
7,0.03859838086376183,0.03930137193546393
8,0.03864167516769694,0.039010307495059605
9,0.03862474986808382,0.038856356768577044
10,0.0387748346346126,0.03902197213756728
11,0.03879188817086742,0.03936354813019686
12,0.038861523265485094,0.039188795711995114
13,0.0389178436559191,0.03941091295587518
14,0.038940132097553294,0.03967555002812899
15,0.03893404121962573,0.03939172860467255
16,0.0389020444540907,0.03931651449370497
17,0.03899775922512837,0.03958437870232346
18,0.038962153504959206,0.03932884810367436
19,0.03893294546315424,0.03918795023575108
20,0.03900663088039338,0.039195295293898494
21,0.039102966071580716,0.03936952145236538
22,0.03897613158031143,0.03923795518083843
23,0.03908984306797707,0.039676624296590295
24,0.039072000419350265,0.03959086224813111
25,0.039077267673113744,0.03973458141923515
26,0.039081372852198225,0.03965057200372172
27,0.03915706696472675,0.039649719494411866
28,0.0390611884685205,0.039386231096457
29,0.03911862646837791,0.03912677596769374
30,0.03910370372372756,0.03923935732188993
31,0.039077534866657,0.03938919394302763
32,0.03917195488937753,0.03946346071884683
33,0.03921810648650479,0.03931743346137048
34,0.03900617122245159,0.0397263967124091
35,0.03935624422769038,0.039885595902483015
