epoch,loss,val_loss
0,0.41375371646747483,0.21018685342476606
1,0.15880653615280377,0.14932893986442858
2,0.14570201756812937,0.1405780256664666
3,0.13583466161886532,0.13235052809759745
4,0.1323465839851561,0.1315035802181523
5,0.1305384750756099,0.12729927986884446
6,0.12277620928205424,0.11649037525359925
7,0.11323702370552563,0.10991844183192055
8,0.10847675154288355,0.10604662967835222
9,0.1051703550762611,0.10330274305325259
10,0.10255145841092468,0.1010810805353225
11,0.10076075396817431,0.09978022700098599
12,0.09969808970144789,0.09913052611252397
13,0.09884558936612334,0.09778205270290569
14,0.09755358034916359,0.0959898099992107
15,0.09543745584779972,0.09373354705145759
16,0.09278597704785838,0.09064211443199535
17,0.090326915677783,0.08955735603267356
18,0.08970849187947733,0.08879295337736752
19,0.08941278999165786,0.08874441338257391
20,0.08939686879288969,0.08925001941385641
21,0.089577077990107,0.08875849124554783
22,0.08937380415759533,0.08896640081499421
23,0.08938625248505461,0.08915070520482794
24,0.08941932126366682,0.08891495681592147
25,0.08956590238168204,0.08867631038682594
26,0.08940582121129605,0.08903011214365732
27,0.08942067914241977,0.08883654721993696
28,0.08935579219706255,0.08877284215145351
29,0.08930800532440455,0.08850336182992437
30,0.08938178817351596,0.08875563500837301
31,0.08946884507604176,0.08874840778808524
32,0.08950565810247456,0.08865682606110221
33,0.08951865136623383,0.08910067112389755
34,0.08965422178479172,0.08895185161971118
35,0.08965751903356792,0.0894218377484989
36,0.08989329710662412,0.08912962378400763
37,0.0897066801237621,0.08937439351476312
38,0.08992120955255721,0.08881601811494658
39,0.08992298576739237,0.0897409355831359
40,0.08997734730915607,0.08943295644389258
41,0.09000660104451894,0.08969737416539653
42,0.09029025663796952,0.08948403651866116
43,0.09012342217543108,0.08971091872874258
44,0.09018698003623274,0.0895525228416446
45,0.09030033120687148,0.08991760714621633
46,0.09034966655355917,0.08977037915976571
47,0.0904258835711796,0.08993609195812292
48,0.09031214031746523,0.09021422550360168
49,0.09055397594519096,0.08998748211119104
50,0.09042178763090085,0.0896940590256322
51,0.09054081777246405,0.08998560088491014
52,0.09046187103271866,0.09053432197587237
53,0.09076097120849298,0.09031368608964911
54,0.0906338038875925,0.09025654004583103
55,0.09065732137979365,0.09024202409113508
56,0.09065240278565664,0.08992445141995524
57,0.09069097758508664,0.09015489937035126
58,0.09077127888094816,0.09012754690521438
59,0.09064661043347885,0.09033902546591809
