epoch,loss,val_loss
0,0.18212221015533575,0.11845040673003389
1,0.11002928791024226,0.10325590341742244
2,0.1012735665856982,0.101566018838062
3,0.09514227828724112,0.08699047431385037
4,0.08295049052015482,0.07788841051197277
5,0.07463786293336337,0.07302817041914389
6,0.07359917385043573,0.07600890842120103
7,0.07484984185865266,0.06632219594862862
8,0.06379629306787019,0.05694167774050087
9,0.05581545336343211,0.05473808434386844
10,0.045434821542980765,0.037007418932318216
11,0.03921047598868013,0.03638649731874466
12,0.03680512776150168,0.03748578497082959
13,0.036814785106100145,0.03740163594513732
14,0.03831474036633444,0.05643941273864273
15,0.038061692950417766,0.036208778452172276
16,0.03644733260319435,0.032318509687341006
17,0.03381589616237165,0.034445482162845445
18,0.047562117866284365,0.04392817204534396
19,0.03314999319005499,0.029015728612831002
20,0.035502778293250756,0.029694484995167934
21,0.030017270481021856,0.026290210153563528
22,0.03358979807417694,0.08606226540566808
23,0.03631616755873322,0.057414093279024705
24,0.028712212188477568,0.02192477292536325
25,0.021978941878570402,0.02311915050877439
26,0.024570575856464466,0.02103466369452774
27,0.020489446159979278,0.01905102866548154
28,0.018183306068015232,0.017932637552006706
29,0.01856184887925355,0.018476923313153572
30,0.017480633963795778,0.017396033650386163
31,0.016950395639813085,0.015174597904568312
32,0.016458481252059447,0.01503688724815916
33,0.017269512795531253,0.01536588616825011
34,0.015402325762913739,0.013695971845504376
35,0.014628251224270852,0.013965604007949769
36,0.016963052530240694,0.018037453921542643
37,0.014347554320360808,0.015185779431759841
38,0.015393455030782212,0.015664447495168415
39,0.01662707601604666,0.01519602665129311
40,0.014752809571356868,0.019256465064968854
41,0.014704903006087617,0.0168646834423176
42,0.014679442132286412,0.009770798360915663
43,0.012409950229082463,0.009714036408500142
44,0.01345244507237578,0.010556060463945721
45,0.013293052126812062,0.013224966838388412
46,0.017020431799452295,0.008180232613105635
47,0.01064097720932001,0.010926157702495592
48,0.008612526639317759,0.007268433845745313
49,0.009721801893749861,0.009490364024249489
50,0.007793948638623656,0.008383713842346829
51,0.012342225001241974,0.033847955514948104
52,0.009366549879981043,0.00783936826963545
53,0.007127971679205261,0.007016725161009201
54,0.007438750077633829,0.008225539748078388
55,0.00741377346709722,0.007498984950783515
56,0.007356276980219342,0.006346586083364103
57,0.007262241066084337,0.006441237082250634
58,0.006705508653285186,0.005597250417279904
59,0.007192928864483645,0.0055117780914575734
60,0.007347006265607794,0.007647906809908521
61,0.006913922153871884,0.0066220505496056275
62,0.006780933456694176,0.005640766673244318
63,0.006402288238312469,0.007668150390219752
64,0.0065358405726009625,0.006499773493141741
65,0.006576830449013068,0.008256909616097466
66,0.006630887181062972,0.00602519318579763
67,0.0065278287244243,0.0060631478921640385
68,0.0067277395094429955,0.008321134781504628
69,0.006219197898529184,0.008068259957231046
70,0.007080853199694219,0.004786139122749243
71,0.007282421989035126,0.005521675642548921
72,0.006137721126850361,0.004595715417868466
73,0.006241192036460218,0.0051868441004722125
74,0.0065471563743409525,0.005433208782309644
75,0.0062466553674986975,0.005538375444262602
76,0.006064058487325144,0.005397388720392428
77,0.0068922549528780755,0.0061106732401455845
78,0.005939836736344513,0.006050357409942551
79,0.006350412426760597,0.004785183319879288
80,0.006987129700545826,0.006065570494459961
81,0.006298445309769157,0.007186997749665553
82,0.006133377261924745,0.00536151258432951
83,0.0062243410985065185,0.004489679441176467
84,0.005420071179008887,0.00484810764090935
85,0.005613730345993376,0.005312343335129033
86,0.005916110373972778,0.005709153603252991
87,0.006189599705057489,0.006597166847336182
88,0.006297515667353323,0.005028352567164526
89,0.006380152444431125,0.005917217538636193
90,0.006223357045421114,0.004880654085416497
91,0.005457639862601976,0.005778689128725298
92,0.006002456280138555,0.005566298864427557
93,0.00563756490240155,0.005029674592514646
94,0.005687633828951611,0.005535200267354645
95,0.005456199600855611,0.003816065617841422
96,0.011011543334089517,0.012038544376087453
97,0.007415229214640479,0.009227576482550027
98,0.007163090328555659,0.00539082226151602
99,0.0066465702867113076,0.005940571345937245
100,0.006779944339914502,0.007629806032674806
101,0.006343730986282098,0.00651362488555686
102,0.006837821915233173,0.007984177665909916
103,0.006241342402156368,0.006475218780663661
104,0.006849984466794321,0.006991083986414765
105,0.007156627164013851,0.00719389293178175
106,0.006384340071293944,0.005345003811521977
107,0.006264689272354475,0.006160454200132329
108,0.008206444146349091,0.006228075238884131
109,0.0066659147986102936,0.004990803179347295
110,0.005862741574909699,0.006919082153284218
111,0.00894335097066394,0.005754337768822368
112,0.006791135205494182,0.008909281228919643
113,0.005764749465012576,0.005877876716379985
114,0.006276682739687278,0.006133301596501996
115,0.00615006265203304,0.00745883609474017
116,0.006631437328280799,0.007877795134679118
117,0.006324498706663267,0.006860241196327788
118,0.006248829617985055,0.005253436469642744
119,0.006255180323604408,0.006860278395387537
120,0.006290678897195851,0.005737128598070112
121,0.005763319524680283,0.010147941662270602
122,0.006242291293673509,0.004652014988288577
123,0.00670184350457507,0.008049872435552921
124,0.0060655408064097015,0.010248247474864207
125,0.006235795214118586,0.00750173648599544
