epoch,loss,val_loss
0,0.14250394990213577,0.10368763247318125
1,0.08943846447171448,0.08754120617752105
2,0.08904500322924148,0.09194705991666902
3,0.09039509273190006,0.09044921075912
4,0.09082074888604437,0.09171339948885819
5,0.09102887261828645,0.09075926532402881
6,0.0912302967896469,0.09141106029124173
7,0.09164158235803592,0.09111271213501951
8,0.09163684143031911,0.09236551635408363
9,0.09178321880640553,0.09360259623746751
10,0.0922179917673127,0.09317013959458426
11,0.0924416404428909,0.09278868866206721
12,0.09289534210110549,0.09419526155058944
13,0.09307569695962704,0.09331849712552098
14,0.09321386474285194,0.09239702461244746
15,0.09293568065221743,0.09320573285868908
16,0.09330192623997954,0.09247171483645782
17,0.09286910168034472,0.09343420951123678
18,0.09283299543422094,0.09422608524349231
19,0.09317861024519618,0.09195612464467653
20,0.09210673416499421,0.09384437107084864
21,0.09298156460316824,0.09361876317997475
22,0.09360191370729062,0.0935187929831063
23,0.09341312924044119,0.09440207186771737
24,0.09347527260355336,0.0941792654715943
25,0.09405547716348862,0.09326203999527816
26,0.09381583026296896,0.09532025952741868
27,0.09494995635500153,0.09406230548115913
28,0.09435344274810178,0.0952357728131286
29,0.09570749123676789,0.09749608885588003
30,0.1002559763707703,0.10515159016861723
31,0.10439414858556004,0.10393818307318081
