epoch,loss,val_loss
0,0.10912314610336896,0.10214977987822155
1,0.10241014416888654,0.10305542291833739
2,0.1026065703555882,0.10231703413384301
3,0.10275249515208218,0.10322603088198634
4,0.10332958717390502,0.10337085014572271
5,0.10398355755302832,0.1064070827535691
6,0.10161252511586312,0.10083723629824082
7,0.10125084768096321,0.1012116426626998
8,0.10099258070750583,0.10026714579741035
9,0.1008032650011573,0.10112306764371393
10,0.09972121107349578,0.09879770971417144
11,0.05815987874992746,0.031523616274049905
12,0.030822095744085492,0.030372808125434587
13,0.030804426475561305,0.032044138301799
14,0.030851017831334118,0.02944537645849769
15,0.030849507352676716,0.03132283955668382
16,0.03076703368807487,0.03107631020725726
17,0.03185249231722233,0.032105720482528466
18,0.03166098067805701,0.031584259723155116
19,0.03041640430804994,0.028883971843203998
20,0.028211771242534944,0.022968193034302583
21,0.026769893485859193,0.026763588506155064
22,0.02539064683769044,0.023271968199753135
23,0.02634032170041103,0.02714478471496487
24,0.0248137886423229,0.020081022109295334
25,0.021767745914904,0.026311375827939437
26,0.030987910878510296,0.016762287297705812
27,0.038806364549395386,0.013310956912579774
28,0.012886167905344774,0.01470587900972057
29,0.013334274478759215,0.013171755297487306
30,0.013991019488100132,0.015628945128734927
31,0.013511646489559158,0.011035192826205619
32,0.016422169460865894,0.01883885896861724
33,0.01528847123320169,0.012925054901885934
34,0.01838868940898629,0.02272789095232194
35,0.02971931629431554,0.0157645468722482
36,0.018876147768862223,0.015128466945866325
37,0.01920908592960728,0.013537901395604002
38,0.02119764710086391,0.01980208763198511
39,0.01518964782959486,0.012603802088980329
40,0.011163678359248483,0.011496507846246801
41,0.012024674583862957,0.01000160974709151
42,0.01133955693520832,0.008880598197309646
43,0.010900846374374506,0.008475023418100405
44,0.010915481320667572,0.008550400466598634
45,0.010393313431453858,0.008719815241743317
46,0.0100035665705774,0.007998709972185578
47,0.009625778803525553,0.007976312900087762
48,0.009002206223584313,0.008059813085029779
49,0.011510156278351811,0.011412835342187696
50,0.011197200277122296,0.008604285642416484
51,0.009839210999298761,0.014580654425362027
52,0.016787986427280892,0.034029943772224854
53,0.03255822465548085,0.032790516254704534
54,0.03321343089612447,0.0347790803338365
55,0.03388274292801049,0.031161923475648792
56,0.03644651335888921,0.03426001976731497
57,0.04097328299163676,0.03897310599564165
58,0.027461697617515945,0.02446227345502426
59,0.030788152795217984,0.02292935968352439
60,0.04428822171671851,0.027373778443024938
61,0.02362611123638378,0.02281276896249006
62,0.02166940670476841,0.018561831664811488
63,0.019751130659553816,0.019547451559113135
64,0.017888260184140276,0.01502248580272044
65,0.018540049053849185,0.016104345027785145
66,0.019266387014158462,0.020892022600237224
67,0.019042698369505884,0.019161246765122677
68,0.017490642460183704,0.016655836077208535
69,0.020166426927758028,0.019389646223377976
70,0.018331417578646987,0.02087928076850246
71,0.01615617572118511,0.013237551334861668
72,0.03842786494759749,0.07239325023340774
73,0.041235610962935466,0.03116349735456771
74,0.03021215069123345,0.02994306188924995
75,0.028632767360395404,0.025446767525140256
76,0.023901233200555583,0.019612809783362304
77,0.021252532008116682,0.019149498804527515
