epoch,loss,val_loss
0,0.3472244270426259,0.17540196158348403
1,0.15024516827540935,0.13534001867073103
2,0.12209097548329038,0.11004018705619223
3,0.10606675209094277,0.10273944405236093
4,0.10158608801919428,0.0991160588615422
5,0.0986229018796626,0.09683620375607523
6,0.09564074695563679,0.09350421147939159
7,0.09218505642908492,0.09034951011871577
8,0.08946677575333774,0.08843103294099915
9,0.08802620843470431,0.0872953291453681
10,0.08720266504632272,0.08671361482902358
11,0.08670700819278546,0.08629602820454627
12,0.08631100136342289,0.08608866585698054
13,0.0860315033430763,0.08581040137948201
14,0.08582454671661219,0.08561417768012192
15,0.08565110575446518,0.08543602618277799
16,0.08553155576042216,0.08541018993798447
17,0.08540290232011087,0.0852649525980203
18,0.08533440819614119,0.0851713974219169
19,0.0852392119011753,0.08504727552890391
20,0.0850994012492289,0.0849314125772907
21,0.08502860342244133,0.0848732011850443
22,0.08498117214947151,0.08472493318093084
23,0.08486754314196979,0.08469380777320143
24,0.08480258586647225,0.08458045384237076
25,0.08472363610831712,0.08452647232540429
26,0.084631509750819,0.08446868931435031
27,0.08452136491874965,0.0842784050933636
28,0.08447222430721295,0.08423629220626457
29,0.08439671204651328,0.08414043654103832
30,0.08431318848490046,0.08413349711982003
31,0.08422054222123541,0.08399332327419244
32,0.08412213941470827,0.08386905530025006
33,0.08400734583194777,0.08383434349240468
34,0.08393559591759674,0.08363005618616902
35,0.08378171720344416,0.08355886957457853
36,0.08366624266505719,0.08340124341765749
37,0.08353316368128033,0.08327721635186372
38,0.08340636050825219,0.08312678468826817
39,0.0832812458789759,0.08296773402021845
40,0.08317044263987469,0.08287629674869346
41,0.0830492113080857,0.08276844747358478
42,0.08297416841606792,0.08271798896939409
43,0.0828543799855501,0.08266004516357149
44,0.08279557770686306,0.0825129746967762
45,0.08271193074239933,0.08251982197975204
46,0.0826580563636185,0.08233183810890736
47,0.08253978519104689,0.08232960633673711
48,0.08250440170972036,0.08232086380250263
49,0.08241384203215424,0.08214143000162431
50,0.08232722928922018,0.0820571925288666
51,0.08224726797009202,0.08202086067596104
52,0.08216022942259943,0.08193356421717955
53,0.08212570730355188,0.08187337645721551
54,0.08204763223997968,0.08172335574782581
55,0.08193046986770401,0.0817810521194438
56,0.08186843270082489,0.08151226979585943
57,0.08170274723831226,0.08149330681741286
58,0.08163275419353389,0.08140380634032704
59,0.08155027371916988,0.0812479788248653
60,0.08141060607184211,0.081193922765837
61,0.08134325173757284,0.0810756655009607
62,0.08123428055985246,0.08093931673386189
63,0.08111613914310885,0.08090408383253041
64,0.08098404207307879,0.08077162066104444
65,0.08087387800908642,0.08061139609450164
66,0.08075415683064678,0.08039900213963408
67,0.0805981033761278,0.0802056592468411
68,0.08046159216219946,0.08010414088657013
69,0.08025349482142324,0.08005996833994247
70,0.08005529312227515,0.07974743071432919
71,0.0799025309512957,0.07942149696293055
72,0.07954134481300631,0.07913528646237465
73,0.07929221288359957,0.07884442475711245
74,0.07896042297228133,0.07855783578760722
75,0.07860969839762268,0.07812020564504688
76,0.07832913332767158,0.07787126131712278
77,0.077732988865114,0.07742503209874964
78,0.07723889461128687,0.07674843318826864
79,0.07647696586610604,0.0758630469115111
80,0.07553456047232195,0.07459513282302135
81,0.07415004180158206,0.07318944847158368
82,0.07237918380859663,0.07125265136155672
83,0.06984962137032738,0.06833639561477368
84,0.066181640219006,0.06357313432433889
85,0.06108027210144447,0.058396627720134195
86,0.05758496236393125,0.05670062737465388
87,0.056740004461917806,0.055859539515829046
88,0.05617189539478625,0.0555901565322379
89,0.05566294353195817,0.055114125332886475
90,0.055032778459730106,0.05456190459907587
91,0.05406452601460861,0.05363994957962272
92,0.05246957561509718,0.05110778325726033
93,0.05061874274698327,0.04984213403952576
94,0.04976664837285745,0.049207996353446616
95,0.04918141899894389,0.04914205408951952
96,0.048912408807165055,0.04852701497882822
97,0.04850776481917136,0.04861630939569593
98,0.0482403504236447,0.04803447182753274
99,0.047806192347533805,0.04776696486448429
100,0.047662557955023,0.04755711694159647
101,0.047407272308349034,0.04741779162827199
102,0.04704160972224702,0.047312652600048424
103,0.04687604019112641,0.04655774970994379
104,0.046609473816626924,0.04682449717301232
105,0.046459194219069445,0.04643879899421264
106,0.046284749361278535,0.046217667469143
107,0.046141597046386346,0.04589524501987521
108,0.04595879791640014,0.045522661790529696
109,0.04551450390401509,0.04533080732191566
110,0.04537262381005994,0.04538029447403364
111,0.045132936666711414,0.045058817411595405
112,0.04486620471812039,0.04481949427279146
113,0.04457330660189124,0.04468041835148839
114,0.044287111258225216,0.0442559082583741
115,0.043887216684291415,0.04374579797647682
116,0.0435745654981121,0.04347798513778805
117,0.04331600964009714,0.04319773784507027
118,0.04320023931246743,0.043097544491701945
119,0.043271010749048,0.04304331401174182
120,0.043063035233317615,0.0429160840422616
121,0.043065634612038765,0.04284391444650783
122,0.04293082885032563,0.04302890881267584
123,0.0428709938340754,0.042801273030448714
124,0.0427435805426062,0.04293565459047888
125,0.042825086073602456,0.04292350015561463
126,0.04277981743156862,0.04268384930305334
127,0.0427155547661243,0.04286583793098039
128,0.04271885501541454,0.04289153333079593
129,0.04262139591231071,0.04277127088989461
130,0.042746063581316635,0.04259591654172682
131,0.04265640509293211,0.04261419436284805
132,0.04250023129871123,0.04288689276114384
133,0.0425804512764665,0.04289416444320942
134,0.04245951754735221,0.04248123696045187
135,0.042572520688188085,0.04250907305467931
136,0.0424752774938428,0.04251974706582586
137,0.04249861764552309,0.04259176210584142
138,0.042601136888882174,0.04261739141121205
139,0.042650994897676146,0.04281780928590872
140,0.04255235873407321,0.0426526211280699
141,0.04248782295623334,0.04321937323136245
142,0.042715455826708944,0.0426426022543911
143,0.04251379773820086,0.04263684247822077
144,0.042599551173879965,0.042693424009131106
145,0.042632154076456354,0.042700413499701245
146,0.04264432176637401,0.04290141939319253
147,0.042639425037812005,0.042667203775432566
148,0.04244910225904494,0.04268222896794623
149,0.04234081270505754,0.04251310632043705
150,0.04234275517103861,0.042313602570948905
151,0.042156400345415,0.04252012795787562
152,0.04203492497877658,0.04202721652552933
153,0.04179912440783029,0.04203004711772113
154,0.04174688276801231,0.041498238379430306
155,0.041516606766787215,0.04132626901493262
156,0.04155996779473521,0.041441829743684065
157,0.041277746816842056,0.0408603362316101
158,0.04101542594601766,0.04080711026273408
159,0.04097758809938204,0.04086160145258865
160,0.040881163169972125,0.04074782011040999
161,0.04051578234436753,0.04085857981615016
162,0.04022758478243605,0.03974253792143506
163,0.03954684315435737,0.0394477658336325
164,0.0390535851059149,0.03910579879836928
165,0.03844536732646634,0.03805058218677742
166,0.03803329420886677,0.038155715906537845
167,0.037294374233047614,0.036927994558193386
168,0.03664823865787901,0.036370132687982754
169,0.0362016719917329,0.0359629789595428
170,0.0358263875728397,0.03563791492898002
171,0.0354167187737049,0.035020406896494695
172,0.03507543619635632,0.03478933721539071
173,0.03466525688630233,0.03410719885866234
174,0.034404767383400016,0.03368438213809853
175,0.033857593802008944,0.033624966298770056
176,0.033752433551524616,0.033294409734030035
177,0.03338975856472866,0.03285309464488683
178,0.03320011461498119,0.03268439967158067
179,0.03282593607490925,0.032686944062982455
180,0.03271017182734702,0.03251274802026377
181,0.03255894974625712,0.03387883933380379
182,0.03220585883677817,0.03188040410527251
183,0.032328274159179965,0.03200392834449433
184,0.031919287371518515,0.03182059807577514
185,0.03174411563174404,0.03165905832615889
186,0.031471755292961555,0.03125549305988731
187,0.03129579422263215,0.031114888888846445
188,0.03134088033737184,0.031032443906135996
189,0.031155919362369586,0.030579480192256186
190,0.030903688233026607,0.03068284627083396
191,0.030871453466083262,0.031163472404275982
192,0.03066215908424772,0.030223233738592363
193,0.0307536737947129,0.03002168364001065
194,0.030378311720368766,0.030389325344286986
195,0.030393196666558042,0.02989018472200086
196,0.03029457561140828,0.029845789324156848
197,0.030258616386316984,0.030094140048372194
198,0.030180527207503517,0.030972951517077064
199,0.030024802926674282,0.02916159253304602
200,0.03003554615684993,0.029229151458152407
201,0.029619420311146016,0.029284571772569674
202,0.0296532446048778,0.02987894704693812
203,0.02964878991228328,0.02900754967183237
204,0.02939329319614902,0.02891049213822257
205,0.029449726401972142,0.028687274566906694
206,0.029629222920434392,0.029722977595801094
207,0.029251608492029582,0.028804694682311355
208,0.029392909283956305,0.028644092465597543
209,0.029315011905397387,0.0287105911770127
210,0.028886288417886503,0.02884564060183047
211,0.02892445909788458,0.02910528062342002
212,0.02901968402151254,0.028659837054570612
213,0.029070454253684624,0.028454758560727596
214,0.028930471462903735,0.02833437316560784
215,0.028889593830089075,0.028984095096068467
216,0.028922928658256634,0.028542815663059457
217,0.028664416406121704,0.027964261213177022
218,0.028858750424772095,0.02825100612973935
219,0.028753797399153035,0.02890765640071902
220,0.02868786218872158,0.02843135348781762
221,0.028635469179531876,0.0279591150856777
222,0.028524999495586744,0.027943774074352282
223,0.028518745613048038,0.028212344961275632
224,0.028493171096969548,0.028583413795156394
225,0.028379449218189457,0.030132433271151872
226,0.02859481149543229,0.028299562853594088
227,0.028317604877585598,0.028180749682046393
228,0.028254289552867653,0.028002706382783175
229,0.02834527628620068,0.028221629339437223
230,0.028264927271428444,0.027787732919685646
231,0.02842901402963601,0.028141522422034083
232,0.028168250558326682,0.027823236184036065
233,0.027764092570094705,0.02771946139458419
234,0.027440063495806355,0.027196786344498517
235,0.026979517354201184,0.026610573240089783
236,0.02645377208105176,0.026496474764824203
237,0.026098822650639078,0.025307102690829267
238,0.025771711916447258,0.02530005793876505
239,0.02495249818408007,0.02420161031216794
240,0.02467041074024667,0.02477175342817908
241,0.024381985105693435,0.023470351739884
242,0.024130791425704956,0.02412205470147311
243,0.023762783404734967,0.023212045459839646
244,0.024039172441411533,0.02333286988027001
245,0.02317798678264368,0.02267414894308487
246,0.023589303314363697,0.0230559814881476
247,0.023721863140610814,0.02284956398206277
248,0.023266684012659033,0.022573749893567762
249,0.023554784540322612,0.022888506361602865
250,0.023771954416256364,0.023142433733606086
251,0.023980500333882077,0.02508711486915844
252,0.024003781981503755,0.02449957590885551
253,0.024009688072103418,0.02366942904182594
254,0.02394378520443952,0.023470743078910665
255,0.024090926379884026,0.02324080220835294
256,0.023885319525416226,0.02513067978256762
257,0.023923531210451147,0.024457330275432714
258,0.02427109239475311,0.023609754680040302
259,0.02430817023295465,0.025791941505206473
260,0.024168729503229677,0.023437472078450695
261,0.024352824358676698,0.02449574577867598
262,0.02448098877186867,0.02441507682433867
263,0.02396263254491733,0.023482818180651368
264,0.024011362075590917,0.023928464764226092
265,0.024159821792035175,0.024058452206879057
266,0.024209623139283005,0.023853407789018708
267,0.02436041277426901,0.02369833981885672
268,0.02462155934948149,0.026058985907599537
269,0.024260515187553067,0.024591193997451473
270,0.02460120888344878,0.024574345660555295
271,0.024370962200616245,0.02391128363624058
272,0.024358256652897554,0.025264162710729596
273,0.024380755070164455,0.023851907705557316
274,0.024480455603489312,0.023685371903559103
275,0.0242933568576749,0.024778160512060627
276,0.024248881933627557,0.026112681700389558
277,0.024442149294142106,0.02509411700245141
278,0.02430374553207878,0.023498585293581595
