epoch,loss,val_loss
0,0.24333531074196124,0.1399697064059686
1,0.11775811232453723,0.10993774734502151
2,0.09873293935180567,0.09446104055516064
3,0.08788352487958688,0.08258814572841047
4,0.07915973663330078,0.07817915968755708
5,0.07795035089555975,0.07826954816139488
6,0.07764391915546619,0.07336725037024543
7,0.07301352331511599,0.07668612124111678
8,0.07222673055424775,0.07015340181321918
9,0.06783615493570729,0.06515036195504825
10,0.06385071082956356,0.06278669290779704
11,0.05024867446767055,0.04410991544270007
12,0.044474436623825254,0.043024862439451764
13,0.0437073861818305,0.042762321888247905
14,0.041411936266733396,0.04207911080112585
15,0.03926056985267632,0.036881589638723476
16,0.03616339464461227,0.034161645619179566
17,0.03435813236332459,0.03549590335619337
18,0.03465263805032777,0.03526855988873444
19,0.03537140036304053,0.033094174489555345
20,0.03492594543370983,0.03360322942250153
21,0.03379306811720228,0.03438770474943949
22,0.0346426510153045,0.03415286331051621
23,0.03391915765240324,0.0341827618186057
24,0.03488562158200976,0.031948703067008206
25,0.033772349470763276,0.034401104537786324
26,0.03362201936066532,0.03541457617174666
27,0.03398260998083271,0.03408395656441127
28,0.03441739667856174,0.03345241896431796
29,0.0342427414792071,0.03221734389721548
30,0.034392305291730534,0.031521377311732796
31,0.03405843271861236,0.03484953099298684
32,0.03560531571608701,0.0378862946472868
33,0.03490538206651247,0.0331221880522081
34,0.03511970388895864,0.03421904634457926
35,0.035022965901874474,0.03743355607447797
36,0.035578954116933396,0.0380421956543882
37,0.035456121277561384,0.03502554777530393
38,0.034949358613740246,0.03527493329443796
39,0.03513060839880976,0.03909345601421458
40,0.03559532289584573,0.03631354867529944
41,0.03530367767493383,0.0343751836385822
42,0.03494557222019402,0.03468865247027274
43,0.034910242835567484,0.03614879183871076
44,0.03463573148734659,0.033023425747641166
45,0.03370023293824171,0.03337032414514104
46,0.03370260082477098,0.03295161769282141
47,0.032339553919722805,0.03350523560239559
48,0.032860008174840874,0.03406237673687718
49,0.03248777645800135,0.03149479146144149
50,0.03024995048120201,0.029496191463476575
51,0.03023429874175911,0.029325607024727134
52,0.02974320788213389,0.02864856133274234
53,0.02945785226968886,0.028981356254551668
54,0.02921829640353136,0.030003109123578387
55,0.029754514682391802,0.02787544392343337
56,0.02965523067156045,0.028780670007418813
57,0.03127827624873006,0.03058196693782319
58,0.032193013756490536,0.03257384433483833
59,0.031803856736315576,0.03319939440843997
60,0.030216410692087373,0.029927895530093913
61,0.030181016708217222,0.03019066101885397
62,0.03028240418813521,0.029871098181172534
63,0.031093345028902892,0.03043223848976577
64,0.0316567925638039,0.03243475134213232
65,0.03152842503443039,0.02997414928867578
66,0.030630587728219114,0.028655231462081494
67,0.02879637524449854,0.02709164151270604
68,0.028749329398284187,0.03073068061621526
69,0.029966848294178453,0.02926421227358464
70,0.029723600596100165,0.028795902948788327
71,0.02980170999434021,0.028778518941885576
72,0.030316679760051382,0.030120158725327736
73,0.02983070039179185,0.02933854707196978
74,0.03011762984930802,0.03133776320707591
75,0.030023041766413825,0.03022614599520895
76,0.030507656812614244,0.031893815460079
77,0.033681863451378045,0.036168677435383705
78,0.03635322517729539,0.038194057652939935
79,0.03662601308666354,0.03609236899319369
80,0.03471713572841802,0.039496869719113155
81,0.03620290160804487,0.034685102968396594
82,0.03500475860211989,0.03464945892920246
83,0.03509167752874126,0.03582424807620265
84,0.03474187421695077,0.032466101072781556
85,0.034448940346358446,0.03456226170898048
86,0.035030215747839065,0.034475697286797495
87,0.034001238906173875,0.03720204826317957
88,0.03467787236949022,0.03526397392406601
89,0.034871849719044876,0.033383473015927666
90,0.03261617409194902,0.03172871626872384
91,0.03204860193409222,0.03164953863999462
92,0.03162934423627542,0.031225266542223934
93,0.03082639545419638,0.029830825780448524
94,0.032004828875263534,0.030524032482996455
95,0.030810807866575144,0.03048809602027487
96,0.030766540966320526,0.031061423179453155
97,0.030180247228810016,0.029358311462926882
