epoch,loss,val_loss
0,0.18540713980162649,0.11107847512050605
1,0.08232127272670599,0.06991893351783693
2,0.05975829416530119,0.048825063358260215
3,0.0498465282841028,0.04381395942269109
4,0.03215380239305641,0.027488530265798037
5,0.02681900862363174,0.025958236622982075
6,0.026362775976089933,0.02658212288108602
7,0.026668278348567387,0.026553224457608684
8,0.026344883097090023,0.02597346403816128
9,0.02582556109348361,0.02616939608569256
10,0.025684375884673958,0.02510148270060062
11,0.024809745175363444,0.024607583196817558
12,0.024464395470458637,0.024172103882200528
13,0.023931574109170458,0.023735762052620218
14,0.02310490866543816,0.023393846436711684
15,0.02239337586741939,0.021475167864170617
16,0.02192876423574347,0.021684066159466917
17,0.02153657263161229,0.02166002330641485
18,0.02099830094057855,0.02022450820314268
19,0.020713649499568818,0.021202952085737647
20,0.02077121868265047,0.020358855145870932
21,0.020279445943030282,0.01998462052111703
22,0.020341373082968017,0.020170150530519407
23,0.019846870761951334,0.019849872200410953
24,0.019560314309921004,0.020501001238905265
25,0.01945181158657888,0.020476118137364607
26,0.019553393666013826,0.021196996893119227
27,0.020696372633500635,0.02067864796656883
28,0.02191967667370058,0.022548664925765502
29,0.022038552989002518,0.021660618761873376
30,0.022429875153259074,0.022899127595461817
31,0.02261229986466354,0.025207045706372704
32,0.022998315075949894,0.022670035088036413
33,0.023300230666864024,0.022536390235363826
34,0.02355101203350879,0.02315521355786
35,0.023715146181495974,0.025049520331569423
36,0.024309080160356208,0.024302010117914608
37,0.024684559383379708,0.023898615959764186
38,0.023831050634550915,0.023754604735603556
39,0.02310611600045868,0.022353129111518516
40,0.02272526777723877,0.022155472897022563
41,0.022241557165861226,0.02221460677771561
42,0.02197340771564834,0.02122722076724012
43,0.02156309306034915,0.021728324748710937
44,0.021588996376583187,0.021071723101465083
45,0.020958371400136313,0.021749532535295837
46,0.02126279888119248,0.020409845411130643
47,0.020718170441597773,0.022880515093961475
48,0.021125951782613398,0.020959376267083253
49,0.020836917332468105,0.022478724554939683
50,0.020982154146235863,0.021103148385382537
51,0.021079542305913093,0.020700752270579242
52,0.020661037862687994,0.022845999381101403
53,0.020833054058652798,0.020738060779475563
