epoch,loss,val_loss
0,0.4597615914093219,0.28046932948228404
1,0.22371201850861,0.21024621987822684
2,0.20583624462429567,0.2011881654269129
3,0.19397233102580816,0.18743562427861726
4,0.18296432011514355,0.1801936195276813
5,0.17790812116970928,0.17650429711580842
6,0.17439962650755708,0.17216736572223473
7,0.1668294151123765,0.1602646384708695
8,0.15530959154061563,0.15184871051475204
9,0.14988842767348393,0.14821154774176198
10,0.1471546412610131,0.14615637109847923
11,0.14456307929720905,0.14277750941694678
12,0.14010064710053705,0.1373787492207871
13,0.13406821335557934,0.13067938601443782
14,0.12670984847558964,0.12266597809195048
15,0.11723393670541586,0.11074330807673056
16,0.1053352808649782,0.09975100973152042
17,0.09799976195458124,0.0970408567525123
18,0.10561439640921273,0.10708877560700972
19,0.10754105253375883,0.10395825346718647
20,0.10170905152670771,0.09681721428010816
21,0.09416895225155744,0.08981660198958351
22,0.09057606945482852,0.08974482863553415
23,0.09104045249408574,0.09152782060964519
24,0.09179826656715284,0.09238714532487112
25,0.09249911802730781,0.092476559048717
26,0.09223159280517024,0.09281400077768263
27,0.0925287764123399,0.09239365002868113
28,0.09247246566269514,0.09196391788141503
29,0.09203466394250627,0.09185355991689634
30,0.09154277599210457,0.09394112336960192
31,0.09154787838316078,0.0906462173706072
32,0.09101884270147931,0.09037722019741831
33,0.09039969018680587,0.09073256685941729
34,0.09054133030984232,0.08858565682723189
35,0.08955074433418964,0.09027827381146829
36,0.08958713966998741,0.08896380030177387
37,0.08893610710363022,0.08907950206144456
38,0.08873417971136091,0.09035853754020433
39,0.0888732155676273,0.08746069709710841
40,0.08814220913022543,0.0876645246827894
41,0.08797659341403716,0.08801312945142165
42,0.08778922421802625,0.08727327191462739
43,0.08762514771674748,0.08636465658093402
44,0.08682621449684734,0.08804046898351096
45,0.08731851183014999,0.08753211126495931
46,0.08711993214871576,0.08651267030315317
47,0.0866063862002725,0.08661496499296051
48,0.08651195300949945,0.08731116510886514
49,0.08682925962239242,0.08479154883239244
50,0.08614845969360604,0.08632235527744234
51,0.08626205053665846,0.08649283915687567
52,0.08642047461417081,0.08535813177394039
53,0.08573518286672809,0.08647411321925666
54,0.08609490374700247,0.08540739234898537
55,0.08596093217126853,0.08695517629737824
56,0.08606225476681376,0.08486245573743084
57,0.08570416855345146,0.08500739706837482
58,0.08579791767848767,0.08499282011034551
59,0.08570124190464484,0.08716163106245042
60,0.08578047767984305,0.08624583316324448
61,0.08567968389089349,0.08440060794188832
62,0.08585633252926772,0.08408051566312702
63,0.0853253563733505,0.08514861636681169
64,0.08572846534345552,0.08585553897372737
65,0.08566002590324191,0.08564008515983844
66,0.08557991678718564,0.0845680645804473
67,0.08542493823990166,0.08551391225893289
68,0.08541325747156792,0.08486361018931103
69,0.08558919944827982,0.08476341453446304
70,0.08538983318564608,0.08376990586236978
71,0.08524762458509678,0.08553965251537035
72,0.08536696412580476,0.08591347337709983
73,0.0855052088983625,0.08526374533737185
74,0.08548637677272923,0.08377553913639395
75,0.08536582179278207,0.0840972759529372
76,0.08519951464365617,0.08481025368845548
77,0.08527084341128285,0.08441643179897822
78,0.08538130274731859,0.0840102384644601
79,0.08513766402701775,0.08514068229822258
80,0.08531058912011359,0.08486072218667454
81,0.08504793882298527,0.08442546284942055
82,0.08504146841956939,0.08551479474992008
83,0.08534425948497107,0.08502867006371129
84,0.08509724650332491,0.08480275487020059
85,0.08539856404518718,0.0849394292791904
86,0.08538072116131024,0.08317169198367948
87,0.0850266060180706,0.08521889416528858
88,0.0850817941242366,0.08509804510703309
89,0.08538339056557032,0.0852303464897712
90,0.0856562127336133,0.08476899380206873
91,0.08507721674599522,0.08454795019449732
92,0.08533970504808579,0.08435298661218446
93,0.08523375023719218,0.08479883190135647
94,0.08525659594771197,0.08419241752084447
95,0.08519984340424733,0.08404132626780207
96,0.08498433191213105,0.08531267849262436
97,0.08544415611324074,0.08501420281209998
98,0.08509351948587347,0.08553349050298487
99,0.08543612364885046,0.08517591834021254
100,0.08518836230968686,0.08440150236438933
101,0.08496578559458112,0.0850734520400709
102,0.08537957026101321,0.08483999070800376
103,0.08524276347731134,0.08650626602046774
104,0.08557828748635918,0.0836517368667504
105,0.08477250695061816,0.08551224267614481
106,0.08526444566145028,0.08501717024839292
107,0.08534594295288829,0.08501343319711482
108,0.08539758125940959,0.08379269044349395
109,0.08553240162958439,0.08403244048898015
110,0.08513302943832297,0.08410411053458441
111,0.08529239688083518,0.08514833056912614
112,0.08523467562491183,0.08489358168751025
113,0.08551865711891585,0.08425427508123672
114,0.08523938392730449,0.08541925543156212
115,0.08537239153727258,0.0842668838981295
116,0.08501180387634358,0.08459239676535929
