epoch,loss,val_loss
0,0.29048435632988134,0.2667123591843419
1,0.12671185629688006,0.08531345381756514
2,0.06389141103013052,0.05714463172355504
3,0.05494356790868689,0.05382352693398919
4,0.05177151241736542,0.0524357265683263
5,0.051769554445283306,0.05652862029545591
6,0.05194768326864731,0.052142639536389986
7,0.05095369958703657,0.04945222616795489
8,0.049711600088958835,0.04902281740646524
9,0.04853335185516938,0.05215912321089945
10,0.049855570802442746,0.04560281755292425
11,0.048211480004729315,0.051031491071597365
12,0.04839764623273667,0.047333765563267655
13,0.048545162177843444,0.22616220850735644
14,0.049201262169342626,0.046891613465740445
15,0.04944169024328629,0.048676751833335564
16,0.04841256098781558,0.044827918018542974
17,0.04962197480072602,0.055450806028158904
18,0.04940401966111075,0.0510864656215685
19,0.04959682468399346,0.05015824752806112
20,0.04966588376416005,0.050691113466927645
21,0.04905341023938071,0.05254505133078431
22,0.04894611022348026,0.045793658611971086
23,0.04849286417333152,0.0472219991743941
24,0.04884328269403425,0.04662398149824651
25,0.048705167303101524,0.04720069862896284
26,0.048962402651064114,0.049336771709343155
27,0.04994587125264102,0.04727248771332245
28,0.050031730010331295,0.04727113533591603
29,0.04901002567532442,0.04802551359267525
30,0.04876343159974336,0.04513587921140414
31,0.0501944191283364,0.04637744884288208
32,0.049657376871692194,0.04644265034674845
33,0.04966715067553577,0.048242786733085186
34,0.0487535188017751,0.051860324015227846
35,0.048916075322077236,0.04796496696693745
36,0.048940564016644046,0.04861802603658392
37,0.04844271744505393,0.04884696012655392
38,0.049641063089946286,0.04983628049622207
39,0.04902056622193109,0.04623579517618445
40,0.04898916405263088,0.04842557179158658
41,0.04868340009836842,0.050022591502297646
42,0.048245665555496774,0.047098104278215196
43,0.04877527748985733,0.04794622371421617
44,0.048507174814967136,0.04867868519725532
45,0.04858167901587524,0.0468464877365279
46,0.047938015508494504,0.04509049431430418
