epoch,loss,val_loss
0,0.17328726344828982,0.0900021611279922
1,0.07371961862908946,0.0666083296512466
2,0.061749104347875075,0.04663393878169952
3,0.055351075118513324,0.05963760543829264
4,0.05877763177041146,0.06132809166820762
5,0.05985051693676187,0.05861053203292126
6,0.05179147358587701,0.0457147008165329
7,0.042253069444109115,0.03926622957849747
8,0.030544736165758802,0.027224021704298544
9,0.026528874495558793,0.02557377668057922
10,0.026510084082158825,0.02627392583647956
11,0.02816602673164184,0.02857044991620338
12,0.030071240950295394,0.029298816452533502
13,0.029062479776110674,0.03167890766143046
14,0.030103385085158117,0.030039257535324288
15,0.03260012898894904,0.03329210596095885
16,0.034460091492910086,0.03425050147271758
17,0.030023421962662854,0.026780080617697294
18,0.027108990337899166,0.025571910443920834
19,0.025210295221675262,0.02315415952563427
20,0.024218159924290307,0.02286850624727328
21,0.02401077210959747,0.023807575286681388
22,0.02351922709360826,0.022633979952619974
23,0.024185738125019413,0.023147433039150844
24,0.024514091690982894,0.021396989252744646
25,0.023520145408934254,0.023712289076366102
26,0.02350979893699848,0.025336297462681852
27,0.02397217132228551,0.024467654640903225
28,0.02384996016641601,0.022919589475726365
29,0.02291257121785582,0.021464442485839057
30,0.023015615286872827,0.02296300366044562
31,0.02303174275683044,0.023253880880755425
32,0.023219028785586546,0.02292821611900356
33,0.023523126405736002,0.027754204991643317
34,0.025027369947093044,0.02488003823326955
35,0.024608811408990055,0.023090707389571672
36,0.02381833751859377,0.02358284879596382
37,0.02434483932243358,0.024029846828733735
38,0.02561097217948555,0.025771987216507437
39,0.0246616175091512,0.023060330266945928
40,0.023799179395069654,0.02294562982090976
41,0.02385938652738226,0.02571498065887
42,1.1489972284660757,0.4141340917880458
43,0.19791648152777902,0.14960926379523318
44,0.13136666267514704,0.1207853820301363
45,0.1131896325807682,0.10638284200439325
46,7.357925561781553,0.43091795803433625
47,0.32736877151292193,0.2801269698114779
48,0.24800378327175296,0.23170834540991495
49,0.21436549278853131,0.2058023455087463
50,0.19344416796732292,0.18686123972063282
51,0.17729690662629122,0.1724536000811969
52,0.16361150893566612,0.1605592679582248
53,0.1552444027720405,0.15338510852351184
54,0.14878056396683342,0.14844088457471852
