epoch,loss,val_loss
0,0.14670796259987554,0.08782808916039042
1,0.07549592050657475,0.0694330226756403
2,0.06695696395590342,0.06537343414049028
3,0.06404406389446377,0.06314731768869751
4,0.061708946043043306,0.060162106298068986
5,0.05890076948727349,0.059036599406009596
6,0.056854780093371436,0.05746608851411348
7,0.055168735445570126,0.05514026466160189
8,0.05549759740869013,0.055955940985430296
9,0.05433120322432354,0.05642971706642066
10,0.05343035622823725,0.052946784166764724
11,0.05251748306002262,0.05236823533109632
12,0.04762810401672082,0.04567674809997723
13,0.04635279206372946,0.04565248671028213
14,0.04592372614035694,0.04793072208150598
15,0.04606367778375471,0.049472412589905104
16,0.04973263363781974,0.05109263504631141
17,0.051089264931891275,0.05287527241806581
18,0.05126989711162379,0.05015683682207621
19,0.05102076172995434,0.05335529645480033
20,0.050665228609010564,0.0504158248517724
21,0.05014288297100224,0.05176650771566894
22,0.049918856236526817,0.05016490187269548
23,0.04947711281377158,0.04951905838751191
24,0.04903887246223948,0.04861659717164646
25,0.04827464968978549,0.04679602297536011
26,0.04823023283021818,0.04848835081003177
27,0.04820631696082515,0.04907333755302636
28,0.04794013928726232,0.048072829957236995
29,0.048042478526739194,0.046772729058550774
30,0.04774158545654359,0.04594914083557987
31,0.04748114976558468,0.049121668640209545
32,0.04726157204912816,0.04874367562388
33,0.04737214237558756,0.04850288084469259
34,0.04698853812021889,0.047259570747002336
35,0.04693629624817869,0.04695216780668088
36,0.04673852755440225,0.047052569322776114
37,0.046531414391277885,0.046855689427023714
38,0.045898346100851216,0.0471438170978895
39,0.04637530404064867,0.04762026374158468
40,0.04644603614839051,0.04629639142149532
41,0.046097745289571945,0.0467150579717513
42,0.0463225285051395,0.046982344763313776
43,0.046007493053742354,0.04679117490255936
