epoch,loss,val_loss
0,0.16680554668608902,0.08873742229607318
1,0.06390647187852841,0.049092930918757896
2,0.026355001505175463,0.01891752446089425
3,0.018056491590131053,0.017443146612480483
4,0.01871960946946121,0.019144634228867155
5,0.0196955647225753,0.02103461867055746
6,0.020089025861568015,0.02070960730914065
7,0.02019540069894277,0.022162593377793787
8,0.020264241882383252,0.022685766412678814
9,0.02030490670237038,0.02146221606476907
10,0.020363941280949982,0.02038621149175075
11,0.020235900882539227,0.018580433626636427
12,0.020172248266154914,0.021443950745917345
13,0.020115107236106954,0.02064943235094094
14,0.020378394333793105,0.021479924350547668
15,0.020072748785545165,0.019274063348834827
16,0.019534790338270908,0.019136475856344627
17,0.01993997744675413,0.019583818387319558
18,0.019390505749723324,0.019580930031118614
19,0.01966182735460482,0.016209570607192515
20,0.019620188554342416,0.018822371912642362
21,0.01977820164687056,0.017313335990590567
22,0.019393909480616294,0.017556568598132153
23,0.01934862362189616,0.01827166009262122
24,0.018409353866652073,0.019148537841343984
25,0.018744583759042952,0.01958654914418825
26,0.018709916482232122,0.018543416795915472
27,0.018718208554837343,0.019035361542556826
28,0.01846744034507816,0.018226170328746374
29,0.01861096762990256,0.016606392432959794
30,0.01854509223017285,0.018612925964389248
31,0.01834146272268989,0.018518836618986952
32,0.018696426670792864,0.018498901283661023
33,0.01940628241220538,0.020916388423756153
34,0.02006001410325416,0.017459119247432854
35,0.018156777035525377,0.018540756474083677
36,0.018340950746902174,0.022038417946967724
37,0.018954914443635586,0.01739225463446262
38,0.018447140772952782,0.01838525209425939
39,0.01898200281685014,0.016518656521647485
40,0.01873320773345151,0.019835669184934228
41,0.019859581377258975,0.01752858185198308
42,0.018785001348248488,0.017352079877066818
43,0.018275618628352332,0.0204528450889435
44,0.01855165860336497,0.018046047497355475
45,0.018381695355028867,0.016814107207644615
46,0.018483499036751967,0.01824191342759951
47,0.018714444181002633,0.01724533312134415
48,0.018610392131736216,0.017527165384588275
49,0.018877716924098852,0.016500622913206104
