epoch,loss,val_loss
0,0.5024531065948367,0.5982213135837584
1,0.21940487717080304,0.2692020854284597
2,0.14714404576876033,0.13077996902225553
3,0.1253224614215648,0.1489263113385947
4,0.11779427698512715,0.14708940615487653
5,0.11261656358251422,0.1320900935535283
6,0.10862287697125608,0.1248374822758889
7,0.10448369119815,0.11506883765375892
8,0.09931907785220409,0.10592958931775057
9,0.09439895566054217,0.09738865055779154
10,0.09036356322173997,0.0919824916609498
11,0.0869465846949675,0.08803032338619232
12,0.08386833631382214,0.08457285096479017
13,0.08133224233632952,0.08133835761353027
14,0.07956787691576274,0.08017967416103496
15,0.0787010871049926,0.07945900808933169
16,0.07833636006501717,0.07890906854886418
17,0.07741667124934083,0.0779792016675306
18,0.07678070969468966,0.07805924319712691
19,0.07679025600040991,0.0776109143283016
20,0.07677842776371738,0.07757039420133413
21,0.07760967660372652,0.0802445590727089
22,0.07954260278639831,0.08067919163740883
23,0.07963447266910958,0.07804031063650929
24,0.07427235194078581,0.07428310078012851
25,0.07367855556837218,0.07243286119413006
26,0.06950099073995755,0.07058861782384473
27,0.0674861358317334,0.07226600214954494
28,0.06487397864226281,0.06551763351804527
29,0.06296766514149238,0.06411353998290475
30,0.06349382936719834,0.0642178279831428
31,0.06027848223649611,0.05860248667209647
32,0.058805274681782156,0.05792225819340972
33,0.05707682754228434,0.05868282518530077
34,0.05656594997198563,0.05944341539528019
35,0.05867583243044343,0.05634798938336298
36,0.05563456468342796,0.05726314754795658
37,0.0564522284750394,0.055437101931997045
38,0.059502062717760644,0.061218158796776175
39,0.057756715637492385,0.05740560666304226
40,0.058699216634973767,0.058162473142147064
41,0.05678600747519591,0.05736613790540732
42,0.0582466673428618,0.059101671211479245
43,0.0581716431055482,0.05390925846936167
44,0.05971580107263693,0.06672147554598114
45,0.058355231747383204,0.06038209247265675
46,0.059603592923541705,0.05583021853321282
47,0.057772313075976106,0.05926280948080758
48,0.05750749620982981,0.05892655097467955
49,0.0582685059919132,0.0566894533618014
50,0.05817307132904924,0.061234026945145556
51,0.05800848911831698,0.053922277608121086
52,0.057545881953061095,0.06530733354562937
53,0.059894040256269335,0.05853037426407023
54,0.05753124118085921,0.06018872998019521
55,0.05836093645748191,0.05824714252190997
56,0.058651185851162815,0.057332519384086594
57,0.058102269488291475,0.06154340017558068
58,0.05983107959426294,0.06527984702540923
59,0.05913806375204109,0.057543829198955565
60,0.059462880143734416,0.06174813872275427
61,0.05727063776470545,0.05700795046349828
62,0.058743833703553586,0.06289030833877335
63,0.05810583978304713,0.05733371658842693
64,0.059321086149750735,0.05777115380579187
65,0.059348949795867516,0.06417517187867978
66,0.057842338795033026,0.057681423200424325
67,0.059271585313588615,0.05682250054538712
68,0.059429056502468006,0.0596756839821505
69,0.059007333254250956,0.058732863717763
70,0.059741857718295,0.05881876590871071
71,0.058987019803580336,0.06077545052466467
72,0.06007901409010249,0.06201800949467245
73,0.059103008330337645,0.05749187347038772
