epoch,loss,val_loss
0,0.16779868157028105,0.12015820224640777
1,0.07509826461402633,0.05556108068377838
2,0.046150606959391174,0.03911037062277875
3,0.03981633497466096,0.11532350660734696
4,0.02666009993602832,0.023495172108534572
5,0.024049805886715913,0.02269982053047809
6,0.023913315956672128,0.02357026400234206
7,0.023968280669745448,0.024066707473645175
8,0.024083934477913817,0.023716329019913638
9,0.023810310576626248,0.02273484237415638
10,0.023312946096610585,0.023206503075365956
11,0.023007535554325696,0.022748021849952255
12,0.022610564909720545,0.020920542066574285
13,0.021455468852623855,0.020728417277489013
14,0.02075714431851983,0.02070757551317198
15,0.01999437562350056,0.020209981610773583
16,0.02018323873238955,0.019313177711314918
17,0.019849613695282587,0.01928820202366729
18,0.019171782375442134,0.0190860077403574
19,0.019009841024595724,0.018475585204755687
20,0.018641488379437764,0.01874859798214477
21,0.018541013175021593,0.01766473697623401
22,0.018483496820487135,0.018542819912232982
23,0.01828374241670068,0.017531277663305977
24,0.017967581283673345,0.01824292250054035
25,0.018285137594496605,0.01789569349675759
26,0.018094976254694944,0.018522332466538956
27,0.018339177924130173,0.017948137431595866
28,0.018148726828360585,0.018087090545090615
29,0.01823961270822705,0.018313918963968518
30,0.02199481691060354,0.021338739721273568
31,0.0207648157602925,0.02126412552758616
32,0.020304200817554664,0.01944380124329627
33,0.018961951712803016,0.018645884697020478
34,0.018457032863696893,0.017964732047426202
35,0.01807336987768241,0.017715803201250796
36,0.017688988521099566,0.01747744893118586
37,0.01772084689775793,0.017979908800715524
38,0.01747718725582774,0.017675493077184613
39,0.01741721785569982,0.01681920461247851
40,0.017171209620730245,0.016518988437074417
41,0.017116676978052234,0.016301306776096713
42,0.017322713339464557,0.01665249589798294
43,0.017227738747279422,0.017147499888594354
44,0.017447467139966005,0.01794892260488696
45,0.017393046228451836,0.01687999119233831
46,0.017073397261859607,0.01699967348349781
47,0.017192656211525225,0.01739058709882006
48,0.016772120489741114,0.016589995430254665
49,0.017080641121601316,0.017016157717388875
50,0.017331267320673815,0.017011979884440823
51,0.01708865907195089,0.01617595056496743
52,0.016717498503375252,0.0171669534971348
53,0.017109182233707033,0.01658827206009636
54,0.016868651849027874,0.016770032227139305
55,0.01716061797012373,0.016368881364859457
56,0.016984756509263475,0.017036946935854093
57,0.01716445666104317,0.017768972723846983
58,0.016906838045551553,0.016683115210051884
59,0.016570380227052147,0.016402398097904395
60,0.01687092545459406,0.0172326479749585
61,0.016835802460281397,0.016435559159813665
62,0.016911902334645307,0.016789184082020146
63,0.017004387427514478,0.016941426473286742
64,0.016690062769174244,0.016872605211127198
65,0.016599557157397436,0.015853085432380978
66,0.018548363444509264,0.016786461767329647
67,0.015712112619010784,0.015127664184949017
68,0.015541267763305125,0.0157344659037694
69,0.01597345753726985,0.015941866830097188
70,0.016093008366854882,0.01650575831261976
71,0.016497032330122046,0.01664594343062946
72,0.01678079432494444,0.016523905811447654
73,0.01672224081169775,0.0159416733134682
74,0.021576026875933678,0.01610793627580979
75,0.014420637051663477,0.013995310527602564
76,0.013286763194689362,0.012482528443188768
77,0.013002530034396241,0.011992434175698279
78,0.013587072558647438,0.013736018851464107
79,0.013772698275992076,0.013102040756582015
80,0.013863882698717234,0.015575508495179706
81,0.014093831110057785,0.01256524396350206
82,0.013466152831536831,0.01365353709532223
83,0.013826440673598426,0.014019888130346667
84,0.013862587818258006,0.013124675329351222
85,0.013777218861423498,0.015075325613051959
86,0.014483449104384219,0.015141427193510316
87,0.014738660692858944,0.01386091196299446
88,0.014395187206515711,0.013659823944626028
89,0.014583468548491966,0.013929555097766862
90,0.014091204063479992,0.013143215573597891
91,0.014439048526583792,0.013162215176349376
92,0.013836122710900985,0.012863745673279548
93,0.01430439403456309,0.015326132261339095
94,0.013695642904123123,0.012497726371386856
95,0.013534230025608739,0.01332719274741416
96,0.014111486337647187,0.014436951007814556
97,0.01478206065835522,0.016750872674697295
98,0.014384220467417313,0.014046258168866904
99,0.014584392925603784,0.014535479474703957
100,0.014612187025435775,0.015335096868126997
101,0.014571414679008946,0.013035544741166654
102,0.014847487131942162,0.013860311005602649
103,0.014391736488500468,0.015501401204859872
104,0.015545933922420707,0.014639869205147945
105,0.014862666005562011,0.014330522379240325
106,0.015357449519739066,0.016747582087847504
107,0.014839480758728764,0.014565853898919937
