epoch,acc,loss,val_acc,val_loss
0,0.5921797,0.6620482858777187,0.62918204,0.651843728778437
1,0.6341325,0.6495414309394953,0.6438517,0.6460835033353621
2,0.64425427,0.645316595573916,0.6482619,0.6437345753725864
3,0.6466481,0.6436812496834193,0.64912796,0.6428218730219997
4,0.6489532,0.6427674250500476,0.6528986,0.6418451895321868
5,0.65040547,0.6419840028791941,0.653285,0.641584746923672
6,0.65187114,0.6411146977565353,0.65598977,0.6404037581408741
7,0.65360326,0.6403145197452701,0.6561496,0.6400599280799897
8,0.6542472,0.6396751979407788,0.65732217,0.6397122669016346
9,0.65480685,0.6393573089704364,0.65844136,0.6395465680643184
10,0.65513104,0.6390616227824234,0.6578551,0.639856247388535
11,0.6559927,0.6384790960768578,0.6581882,0.6393289955150291
12,0.65651673,0.6382327777139722,0.65848136,0.6394388667072981
13,0.6563702,0.6380786773089608,0.659494,0.6386479201852802
14,0.65706307,0.6378179677919114,0.6589477,0.6386883096205866
15,0.6568454,0.6376808535019328,0.65942734,0.6389776322849046
16,0.6574983,0.6373485251913712,0.65996027,0.6386551164917461
17,0.6576759,0.6372800129450992,0.66066647,0.6385441900416221
18,0.6586397,0.6368605058202885,0.6597205,0.6384352465702794
19,0.6579824,0.6367945853894392,0.659001,0.6383859573259644
20,0.65850645,0.6365856327134557,0.66004026,0.6383014840299712
21,0.6592748,0.6363747648122522,0.65988034,0.6384365195920081
22,0.6585553,0.6363787122604803,0.6598404,0.6382938543296856
23,0.65925705,0.6360755543621591,0.6598937,0.6381008055779277
24,0.6596701,0.6358341828009405,0.65954727,0.638231053744897
25,0.6596745,0.6355904660461345,0.6586945,0.638238625135825
26,0.659981,0.6355794884593322,0.6609596,0.638173328458325
27,0.66099364,0.6354715097301978,0.6606398,0.6382490489544285
28,0.6602919,0.6352372759261832,0.6546307,0.6394344301229663
29,0.6603585,0.6351774807402163,0.661306,0.6378889979071607
30,0.66013646,0.6348432373066181,0.66111946,0.6388838679809906
31,0.6611313,0.6348617343942868,0.6606265,0.6379517727323358
32,0.6608382,0.634800840633285,0.6602001,0.6379463977892057
33,0.66112685,0.634669893907439,0.6609196,0.6378258499654702
34,0.6619041,0.6343431892492353,0.66014683,0.6377032319546387
35,0.66157097,0.634416643591447,0.6599336,0.6378523381614428
36,0.66146886,0.6343962530886094,0.661266,0.6376031907351634
37,0.66139776,0.6342968025108746,0.66121274,0.6375910555255527
38,0.6620418,0.6341845245560358,0.66222537,0.6377716604129572
39,0.66170424,0.6341174806243033,0.66147923,0.6375485586368456
40,0.66229045,0.633912585562878,0.66053325,0.6374729355739619
41,0.6622505,0.633778029269348,0.66237193,0.6375451768386334
42,0.6626902,0.633715085646802,0.6613993,0.6374313453837762
43,0.6619929,0.6338577257848728,0.6614659,0.6378710350678918
44,0.66233045,0.633578254446987,0.66166574,0.6377321196138004
45,0.662819,0.6336088476873633,0.6609196,0.6376248044516437
46,0.6625614,0.6334563549114117,0.66143924,0.6377434661214856
47,0.6630766,0.6334587399332,0.66199887,0.6380149669509539
48,0.66316545,0.6334044764700724,0.66307807,0.6381056886773128
49,0.6631921,0.6332646441878554,0.66081303,0.6378059621049618
50,0.6636762,0.6332076202840541,0.6616391,0.6372241846436912
51,0.6633253,0.6330354534411403,0.66147923,0.6372127519068996
52,0.6636895,0.633002810037435,0.6626517,0.6382576410410468
53,0.6637739,0.6329184771420633,0.6605732,0.6373677002845668
54,0.6638538,0.6327969826834214,0.6625851,0.6379384136083367
55,0.66363174,0.6327275618436802,0.6621854,0.6385781693151691
56,0.6640004,0.6328424897160151,0.6621854,0.6373874527387419
57,0.6634008,0.6326730764966119,0.66045326,0.6381028312940327
58,0.6642047,0.6326544728275005,0.6628782,0.6377207836844246
59,0.66419584,0.63243298421396,0.66043997,0.6378163800610217
60,0.66410255,0.6326157801455962,0.6616258,0.6371705238525884
61,0.6640404,0.6324090972545542,0.66254514,0.6374756432471599
62,0.6644312,0.6323620171610428,0.6619855,0.6373885772646704
63,0.66404927,0.6323281975939221,0.6628782,0.638423107623317
64,0.6647465,0.632201818031163,0.6628249,0.6372679156319836
65,0.664973,0.632196423932319,0.6609596,0.6373057582304593
66,0.6645689,0.6321354313695728,0.6624785,0.6374835255276174
67,0.6647998,0.6319297672134462,0.6600269,0.6374650425031521
68,0.6648753,0.6320353231426115,0.6630115,0.6373670653024746
69,0.6644401,0.6319741824913446,0.6617324,0.6377614466460679
70,0.6647421,0.6319549468972615,0.6608663,0.6377923381126388
71,0.6649686,0.6318971813564241,0.662705,0.6372973254172868
72,0.6646177,0.6318150060799416,0.6623453,0.6372320609488334
73,0.6654527,0.6317710696034506,0.6623852,0.6372954510115113
74,0.66513735,0.6316643957241274,0.6625851,0.6383704216567962
75,0.6649286,0.6318304927600535,0.66233194,0.637204993221918
76,0.66588354,0.6316666096412631,0.65960056,0.6378199885265181
77,0.665808,0.6317342630361668,0.66151917,0.6373477947816298
78,0.6652795,0.6315122390736024,0.66271836,0.6375475570107024
79,0.6654749,0.6315086342010569,0.6610262,0.6382961915920966
80,0.66603005,0.631591591200617,0.66045326,0.6373154688462482
81,0.66556376,0.6313794713487975,0.6550304,0.6387623667235715
82,0.6654971,0.6312920996664362,0.6624386,0.6375744829660329
83,0.66583467,0.6313533162711502,0.66226536,0.6371301644391916
84,0.66615885,0.6312763862854722,0.6629715,0.6374102620885159
85,0.66581243,0.6313007228567984,0.6618656,0.6372704671115168
86,0.6658169,0.6311402842457389,0.6619722,0.637817781548855
87,0.66601676,0.6312265355377197,0.66110617,0.6371968842146136
88,0.66580355,0.6312261461784875,0.6605599,0.6371846331328047
89,0.66584355,0.6310451555768181,0.6578018,0.638100403180461
90,0.6656881,0.6309977928219953,0.66307807,0.6395628099388923
91,0.6655504,0.631119462645752,0.66103953,0.6374387718574221
92,0.6655104,0.6309168866581624,0.662252,0.6372868703529617
93,0.6665319,0.6308239810382839,0.66237193,0.6377050869676408
94,0.66664296,0.6308711376252787,0.6630248,0.6377228690949153
95,0.66575027,0.6309299592355355,0.6628516,0.6375275734617599
96,0.66611445,0.630879268083946,0.6623852,0.6374687553802172
97,0.6656348,0.6306913472752873,0.6608797,0.6377237047368982
98,0.6662566,0.6307748831402018,0.658961,0.637590106660714
99,0.66500854,0.6307668101969803,0.6613726,0.6377625453289956
100,0.66615,0.6305381818926944,0.6609063,0.6376690455002926
101,0.6661367,0.6306992419848487,0.6616791,0.6377341527990495
102,0.66633654,0.6306999684023935,0.6585213,0.6378052089197902
103,0.665999,0.6305148188928427,0.66010684,0.6375890543396899
104,0.6662477,0.6307149765378798,0.6615458,0.6375069048727665
105,0.666452,0.6303178610275342,0.66028005,0.638011876069756
106,0.6658258,0.6306054086632193,0.66093296,0.6374588347008016
107,0.66606116,0.6304193007280923,0.6624252,0.6380805244632017
108,0.6661811,0.6305645626371832,0.66206545,0.6377878900915025
109,0.6665186,0.6304376280146077,0.6606398,0.6381345229485719
110,0.6663898,0.6302051887896035,0.66117275,0.6380018892187254
111,0.66579914,0.6303396350062799,0.65992033,0.6379025218820431
112,0.66607004,0.6301663516379507,0.6613993,0.6380858720710905
113,0.667016,0.6303352937144012,0.6613593,0.6376568821303006
