epoch,loss,val_loss
0,0.10186714535619286,0.08408752807666678
1,0.08454958663852834,0.0843364868839378
2,0.08433344855466836,0.08527869791756866
3,0.0845385733105951,0.08508606912934272
4,0.08484330758092096,0.0849721655470114
5,0.0846515760789041,0.08538378764828924
6,0.0847637683561118,0.08576557674278353
7,0.08452235238267769,0.08517819689623511
8,0.08454128934947444,0.08479223088835437
9,0.08457340613352976,0.08476710449771892
10,0.0847975113045731,0.08452766908931045
11,0.08478178429997249,0.08513873479172482
12,0.08465054931847169,0.08504863160249984
13,0.08514438615851312,0.08585161833061698
14,0.085417493638083,0.08711853207051519
15,0.08534145918931607,0.0873141078176984
16,0.08548225854545069,0.0855860712363928
17,0.08601021706733367,0.0862005854623823
18,0.08296176432211289,0.08170451904516947
19,0.08358951480307286,0.084699433658569
20,0.08492305101923567,0.08752635793191481
21,0.08517276894205884,0.0860271455695075
22,0.08550488856434227,0.08586930693072085
23,0.08603061940580559,0.08591585290260266
24,0.0851739765205186,0.08700842596884543
25,0.08229042271332299,0.048304746174433616
26,0.02175051556313135,0.021632116174379743
27,0.018215747163474686,0.01611345567212726
28,0.01786321232742671,0.021395744892401765
29,0.01735640147789869,0.015971011601994146
30,0.015936214412241686,0.014834923911163467
31,0.016379460099487857,0.015465872357478152
32,0.016643521772845716,0.01720383532522445
33,0.01610934026556076,0.013843231566173878
34,0.014934534396777834,0.013355050196109637
35,0.015453763015474827,0.01253523706567298
36,0.014728328514835617,0.01526350690744341
37,0.016027688884578697,0.01472374155214049
38,0.016556252908932385,0.014114131105015526
39,0.016770546591999256,0.01608843831036713
40,0.01671042763754624,0.018901687352671843
41,0.01921187633438018,0.026928996703283893
42,0.028472244778058403,0.04629229561991008
43,0.028718502605709878,0.023316458791778103
44,0.02308663683614026,0.021812695413923455
45,0.023807413747357717,0.022654700870298573
46,0.02330866076849136,0.02304601089127697
47,0.023341290692580667,0.021157250448366027
48,0.023028615744599103,0.02347999501233919
49,0.0230237789691979,0.022248210977717363
50,0.023039722581860052,0.023196575848566516
51,0.023319410373286293,0.021858120970383886
52,0.02393417940050703,0.024075012202187197
53,0.022693475688264953,0.030550406178078762
54,0.033812313423518814,0.023684157713903694
55,0.021366068797608873,0.020268298112937993
56,0.01918428757047053,0.023488375911417093
57,0.018842308679817066,0.013043296895700713
58,0.02419859407057198,0.017519187454160687
59,0.024256421757737647,0.09117238888342077
60,0.0333956144550044,0.016171478058469514
61,0.018354426030621235,0.015378264021370986
62,0.03233552513226084,0.01998977670475441
63,0.022226770749229262,0.02131231968352114
64,0.022922663889686876,0.023516743145655213
65,0.022340260150520017,0.022305633445860614
