epoch,loss,val_loss
0,0.10227313234755914,0.08423533504674448
1,0.09586759461171859,0.09091517704979303
2,0.09025890561792967,0.09266737287521551
3,0.09087104104358039,0.09240248209804931
4,0.09072978312163044,0.09043393651613026
5,0.09060014386048658,0.09064586746382168
6,0.09011389181125078,0.08877184621301709
7,0.0893595895761971,0.09073910250048423
8,0.08845422660960234,0.0880359853246641
9,0.08802308208144588,0.08667413025341734
10,0.08726132032777861,0.08799622385176788
11,0.0873409021395645,0.08391207539797677
12,0.0849304066086523,0.08312271081716786
13,0.08746473772152008,0.08769020081248544
14,0.08509717928729564,0.0811314165368735
15,0.0809094186017601,0.07985969775612889
16,0.07649549732444812,0.07896861243749004
17,0.07891605564465316,0.07897634786901366
18,0.07526662714517326,0.07257577041112587
19,0.07319645015753622,0.06875103785588031
20,0.07134596113901702,0.06908650462234124
21,0.06972752626892999,0.06779247438557146
22,0.06950075700387752,0.07063126060949976
23,0.06976025982229091,0.06814779698754636
24,0.06838249774213484,0.06813956435619845
25,0.06771728286756386,0.07279548921049724
26,0.06769591631542007,0.06919771992258181
27,0.06727852499623188,0.06868137707367786
28,0.06817191153419294,0.06410528742212099
29,0.06825399721900431,0.06352978653253159
30,0.06771657423456486,0.07022293787023262
31,0.06722419297651683,0.066110590287582
32,0.06816433780982221,0.07281432725230398
33,0.0716469900118266,0.06079711820327492
34,0.059012671651915725,0.057706278867155146
35,0.05918891509647945,0.05840774960580687
36,0.0599600937534615,0.059024071814117465
37,0.06023147629706455,0.06105826501517712
38,0.06078801994516457,0.05957343433369848
39,0.06036681288497435,0.05984962940651221
40,0.05967550806412332,0.05797885628689107
41,0.059060309093064374,0.058677771763806987
42,0.05844129221647871,0.057732261277752876
43,0.058431652212272776,0.05889283510655659
44,0.05890455382238094,0.06000064782527788
45,0.05922045009277707,0.0586653733456944
46,0.058519096991462675,0.05764314807045855
47,0.058751846999406436,0.06092491691701273
48,0.06017064774627808,0.06100812286797149
49,0.06057104295853683,0.06078214732152369
50,0.06030889621509208,0.060387140873528505
51,0.060471515405735525,0.060932072926233295
52,0.060571788471463106,0.059639008411433436
53,0.06045088469743919,0.06054323200127602
54,0.06074397295280148,0.06088884132631246
55,0.061128272076429936,0.06031541334172592
56,0.06178816194742096,0.05917374783246274
57,0.05907786700377266,0.06075333862550022
58,0.06100919275290722,0.0614009435467228
59,0.06160493593642132,0.06206756504142294
60,0.061060433960158665,0.060620933854930406
61,0.06059400330734648,0.061883583876591736
62,0.060600933545886235,0.06088876170301023
63,0.06046411873762318,0.06000812092374043
64,0.061035680239923375,0.06138351717089092
65,0.06064043306618286,0.059812421074700146
66,0.06023011554395862,0.05899343039067175
67,0.059983520162962586,0.060569568440147575
68,0.0597116204706742,0.06021790698482328
69,0.058196969517543135,0.0563872174419398
70,0.05673500191834238,0.05522284596782081
71,0.05679102551801016,0.05660552870932064
72,0.05635541665935807,0.0559530838142019
73,0.0556770114821466,0.054209074351698416
74,0.0552124343566793,0.05586726428836514
75,0.056146917880314,0.05455781461784194
76,0.056592165702785684,0.05568099847385379
77,0.05727794988238685,0.05700063250735461
78,0.056229113473845044,0.05671684286794563
79,0.0576895732081962,0.05865843204638811
80,0.05796836563449302,0.057729062480938745
81,0.05742718166947889,0.05786715997801983
82,0.05662362262581309,0.05471830493487541
83,0.05616866770892037,0.05482718644879799
84,0.05567897317914678,0.05541757711348284
85,0.05558990358526139,0.055523220321785395
86,0.055250386365031975,0.055232548161506086
87,0.055431159129805514,0.054958004048704254
88,0.05523690604548946,0.05462927854345742
89,0.054077099236346286,0.0545669549402811
90,0.054177962367882214,0.055266742590864816
91,0.054782851490837566,0.05436174651709309
92,0.05465440989898549,0.055248286742672924
93,0.05429296497944936,0.05428533982220911
94,0.05462007344046014,0.05372547488527309
95,0.054442552283114426,0.05461837057591708
96,0.054155116961847584,0.053827749724016945
97,0.05377573051566569,0.05444003351329699
98,0.05381888380872724,0.051906961028852984
99,0.05522823526667688,0.055346962778984134
100,0.05584994166401579,0.05599608693798179
101,0.057372436338334346,0.05828026944849325
102,0.05900156020866536,0.06057368706244367
103,0.05986649693130589,0.0607158276954432
104,0.0600488268890136,0.06089260501767955
105,0.05999846019961541,0.05979766421631602
106,0.05932573634732089,0.059384999261623585
107,0.05963500151537258,0.05874597249168906
108,0.058997080128321305,0.05798780622038675
109,0.05866787340015554,0.05867456346191613
110,0.05880239042047736,0.05857886666551103
111,0.05858015549628974,0.0588367316157402
112,0.05816413769178348,0.05866278523039705
113,0.05877945445579209,0.060970550657330105
114,0.05841463882488003,0.05827982334130471
115,0.05833771516257029,0.05798981305220603
116,0.05814232156246448,0.058325215134749094
117,0.05753412889279455,0.05737029991444162
118,0.05768024278871661,0.05736762275088699
119,0.057363782318116875,0.05715440872442139
120,0.05708840657487142,0.05870197237349441
121,0.056385905530265006,0.056485671536069315
122,0.053728901493779235,0.05226714074635186
123,0.04892835092785166,0.046237024738826
124,0.03532582691231881,0.028008985896201564
125,0.027402446854753133,0.02695631129419447
126,0.028577729425713908,0.03019077019584413
127,0.02824693172853693,0.029371301363859598
128,0.02837020048698921,0.027470540938363798
129,0.02763879217161275,0.025822133864125425
130,0.025886785505964106,0.025334472702036964
131,0.0242434071580158,0.026105368092190107
132,0.023356509205757183,0.022046353738540348
133,0.02218007444341531,0.022693653263874947
134,0.021014972694320896,0.020810211511937446
135,0.020120653449178044,0.0185348507152516
136,0.01928965521030512,0.018386854347460495
137,0.018973425057695077,0.018942319258610882
138,0.018807919854636965,0.01775264131580057
139,0.018695745403490525,0.017450478730610064
140,0.018055182528405857,0.018052196959856878
141,0.01755456774181751,0.017553053266863503
142,0.017101583280107403,0.015867414388286673
143,0.017077284904816997,0.01580601098657613
144,0.01640263267673275,0.01565632862704141
145,0.016531344795179703,0.017906212195535003
146,0.016520152497533365,0.014335295436837679
147,0.016700969740590578,0.015213125299893162
148,0.01702236117840522,0.016300175749055817
149,0.016937064295496903,0.016649623379411196
150,0.016712881666109364,0.01582155205054325
151,0.016173099065653618,0.016399864302345368
152,0.016284992552236196,0.016112232312483637
153,0.015914287547477417,0.016568906814919897
154,0.016309946984909535,0.017800303904491093
155,0.016231744717672573,0.017353855209805855
156,0.016438156536085713,0.014766399884242167
157,0.01646679628295727,0.015431115978773046
158,0.016359922929304382,0.017231342627871973
159,0.01605509154775517,0.015548851784618591
160,0.016503532335320734,0.015402542718450209
161,0.016484153082149088,0.01595898526617794
162,0.016602019722339698,0.016237722285093348
163,0.016270050554715698,0.01770908080428051
164,0.016390700255882452,0.01666291193526103
165,0.017167300908693405,0.0162317056617543
166,0.017762211538076274,0.01828399319962496
167,0.01919866731060188,0.018222629711187748
168,0.019512407277687657,0.020023729982025094
169,0.02013273302132158,0.021252268297383126
170,0.021628830857912926,0.02146591649051894
171,0.02224960222460261,0.02109814561968162
172,0.021460652665821738,0.021595620180663213
173,0.021627427127266632,0.021815050367983358
174,0.022295620570854126,0.023430020473059487
175,0.023359233583546996,0.022449754051909722
176,0.023503408874299445,0.023147072144486334
