epoch,loss,val_loss
0,0.23644974554995363,0.40325996547866827
1,0.1189627845575817,0.1521002986507333
2,0.09957578337842898,0.1008922887500008
3,0.09090455503260299,0.08864649500471453
4,0.08831150785124273,0.08905045238882892
5,0.09006467285595066,0.09199980977443419
6,0.0921963786514257,0.09332789412472506
7,0.09298499352890524,0.09315964922414771
8,0.09309323120424502,0.09332875115907183
9,0.09300407448665891,0.09350406295592707
10,0.09302827918069731,0.0933903011639662
11,0.0927531759944751,0.09271309551236756
12,0.09221932554630924,0.09214007510453015
13,0.0913076177298975,0.0913001402812674
14,0.09014408406820133,0.08974094110840215
15,0.08905013465433478,0.08875193512736104
16,0.08833069957905917,0.08927682811289955
17,0.08844513660497802,0.09033671664787073
18,0.0894968854419762,0.09087109536920464
19,0.0895464456886601,0.08934335582893292
20,0.0891923464560728,0.09022394792362753
21,0.08923335275430379,0.09006910726439793
22,0.08956078581696601,0.08932349406882545
23,0.08891455256800762,0.08896403914962872
24,0.08802213542145505,0.08804705585540518
25,0.0879101263318988,0.08797646818451742
26,0.08786770336621766,0.08816400619007606
27,0.08809337491313998,0.08803895460449059
28,0.08873514325129424,0.08830419521493618
29,0.08775679142081098,0.08784824357483456
30,0.08729859196143946,0.0858758238409576
31,0.08494401404218709,0.08536660027908545
32,0.08523565733270774,0.08474221760914283
33,0.08470299712223686,0.08737000429616167
34,0.08640841576907275,0.08770756929195482
35,0.08805860066228062,0.08947451079253993
36,0.09055387392806874,0.09328148252938616
37,0.09484586909973174,0.09691559485708905
38,0.09726019949912072,0.09778247767766819
39,0.09731513112902546,0.09778027820982327
40,0.09711793849734571,0.09702927748589603
41,0.0967275201768088,0.09689949354672865
42,0.0965123432163569,0.09742932834889631
43,0.09641059791798787,0.09671891393064982
44,0.09653732367008805,0.09735340743833577
45,0.09672715341289648,0.09749109687279225
46,0.09690060873004458,0.09764126500654334
47,0.09708286651211391,0.09718286435413097
48,0.09700605518919386,0.09789566613951346
49,0.09725887339106566,0.09790792997747119
50,0.09764896956779402,0.09773879730522679
51,0.09748655093683423,0.09814290872877192
52,0.09777056800423385,0.09759296989619685
53,0.09787481545889787,0.09816064746740209
54,0.09843299739795337,0.09924206426389215
55,0.09987159131718673,0.10180052039937514
56,0.102417694132248,0.10240949494521638
57,0.1020396140863379,0.10270372755243351
58,0.1022519651326916,0.10378311696773264
59,0.10252436638759861,0.10320982265844059
60,0.1025939685144394,0.10279031672412801
61,0.10250109536565846,0.10278298606435991
62,0.10184370129883623,0.10203859391721479
