epoch,loss,val_loss
0,0.10589393744651648,0.053573266962497555
1,0.03975616361823776,0.03154360796247727
2,0.022794077988806293,0.01943396299712848
3,0.017662319104573568,0.017997409160459898
4,0.01707543116986013,0.017604966297298786
5,0.017742740250915455,0.017698695317157724
6,0.017883672425113947,0.018547086240672275
7,0.01782142573209713,0.01780451398310505
8,0.017579099817051115,0.018890481968516896
9,0.018672920027963644,0.018536598513515898
10,0.019208399427058598,0.018470946267164872
11,0.018895925222922095,0.019498886590516275
12,0.018883616694782994,0.018494554963653823
13,0.01885343361109924,0.018570325682094085
14,0.018617416729035375,0.0176341762573656
15,0.018798064871532596,0.01915182692278838
16,0.019421572018292643,0.02002309701143049
17,0.019896914311450162,0.018494039287330507
18,0.019344568332965426,0.017361606264688315
19,0.01886986215397132,0.018671419789048755
20,0.019274930386311954,0.02006734737092901
21,0.01987616789209352,0.019403114717897695
22,0.020442943149756233,0.01923334582957962
23,0.020304877738312757,0.02014341233878881
24,0.020530306966416983,0.0198360016759141
25,0.02048574227074401,0.019762788408957038
26,0.02058513645383475,0.020476029449287322
27,0.020939703425504178,0.019484332636963125
28,0.02108929522162814,0.021276478287370636
29,0.02150298773923771,0.023067740511793083
30,0.021356805550049155,0.02275358654276395
31,0.02215518888315375,0.021640272481747755
32,0.022454779982257138,0.024253356713733996
33,0.021621243465396997,0.02156121983106859
34,0.022262998173187533,0.02112351501714835
35,0.022318288441196526,0.024571960315625783
36,0.02243171458085664,0.020620444976234397
37,0.021987218493156487,0.02037944704082507
38,0.021925672182260894,0.023157325615164044
39,0.0225881515845037,0.022892172244725117
40,0.022829731668737963,0.02161171641744726
41,0.02308473672172863,0.0228160266656408
42,0.02333275903072908,0.021630562513319875
43,0.022547743435826995,0.021934705134407685
44,0.02235362653156741,0.015228634432616813
45,0.01965419523906317,0.01852657924749504
46,0.02041294415229016,0.02167036846844625
47,0.02080845534369695,0.02119372369928819
48,0.022779674558854886,0.025689911603010256
49,0.023203867179401916,0.020562060402254938
50,0.025148148472003227,0.02339699432318523
51,0.02532247175275684,0.025550726127840914
52,0.025068397143130583,0.022071257674656425
53,0.020105468401823826,0.020177713243236386
54,0.018607563660037126,0.018749742948794893
55,0.018237201729231028,0.016287790427620994
56,0.016481120172116778,0.018761211696015443
57,0.01969429026495555,0.01436657617611027
58,0.015673097310890016,0.015906435622735905
59,0.018837446693054063,0.023591229414248335
60,0.022388521561043248,0.021224064902412017
61,0.02107752475747578,0.022846691995482796
62,0.02094372971464309,0.024628192715599673
63,0.021309100808374743,0.018519929985074002
64,0.020636058761645183,0.024384282276493034
65,0.020155260043827703,0.020610221138998762
66,0.020766065317503125,0.01958173512530402
67,0.019830915536418806,0.019973777233084168
68,0.019301172935490985,0.018159251619680197
69,0.01945830690343198,0.018922605909754087
70,0.018867161862707014,0.019099663944522415
71,0.018734542719221755,0.018885834248414543
72,0.018859741266825786,0.0174266872141031
73,0.01816475852656898,0.016778342071523702
74,0.018515467763596253,0.018401544507307712
75,0.018344298244076525,0.016353387194490848
76,0.018474476056085598,0.0183210262165779
77,0.018250279536516926,0.018194126717940313
78,0.018620333244218575,0.0167872287625566
79,0.018573512070083457,0.01886220813979525
80,0.01922804655449139,0.019763845962126048
81,0.01968949982266632,0.018824049978037
82,0.01951859946058189,0.01745795340210364
83,0.018851890281545554,0.01804720586711201
84,0.019173112675565467,0.015392263964606535
85,0.018022907373728417,0.01888688210759609
86,0.018807131176193554,0.020350527285870928
87,0.01763800769704852,0.01825475414454843
