epoch,loss,val_loss
0,0.16337401332329218,0.1116428625106153
1,0.08580411095127499,0.08375459032658056
2,0.08492611004389543,0.08708902042661959
3,0.08716041258842254,0.08726592616552241
4,0.08817968519328595,0.09119255262726202
5,0.09068762522926338,0.08959691950958737
6,0.08990752858986005,0.08806527360109428
7,0.08450544450423128,0.08289513038949131
8,0.08306864604389638,0.08352655946220482
9,0.08340472773277312,0.08233141095833978
10,0.08266890225865,0.08259354058973603
11,0.08204627608795532,0.08069886134286142
12,0.0813915444066008,0.082400816656655
13,0.08089438527465152,0.07926351671131371
14,0.07992129495961489,0.07976085753801214
15,0.07916885299338616,0.0764650075616287
16,0.07792034582625762,0.07576345662338675
17,0.07684451121268131,0.07789910217157574
18,0.07675441421812577,0.0739877111298321
19,0.07445747413033013,0.07414795763514224
20,0.07347576195697228,0.07208110202741887
21,0.072567736323503,0.0728360665072676
22,0.07265358071604507,0.06986312779885347
23,0.0722438969271932,0.07149187695373206
24,0.07209996234694069,0.07261150161535042
25,0.07287319242168101,0.07127177826442771
26,0.07247372015977173,0.07275569756480776
27,0.07217796320478312,0.07088251781209585
28,0.07117013044530253,0.07178102453087104
29,0.07096676428695853,0.06908612900605424
30,0.07019924820601035,0.0706495175751157
31,0.07018151126510139,0.06966199735275101
32,0.06916028895466733,0.06917629032833142
33,0.06900216858211658,0.07310711895869111
34,0.06965603425407962,0.06934827291527976
35,0.06910314509491745,0.07056241237279837
36,0.06890710181505275,0.07136524099365595
37,0.06891623176008964,0.06865227718755967
38,0.0699834533059578,0.07103931605698277
39,0.06018286942840099,0.04755378945568178
40,0.04503065917929776,0.04134107110308867
41,0.03534864591989967,0.02847194287928899
42,0.027574834282056603,0.026003079700571113
43,0.026630352966660123,0.02675960631489801
44,0.027950149785867223,0.028085483562998066
45,0.029064723362715886,0.029525109147028182
46,0.03334350121780027,0.036312747652618174
47,0.03693863065045276,0.03968746868427475
48,0.03808896529296939,0.03464928005352299
49,0.037980968137081864,0.03712723615278667
50,0.03843186008219096,0.0379015279738284
51,0.03848404001644094,0.038861763952469014
52,0.03879236384964199,0.03800481121513725
53,0.0391034968867362,0.037782432865748374
54,0.03993466413236684,0.037187261664218194
55,0.03970493584406747,0.038299137363305875
56,0.039836878213081524,0.03669938718828049
57,0.04007824730250142,0.04112585857157737
58,0.04024432294761582,0.059651753341083746
59,0.040249449219539775,0.03875818481226323
60,0.04014801574970702,0.041145841108124935
61,0.040611467648038475,0.038902950440051993
62,0.03984611815691804,0.03754403297778369
63,0.0397496771522992,0.03829332464613497
64,0.04007429808533068,0.040200948527034285
65,0.04004450964865734,0.040416475841165436
66,0.04012934492229463,0.04457620005604782
67,0.04057083300632729,0.03905463410392933
68,0.04012995407872682,0.04100765088527524
69,0.04066864748914941,0.041350436435855085
70,0.04046886518067545,0.03988157232139839
71,0.0408239526604172,0.04012600006719415
72,0.04047642717455074,0.039634316486336627
