epoch,loss,val_loss
0,0.07382422930250565,0.06909419596940279
1,0.06875482826183239,0.06931011629849672
2,0.06452676963309446,0.06369206116721034
3,0.05969345577061176,0.09233586893230676
4,0.08518231635789077,0.07038288851827383
5,0.06901277504737179,0.06936979803815484
6,0.06877600686376294,0.07053542217239737
7,0.06861100738743942,0.06868888856843114
8,0.030177009312125545,0.024829163430258632
9,0.026348761706302563,0.025522761466912926
10,0.026467129180207848,0.02442346241697669
11,0.026697608081003032,0.025829724878072738
12,0.02756951261063417,0.027179807610809802
13,0.027994976773237187,0.027213795287534596
14,0.028105374689524374,0.028165521090850233
15,0.028294065247289838,0.026706157885491848
16,0.02899673118069768,0.03050781394354999
17,0.02912853499936561,0.028712925150990488
18,0.029147144141296547,0.02905724817700684
19,0.029260417023052772,0.027942718649283053
20,0.028973676941667994,0.02762180321291089
21,0.02879793652954201,0.029415002821013333
22,0.028671176685020328,0.02664431087113917
23,0.0285560700421532,0.028947159059345723
24,0.02856064249202609,0.02866671333834529
25,0.02848928353500863,0.028443499498069288
26,0.028615303739594918,0.028287377525120973
27,0.02867058149849375,0.028093181857839225
28,0.02898055834819873,0.029084832785651087
29,0.029696518785630663,0.030067202620208264
30,0.030136921542386213,0.030035196168348193
31,0.030641705019399525,0.030131717156618835
32,0.03142262475192547,0.030858630761504174
33,0.031802976433187725,0.03244679120928049
34,0.03147243207382659,0.030355643425136806
35,0.03075680164496104,0.030329351034015416
36,0.03043233245052397,0.032137654488906264
37,0.030157914984971286,0.03195754891447723
38,0.02978049725604554,0.029189226990565656
39,0.0294088427623113,0.028965832045301794
40,0.029200567066048583,0.029224708212539554
