epoch,loss,val_loss
0,0.15400752773006662,0.07784224944314151
1,0.046307506272010954,0.03157714098080369
2,0.025805012637125455,0.02095146267877005
3,0.021071050562512437,0.020101299891637926
4,0.02181386363079889,0.022874537431991467
5,0.02221529873431944,0.020829608631573893
6,0.0220172255218839,0.021665291951847247
7,0.02239150660474309,0.022558247786670947
8,0.02242465743007396,0.024927683154028425
9,0.02312017242080993,0.022540754532028393
10,0.022826589334258834,0.021470005307184868
11,0.022822693588850883,0.021321000704790254
12,0.023391737807378302,0.021930829388837034
13,0.02255957557348539,0.02178594182468157
14,0.023151597618568335,0.02177876961177131
15,0.023532067134464197,0.023352977341215914
16,0.023791480335972007,0.024043778326559368
17,0.023781067516050226,0.024074085193503156
18,0.024037867633374236,0.0252602829641259
19,0.02419534278549641,0.02375038549886177
20,0.024095981327487793,0.024935283645952228
21,0.02400853646566256,0.022155642922564858
22,0.02398454679919185,0.022884035019914088
23,0.025079496024693136,0.02247726799951074
24,0.023658867764601604,0.023057808230712646
25,0.023757617610940734,0.024573599860871882
26,0.024723502529634657,0.02566540372229366
27,0.024527185924833626,0.02175509511260132
28,0.024134600057834677,0.025299887966008853
29,0.025046615684918647,0.024348199026454784
30,0.024869561849011602,0.023648434897095272
31,0.02475226645042999,0.024213276266898804
32,0.02500670774580001,0.02472707576279388
33,0.025201146012182526,0.02581961651280487
