epoch,loss,val_loss
0,0.15447295040225717,0.09878449233714859
1,0.08483688539857391,0.07995255296754386
2,0.07661969027668833,0.07331497492099617
3,0.07013040177410931,0.06817679894586764
4,0.06741739589152194,0.06684085319808081
5,0.06629164601198966,0.06525607878708331
6,0.0655475771166295,0.06511258847288194
7,0.06460341510119484,0.06365930607752623
8,0.06350824202624537,0.06266500635606244
9,0.06266569943248415,0.06188234542779501
10,0.062233754142606665,0.06197340647089453
11,0.061419823389354464,0.06101996270497201
12,0.059469900527994314,0.05809868748087345
13,0.05627609551143494,0.055429476974113025
14,0.05379203340108637,0.05285572047744479
15,0.05257038542216154,0.05192002414445662
16,0.05151072889864206,0.05161103194589773
17,0.05259610200933606,0.05264413474390802
18,0.053547324233060835,0.05372292672790405
19,0.053349335044384195,0.05402741666468656
20,0.05345845716200668,0.05229099768477815
21,0.05302096514416923,0.05261097081305478
22,0.05298735575078965,0.05578624654411329
23,0.053411504329680254,0.056487708416456485
24,0.053873996624796035,0.054164842388577224
25,0.053423569636712735,0.053647250998485906
26,0.05384233647244249,0.05294803826942534
27,0.05370694200257413,0.053510349176253684
28,0.05640341383483198,0.05356595616114356
29,0.05353550748418656,0.053111069127858485
30,0.05349917872120246,0.05358705194791942
31,0.05373827889144754,0.05376335463671112
32,0.05372408584808465,0.05470625593399757
33,0.05435628170887534,0.0547483465424794
34,0.05388700314682069,0.052764186854661686
35,0.05374252282791763,0.05321429654567752
36,0.0531536126606089,0.05587726059621869
37,0.05323869270160139,0.053509958361840755
38,0.054039702108271304,0.053178150509649504
39,0.05328385693301781,0.0543608407989062
40,0.053488849637677055,0.053819121859067995
41,0.05368926242101107,0.05364016735163277
42,0.05383800149118777,0.05389416848192463
43,0.05370149238230132,0.05409489295665166
44,0.054253515261087674,0.05350635048728245
45,0.05356549916507529,0.05392245190025505
46,0.053717720241164515,0.05441197110215039
