epoch,loss,val_loss
0,0.14101296239238467,0.10462076263391981
1,0.08756390595131164,0.07426258564677499
2,0.06350031467995865,0.050952621936304135
3,0.04081519463543983,0.03454012919773054
4,0.03185009056006928,0.028491012272796202
5,0.02780861629107647,0.025785707957578063
6,0.024470184619972506,0.02347536210261797
7,0.024284683240891742,0.022890739973513933
8,0.024309750530961082,0.023183480140348073
9,0.02534650744413205,0.025192250166126567
10,0.024725017367864397,0.03106306235716864
11,0.023845127865606598,0.027353907240688473
12,0.023150920818040936,0.01871883462682284
13,0.0215739443500658,0.024995460891662477
14,0.019514324752499253,0.020446296601946558
15,0.01887810282293055,0.018603054891857183
16,0.017042880751293815,0.015321603967369356
17,0.01564798812768299,0.0150419696922919
18,0.016001048488922115,0.015823393909447335
19,0.01643611495528254,0.015455581111820223
20,0.016968471439946873,0.01816514199974505
21,0.01754324460405109,0.019330312639780654
22,0.016602528939242484,0.016459765559578374
23,0.014750211185096004,0.013665994604271797
24,0.015086720379324054,0.01715536788252977
25,0.015033760789609094,0.014096209894051304
26,0.014720804593283877,0.014291278415910118
27,0.014421716366680883,0.014256077179069253
28,0.014515239085040266,0.015950402889574194
29,0.014798119375712985,0.015553008873771285
30,0.016536519743969663,0.016154642614529372
31,0.016233275250288295,0.015523367254144344
32,0.01520399185237017,0.016193439817936663
33,0.01524957607155569,0.013938116180198157
34,0.014176727000469094,0.01561807837681264
35,0.014154966217841652,0.012142066887911371
36,0.013561691033566813,0.016083976785316416
37,0.013241708239943957,0.011685955541056964
38,0.013504519154854434,0.014859049166416735
39,0.013384568450271155,0.013334273099722876
40,0.013559948696905999,0.012685759900095149
41,0.012952975909055161,0.014871649902781446
42,0.012524519692272616,0.012624307428269803
43,0.012231891861648487,0.01310867799891434
44,0.012052803391889988,0.012197459511305981
45,0.011615113275934109,0.012676857952866483
46,0.010657735819594085,0.012226291932165623
47,0.011466307347442369,0.01141544739438637
48,0.012688113153903937,0.01324687425955695
49,0.012872930988743841,0.012629216938958032
50,0.013408776175760799,0.014137221349589968
51,0.013391149665439705,0.012328309639141657
52,0.011973047257139742,0.010290238482182244
53,0.011254278900136026,0.010621592650908885
54,0.010223018993019795,0.011974075122573946
55,0.01066801356182223,0.01075584585127886
56,0.01081743474891908,0.01200976188205647
57,0.01172738592121765,0.011356582851152817
58,0.011988908936865895,0.013058267382356532
59,0.01219181190144351,0.012928159662684824
60,0.012841999584393535,0.012398580076715423
61,0.013356503014334387,0.011873516781165926
62,0.013221086442863626,0.01422325844766944
63,0.01275706269832657,0.015311126867728198
64,0.013102195386087699,0.01440153500887006
65,0.013958017195133473,0.014660954752520914
66,0.013750736523109923,0.013348116138810328
67,0.014287349991321707,0.015043771441293778
68,0.013823214511898496,0.013762241185311266
69,0.013920907271009007,0.014404255835796635
70,0.0157024911132088,0.014979680686242343
71,0.016429218930749893,0.016439050349282672
72,0.016075704980054967,0.015844127820435715
73,0.015203184454882746,0.01544087269250083
74,0.015138383543075656,0.012931672665830804
75,0.015936364694092747,0.014740849436417328
76,0.01518824525053898,0.015009068430422701
77,0.016236243810099686,0.014599247184312287
78,0.015214263017086102,0.015011325943847529
79,0.014488545665554672,0.014926462716495746
80,0.014397847086494917,0.014955852596764031
81,0.014330900523239832,0.014171937258580396
82,0.014177587921087214,0.014429821235134362
