epoch,loss,val_loss
0,0.1734327627338475,0.12376314467488073
1,0.10870468101317553,0.10693185140791142
2,0.10057347922397555,0.07692371779830792
3,0.06852921737815074,0.0647354706028078
4,0.06226153485030293,0.04958254363220229
5,0.045400979049462116,0.039734949382064656
6,0.03554091890968627,0.03265959808592638
7,0.030845947536847575,0.030977943550498353
8,0.02921517350845676,0.02779313557191025
9,0.02791575294473379,0.02698333070840578
10,0.02797272946420524,0.028081588035459678
11,0.02828966741257315,0.028519381134643643
12,0.028660142203148223,0.026999917125363187
13,0.028562435773100785,0.02732954104302338
14,0.0278907848959811,0.029149773035965856
15,0.027875046289677054,0.025970660592557974
16,0.027746936781324453,0.028131065979870456
17,0.0277139149624095,0.027326570419504967
18,0.029043320587260738,0.02751089228227464
19,0.028741535237081332,0.02756431258938495
20,0.028585494709589022,0.028528038359408127
21,0.02931742760078084,0.026361620134505683
22,0.02830624412134778,0.028019554589617034
23,0.028841575248826513,0.028164047824296785
24,0.029704973167128605,0.02876296475964827
25,0.03339196408508445,0.030195525404133474
26,0.033619202162733945,0.03350696147617244
27,0.03403751746260767,0.0330968525910481
28,0.033363778246857,0.03143710346970392
29,0.03335656332883903,0.03403266721302915
30,0.0341523104607106,0.03711223991289323
31,0.035436711857001556,0.03484352090599599
32,0.0348384499782138,0.0329398860436024
33,0.033184582931841976,0.03226492421785347
34,0.03228816224171294,0.03181507065157158
35,0.030922667704802526,0.029261347257782837
36,0.029603205301123654,0.028661121947260098
37,0.030612204773284548,0.029566626635621925
38,0.029849088925728313,0.029754334043390937
39,0.029169629942134415,0.028538345515833844
40,0.029892321726639304,0.02939910362985488
41,0.030299117677003072,0.030756263660697742
42,0.029915757915027423,0.028942618795450785
43,0.030456009269546832,0.031259114532816004
44,0.03275855930207921,0.0322072631087751
45,0.032421432085615175,0.031732155176228016
