epoch,loss,val_loss
0,0.1761749509355719,0.13694790874820295
1,0.1016187287277455,0.09645189713001627
2,0.09751334860861349,0.09971841103628853
3,0.09928118661462927,0.09784198367134642
4,0.08991214387613139,0.08223377540413564
5,0.06436400061590876,0.054471457125685206
6,0.05253064465358389,0.04863989360530544
7,0.04874657078696002,0.043823045761498675
8,0.049135854793824166,0.0491828123208991
9,0.04828595477852413,0.04587942890487699
10,0.04719579154900986,0.04871608593575392
11,0.04703259147364173,0.0510853587546119
12,0.04696382799272915,0.04607590588122818
13,0.04752824592182962,0.04490708054029387
14,0.04733092700548881,0.04804906738597103
15,0.04731630466932015,0.043858555960744595
16,0.046990599612788043,0.04595954470695147
17,0.04619057610226002,0.04314868513791695
18,0.046073413089954024,0.04380949370227842
19,0.04653897934811388,0.04442296912798095
20,0.04653689286691679,0.04475905870005853
21,0.04570144736807314,0.04695151745096943
22,0.04644145279658212,0.05055631272606522
23,0.04574141601661889,0.053083963086497814
24,0.04552776548418877,0.04377933158506158
25,0.04802900172775979,0.042158606161540574
26,0.045796726065740694,0.04197465601335291
27,0.04650307731996242,0.04510087842428976
28,0.046729895901932515,0.047412681833627006
29,0.04684186651468944,0.04804808292140995
30,0.04733231936326082,0.05028938219809777
31,0.045811491684137964,0.05128274070306284
32,0.046656011760854224,0.04528032233843017
33,0.047300322271651214,0.04562738775654204
34,0.04694433772949864,0.04742519915009825
35,0.047636806300813725,0.04651340728459531
36,0.04740491665476899,0.05575845371152626
37,0.04762459534118406,0.04801147826304093
38,0.04760422970620181,0.043684508113430165
39,0.046503471709388816,0.05055862425546431
40,0.04684459542830308,0.04514784724602289
41,0.04706745303208403,0.05518697777317562
42,0.046141581846584234,0.04694264766119932
43,0.04659928068768778,0.046544717138172986
44,0.0470037493976853,0.04901207863825837
45,0.046200921024969345,0.04392862769509735
46,0.045820764908425626,0.05099555087623487
47,0.0466284850905601,0.04474710507263983
48,0.04910671011471062,0.036697670488067755
49,0.028025793178166322,0.026996650632350298
50,0.027379610598813907,0.02530570158583495
51,0.027442108297781598,0.02767747568426729
52,0.027127758082416322,0.025791935494791456
53,0.028859010739006298,0.027314167490321627
54,0.026188864864760356,0.025684189645319166
55,0.025922492134580605,0.026169840028860858
56,0.026468194842481498,0.024958126452746313
57,0.025735003632500017,0.02580859524880748
58,0.026714074773063288,0.028203443915898536
59,0.026647793213955218,0.027188571190554133
60,0.02596817019847419,0.028251682896969728
61,0.026329788009373307,0.024118621233077432
62,0.02650121279986952,0.025819134730154732
63,0.026299356959379024,0.027957766085286825
64,0.026476459056555893,0.02410753439573811
65,0.02623129227711595,0.02553542696333534
66,0.02640953241251141,0.02365541206738943
67,0.026389838121146512,0.024962845445855357
68,0.025958435864542887,0.029234447698061074
69,0.02641870339157627,0.024886594710382026
70,0.025801543229007178,0.023990257510117123
71,0.02594546959113827,0.02623759850789076
72,0.025975364815744518,0.02604841532945727
73,0.025733269280571635,0.023725814754238916
74,0.026022435961772117,0.02487328932006809
75,0.026208927538499033,0.026861436694460585
76,0.02536126640852359,0.025173671865554994
77,0.026273060317555493,0.02527870796179809
78,0.025664123431812944,0.025621050046999435
79,0.025881005086296562,0.024126864059724577
80,0.025810207157648153,0.024188956672115503
81,0.02610072684954468,0.024090556401374214
82,0.025704965888739204,0.02707825972747878
83,0.02595195170346019,0.025193191519346684
84,0.025798895909226866,0.024153177037646946
85,0.02634814577393061,0.024422274955387367
86,0.02583217872850162,0.025980972695945754
87,0.025989680654472776,0.024047954493123618
88,0.02558383807840703,0.023994358381419646
89,0.025884983414928498,0.02431108460753521
90,0.02564256519025607,0.02417547352341516
91,0.025548497136000343,0.024778434020285543
92,0.026055776008622918,0.0255445446819067
93,0.02569493657792453,0.02361603719259494
94,0.025707179591131155,0.02555505972099803
95,0.025402411797659383,0.025842135955874337
96,0.02547253488892798,0.023763535955910523
97,0.02577739946847911,0.02528327396073347
98,0.02576613354963436,0.024414127460300875
99,0.025730531654513472,0.024780563523532747
100,0.025874277072058593,0.02767583476886706
101,0.026025938049560306,0.02432163578370658
102,0.025280559373696408,0.023609447023216063
103,0.025819116528127357,0.0253829231240214
104,0.02567881768454703,0.024463356605597904
105,0.025907593161362014,0.023856466317045095
106,0.026193870094528112,0.024140137524859304
107,0.02583441744706661,0.025522317779974477
108,0.025856048450898304,0.024699111847646518
109,0.025823986739944592,0.023579551021685352
110,0.026088350372825215,0.026514443052137283
111,0.025714051719906806,0.028650932793153394
112,0.025722790898071776,0.02729562067977302
113,0.026316634865461302,0.02368518766736128
114,0.025538092741905022,0.025600402238878002
115,0.025628209547351875,0.026271040449190913
116,0.025201587957128298,0.024393627442119623
117,0.02519857108691256,0.02707045519431934
118,0.026091062629835116,0.02464337022600206
119,0.02540400355077571,0.023424182276828794
120,0.025018904693901157,0.0232955359228267
121,0.025875031429199245,0.0553534042263652
122,0.02560303711461173,0.024156156921466693
123,0.025817207773949365,0.025992881003899564
124,0.02531555247270494,0.02341880297968965
125,0.025825672531701465,0.024495095495302186
126,0.025577365334401074,0.02436655990767639
127,0.025503452833768703,0.022486013852812545
128,0.02506087351289632,0.023486155285937352
129,0.02566944021019909,0.02350750723273009
130,0.02517890726118613,0.02754300122973292
131,0.025755071057398302,0.02404029254714099
132,0.025437996244068437,0.022643446004945837
133,0.02598552178624246,0.023910968418173556
134,0.025561225127062496,0.023692515970523093
135,0.02486496895840533,0.02552296502049645
136,0.025621208949662227,0.026718122996360463
137,0.02539115813787845,0.02392496295632014
138,0.025464142817887756,0.025159596204581275
139,0.025264694930897724,0.027123813459321845
140,0.025943539627223944,0.02379867825701233
141,0.025635202244805585,0.02349208172149045
142,0.02515589265073899,0.024373300736674475
143,0.025289481405993637,0.025728222420814004
144,0.02535271300427276,0.024580802846385346
145,0.025232484744345064,0.024704535502790465
146,0.025119672825695466,0.024863020479443887
147,0.025437517784726468,0.02482460779832542
148,0.025361773744821074,0.023377904718434518
149,0.025091073495134127,0.02331301064069523
150,0.025490405597090482,0.025300295895587393
151,0.025293258658284953,0.027543194155372683
152,0.02515876029791544,0.024694114974931458
153,0.024903955584991987,0.026971652129137245
154,0.024886904395282936,0.02412741813270615
155,0.02503475122269895,0.022249382933059263
156,0.025365892412076943,0.02960074023911825
157,0.02530922286873527,0.02448057058695836
158,0.025298005285606585,0.02287765881215717
159,0.0248420601852125,0.023811373711161567
160,0.024908564923752506,0.02407714194708578
161,0.02458236702188528,0.023962407061961004
162,0.024667882138668155,0.023470878643707768
163,0.0254251487526319,0.024426825468052818
164,0.024580928911682037,0.023068636674919086
165,0.02492460745761244,0.023556598018187422
166,0.024878356520155017,0.023773623715671575
167,0.025209986251130474,0.023630098311117342
168,0.024809132439555594,0.02397086019844593
169,0.02509397103843524,0.023775288091285922
170,0.024920549518395244,0.0240946791054653
171,0.024565962923439048,0.022585375343273734
172,0.02478351244490019,0.024380424641360893
173,0.024846034589038193,0.023644960403806974
174,0.02459631235801059,0.024069225506735018
175,0.02448664856426936,0.0229211618025635
176,0.024391414593908187,0.0268855370484122
177,0.024260607124458877,0.02438183720264034
178,0.024288700312096106,0.023969034087309802
179,0.02472123017625438,0.024178847948408258
180,0.0246709399290091,0.02260179279464714
181,0.02414719958370514,0.02514965802977992
182,0.024356903599874438,0.022603027816588427
183,0.024521487733002285,0.02369369978956943
184,0.02480789035749283,0.024177754139079292
185,0.024183142860289768,0.023495774894023658
