epoch,loss,val_loss
0,0.16994000741427273,0.11351293410691296
1,0.09982441806440635,0.09486220648840081
2,0.09470661078020633,0.09608501587548214
3,0.0962377322925557,0.09729611299690903
4,0.09685747032399944,0.0978069193925835
5,0.09715327595492347,0.09785669077049584
6,0.09733631554767667,0.09749360951200281
7,0.09725765477743843,0.0971464067697525
8,0.09738655899949879,0.09760083830911716
9,0.09737362033076329,0.09828747978879414
10,0.09760027858826945,0.09741673994906418
11,0.09744720642777274,0.09804708810542263
12,0.09769366465979439,0.09723780234803717
13,0.09742621642103394,0.09752694149843426
14,0.09748548434244739,0.09709978521740521
15,0.0973106972891078,0.09751838102830895
16,0.09713386022429958,0.0975217118377091
17,0.09706895348193834,0.09790228466608436
18,0.09725789012287638,0.0973072112159364
19,0.09718808830141736,0.09687160465340024
20,0.09719069636196827,0.09852871273503871
21,0.09723571583116464,0.09748206809221899
22,0.09711272828132034,0.09750032520190693
23,0.0969430837068531,0.09736135707258144
24,0.09698197604726544,0.09716508614565315
25,0.09699146460881718,0.09708629582068444
26,0.09689065595444063,0.0972855503787746
27,0.09672649674635711,0.09695061943666523
28,0.09672817142366125,0.09703737216242299
29,0.09678825998096634,0.09724254702712573
30,0.09662241925843519,0.09718590860726237
31,0.09627091456398212,0.09622528471035005
