epoch,loss,val_loss
0,0.11001951380563582,0.1022089914886991
1,0.1024071228036063,0.10133130471468348
2,0.10231505203947461,0.10285121311257933
3,0.10273711373218053,0.10144137529966486
4,0.10312753094197939,0.10336502797860467
5,0.10299396588445472,0.10193730694930574
6,0.10272595314658899,0.10292241931690789
7,0.10186337391666467,0.10024257471759958
8,0.08354833287199577,0.06456752963828682
9,0.0614421239091481,0.060208086318379796
10,0.06177986369391592,0.06082813518199755
11,0.06128107866705607,0.060269313158016084
12,0.0629189995375814,0.0593718871630099
13,0.06267812543680414,0.06182501612241426
14,0.062477841076971914,0.06986450452883834
15,0.06459932978511404,0.06245970813779494
16,0.06326075814899614,0.059391161348985325
17,0.06264257538530657,0.05612360028772017
18,0.06324196552156473,0.061312430693335015
19,0.07349680402248407,0.07420017255356957
20,0.035951773893999325,0.02255380804368957
21,0.026979718395478303,0.06498173867141344
22,0.0576397759023217,0.03519347137400341
23,0.03524988904378736,0.030449541610163573
24,0.020128416259018192,0.018323994089497198
25,0.017964825313408032,0.021058102798792985
26,0.018469943285106028,0.017019172580383466
27,0.017987394683173955,0.012342230842802336
28,0.012929879233436874,0.011597942493285546
29,0.01234568184004169,0.011545218555800669
30,0.012966915271241221,0.01332569260616223
31,0.012783681322922104,0.01603281147294364
32,0.012767333770449982,0.01223631771358543
33,0.013531384773771662,0.013328688568159962
34,0.017969263582598333,0.01988357680812243
35,0.01794260419267926,0.018671852253500928
36,0.020064804598400227,0.01830492905233035
37,0.02616907541340829,0.029324299016351436
38,0.027855130067157695,0.021449830718250282
39,0.03251131919814165,0.0381503790483208
40,0.031041649996387147,0.026035956616844942
41,0.029385705493564764,0.04226844912893253
42,0.02914731613182419,0.033594391091881816
43,0.0276250122675224,0.03735956275025596
44,0.02977757866093837,0.04473383828921166
45,0.028319198462879842,0.023283864740846823
46,0.027780914847976526,0.027548417531324355
47,0.025947598212262352,0.022014918263366514
48,0.02874615955703276,0.028230380540347606
49,0.028839255488447124,0.02983667255888657
50,0.029151385239467656,0.02316958616225265
51,0.028078943687520154,0.022415557257675262
52,0.02770042213384988,0.026336152144011638
53,0.02736038228829684,0.017736963405484817
54,0.025624878215436027,0.03486273575782917
55,0.02343797918156364,0.02214518821693151
56,0.014730601879707771,0.011588692467184863
57,0.01628882332300532,0.017700046903454503
58,0.014912348287142843,0.03348194326890813
59,0.018696696041702782,0.011243475248982752
60,0.020658651663498173,0.0429544609713338
61,0.019813063983741455,0.01660101469782576
62,0.016813802813514054,0.013060020025409376
63,0.016220369670956247,0.017122584942547456
64,0.01900358986305661,0.018454932624065473
65,0.016839856010985275,0.013778004035627104
66,0.018505091164007986,0.01195650472748222
67,0.0241706601973492,0.017168993268885314
68,0.015708546299092043,0.01232198302100406
69,0.02176823434445986,0.03939949286897279
70,0.019676382371263918,0.013054882791466663
71,0.015115362905041441,0.016283109850281793
72,0.016587477804172402,0.015632734962003254
73,0.017468129844515682,0.012689187823763175
74,0.017143905822032814,0.010830444612631452
75,0.018801209522127587,0.013553993229922599
76,0.018070430091997648,0.011378944921105125
77,0.017628144208087976,0.01870754330960009
78,0.017419596029583997,0.01213026078966988
79,0.021416024297249127,0.019909620590084588
80,0.017000190865659386,0.013801408866743815
81,0.016328263041979485,0.016763048504693134
82,0.018636770922482924,0.02056043471438309
83,0.02077949904886221,0.025666898248780403
84,0.02164420644504403,0.025842397848633725
85,0.018348036545950793,0.015391119642237579
86,0.017940755037469513,0.019084936675292916
87,0.019498803309160474,0.01782724691386575
88,0.02859027098531542,0.026480415226610845
89,0.029983464902234105,0.030048519253860144
90,0.026766923436378355,0.023136642768144044
91,0.0282980002744643,0.03447625765337329
92,0.024588583664839073,0.022330334249092965
93,0.01787578030381438,0.01877197490427305
94,0.016150753357079918,0.03316642399531831
95,0.01951510143104485,0.020698851335539403
96,0.01702858746154338,0.02498826929959803
97,0.018349798504269862,0.012484674097017489
98,0.018939629471268978,0.016522194771022604
99,0.01969757250329252,0.018031646060553727
100,0.017668068643937038,0.011245086038817418
101,0.01673687423281982,0.01878392610911371
102,0.018428463152413227,0.015879455223001816
103,0.01846152853085209,0.02654082662533989
104,0.020057703222451116,0.018109330754019996
