epoch,loss,val_loss
0,0.24506070052417253,0.1876374419246401
1,0.1087141051489434,0.11256702598287256
2,0.08243036109635489,0.07781800229011225
3,0.07114676236332082,0.06829753829770513
4,0.06527795518140236,0.0607846255907414
5,0.05435718797433148,0.04523586211895134
6,0.045761452692982964,0.04288854577888065
7,0.042359753997980074,0.04103123441326778
8,0.0344248614746699,0.02620091779273659
9,0.0247209403339288,0.02343798302931398
10,0.02323555524314312,0.023041739620285988
11,0.024025157627036914,0.02502193588737013
12,0.024280571902869082,0.02290758832071885
13,0.02473361866859843,0.028908655070938646
14,0.025030640294875124,0.02453530440143741
15,0.02416031553054885,0.0241335159007404
16,0.024505614500334984,0.023899246257124872
17,0.024455437804464335,0.023610581771045004
18,0.024481449353632976,0.023279851650923562
19,0.024609814706198174,0.02443429369158931
20,0.02425652664291749,0.02350885778718467
21,0.024511304189660233,0.024866165153699875
22,0.024598417433647275,0.02366457566554234
23,0.024432052837328896,0.02340621586915491
24,0.02420496746829207,0.02521783188161835
25,0.023904467024635688,0.023958241284752137
26,0.024486543338963215,0.02331529287790443
27,0.024374182435790363,0.026058655255713045
28,0.024355128063536662,0.02341495178663411
29,0.024235843793212843,0.023073906205365202
30,0.024018161382963903,0.024623034055908554
31,0.02420076683199377,0.02287101556988758
32,0.02382347326454737,0.02291022982792348
33,0.02409901658741595,0.02331599824559811
34,0.024058661744486894,0.023657416086864454
35,0.023847349156304706,0.02329092259035867
36,0.024096896976149147,0.02352903206004293
37,0.023762407938210512,0.02373045375798524
38,0.02398024206619254,0.024198485298733495
39,0.02386459681189818,0.023239810859171442
40,0.023704565077317323,0.026633450085181087
41,0.023953394769288178,0.02296645540946943
42,0.023577675343208985,0.022976053317078193
43,0.02405975002655499,0.023548599163506947
44,0.02387576396290442,0.023968762665951732
45,0.023747456075398805,0.023482069356959453
46,0.02381617390959383,0.02393380459912574
47,0.02374253039368146,0.022345822535296454
48,0.023509127632837645,0.02331002027196214
49,0.02318772509229555,0.025214998742481717
50,0.023766159907066757,0.02333309697670878
51,0.023241425964156452,0.022012563848657785
52,0.0235363946279152,0.022219178545411496
53,0.02344668220407028,0.021929195191896424
54,0.02332011469863921,0.0236729115362396
55,0.023190413800467977,0.022515345874941528
56,0.023316447031226376,0.02167720475543552
57,0.02284515331343686,0.023554013093790863
58,0.02327699288964081,0.022143071906195678
59,0.022848163511779762,0.023050882303006743
60,0.023302382605669976,0.022113188507289706
61,0.02303102997159191,0.023241520917370927
62,0.023350930417613158,0.0229997837308856
63,0.02307928318260528,0.02336179461086135
64,0.023087656466390112,0.02205043590547489
65,0.023028062631954536,0.022452062801491018
66,0.022746773575880022,0.02348411032649223
67,0.0228809732154643,0.02338070923869734
68,0.022881309458647938,0.02201778302299948
69,0.02264824212877918,0.022200494904685605
70,0.022687349419335097,0.02141809657263116
71,0.022772214244410907,0.02141794215023353
72,0.022753843089206804,0.02399351442234198
73,0.02291025170277682,0.02186437148965407
74,0.022890337742865086,0.022569410773413144
75,0.02250021978837552,0.02270302412724203
76,0.022984022949096395,0.02174137219868971
77,0.02221908936609062,0.022684625707913686
78,0.022618879981749922,0.02257416441583831
79,0.022562943175613737,0.021542764687065355
80,0.022233297730491555,0.022775077818942144
81,0.022421713419657627,0.022495305691952298
82,0.022592389839236067,0.02343982624091449
83,0.022387835890245286,0.02217533590379388
84,0.022117214036925282,0.021868414951939703
85,0.022431211756001844,0.021170000690487585
86,0.022119322043510792,0.021847488282170462
87,0.022427086973731084,0.02454865408801101
88,0.022140129938346447,0.021185772958040333
89,0.022348771138276033,0.02090283835361158
90,0.021981351153491785,0.022513699324561934
91,0.022483969341031463,0.02324220997993647
92,0.021914695504216028,0.02227364871106989
93,0.022147807942555962,0.024567843596403207
94,0.02216253925016601,0.021126170962425604
95,0.022206490282803106,0.021898739558851146
96,0.02201449102480158,0.02177546519841984
97,0.021780214860564848,0.022083875334335767
98,0.022034316181505233,0.02171325036151821
99,0.02211224670253164,0.020369493125422602
100,0.021863113577327998,0.02099097812961384
101,0.022106815484627118,0.02148476624515881
102,0.022313065692889603,0.021171335095647007
103,0.02242381904396317,0.023121202258715126
104,0.02197945803749285,0.023033604897623374
105,0.02179324070064665,0.021655403709755043
106,0.021921312162127022,0.020993879316308504
107,0.02184738375382017,0.022673090611861603
108,0.0222691592554168,0.022582503425247008
109,0.0221857153159156,0.02120830717437034
110,0.02203540787730607,0.0206839531636558
111,0.021572479320471166,0.02125114024247042
112,0.02151921105129625,0.020825195791465894
113,0.021963904240279556,0.02159324992850905
114,0.021253971905588247,0.0218186096134636
115,0.02201503416527804,0.021196773585928832
116,0.02195636374126974,0.022228224738115105
117,0.021581365109728776,0.021885273125443104
118,0.02179790799804538,0.02177237893065883
119,0.02177536347992629,0.021051777085699525
120,0.02158067930120525,0.021119097330046622
121,0.021893337764274733,0.021025966204579364
122,0.02136837513030445,0.020822332827955037
123,0.021306792344096943,0.021304283236706925
124,0.02163947951257062,0.021259143620717687
125,0.021357412444059844,0.02249136891424797
126,0.021895833339521307,0.021398632856998844
127,0.021482576091262362,0.020353609432878696
128,0.02158023669033778,0.021065397799638376
129,0.02148934442447208,0.023816528178063453
130,0.02124334741860247,0.02147359687220467
131,0.02168515132223483,0.022245996085531426
132,0.022043288779183687,0.021324691657438558
133,0.02123047137889061,0.022381010871812785
134,0.021576900426730168,0.02095172908260019
135,0.021364025094901488,0.02052523452794472
136,0.021491615045115913,0.020763810478509555
137,0.021375172607731713,0.021501044966956716
138,0.021052118578030885,0.022789061363513018
139,0.021577351468635333,0.02180198191914299
140,0.02104116725079495,0.023032867975221343
141,0.021427944472296345,0.020854706303367204
142,0.02168164323482344,0.02291571441082241
143,0.021604879193460578,0.021479284145296703
144,0.021335687130975493,0.02150493182077263
145,0.021250108150105706,0.020756132500841566
146,0.02134010940678507,0.020787629393688695
147,0.02168827875145822,0.02073346205120399
148,0.021195726945987352,0.020961367549417333
149,0.02154282693394559,0.021875369542623094
150,0.021372537940091415,0.020723591044827436
151,0.02154101852288873,0.02129402996908988
152,0.021199531870693875,0.021100165612772167
153,0.02136529343564519,0.02038773173435452
154,0.021156212561380425,0.02020331810727633
155,0.021240619428866774,0.019940659656662026
156,0.02131065833185026,0.02076395984148076
157,0.02109998086099621,0.020326262848611977
158,0.02132238550401992,0.02162435155100209
159,0.021343196871400856,0.021765987335865246
160,0.020998045646895964,0.022591296828924527
161,0.020948278197317385,0.021485201473441195
162,0.021154806940636928,0.022460836924512555
163,0.02111783199240085,0.02093848742062451
164,0.020934788520625837,0.023490296121048665
165,0.021002258214322354,0.019890615121176982
166,0.02137222518246594,0.02013880917956816
167,0.02075844330692308,0.020577808750915357
168,0.02103024738863837,0.02066700633588793
169,0.02075201573020084,0.020610452376764735
170,0.020756946815226933,0.020369970424934315
171,0.02081320838754078,0.020193087248735853
172,0.020675254434415643,0.021205576111716178
173,0.020818776940907554,0.020650105715538915
174,0.020873508698267523,0.021335448031831936
175,0.021373759442977577,0.020343481391762407
176,0.02110022097248301,0.021229953507304004
177,0.02103336333490009,0.020775630373298982
178,0.02086405381768775,0.022106928572987794
179,0.021646534672660603,0.020089492165787114
180,0.020901291227663498,0.021798996591459792
181,0.021234816989580765,0.022359277782542743
182,0.021598491949482646,0.022060772827469936
183,0.02087798298967125,0.02080440922363146
184,0.020924461800768842,0.02092267490699946
185,0.021172323348305874,0.01999063207676021
186,0.020612434590522716,0.0210822022247298
187,0.0209278348307732,0.020029405320111746
188,0.021474317455073173,0.020849743899143205
189,0.020903584821303067,0.020703927962948888
190,0.02092168401468167,0.02185913807203098
191,0.02072384844770094,0.020507155840403468
192,0.02117895445288371,0.020400459224677217
193,0.021240394986454223,0.020799130017574417
194,0.02074893303126168,0.02102244895057431
195,0.02064411560569307,0.020486409788408804
