epoch,loss,val_loss
0,0.484564074146466,0.30892768479132837
1,0.2138207733161806,0.15360995849897696
2,0.1356728053468419,0.13859606851903042
3,0.12629146821151568,0.13627656127593313
4,0.1244678747818226,0.14381447734758834
5,0.12775761475713235,0.1633593958708667
6,0.11706430629247755,0.15152117113272348
7,0.10753777787441343,0.1349005073077919
8,0.10136719974945849,0.11762431344782659
9,0.09785112146082825,0.10719947747943938
10,0.0971102104998949,0.10397877445978712
11,0.09714023780635023,0.10074131433353868
12,0.09694331350523656,0.09990121106537737
13,0.09677943927565898,0.09776928281599237
14,0.096456984072689,0.09793890152097673
15,0.09623563712037454,0.09752350508473641
16,0.09613170357435707,0.09714050013427586
17,0.09564447314955118,0.09660389205051023
18,0.09560277934853487,0.09692639430132947
19,0.09588620113575552,0.09714982935855555
20,0.09618188124003373,0.09773377334886743
21,0.09669155744821067,0.09796346602744835
22,0.09675133603764331,0.09818548622519471
23,0.09688266636583749,0.09847830189752949
24,0.09720277639589911,0.09823935686848885
25,0.09733287855161457,0.0984609425645466
26,0.09721120681584351,0.0983287532084672
27,0.09752297618492382,0.09858514778604803
28,0.09740027920232983,0.09855006352182506
29,0.09770777510611091,0.09865168106648349
30,0.09753756582971633,0.098604442017485
31,0.09771293953178435,0.09893066921206407
32,0.09764273758009663,0.09872412820195042
33,0.09769033675822686,0.09858874220025632
34,0.09749153056951958,0.09851661515097286
35,0.09775537686554465,0.09870166579882304
36,0.09765820328410216,0.09876610771861187
37,0.0973389611586811,0.09840322135723839
38,0.0973720196781196,0.09831972339356593
39,0.09732053376088931,0.09825220854245414
40,0.09731062630734105,0.0981759535827378
41,0.09718196011903718,0.09828405018693717
42,0.09729485864949039,0.09811295592045599
43,0.09691335612864006,0.09808436682982039
44,0.0972828241431807,0.0982856846941534
45,0.09713237603583674,0.09786263645388359
46,0.09669570572028949,0.09764552445605744
47,0.09669531928742026,0.09764145799847536
