epoch,loss,val_loss
0,0.2087236892500465,0.1208044861949798
1,0.0988617595151174,0.08651755474384318
2,0.09109326338262962,0.0932663833191758
3,0.0845312843327042,0.08197552750170843
4,0.07622039579539944,0.0738252509729356
5,0.07200883939969453,0.07103745929232336
6,0.06617013790267263,0.06266254718226529
7,0.06102396737483384,0.05959865292379869
8,0.05872576857368342,0.05850030098407402
9,0.05752412156819058,0.0569218327486101
10,0.05641822039271049,0.058327883202656104
11,0.055396002613835864,0.05434481012792971
12,0.05421120783598494,0.054387186437069
13,0.053834026645151356,0.05305469668548975
14,0.05307416857587253,0.05185495743023757
15,0.05222840508897242,0.050648117706991125
16,0.05061479010503831,0.05108519791145445
17,0.050362158536934834,0.04942617336054345
18,0.04898738542454039,0.04935883043514713
19,0.04877216051474845,0.04878538248335741
20,0.04854676315633894,0.048043160328102
21,0.048152539825482336,0.04864427937751881
22,0.0478377059328375,0.04784924250269557
23,0.04718442955058065,0.047600998030865205
24,0.046801907160013416,0.046079438741318146
25,0.04581886492699361,0.04476258016963972
26,0.044786528294844974,0.04414403329485029
27,0.043846941558267474,0.043431464685590226
28,0.04257018007427382,0.041864735930687624
29,0.04127040847861986,0.04062910750802333
30,0.039965832148858016,0.03959034325374142
31,0.03901856681771225,0.038940263640109066
32,0.03974217478391364,0.03946413553445567
33,0.03948387388827847,0.03904254967089516
34,0.03919588133609361,0.03918187430197551
35,0.03948202484148107,0.039551034460951234
36,0.0390060695407869,0.037978852857212995
37,0.038894551162191815,0.038514228415658554
38,0.03845333833869794,0.038338188864084896
39,0.03818864768577947,0.03873656554281382
40,0.037205225741155715,0.036706186548733956
41,0.03669027403461562,0.0367972184775284
42,0.03611503006498829,0.036910278318360176
43,0.035749686141904116,0.035690206549209035
44,0.03550190890995528,0.034864531813781845
45,0.03507907198761388,0.035314591688228196
46,0.03504485469445479,0.0358360553955646
47,0.034818971392621904,0.033910644432528336
48,0.034310942271547164,0.034382994550602966
49,0.03392324443135283,0.03441578302982292
50,0.034123577802873055,0.03379871712111072
51,0.0336910793699211,0.03312869289714987
52,0.03330457481822903,0.03270395474115882
53,0.032895213417369396,0.032568483859676964
54,0.03249859645647063,0.03264276930311108
55,0.03236607816382992,0.031845081094784726
56,0.03177551494436346,0.032227333079385495
57,0.031491469965576176,0.031301789920727095
58,0.031338540697209746,0.03217268232976534
59,0.030988362308838766,0.03244310684484483
60,0.030782290467088646,0.030633793723340946
61,0.03048131996088272,0.030630827520480755
62,0.03035190762083927,0.030640318761884743
63,0.030033067245480063,0.03045856368293561
64,0.029779395526297374,0.0297116158205219
65,0.029570515545235453,0.02996398142635258
66,0.029505211094634044,0.030443674689945313
67,0.029434879401997984,0.030135151320787614
68,0.029505556346558267,0.02909689944387423
69,0.029358518216833412,0.02891879192690917
70,0.029575986614961514,0.029781469782695302
71,0.029255288568951435,0.030647459752334322
72,0.028850449514177014,0.028704536924375353
73,0.028892514750742608,0.029036762236949017
74,0.02946668539604218,0.029474271921515936
75,0.029277685373056708,0.03021951742035108
76,0.029460296882011242,0.028502864183912433
77,0.029520247984740088,0.02976653276815505
78,0.029504992097592372,0.028343650604279944
79,0.0294239691359629,0.02960045114541816
80,0.029485882594168997,0.02962918492400138
81,0.029581817955398063,0.030481706787233005
82,0.02961832726542517,0.02969798770892686
83,0.02933272589995659,0.030542857401020054
84,0.029530076097122295,0.029786094977581418
85,0.02946629682235676,0.029953592075380456
86,0.029411302132012367,0.0284524899881683
87,0.029367482307538998,0.030374046448903378
88,0.02942605183380161,0.03146965906388569
89,0.029473273592779962,0.03042820308007588
90,0.029736735005613617,0.030421248157144816
91,0.03006719354447796,0.03092431691170162
92,0.030204780728851768,0.030739300896802473
93,0.030405974057283427,0.029489493459145574
94,0.030199954327907588,0.030758994863013537
95,0.030794210259993966,0.029822712339278554
96,0.03097208695922443,0.030280826344274592
97,0.03095460942329215,0.030565377898167323
98,0.031483957289362985,0.032279777192843646
99,0.032677677934237426,0.03679937829323048
100,0.03310589157015109,0.036829301209763084
101,0.038054117904626115,0.040329542996004615
102,0.043696121292577376,0.04475664046329123
103,0.04678683424238964,0.04758619040180212
104,0.04416371940327682,0.043271235095509036
105,0.04307494885165342,0.044047987075329954
106,0.042804524918897545,0.04093960866085074
107,0.042094059782824836,0.04156891862555292
108,0.04206576340531798,0.04212584873718734
