epoch,loss,val_loss
0,0.15042182483928476,0.1042108217984932
1,0.09467512101149388,0.08861638291576479
2,0.08672680655757872,0.08632449701651872
3,0.08359208050296366,0.07862254810808396
4,0.07471197829853526,0.07240307806816831
5,0.07180320234488335,0.07044946972130789
6,0.06736146920114208,0.0686619142459995
7,0.06434495086006695,0.06429319093393451
8,0.06152202184204098,0.06143559953572718
9,0.06015041199543303,0.056393945208899884
10,0.055798970356428744,0.05459820767886637
11,0.05530772677702393,0.05481914027161079
12,0.054897356075610665,0.054234126375454474
13,0.05217534446304174,0.05182938187161862
14,0.050935071581106585,0.05035619116325781
15,0.05162887950893119,0.056022721074445093
16,0.053673511449929524,0.047490397831329516
17,0.04708594510214125,0.04778502608966244
18,0.04694726481604919,0.046493455932285245
19,0.046325388336948735,0.04525571350881502
20,0.043007597794754805,0.04264721297897875
21,0.04246459231912184,0.04290501180604018
22,0.04185917515525048,0.040690643814316675
23,0.04113734384878076,0.040029468910140885
24,0.04107823185354686,0.042978555205165636
25,0.04083411237277049,0.041924950864457106
26,0.0415246152191711,0.04227260777457737
27,0.042352597826986096,0.04216923820473777
28,0.04212679567156459,0.04368911914956692
29,0.04176197715586038,0.04113832688004649
30,0.04168318366582731,0.04118811360603726
31,0.0422557142736624,0.041553270703897575
32,0.04203307062542315,0.041685953036526946
33,0.04196591358140504,0.04254036373807957
34,0.04128917823914144,0.04125963129109064
35,0.04003069355345363,0.03948927414915932
36,0.0393778314764837,0.03842148267691212
37,0.03854604091623323,0.03715355385568261
38,0.03808177724111376,0.037977669682080294
39,0.03758640426823752,0.03871144273486679
40,0.03760075735019075,0.036937446798761715
41,0.0368512369108667,0.0360195001626965
42,0.03671182353618286,0.03674185261918319
43,0.03606872039762952,0.0365476972749126
44,0.035838818545345305,0.035532914672485
45,0.035510870631781224,0.035100425369361296
46,0.03553455594560797,0.035743479350112795
47,0.03537975600976452,0.03780107787606654
48,0.035474447509665476,0.035115309250735825
49,0.03590211338794631,0.03613396498191611
50,0.035896557546276554,0.03648718505151035
51,0.03597059371255094,0.03548557647072432
52,0.036108165276612786,0.036336422839805475
53,0.036233505895204965,0.036252176333233514
54,0.03648997444233639,0.037839720447583755
55,0.03600823249128892,0.0359248866627747
56,0.0362210458116256,0.03641534898644747
57,0.036585584388588735,0.03708965112267749
58,0.03668880631788362,0.03852574348790776
59,0.03755000057659275,0.03683019359173413
60,0.03727175965518069,0.03706294268769548
61,0.03713369650466979,0.03692228132719211
62,0.037151680534168015,0.036689643737078656
63,0.037340790156921225,0.03788290112246278
64,0.0370821966756162,0.038089852791864665
65,0.03695681663475734,0.03728897882818047
66,0.03748228350768892,0.03755963093585731
67,0.03720341936992608,0.03661931934748095
68,0.03716948800098648,0.03761414527281495
69,0.03765428356594033,0.03680755679319953
70,0.037731553629624374,0.03772222738192603
71,0.0375724585055352,0.03766222702134944
72,0.03792161234229398,0.03766430373984994
73,0.03785280219102792,0.038992786690322266
74,0.03770265756375927,0.039538831568389964
75,0.038153221659499297,0.03761598197912361
