epoch,loss,val_loss
0,0.4933660412482697,0.32069783697188514
1,0.28053926020789205,0.27842952646226893
2,0.2816188567690998,0.28309367473612834
3,0.282183352086565,0.2828322898570063
4,0.2816538680181038,0.28085333943931534
5,0.2793417408121385,0.27806712619977947
6,0.27535563650176964,0.2730507081949344
7,0.2704480993661949,0.26786006141480445
8,0.2659492438359798,0.2649488267507154
9,0.2646874115526152,0.26477880393696657
10,0.2641424701797019,0.2638842171350613
11,0.262530466063703,0.26140417797224863
12,0.2598161097053144,0.25903265760372074
13,0.25870805449908874,0.2586055051508906
14,0.25769057083758806,0.25750963562759904
15,0.25711121436932105,0.25727157726378164
16,0.2569799158784697,0.2572821550182969
17,0.25658618340151107,0.25673627952185785
18,0.25638337614391443,0.25654484996103166
19,0.25619210032440964,0.2563871214638193
20,0.25601108521103955,0.2561808673057767
21,0.25605449122157126,0.2560565115526707
22,0.25574252053463964,0.255819399171489
23,0.25548733982870236,0.25590085402283974
24,0.2553581534672698,0.2556667266488546
25,0.25513847030514625,0.25528153847688373
26,0.25497613201657837,0.2551959222851537
27,0.2548155283137001,0.2550548173210803
28,0.25459597246061794,0.25503207168055975
29,0.2544269729360974,0.25457926265066216
30,0.25423623642904297,0.25444375828861154
31,0.2542044919171779,0.2546888754277504
32,0.254219001872267,0.2545045473110798
33,0.2541170606581713,0.25409517959995165
34,0.2539520138483063,0.25425828098309916
35,0.2537112971075433,0.2538720980439491
36,0.2535170829720158,0.2539126541827171
37,0.253336926587194,0.2535501794261827
38,0.25334188728023777,0.2534931881886914
39,0.2531295021851476,0.25399836967239814
40,0.25294558191709193,0.2532026468531391
41,0.2528930420903184,0.25319107964740745
42,0.2525765587457364,0.25273392324195476
43,0.252436128249176,0.25314651327332643
44,0.2522580765848823,0.2525251160339756
45,0.25205997435404337,0.2523455520431734
46,0.2519752931871193,0.2523092464988591
47,0.25177189464763483,0.25218049451508856
48,0.25195487068711425,0.25215049065655387
49,0.251752483580324,0.2520738785296984
50,0.2515090654055468,0.25213584967175146
51,0.2515952204414409,0.25142295805600656
52,0.2513160950107445,0.251412470578771
53,0.25124380904898275,0.2513736994626866
54,0.2512799528219717,0.25125839967565833
55,0.2512085293884948,0.2512621379971222
56,0.2515053077638864,0.2508535745370642
57,0.2508705699567696,0.25104424905475897
58,0.2511933242483772,0.25095186131435204
59,0.25087427953593167,0.2509038323902576
60,0.25095543685815125,0.2517798261183307
61,0.2507420574827827,0.2507227674749957
62,0.25033316025726327,0.25042263715400787
63,0.2505407359936445,0.2533180954047988
64,0.2514268151409239,0.2509979946390324
65,0.2501024280330069,0.25012438898963446
66,0.250094342014963,0.25042872882397416
67,0.2508951443538582,0.24984616158793269
68,0.24984003408111446,0.2500163067041087
69,0.24979404646525089,0.24971189737414035
70,0.2498880712915477,0.2506900108650903
71,0.24973112306625342,0.2505980723235395
72,0.2495302301492813,0.24985769823863926
73,0.24957620156564111,0.24977349185905967
74,0.2497202448135943,0.2500251785402893
75,0.25007774997100557,0.24971921435000866
76,0.24924830431274944,0.24935429171021753
77,0.24915429556684243,0.2499871189517117
78,0.24955227170630898,0.24911220850395047
79,0.24952383572868497,0.24931205682097785
80,0.2490441536874794,0.24886793300403603
81,0.2497807893154623,0.2519416643016999
82,0.2500291315080832,0.24979887028895878
83,0.24917055200710952,0.24868132845566981
84,0.24932324174020312,0.25129290413179073
85,0.2506462090092597,0.25018253828374626
86,0.24992487527769533,0.24970797428768643
87,0.24882169969552617,0.2485770476833515
88,0.24813584516421974,0.24797554048338366
89,0.2477826260024314,0.24779896578077454
90,0.24759662780258582,0.2477511033568687
91,0.24745996825271946,0.24750424601613957
92,0.24738377768644612,0.24752704997935818
93,0.24748638599848957,0.24728490381656712
94,0.2473817405512007,0.2475749788645599
95,0.24731132031964073,0.24737139528392335
96,0.24718700756700776,0.24710474252089235
97,0.2469645692147225,0.24712953700639173
98,0.24675299504773318,0.24686681492740747
99,0.24660159511674795,0.24641556124002234
100,0.24642524475769267,0.246419722956753
101,0.2463294617611346,0.2462791391334481
102,0.2460984328953768,0.24626444303669512
103,0.2459949113482194,0.24571397360752395
104,0.24590211332463724,0.24598689773652904
105,0.24583834403758045,0.2459994027039717
106,0.24571698499049882,0.24566047327576798
107,0.24571050678511602,0.24578003226628714
108,0.24556389247341978,0.2455036925606212
109,0.2457522802668319,0.24530761032096965
110,0.24572919760581305,0.24569394175424855
111,0.24568391036834838,0.2453467548011134
112,0.2456482951637271,0.24538293746671247
113,0.24542779361696648,0.2453293268640115
114,0.24526107691222435,0.245098306235123
115,0.24514391967099158,0.24515469521636932
116,0.24549782987264135,0.24583270992927883
117,0.2455357309701822,0.24536581044603542
118,0.24522751706729023,0.24566721965594845
119,0.2452017869904554,0.2454514144181076
120,0.24554485107640284,0.2455519767450176
121,0.24545631321261732,0.24508152917415585
122,0.24533988442495286,0.24559103434680482
123,0.2453143948869263,0.24531513094996127
124,0.24542703849377392,0.24579143234849823
125,0.24531109665604614,0.24600984815922702
126,0.24543578116346798,0.2457965797176489
127,0.24537917376041032,0.24550394619790794
128,0.2453823349149012,0.24549652724258525
129,0.2453415884459905,0.24574577397921937
130,0.2453645372824322,0.24518511770697402
131,0.24512574305351403,0.24519889374229037
132,0.24501240253448486,0.24489078821868715
133,0.24489962276842572,0.2448038849053462
134,0.24504769118807965,0.2451827902679097
135,0.2451107476135905,0.24621917591992568
136,0.24533330310258172,0.245946896527824
137,0.24557387768078764,0.24630913909909852
138,0.24554559921951508,0.2457543044059222
139,0.2453421807641701,0.24547072724037125
140,0.24511002253094832,0.2451833648623306
141,0.24491773781587753,0.24520356044020347
142,0.24497471592552084,0.24486110816344372
143,0.24492591550405457,0.2454674650974507
144,0.24512379727870537,0.2453580423895543
145,0.24507673225290388,0.24516703810575163
146,0.24473258570658504,0.24572069928838028
147,0.2446584479866935,0.24487989155344825
148,0.24478030602613704,0.24530456676761656
149,0.24494006922490877,0.2448444680002795
150,0.24473342568659,0.24511440743963456
151,0.2446433549566711,0.24499493499816452
152,0.24496166647481118,0.24563751752534624
153,0.24484131109419105,0.24462048035488415
154,0.2448429274115917,0.24500607993768347
155,0.24520275288586804,0.24535290454679715
156,0.24526050383095546,0.24530615324144206
157,0.2452800470671589,0.24511830878003715
158,0.24516984197399694,0.24526917772116205
159,0.24489655085414244,0.24485793273422599
160,0.24482436756864726,0.24536835798007253
161,0.24477960158595077,0.2444825318730903
162,0.2446563001588094,0.2453265609050606
163,0.2448167395201042,0.2446258918050715
164,0.24476989045989314,0.24463232407300795
165,0.24467091469598903,0.24461732264946273
166,0.24456395498282618,0.2445445131531078
167,0.2446639545553689,0.244881985431218
168,0.24486463089926924,0.244977300691153
169,0.24492815675304758,0.24510524841209236
170,0.2447448690756143,0.24497557754298319
171,0.2446916844252107,0.24501704169994465
172,0.24447385834561264,0.24497537102018083
173,0.2446641150614817,0.24467603492990853
174,0.24458254699846158,0.2445752198830682
175,0.24440327934700426,0.2444163941217391
176,0.24437322453867427,0.24493737438812724
177,0.2443582808299602,0.2444777368628894
178,0.24443277147271747,0.2441456674964953
179,0.2445276598040339,0.244555229487246
180,0.24443222908712595,0.2452239193428005
181,0.24450303741591536,0.24508904712164412
182,0.24463263765084658,0.24526635476850392
183,0.2448759663590996,0.24473369980103027
184,0.2446668539092028,0.2447772357251198
185,0.24471169381404667,0.24469674350995196
186,0.24479325595710108,0.24492651759260925
187,0.244707448400563,0.24517960882883139
188,0.24472880969754607,0.24506546702785764
189,0.2447696310415161,0.2448040619316116
190,0.24476950662694485,0.2444924895417154
191,0.24447249757538406,0.24462119891545672
192,0.24461457716951743,0.24461111124096277
193,0.24464625585898697,0.24518604486028134
194,0.24473163876220952,0.2451345728270727
195,0.24499345697659097,0.24540281111128986
196,0.24494410525980614,0.24506493694874462
197,0.24495207028185054,0.24464835782830133
198,0.2448858847077802,0.24506158826853594
199,0.2447581982893719,0.2449965224834343
200,0.2447151679524796,0.24475264545727077
201,0.24457277588659435,0.2446532957696877
202,0.24467516259895525,0.24468138412923068
203,0.24493184865569229,0.24518726009878475
204,0.24488582886713778,0.24512396414118107
205,0.24498352113006402,0.2451801799655243
206,0.2450257499012158,0.24502187078170354
207,0.24492688016068165,0.24533847997578093
208,0.2450518646567083,0.24537355944972952
