epoch,loss,val_loss
0,0.16160448735876146,0.10554393964224945
1,0.1026717513251743,0.10161739412545218
2,0.10097919571266281,0.10196860716182035
3,0.10103928974921184,0.10136527482834781
4,0.10145496240527414,0.1022203048924903
5,0.10197295606446019,0.10193128661556139
6,0.10221369727123841,0.10222526986060786
7,0.1024746521711826,0.10356774449277883
8,0.10343905972491066,0.10299821226801002
9,0.10264953447403095,0.10294229024469899
10,0.10266363805384754,0.10248852999852978
11,0.10276701616988385,0.10254807245124488
12,0.10275817345634258,0.10365825680385167
13,0.10299984375826365,0.10269349690559067
14,0.10264158496062914,0.10334657456052519
15,0.1029051943577165,0.10373324853821636
16,0.10290120561703217,0.10423888588925469
17,0.1029855717512534,0.10289450586077352
18,0.10301828930537096,0.10343428346568802
19,0.10292891788778069,0.10353266862945097
20,0.10306537981561238,0.10319400299413993
21,0.1030830806500906,0.10354287626593717
22,0.10325849130094575,0.10434523710559086
23,0.10349844461031478,0.10426127823582765
24,0.10359149715668864,0.10340429394378753
25,0.10170217436089886,0.10216581739702842
26,0.1032319969053177,0.10371750344440706
27,0.10469606242996517,0.10448002780551692
28,0.1046045792760323,0.10567090856153945
29,0.1048924368407896,0.10539671628726403
30,0.1049191084006231,0.10503174802663294
31,0.10471070298759771,0.10509463491972357
32,0.10481062733965049,0.105301407413541
33,0.10476377866060423,0.10500161328603644
34,0.10484043374764833,0.10524094438778667
35,0.10486010745536986,0.10558117281031025
36,0.10478853540931293,0.10529182847198201
37,0.10484825054423319,0.10515689435867033
38,0.10474845148223957,0.10557909996705254
39,0.1049294084739342,0.10514675664708853
40,0.10479723650822155,0.10569459235188335
41,0.10499758404984082,0.1052226782339054
42,0.10495450829478095,0.10551392621615785
43,0.10506824337297396,0.10534855232360142
44,0.10501014506168883,0.10554860186510982
45,0.10511420629650568,0.10549870399198102
46,0.105067959423069,0.10538102817540104
47,0.10507805170200997,0.10549375069663576
48,0.10518081073495124,0.10556460779980589
49,0.105125676676762,0.10542805554035055
50,0.10500617736844803,0.1054179161822316
51,0.10505775757711663,0.10539900121038696
52,0.10505353609363524,0.10561584891205993
53,0.10512312084174366,0.105553390936016
54,0.10519326085166679,0.10551520945664551
55,0.10536221855526252,0.10600036590256462
56,0.10542490518540978,0.10627239518567344
57,0.1055812354770591,0.10587691793243247
58,0.1056236289292693,0.10592854555164065
59,0.10581122250627462,0.10620190113218356
60,0.10584589204104017,0.10653707039290371
61,0.10591420022060545,0.10638881709364896
62,0.10587199627876663,0.10647639769828499
63,0.10616177943446559,0.10653414181488748
64,0.10662842320381023,0.10825142863588062
65,0.10682489475210032,0.1073516920714653
66,0.10681833468562217,0.1073275526372485
67,0.10672050227912115,0.10654358552870265
68,0.10567223297344218,0.10567902319056835
69,0.1046692783788716,0.10487182561275803
70,0.10414319366311951,0.10454511977643974
71,0.10396079256308736,0.10423956126351007
72,0.10394066818159738,0.10417417335693725
73,0.10363474675862909,0.1040840359858951
74,0.10357369436062783,0.10412371153307412
75,0.1036003679692221,0.10384601246986036
76,0.10325961970954205,0.1036865081352894
77,0.10321762051275499,0.10372805076738748
78,0.1032663955688953,0.1035569159706559
79,0.10319506628907842,0.10372293520580621
80,0.10315641162278269,0.10355371156238437
81,0.10307631149685545,0.10378686812042531
82,0.10315652469174563,0.10352466758208285
83,0.10316007645677129,0.10372995370565292
84,0.10318533663483832,0.10378563010678483
85,0.10313037062863366,0.10370916949074947
86,0.10317481259147612,0.10380271868669996
87,0.10316537750019825,0.10343604139107461
88,0.10315588934363412,0.10336554218627565
89,0.10312983130427192,0.1036962719594482
90,0.10319160972591594,0.10377513265035805
91,0.1032915779833885,0.10411892965988748
92,0.10333201693568965,0.10380846661263408
93,0.10336036375053019,0.10386412147941228
94,0.10316808654559698,0.10336227150488389
95,0.10329375981236343,0.10375838282781975
96,0.10342602730154705,0.10391070139201118
97,0.10338117008943924,0.10375300914213802
98,0.10348364574422272,0.10367270984231908
99,0.10339469240485526,0.10398003842384682
100,0.10361896299248595,0.10395806056359855
101,0.10355354109399324,0.10391022100891763
102,0.10358480535012832,0.10384899892953783
103,0.10369703975870169,0.1040165537428743
