epoch,loss,val_loss
0,0.09023303141613467,0.03778480898644761
1,0.026054185279142515,0.013354187329235798
2,0.01125803637429238,0.011156731724721433
3,0.012578789531502673,0.013614803104975277
4,0.013490983363178423,0.012983794680604713
5,0.01393882843251113,0.01421474443194357
6,0.01328955335039303,0.013544403997138908
7,0.012661775102098878,0.011061968783176876
8,0.012709959785340072,0.013214850068333447
9,0.012960169205649031,0.014853500698611504
10,0.012862488758459176,0.011021538595679998
11,0.012654174424463706,0.01195571856057211
12,0.012578072759295277,0.013834657017420903
13,0.012436372515329306,0.010660059417832435
14,0.012499693986981345,0.011568504296707749
15,0.01312176618415365,0.012272752637680158
16,0.013240766161747521,0.013129849031702825
17,0.01542900676923178,0.01756748615160596
18,0.015581677947714508,0.016147233115034302
19,0.015339732540847301,0.014364301179254158
20,0.015356146947865626,0.017504687361483886
21,0.01587665308531907,0.02087323427723681
22,0.015682900054223962,0.013955605125176736
23,0.01399081852287054,0.014433295660061966
24,0.014876574010615774,0.016178069423057946
25,0.014843797404244602,0.015793624274497344
26,0.014856373825721698,0.014097355715577633
27,0.014521462046991673,0.015056443610173468
28,0.014579799946406477,0.015229109066061458
29,0.014541315982009558,0.014018492527664789
30,0.01449069265070722,0.012974796000053634
31,0.014173067596962127,0.012599882573453855
32,0.01466498093427919,0.013467579881565817
33,0.014874529790320843,0.013987365979245542
34,0.014941867750635345,0.013856953209164628
35,0.01593306188290711,0.01529010083899784
36,0.015721580978456162,0.014869767929932312
37,0.016065605170131444,0.015977925727556987
38,0.017314172811436948,0.015388139430212994
39,0.019240127973925533,0.03896030701620427
40,0.029786921784484225,0.02277870174723765
41,0.022562471824399622,0.023068802889903983
42,0.023526724060918453,0.0227537240712494
43,0.022948997905946893,0.02211542722005353
