epoch,loss,val_loss
0,0.16870187588637586,0.125435859852874
1,0.10208542540752821,0.09383475716977771
2,0.0944650957076479,0.0982159684634905
3,0.09882777450467757,0.09991530007326235
4,0.10050995130952504,0.10130058523582114
5,0.10079073271662783,0.1012467891801128
6,0.1011781597571026,0.10127483623509531
7,0.10126547737539911,0.10157257109739315
8,0.10148486615323143,0.10206030302731749
9,0.10156640092984473,0.10185186074489481
10,0.10163478994612499,0.10217682937867263
11,0.1015940726660996,0.10218147874678225
12,0.10176571079795595,0.10235442038869519
13,0.10179610606982745,0.1014808280233238
14,0.10125510363008002,0.10174681388588523
15,0.10155476806022756,0.10145751286324499
16,0.10163098548670753,0.10118453188754482
17,0.10167888497158016,0.10174544740706423
18,0.10174741545360055,0.10190322518866177
19,0.10193399033791346,0.10166215852502772
20,0.10170181829342358,0.10203636092469744
21,0.10164245599203353,0.10185816421246284
22,0.10173895922924975,0.1022024509727061
23,0.10171461253643607,0.10215732601089748
24,0.10162396554490455,0.10229101775900623
25,0.10197347930843215,0.10215254211482235
26,0.10176688002691947,0.10225125373397743
27,0.1018655792855435,0.10201052967944103
28,0.10183867766893358,0.10181098387833176
29,0.10165197490978775,0.10164433807111106
30,0.10158202205177883,0.10153165412588955
31,0.10145163185281052,0.10187276560392733
