epoch,loss,val_loss
0,0.16874177481154268,0.10532789670912977
1,0.08484415583711544,0.06777592300310226
2,0.0500821865422072,0.03653549187726267
3,0.026487583231975993,0.022132305249030794
4,0.021715175313540072,0.021523084598810256
5,0.021454256676363765,0.021877504108972032
