epoch,loss,val_loss
0,0.1390617524596046,0.09880650216961999
1,0.08515790021486229,0.07391205077789482
2,0.06421508173124015,0.06285361197042766
3,0.05911059994444096,0.05893154980081127
4,0.049099561416631125,0.05158998968628042
5,0.04560985828903939,0.047608320205086506
6,0.04468851406082547,0.0479879270983241
7,0.0454024042484524,0.04666830363794397
8,0.044215938250581135,0.04833366966790916
9,0.04429321861167034,0.044680888108150546
10,0.0437108689783622,0.04507466901355403
11,0.042723472041787385,0.04234284213387599
12,0.042239495997520374,0.0444226828392745
13,0.04252309269077486,0.044124935866107884
14,0.042808051857588104,0.04341334112182601
15,0.04220955525573304,0.04192874545044756
16,0.041253125314399015,0.03996892811784899
17,0.04116668022400755,0.040257084708963685
18,0.04045661455459541,0.04064257636713342
19,0.040039893516676604,0.041239849044026215
20,0.039657988161932556,0.039390313417754404
21,0.0397532404594713,0.0398163153615728
22,0.039297549945892664,0.03818251939685964
23,0.03849493644291834,0.03901217130454582
24,0.037653227340427045,0.037113226006349996
25,0.037611351734835756,0.03650244565323383
26,0.0367084051401233,0.03753710154152895
27,0.03624314407287218,0.035835419320622675
28,0.035355772030987234,0.03479223247638065
29,0.035024167780729414,0.03746936347073895
30,0.03546614818376222,0.03560879485183281
31,0.03458878212868215,0.03246643863200859
32,0.034102003418391556,0.037922359670746864
33,0.033623366321114706,0.033823823446044794
34,0.03304951064151635,0.03671574467041874
35,0.033659870206988116,0.032943098631635276
36,0.032285347619621776,0.0320582579771364
37,0.032325352556247126,0.03441064806556551
38,0.03233550806983198,0.034233145950907505
39,0.03186507550604957,0.0326127697388041
40,0.031664678503831416,0.03547740078898001
41,0.031488529099024935,0.030158727058601266
42,0.0321579375248447,0.03407669027983531
43,0.03277714909921638,0.033888582845866065
44,0.03256599389487128,0.04123905276101973
45,0.03186277778808781,0.039112649331694054
46,0.03120683988691758,0.03211565341597574
47,0.030930998436600375,0.03566359175220661
48,0.03041164649666833,0.03414114930423678
49,0.0312258794451122,0.03084800220090946
50,0.029553913623749685,0.032493340355750605
51,0.029837629101950106,0.028822524939099915
52,0.030400718753631834,0.032597326098014356
53,0.030408414907092386,0.029896445066654127
54,0.030002527465994695,0.028907171132273812
55,0.029387370424924328,0.029375444262655308
56,0.02955674900741076,0.03244044990429468
57,0.03024015370473492,0.03102318043713976
58,0.0292807758006332,0.027425408945510776
59,0.03083113396464349,0.032848681440105
60,0.02970233598618294,0.028123080292341743
61,0.028777559379414976,0.028643131523665804
62,0.029679702042485122,0.03884425665962715
63,0.029189201319019954,0.02639946374298318
64,0.029596558629835158,0.032114944968375525
65,0.02968460383812348,0.03398405362417497
66,0.029277909631959254,0.027302993479131146
67,0.028424063838905188,0.03040724491146294
68,0.029596413749990037,0.036078188433102384
69,0.02929417207854972,0.02681948632978038
70,0.029533355689639572,0.029319098056091883
71,0.02972436721453802,0.027694827344065684
72,0.02940081892539557,0.026991363142888285
73,0.02962886055054472,0.03207111188402398
74,0.030824250965226563,0.03219633413906538
75,0.030531317527166944,0.031180642340876214
76,0.029933824798733973,0.030691019020498315
77,0.030828822128695074,0.0312023750861376
78,0.031031599994912614,0.03108417757014261
79,0.03353111913575114,0.03263190065252564
80,0.03491208710068231,0.04475635894660227
81,0.047629545635575775,0.04710041708662083
82,0.04436331138991528,0.04323297138924945
83,0.03984106361544389,0.039760980863879775
84,0.040474571746220885,0.041129440445549954
85,0.03969042172296632,0.04058334141405154
86,0.04079669157413842,0.041146882542871355
87,0.04166958335158732,0.04393354247911482
88,0.0420722114346582,0.042399719430996664
89,0.04093906730502772,0.03857289636603188
90,0.042187157589540204,0.0414273044786871
91,0.04770482894328001,0.06482990392452163
92,0.06022229645070698,0.05808738078378088
93,0.05836747961042882,0.057020967598378235
