epoch,loss,val_loss
0,0.1750392151965226,0.12199500276050704
1,0.10815711485610592,0.1063677097575911
2,0.10578334824644404,0.10564892764343647
3,0.1055578447753291,0.10605557796845967
4,0.10584916541282889,0.10579948260756863
5,0.10576374529243754,0.10633817179850358
6,0.10582604643395192,0.1063512996921129
7,0.10576310379208802,0.10636972032058116
8,0.10588229233793599,0.1058938102451195
9,0.10565269217312002,0.10569704993206776
10,0.10565771139878259,0.10573261359966733
11,0.10549529612088185,0.1060007500161594
12,0.10565438654592378,0.10569522394001155
13,0.10540524616444426,0.10587112357415077
14,0.10543642652859028,0.10537195541464445
15,0.10542675656833046,0.1050751358917499
16,0.10523635457507331,0.1060174310134449
17,0.10539268599234992,0.10611169375391014
18,0.1054478313365905,0.10522368807278003
19,0.10522137697842672,0.1053295115210357
20,0.10541927873445071,0.10626704816801301
21,0.10539511220751525,0.1064666439709272
22,0.10541114187855229,0.10614722938333428
23,0.10560369766730485,0.10590879357439754
24,0.10545306120940345,0.1052742063963893
25,0.10545956985436851,0.10590340188853649
26,0.10539929798657564,0.10658070276290672
27,0.10565871876968945,0.10537997136905425
28,0.1053525706906494,0.1057111149816976
29,0.10566206022108392,0.10595395039669998
30,0.10549625461931518,0.10542722722631603
31,0.10561734298579127,0.10615233713562505
32,0.10581558553292025,0.10581927678320666
33,0.10592505060654464,0.10601274660937694
34,0.10619660964805921,0.10517869678626592
35,0.10600894649061177,0.10577176939975397
36,0.10589295321945949,0.10635502602325807
37,0.10604365876943564,0.10692192168337393
38,0.1060315116846876,0.10647876630665848
39,0.106226505963303,0.1058384930007836
40,0.10598813576830758,0.10646062313146072
41,0.10600326637879645,0.1056751385213544
42,0.11120481534208135,0.090973395533748
43,0.07071025922394199,0.06582342438111648
44,0.06155129677826743,0.0652436726118696
45,0.06603379061015295,0.06717724202534488
46,0.06803518229965969,0.07048154036031526
47,0.06831454406444022,0.06908937567740608
48,0.0689212535854152,0.06809590115919768
49,0.06947466807602216,0.07161547527622782
50,0.0701211042982116,0.0728331304669098
51,0.07282271921384535,0.07484309805737957
52,0.07036741897106456,0.06890380779470905
53,0.06949034443409513,0.06818838217593406
54,0.06991080179822436,0.06857551359692801
55,0.06878107631925962,0.06972554117888094
56,0.06953381648738322,0.06828002552277664
57,0.06955005741602988,0.06946582399490976
58,0.0693896320268071,0.06791354964862871
59,0.06896711671821695,0.06737630516173054
60,0.0691164845048333,0.06725849366460904
61,0.06842658012736139,0.0668656133768026
62,0.06856417000222263,0.07165735095574711
63,0.06853575317812957,0.06914193441043148
64,0.06907184142693817,0.0683095804353163
65,0.06857653699523444,0.06689784073086356
66,0.06774982763863772,0.06687785208742733
67,0.06899222740821606,0.07152286537679614
68,0.06339551228210985,0.057339619201238264
69,0.062183564515422576,0.06688075897231663
70,0.040956778960268225,0.0250848339401603
71,0.024990104479070522,0.02329303292614932
72,0.02376487872806742,0.022972588569231643
73,0.024158010523927083,0.02386060553649183
74,0.02439455467192151,0.023152261184441733
75,0.024428145678566514,0.026020646662743147
76,0.02492476373517828,0.025046222372055525
77,0.025460537167178166,0.024605678359153896
78,0.02578155973480998,0.02659479850034311
79,0.025675458187381806,0.027221901004144594
80,0.026422962511358835,0.024943006471175797
81,0.025933758596882975,0.024728476095594754
82,0.026590996001252264,0.028488073365699616
83,0.026769085071808238,0.0269952421991747
84,0.026279765113497333,0.027752200863379234
85,0.026082987231548598,0.0276124541968954
86,0.025336159635886108,0.024479240527480912
87,0.025168895990186506,0.027765894105809357
88,0.024465414681296937,0.022787583189198324
89,0.023674716239424347,0.026414365402548542
90,0.043119210948636064,0.12907861298995404
91,0.078019630759478,0.0484626717636128
92,0.029153762572109224,0.023710662065384042
93,0.024013054468553605,0.02197919056354636
94,0.022741371974182262,0.02288980745572976
95,0.02173669296253523,0.020908615968668658
96,0.021645978875577353,0.020452911403227154
97,0.020250599803797585,0.01948121284894004
98,0.019260908830628025,0.019737222450237717
99,0.018727104312819924,0.01753972997725739
100,0.017867048453393694,0.016984823682502016
101,0.017652125688169977,0.017444457601529458
102,0.017462396185746867,0.016695625006846772
103,0.017074217097454075,0.017039879944819397
104,0.016252030612533087,0.015265898340938123
105,0.01614651718749393,0.01507860861701013
106,0.015999347405533472,0.01591498170844805
107,0.0157137324398519,0.015364456234533625
108,0.015830689106884,0.014399632338901956
109,0.015171483126308897,0.0165519533603913
110,0.015298543247036177,0.015984166543651444
111,0.015132012148704127,0.013298608633177245
112,0.015095844009085644,0.014293131006156824
113,0.015351055807126559,0.014375216837005062
114,0.014700537601814901,0.014458058471038008
115,0.014870550465225865,0.015599432289629775
116,0.014645161353227356,0.014879974857819485
117,0.014465894325257396,0.014288283713991094
118,0.014596303606660461,0.013740906303699974
119,0.014270681352968767,0.01356111113467175
120,0.014267758818061875,0.013891121758487673
121,0.013921839488799766,0.013417838469159444
122,0.01412096602557827,0.013301593830387072
123,0.0137123594084363,0.01345565678454765
124,0.01429175161648628,0.013301324471978335
125,0.013424541058612885,0.014754361054774054
126,0.013716938170633441,0.014518966216185286
127,0.013298579117210267,0.012547600349880337
128,0.013041258764287217,0.0131429181601073
129,0.01289102148196156,0.01256018146231547
130,0.012945913633764933,0.012986920710767735
131,0.012566203590211489,0.013426137849947272
132,0.012474666795150625,0.013044863020458744
133,0.012534402149672106,0.01266141059340199
134,0.01272657304833964,0.012956458677544355
135,0.012386386885384409,0.012587861408609617
136,0.012268728182779895,0.011170455113115067
137,0.011969805100663223,0.012177517695680273
138,0.011644714820510644,0.01092027153249392
139,0.011542824752476933,0.012522564074811074
140,0.011731532975944946,0.012321280647030993
141,0.011185095842025405,0.011604836187821585
142,0.011149905745586237,0.010359366921283123
143,0.011191210075230192,0.01203629513283649
144,0.011185005388343982,0.011710920116048962
145,0.011242572880379087,0.011728335696771659
146,0.012292923961135505,0.01186096532183575
147,0.012271200429549892,0.014219214514944623
148,0.02054847213517812,0.020491728663515084
149,0.017786530828435454,0.017172836405302278
150,0.015654170996979248,0.013376609328178647
151,0.012969504115354124,0.013457283565088013
152,0.011168449780428046,0.010907069244807926
153,0.010514737629844582,0.010534640012019342
154,0.009987587631820775,0.008937361702358242
155,0.009948627167693276,0.010720895044652609
156,0.010063608596696973,0.01144838320633842
157,0.009652968018511525,0.008831302315252521
158,0.010111635421320117,0.009191876671320355
159,0.0096387134529546,0.010105784753471283
160,0.009659838696515901,0.00886771517299298
161,0.009596081046524534,0.00852969713176835
162,0.00941047386499308,0.008740054687518912
163,0.009760530257737524,0.009672729873290284
164,0.009755637291238177,0.008769402963321748
165,0.009756732980894158,0.009841218451809818
166,0.009281668877549214,0.009578602762647331
167,0.009407383101850117,0.011132334158318477
168,0.009582461798183924,0.010444692146009526
169,0.009530697431084778,0.009486290128591405
170,0.009941464673607148,0.00873954369243302
171,0.010008848077773178,0.009264528530854924
172,0.009473131065979766,0.008365266160685171
173,0.009460423324855683,0.010205168729087877
174,0.009570867860977121,0.009771002165829115
175,0.009949174333478418,0.009491412619227322
176,0.009662277354627288,0.009712153073950085
177,0.009963154363230788,0.00889033835231317
178,0.009794774929249137,0.00914368964070138
179,0.0098269923627719,0.011033033029982656
180,0.009958087029285448,0.009075823296214312
181,0.009997190810817418,0.009786315063851126
182,0.010135742212585407,0.009666433805216106
183,0.009806342038075082,0.012081855010526475
184,0.010103406305115917,0.009117791038476984
185,0.009992603158249224,0.01140363184160361
186,0.010050053989103766,0.008906450919401204
187,0.009942145399126908,0.010958525754258496
188,0.010198431526892168,0.00993765933599379
189,0.009798656467707167,0.010996515157352471
190,0.010092904207577332,0.009142735882220464
191,0.01027143458321357,0.00967934635859615
192,0.010289914687711307,0.009809529648442483
193,0.01057096173391967,0.009025594006030105
194,0.010547009140936484,0.0092296315020431
195,0.010428249899061213,0.009381459645879909
196,0.010347514562561905,0.01092865048329204
197,0.010627903186416121,0.010745855382751694
198,0.011971003167497978,0.013673518105147622
199,0.01121358418086027,0.009613900461573016
200,0.010368109663217355,0.010890089702037559
201,0.01015221881758359,0.00926593024410078
202,0.010300289769526676,0.010325310486438666
