epoch,loss,val_loss
0,0.33875677532391896,0.16169876278365228
1,0.13197971736077216,0.10740399025894236
2,0.10267954175356772,0.0999443398883743
3,0.09835494646699644,0.09537012804381169
4,0.09187822114882038,0.08687811617989513
5,0.08286137301459896,0.07770207970246781
6,0.07348561959804965,0.06941208402291604
7,0.06575726820610828,0.061999712326690035
8,0.05999928621576728,0.05818813042798278
9,0.05702136831285001,0.05567147916625499
10,0.054335888269379004,0.05283907472797264
11,0.05116256748775753,0.04979920290283623
12,0.04892505025021356,0.04772463003709755
13,0.04782241440599589,0.047370127155252906
14,0.0471503512353731,0.04709895702331219
15,0.046861035121475055,0.04678784054307462
16,0.04677466330550211,0.04614399514929222
17,0.046440705970180234,0.04622788671691149
18,0.046153413547908334,0.045872535553533475
19,0.04593717901884698,0.04531055800646954
20,0.0453636887862837,0.04510404379843505
21,0.04498485558695369,0.044919924431352815
22,0.04454581547167608,0.04390563315501178
23,0.0439950240145119,0.04350532011551192
24,0.04359434669713577,0.04256506186863898
25,0.043120029660536824,0.0429152206239039
26,0.04281735943080044,0.042683933458962486
27,0.04276365106306475,0.042641565279199746
28,0.04257726834250317,0.041925017307274534
29,0.042228257666834836,0.041506268570482105
30,0.042076118779573755,0.041727702490628876
31,0.041818862880846325,0.041192287281578574
32,0.04154974487337997,0.04079972216912333
33,0.04133497263410026,0.04061427902783791
34,0.04100204284062044,0.04024242374680435
35,0.040857099297883705,0.040418033257718984
36,0.04073601149267154,0.039934273153567644
37,0.04045876753691724,0.04065000985213536
38,0.04039849630826182,0.03962204219215978
39,0.0401083277322179,0.03905545190182142
40,0.04004384189533939,0.03910224693498762
41,0.039723101502256074,0.03950177475399151
42,0.03970610517695296,0.03912695573713851
43,0.03955570220338812,0.03902739883738133
44,0.03940951719349198,0.03867878275715715
45,0.03920738603189003,0.03845730137505961
46,0.03918417513197522,0.0385230529920439
47,0.038963714013512944,0.0382232311282183
48,0.0389152035964213,0.038106388367851476
49,0.03869741864568048,0.03817838934059077
50,0.03855969886585557,0.03817339696213663
51,0.03858790948861737,0.037707066361317286
52,0.03835812897486292,0.03786419199995654
53,0.038181733252037706,0.037984380992514666
54,0.038062289834404295,0.037546149410446386
55,0.038015694150908455,0.03776710552963317
56,0.0380083785472129,0.037643079811349116
57,0.03781307941888742,0.03745033182596542
58,0.037761918811188684,0.037470921003905526
59,0.037715443492747004,0.03762569829869928
60,0.03769511357844592,0.03746669108028443
61,0.03762243623234588,0.037235868972365874
62,0.03742738196207248,0.037265928016502685
63,0.037580519577591204,0.03669867269084498
64,0.037511745776483016,0.03710952474579324
65,0.0374733418602052,0.03687369323729115
66,0.03734161016688622,0.037115196272162816
67,0.03751751700128385,0.03695791760355307
68,0.03743361227745243,0.03700453353424867
69,0.0373917030494174,0.03688906841372825
70,0.03733983154806068,0.037095012301873696
71,0.03740346726862262,0.03692830824093034
72,0.03733320433118517,0.036906134349272104
73,0.037345334605647144,0.0367549961676031
74,0.03732994975323817,0.03689835915932642
75,0.037301077572308224,0.03659290398583602
76,0.037163749944159184,0.0367245685040274
77,0.03724451339225754,0.03697742946862884
78,0.03719443763592083,0.03679131211022584
79,0.03719352147846913,0.036918540010100344
80,0.037214698234171846,0.03665736565987269
81,0.037160657726532466,0.03669576379504517
82,0.03714448407894855,0.03715061961800851
83,0.03721225136418262,0.03669179037261667
84,0.037126948124914766,0.03696391145666247
85,0.03710324759539172,0.03702073186841421
86,0.037213111515518565,0.0366393070432319
87,0.03706200064582716,0.036998991883946744
88,0.037145302794259295,0.036760785842778136
89,0.03709517343728851,0.036779670889239335
90,0.0371283299973409,0.036816750002748484
91,0.037020846513853824,0.03654625802168687
92,0.036910726192941945,0.036660969045862184
93,0.0368966317986898,0.03628526948277581
94,0.03699164416453092,0.03625140937055791
95,0.03677403319439142,0.036366452894264954
96,0.036877392425095204,0.036184447627916436
97,0.03675462133299598,0.036127341353762756
98,0.03669267425759493,0.036081697716281745
99,0.03663233651953329,0.035850125776614394
100,0.036474022189613056,0.03583219623841218
101,0.036414925918710817,0.03563715947152924
102,0.03625037857861496,0.035375402682889114
103,0.03606618107039276,0.03540846878860602
104,0.03584552247277062,0.03519229404477211
105,0.03557222909789929,0.03490629314240264
106,0.03513525726886584,0.034378426793029125
107,0.0347683706191824,0.033792925084618564
108,0.03425358997745882,0.0327744659093803
109,0.03326473948661331,0.03229249581326002
110,0.032203265187666835,0.030747640865876825
111,0.03099461076251739,0.0293616993021936
112,0.02950286365645804,0.028193140538395757
113,0.02815284256527336,0.027134911026518615
114,0.0269401767391792,0.026038575767926925
115,0.025619338485028287,0.024635027690706753
116,0.024620661840105265,0.023924287489410685
117,0.02362164759186743,0.022837084599461675
118,0.02278030515716279,0.021006956739564157
119,0.021793222810187227,0.020923763278657262
120,0.02127589143251924,0.02095059424167422
121,0.021041687383347028,0.02049285845962464
122,0.0210694430218495,0.020982104741846606
123,0.021127970269571743,0.021248927549893354
124,0.02109830412309799,0.020691012205300733
125,0.021257189329895523,0.021055525322863946
126,0.021463287660957956,0.021279782759265887
127,0.02142432809257813,0.0213067046542624
128,0.02173944020508121,0.022793332885252877
129,0.022003815355774066,0.0216317018667736
130,0.022177449382060142,0.02234638253013873
131,0.022513977965538362,0.021913287168654212
132,0.02233771198362804,0.021814910568061247
133,0.022188033963784014,0.021632232234963585
134,0.022243341713624777,0.022866413922525718
135,0.022171320775456672,0.02193694059274009
136,0.022124950533167567,0.021709379724197436
137,0.021884490486780244,0.021822558924410755
138,0.022221733249270553,0.021642558578785512
139,0.022300351707874727,0.02163047316451674
140,0.022125995963263072,0.022900702602502685
141,0.02229407764717734,0.02282021183366468
142,0.022449228390633725,0.02224566063572504
143,0.022721013995267755,0.022635502098709803
144,0.023178815350288436,0.023203560725966316
145,0.024162898469474718,0.025366842521646112
146,0.029833388898083218,0.03337107578236594
147,0.03519387383482235,0.03896012504049558
148,0.0492807251868771,0.05811183894806921
149,0.058865241766023674,0.05849519404616669
150,0.05820611177431382,0.05755686360529933
151,0.05759611862112848,0.05634397194877158
