epoch,loss,val_loss
0,0.1655984317584575,0.09381695328708135
1,0.0585918865344531,0.040755269041942065
2,0.02599765561806927,0.018095435921599665
3,0.01897177961748019,0.02021907675267442
4,0.020181771720663533,0.023075337520996792
5,0.02076493433008877,0.0205295789316473
6,0.021437087074684488,0.02005909956791736
7,0.021744204575655988,0.01842733071242248
8,0.020658432125604507,0.02003028270536365
9,0.020083738090418322,0.02064922494312488
10,0.019684837292805374,0.02185734141038785
11,0.01866437659429894,0.019134058773623456
12,0.018672065504883928,0.0169668623732128
13,0.019059288739818606,0.018248527295352347
14,0.019548303175190514,0.021834131540479206
15,0.020133871212154986,0.020440828738750298
16,0.020215063595580018,0.018834452927641823
17,0.020865169913618923,0.020874649768470307
18,0.021754684922047893,0.02101046488059489
19,0.02243516584865743,0.021960460452249697
20,0.023901211399343803,0.02262406410015796
21,0.023913420823147354,0.022500161105074464
22,0.024245195749620026,0.022696101345598182
23,0.024116442042241375,0.024285397490143964
24,0.02454398141103349,0.022587670288221423
25,0.023616134878441535,0.025209848271372664
26,0.025225260385798275,0.02195267983063197
27,0.02236082606229017,0.021245213429095855
28,0.022692938499021636,0.022089313271719355
29,0.02431712221193442,0.0266991023962175
30,0.024212251576653823,0.024694431509937276
31,0.024458219392521442,0.023317360462534117
32,0.02457978853063999,0.02501289136472563
33,0.02537206577644836,0.023793693195261065
34,0.02601918692869558,0.026433014236655214
35,0.024785452985393107,0.02636565055312984
36,0.024970872897943624,0.021717262599137983
37,0.024653053606490342,0.03586383803138229
38,0.02667635295325689,0.020344775134804875
39,0.02100937209649683,0.022659759571586148
40,0.020537897943705915,0.019809037091206076
41,0.020124258561362084,0.016992863062578058
42,0.01982983343636723,0.02189949119570882
