epoch,loss,val_loss
0,0.14213365359272032,0.10163427890523175
1,0.08418063739602037,0.07926273503544393
2,0.07337147712433557,0.07139105854325155
3,0.06178326552494062,0.05866389377329325
4,0.045201462536430856,0.03867035245944782
5,0.041042199702285745,0.042133783546718165
6,0.041158856113823195,0.041691829257107384
7,0.03641105644690762,0.0308465828035606
8,0.030406425526137832,0.02870384659015389
9,0.02720858968591852,0.028900254675096756
10,0.024693364538043903,0.0269730232535452
11,0.024249634197760495,0.024230493366388984
12,0.022757907209696053,0.025482914233381764
13,0.022910007849621543,0.025660797540501244
14,0.02140120195550956,0.027231270172460492
15,0.022704108126854583,0.022527665698102543
16,0.02280854006081248,0.024013896413212135
17,0.022172614783167743,0.019675164997295404
18,0.02244282775237668,0.022213502812780728
19,0.021690983770431566,0.019692184656399766
20,0.021008035669819437,0.02313943497025082
21,0.021228244132120357,0.021342524444212477
22,0.02215544330842084,0.020482085748107393
23,0.021387057264240908,0.019639632916746877
24,0.02077366889928647,0.021877274941873533
25,0.02008883532011609,0.019174475128738166
26,0.019393294107177845,0.018893796247860157
27,0.018936314737702683,0.017466388175288994
28,0.019022708723722078,0.020666804685071406
29,0.01882348056111357,0.022507918678112356
30,0.02037597820981682,0.023474822336868123
31,0.021657106367577846,0.02305911872286023
32,0.020961892362282002,0.02042827985507466
33,0.020442483260286606,0.018157654379412896
34,0.02060331845824286,0.02135212925992665
35,0.020078691224352442,0.020699794698233152
36,0.019970395390114054,0.019185533433940905
37,0.019152270002420143,0.023207286463928393
38,0.02001531359603365,0.02106520743495193
39,0.019859564460837822,0.020661806193751527
40,0.0189667488593492,0.021124518422767132
41,0.020048368700610983,0.021979132730399142
42,0.020897474356567403,0.024150482414918052
43,0.022280050436411496,0.022746626617006174
44,0.02184612040730308,0.02399639449072759
45,0.022474540105695537,0.02082993208497598
46,0.02035999922699732,0.02359923433979948
47,0.02084128387409339,0.021074652808535353
48,0.020597895562684508,0.019718193905553013
49,0.02048296847125347,0.02147213606003616
50,0.02025175262927461,0.020320148872477666
51,0.02061136224888545,0.022604864899248425
52,0.02042371751241785,0.02183121771220156
53,0.020729234745111062,0.025921434297828384
54,0.021394391745912563,0.022504364782040195
55,0.021907599177583753,0.024500226978309624
56,0.022108365066921255,0.022012871477661778
57,0.02298730834469878,0.021187293088179737
