epoch,loss,val_loss
0,0.11244228980142912,0.056966804220813794
1,0.04247655834165885,0.037401788227771716
2,0.03451158419894657,0.032044901128126205
3,0.031241165095870254,0.029485310318320402
4,0.02845200974431684,0.026080137362737493
5,0.023935292605504237,0.02137375124322211
6,0.02149864561039862,0.022092283145475313
7,0.022751389599913695,0.022102745348365645
8,0.02308081000817003,0.02113608149157421
9,0.02167199152655048,0.019670846343522667
10,0.02088962305786846,0.020730071182891243
11,0.020632784895533374,0.020075713340913393
12,0.02011200782956837,0.01928672811564796
13,0.018201654467234412,0.016988475572526595
14,0.016478150293117853,0.015532821626347308
15,0.015814401972428452,0.014261236277591929
16,0.015600577977260383,0.016120692682706095
17,0.015444467632586865,0.015231471613120074
18,0.015936325931792065,0.015926723821263616
19,0.015630287890263692,0.01573164115388655
20,0.01571308497226329,0.017809577431785562
21,0.016319353299455153,0.016244811675531146
22,0.01583996292413603,0.016374812969363103
23,0.015791284783611553,0.014863404123393353
24,0.01607554683388828,0.04102017332071287
25,0.015903386062563515,0.018976084947521375
26,0.015994168192276257,0.017490137468408953
27,0.016229065615671882,0.01554950415329521
28,0.015964041102594202,0.018193534299019716
29,0.01670587145322137,0.017342499388939014
30,0.01621198013192601,0.020257028032920447
31,0.02117141720233597,0.02259321137233663
32,0.019737392159954584,0.018399149094191516
33,0.018205554491068296,0.01897725498343464
34,0.01797949036115782,0.016870681036942902
35,0.01616030241877174,0.01601636951646658
36,0.01748266564287561,0.019339521577980166
37,0.019786024924001392,0.02144482441911005
38,0.01888441472209329,0.015775060188539778
39,0.02036336391976626,0.023852891138010167
40,0.02056718508316149,0.02057977347842755
41,0.019207240374525078,0.018152828255540383
42,0.019281116093871453,0.017707131466377694
43,0.019787979122403144,0.017429670745296656
44,0.019191302101520136,0.018452879354569417
45,0.01984633824123229,0.020001195165333826
