epoch,loss,val_loss
0,0.1627474555806767,0.10970873840817713
1,0.09861511685293642,0.08451641271009912
2,0.07514410707161581,0.07663653749199298
3,0.07466776205076397,0.07313719676438522
4,0.07604736470871215,0.0893659898695178
5,0.09088106434956061,0.09276032580714011
6,0.09168235956431388,0.09191822429976317
7,0.09140066359993175,0.09152454254235823
8,0.09116700202893677,0.09158521260251751
9,0.09163336183050935,0.091837479641048
10,0.09189779055919006,0.09145279237508021
11,0.091978216676308,0.09166493234478214
12,0.09206450204673908,0.09257530839709475
13,0.09273053172657149,0.09284790941082594
14,0.09240251128002704,0.0930035840175993
15,0.09279411215242818,0.09315964133253038
16,0.09295830994153575,0.09323544210468396
17,0.09387328179119873,0.09412388760528888
18,0.09433691889690839,0.09419029350109522
19,0.09508743402745416,0.09580146167912441
20,0.09655088367912885,0.09682245953001183
21,0.10044919328390362,0.10395030081624955
22,0.10292034961884733,0.10370163461921153
23,0.10314489737284079,0.10275875393598213
24,0.10295643560963569,0.10387549243555731
25,0.1024034395158815,0.10334690405613058
26,0.10220808298777428,0.10163791898135228
27,0.10176251881080661,0.10256084717439683
28,0.10182960146217704,0.10174858453077129
29,0.1015181263192571,0.10121954414161435
30,0.10127609299955893,0.10241220069383201
31,0.10131717945555513,0.10161862614099304
32,0.10147760710794386,0.1019095930299518
33,0.1014029373415559,0.10152562374826858
