epoch,loss,val_loss
0,0.11512344909145487,0.06456842590138116
1,0.058717916547644626,0.05392671895125953
2,0.052392040381578804,0.049861972623790635
3,0.04904206428411815,0.045534116793026956
4,0.044475149223320395,0.03876916612715305
5,0.041647338756560376,0.044186072034471696
6,0.03940538657556692,0.03780213117764141
7,0.0386182667217035,0.038641317119055975
8,0.03896007343953986,0.04173130470003871
9,0.04015596595322557,0.04135531021815731
10,0.04211881800929158,0.04112679811507675
11,0.04144464191615129,0.03965234813510478
12,0.040784505221971884,0.039535990281834694
13,0.039509815137854204,0.0403036622781874
14,0.03999983643715402,0.03972213955238849
15,0.039807005473475855,0.041246575118875355
16,0.03999674625673907,0.04169420850769732
17,0.039656471938258116,0.03950219391753284
18,0.040501437320423835,0.04149565155799453
19,0.04163676694774037,0.03968780732992228
20,0.041244194428209396,0.043724214045100074
21,0.04225729293615031,0.04095411509269556
22,0.04168020706284318,0.045093544315614374
23,0.04223407550732033,0.04053811198681146
24,0.041120423466342385,0.041166001244285676
25,0.04098873542804869,0.040067461931573754
26,0.03827264717520236,0.03690612243066506
27,0.036175830922514605,0.03431476635274778
28,0.03328657877980638,0.03059016493749647
29,0.030574305831707067,0.029910683280537705
30,0.029558511760583123,0.027885062783227346
31,0.0288958375853636,0.02809951274016991
32,0.027987019707568637,0.02876319592905355
33,0.027092828442879337,0.029390610261998875
34,0.027284395739549307,0.02759949271085701
35,0.026683224562025494,0.025761829974348845
36,0.025652979658790032,0.02574537037676987
37,0.026734848379073358,0.025282778007572997
38,0.02644233203952392,0.025016001207370315
39,0.025816475227698504,0.028229913745595886
40,0.025821857540000923,0.02619326484831375
41,0.025875684539441297,0.02831615875574342
42,0.026600324654122362,0.028548703434117778
43,0.026473277517193132,0.027441246489440727
44,0.02668562391363412,0.025564228013251932
45,0.027130292945554097,0.02904370067392688
46,0.02668206154374029,0.025711000972701605
47,0.027010777033865452,0.024537145672476283
48,0.026547422922543175,0.024101365074638833
49,0.026405502943028743,0.026627534490310967
50,0.025644994779325407,0.025810639851012847
51,0.026585047697197262,0.028989182232387348
52,0.02614524498802247,0.025300246588415346
53,0.02523412748458062,0.02397980977029149
54,0.025261990380563516,0.02386778014643675
55,0.025696866853768638,0.0255020211767567
56,0.025165310685264525,0.024309596443003383
57,0.0244077836560885,0.023846380211171806
58,0.024338341140888817,0.02440373967647929
59,0.023951926330427566,0.029605179836925035
60,0.0239390977248877,0.021486264514577323
61,0.02345919411042802,0.024201912274723836
62,0.023785379439812723,0.02432152521873706
63,0.02369343756782196,0.02161903819620562
64,0.023587338854190256,0.024549000053398235
65,0.023235588833290657,0.0252211628100984
66,0.023372679958857005,0.025325137982181705
67,0.025405214192698613,0.026527592334558196
68,0.024117300462209994,0.022487182264240502
69,0.02418480958040658,0.02458615034551087
70,0.02418073960918662,0.023265476188612858
71,0.023944956208054397,0.02416701200208682
72,0.024282494183930515,0.028162113595945025
73,0.024426687003331456,0.02485369756338558
74,0.025807303355650887,0.029027957645639625
75,0.026675904715369694,0.023947446866529894
76,0.026658119765563693,0.025645243670664956
77,0.025554824869135778,0.02546391422156871
78,0.02517820428200751,0.022434934070326488
79,0.02608365003245888,0.025890558991131345
80,0.025319766123696484,0.023999715510582303
81,0.02525311404821291,0.02666914895112202
82,0.024666286762252892,0.02588176143215271
83,0.02367125871702195,0.020542479474494422
84,0.022651187255144787,0.024605815747977714
85,0.022484453659293226,0.02241898946105352
86,0.021173197858342284,0.023277028884970963
87,0.021026460259935435,0.02354692342458109
88,0.020921181186849026,0.023365495999173893
89,0.021917388200101782,0.02143935785697216
90,0.02360265409770451,0.023253690651320245
91,0.02399304215546897,0.0248493870812885
92,0.02454855654472046,0.025297469829209884
93,0.024119766083636064,0.025255035040804553
94,0.023079940677359165,0.025471575088481455
95,0.023150317174725706,0.02323819330328195
96,0.023646049840981773,0.02199516193933885
97,0.02284903064493736,0.024792852159516023
98,0.023016655826561455,0.023830866576381903
99,0.02294745588478603,0.01989670339736561
100,0.022660987825020493,0.0259863880720951
101,0.022911032048358523,0.02015163341129894
102,0.02297419625752085,0.02083484966075599
103,0.022760449723674834,0.021906077168623153
104,0.02299669257913836,0.02266094166250354
105,0.022637188176644576,0.023007764165666786
106,0.02244879234638765,0.02361990736272618
107,0.022858600300415862,0.022254102494370636
108,0.02296208336816834,0.022312641389309277
109,0.023076275540002102,0.02339280935720303
110,0.02242010772350333,0.021134383190679052
111,0.023096885606959213,0.02172689762292834
112,0.02308904904377856,0.02336052894495257
113,0.023323550389306866,0.02234300941702246
114,0.022271275041263094,0.021050853848063343
115,0.023060877967497808,0.021378194985304088
116,0.022970391624271395,0.02513170245102803
117,0.022723260073945654,0.028506335248875168
118,0.02363253296795878,0.024313168899371525
119,0.02342172994387807,0.02546471448860704
120,0.023089680934234035,0.02562773780384187
121,0.022990072607624826,0.023051912745647572
122,0.02388583970063334,0.029047822913459274
123,0.02388166641477022,0.025270570815638615
124,0.02302888806367354,0.024901534103580415
125,0.023444307835878347,0.022210625528071983
126,0.02264514395134817,0.02346627423194279
127,0.022405537278975825,0.021070474644074688
128,0.022542401480836142,0.02164153508980183
129,0.0223531161999251,0.021221861444654763
130,0.02242469304850955,0.020673178578855582
131,0.021958380701953915,0.026125022920984967
132,0.0216098372220731,0.020821005930710988
133,0.021745750408092564,0.01961269375119114
134,0.021792127304136467,0.02444021291031128
135,0.02187817220573874,0.02388566499098183
136,0.021761530964485677,0.02367095393294082
137,0.021883946515137344,0.02134711934355012
138,0.021890493335394407,0.02388651441156441
139,0.022388463060436348,0.01980210687515297
140,0.02213707846625865,0.020275509915510876
141,0.021929841433137323,0.02743559781220854
142,0.021540880951059643,0.02195156336524586
143,0.02157663335416207,0.02365683528852679
144,0.02127296923265921,0.018586516022335242
145,0.020298499674674012,0.018469163801759222
146,0.019921559082950166,0.020455827230136274
147,0.020276408105772987,0.0234186850861597
148,0.019812732351665422,0.019443531560358
149,0.01948270185081531,0.021638929789508057
150,0.019715545228500064,0.019677635055879203
151,0.018955993836821554,0.017889821818120478
152,0.018996619354400467,0.01780132944794885
153,0.018552670109760964,0.01777170599389001
154,0.018810999921063703,0.018040672052672225
155,0.018530720419032302,0.018657046775962062
156,0.018459328685884926,0.019456065984644236
157,0.018816425765810205,0.01847113623638838
158,0.01880482017813767,0.017909707007569504
159,0.018894420286043465,0.017255880830231714
160,0.01935553926971557,0.01949867220329387
161,0.01928731675544898,0.01962233387410123
162,0.020309241311393864,0.01867016305266376
163,0.02041550854862713,0.020819019199876027
164,0.02034981348637423,0.021149332405765553
165,0.020458999880515843,0.01994947993197282
166,0.020525955462189528,0.019075160868901056
167,0.020635650207703228,0.020947602390801946
168,0.021341407270305496,0.01977557889990738
169,0.020635445863544512,0.02347582960523365
170,0.020695126423393367,0.02091381833068997
171,0.021120321712822174,0.02382602890837282
172,0.02072507797254266,0.01967047358000829
173,0.0208519574516802,0.02062613792179392
174,0.02068370584544423,0.01999492580387168
175,0.02111499105095506,0.020636325483758006
176,0.02093623729785986,0.02513501247289666
177,0.0211235652763328,0.026651455995045314
178,0.021150987535018286,0.01989504379376875
179,0.020933465738456954,0.01931558627688165
180,0.021533273954426856,0.020747736740295775
181,0.020879968940887113,0.022046731349783518
182,0.021500140331018505,0.020982455153491616
183,0.021470609527128898,0.023676809106513142
184,0.021561271046473682,0.02113996010241352
185,0.021541432933517093,0.020528479265350476
186,0.02202129637938645,0.022900156124003215
187,0.02180791582032252,0.02255399471359076
188,0.02240304848876038,0.02117510508942905
189,0.02198321578858925,0.02178449104683387
190,0.021899396310568593,0.02286554559412535
191,0.02192423498960767,0.02148466533301332
192,0.02131683721938889,0.024945198009180193
193,0.021571884725725264,0.020111203891237654
194,0.02203427372927622,0.02148497944893264
195,0.021777990033669915,0.02038959401785363
196,0.021704520552242687,0.024118283645918073
197,0.022663921521653495,0.02652999875448121
198,0.022275582056039935,0.02202853553979154
199,0.022873960522864816,0.023854996387177127
200,0.023279999498930053,0.020674906087408598
201,0.02321290716954725,0.02097769644134917
202,0.02289278116963095,0.022651891864324612
203,0.023570643129686323,0.022235605165203585
204,0.024921801646607077,0.024140001748024758
205,0.024946934949654304,0.023179645219342907
206,0.024709107072132048,0.02813367878881466
207,0.02521088714603421,0.023530578805279243
208,0.025433276357839433,0.029308251648459176
209,0.02637638450249565,0.02674300069961147
210,0.0256046680346441,0.02607678741160795
211,0.026701789227597934,0.02576494436702252
212,0.027110923493324186,0.02971656186228299
213,0.027167797522644678,0.026719781126894628
214,0.02842307994238955,0.03001578259939694
215,0.02854577064079394,0.029292725991007844
216,0.029683926019171396,0.028812129842889243
217,0.03012628850417672,0.029585875162080034
218,0.03019367776391246,0.036681574805336105
219,0.030888284214114922,0.03139653605950707
220,0.03192412206898633,0.030065396483090794
221,0.031306657254499354,0.0337443237855219
222,0.03186065898605173,0.034335869450442605
223,0.03443683298240653,0.035515148047102
224,0.033801445290803624,0.03346629084720796
225,0.03397783321766949,0.03632796558256731
226,0.03559944295747984,0.0387091030261605
227,0.03646359834552026,0.034922175027059583
228,0.036757875720022634,0.03770121801041813
229,0.03700767756535781,0.03814435079429172
230,0.039510318617835986,0.04222981346405061
231,0.04190853983610511,0.04172946231905739
232,0.04225936295579282,0.042899675880453673
233,0.04222264150224572,0.04377011834234352
234,0.04223220156569728,0.04343671349613047
235,0.04259584625761548,0.04404427583646191
236,0.04274051822945297,0.042582595672373144
237,0.042982887794568145,0.04328835837178421
238,0.04282554073019518,0.04426199704079338
239,0.04287809830793231,0.04139419129058048
240,0.04275131250004307,0.044103776906700046
241,0.04299751329470238,0.043354143646575846
242,0.04380661034457785,0.041915332120802805
243,0.04446591920763564,0.0452580533410116
244,0.04358513591636857,0.047790838792132126
245,0.04406330757197454,0.041685816037285585
246,0.04406108618896309,0.044142668647801864
247,0.04475246237622176,0.04589422155339227
248,0.046316752248971485,0.04589541632779113
249,0.04582155532360696,0.04436817324493189
250,0.046785056026731366,0.04463174165283119
251,0.04668220176214842,0.046018300720600036
252,0.04650350016274517,0.04939470998501815
253,0.047576232267607696,0.0467507634414823
254,0.048610611156903676,0.049170326473869104
255,0.04865822437361514,0.05327683187368449
256,0.04916224592208243,0.04901813511055289
257,0.04947838106369086,0.051208808236029926
258,0.05010871623726867,0.05223463085533694
259,0.05061376464369295,0.049914870605213775
260,0.05091255061256943,0.05092932945139406
261,0.051736965639997634,0.05114105475541637
262,0.05140290116008332,0.05185242433280294
263,0.05190936622651313,0.05652577878985239
264,0.052045715934069134,0.04929315766000616
265,0.05100423657148481,0.053304833016742756
266,0.05139956517453245,0.05305131914677729
267,0.05115992752321476,0.056587091425835095
268,0.0520296426315745,0.04948942201842731
269,0.05044000658193986,0.05087808332602246
270,0.050335954654393056,0.04967669192657474
271,0.050488559701900595,0.052128788063210016
272,0.049481986547640855,0.052719611686308177
273,0.04963031522393655,0.050653810091698934
274,0.05045984803343848,0.04896283813920563
275,0.04985628178943213,0.048284258117168646
276,0.049219977529012235,0.04901712443076821
277,0.04877471846701811,0.049977059413597355
278,0.04892098782010835,0.048522633936288515
279,0.048724059502390935,0.0499610583714688
280,0.048801516455938394,0.048209661951592896
281,0.048479006077043064,0.050478011772518754
282,0.0491477500298898,0.05036693939023255
283,0.049217789489731226,0.049702656791260985
284,0.04911401992489537,0.04690895385999047
285,0.049680333188493,0.05152587440885139
286,0.0498691418354841,0.05072974794689086
287,0.04944399743974447,0.04824759889373463
288,0.04993692214945428,0.04930163011684038
289,0.05023469197616684,0.054163776908507946
290,0.05069754676049133,0.049513493924039316
291,0.05143425806904201,0.05320099159934056
292,0.0511877706913139,0.053364800111388444
293,0.05052087549492419,0.05327134431819795
294,0.051256500275360405,0.054694663121673
295,0.051758475537649354,0.055952429665574524
296,0.05265098322870777,0.05204530950597448
297,0.05281931633720819,0.0545616877054312
298,0.05323503091693115,0.055358186064268906
299,0.052162361665547705,0.05342996468283853
300,0.05282716321305548,0.05360924263779535
301,0.05179435160192702,0.054303379430955284
302,0.05314814778481075,0.052819541945830044
303,0.052446194345966805,0.05554740070920341
304,0.051724957862048504,0.055664094586892685
305,0.05190038706788676,0.05115752795089298
306,0.054066907992656475,0.05219119634029427
307,0.053515616448508274,0.05174545719102319
308,0.0531278908115735,0.05415953108019121
309,0.052875744220581083,0.05443331329909101
310,0.051868274587569096,0.05097946545495795
311,0.05172795339299144,0.05277534908870119
312,0.05158214948529439,0.053321038661693715
313,0.05189805046069346,0.05192345443410298
314,0.05132501253591691,0.051573604621704676
315,0.05209951953505345,0.05402586677632844
316,0.051942833822122295,0.0495340339810056
317,0.05162394443879739,0.051916786687832325
318,0.05145055871549175,0.054946446531079565
319,0.05374271183652129,0.05415074587832686
320,0.05379325292444677,0.052528687829964726
321,0.05454577675325979,0.0527257826899626
322,0.05561503143363195,0.05620359610281032
323,0.05541518634761409,0.0545923166394516
324,0.05500786346967796,0.054772291761759045
325,0.057199319196250036,0.0589254033923055
326,0.05905723862862177,0.06554945883500642
327,0.06145365068988263,0.06209203628521786
328,0.06308011833331187,0.06426996842391301
329,0.06517392068023352,0.06391648039656919
330,0.06722420213266099,0.0670421578037099
331,0.06524742329024154,0.065631526565707
332,0.06408833703405852,0.06400943318736205
333,0.06348360956257149,0.06224624373624432
334,0.0624839282191867,0.06152934806852145
335,0.06166545448632692,0.06184244833316216
336,0.060778755280706614,0.062445800983727026
337,0.058595248266494725,0.05897564662660119
338,0.05833227183523891,0.05725154097779303
339,0.05947544477689418,0.058661399001951
340,0.05784504111561415,0.05957375475644312
341,0.05711221589232616,0.05509675773126738
342,0.0559933425100754,0.056880190039396095
343,0.0557023454427743,0.05606095686013904
344,0.054283579909722865,0.05317413320304751
345,0.05446090227771672,0.054881334572371855
346,0.05466558851248069,0.056671094037621814
347,0.05567889167464894,0.0549394088049714
348,0.054927140419229234,0.053515884207874745
349,0.05756799849591476,0.06356650270703935
350,0.060563095463372824,0.05511915856632738
351,0.0560015611019995,0.05519352152343801
352,0.053522100433897817,0.0512676055895219
353,0.053317287396326914,0.056462171669070325
354,0.05242863573360262,0.05027136807318927
355,0.051354914911085375,0.05295791505191302
356,0.052750858748488005,0.05467937921409825
357,0.05165552469543654,0.052163945682987795
358,0.055161459724322785,0.052314980212825435
359,0.05733819541295798,0.0604082827163006
360,0.05975297596201384,0.05972040819493729
361,0.05863464551179005,0.058673692965658046
362,0.05693549800702898,0.05640665654625211
363,0.05738548623274366,0.05849367140806276
364,0.05839795536018438,0.057233929025463544
365,0.057058927046952486,0.0591290601997415
366,0.0525156087268123,0.051129282555809716
367,0.04996376303579215,0.04803748354727392
368,0.048244673425225995,0.04758315200563858
369,0.04773716785484176,0.04804077515144845
370,0.047210182817422036,0.048149833333661636
371,0.046960715259567534,0.044691741443000255
372,0.047663031859125356,0.043824734297105435
373,0.046599143420716076,0.04387014996239823
374,0.047212262349061784,0.04354174776207112
375,0.0463864062886706,0.04576760277904764
376,0.04506789109141802,0.044096182808338796
377,0.04529904728333989,0.044408382184879934
378,0.046107253640425575,0.04924870420015037
379,0.04585936389488282,0.04547072583905053
380,0.048149076496644745,0.051998136240192165
381,0.05134752756662125,0.051242701394664275
382,0.04959388861922528,0.04885894065133304
383,0.05041133735379536,0.05116378177536597
384,0.050732630657122954,0.05272348310383832
385,0.05001601157374948,0.05264850721445343
386,0.05020632872359453,0.049014336437622014
387,0.04933775213809846,0.048270384795028765
388,0.048107998147100615,0.05025878411312694
389,0.04824129370399278,0.048363590391019055
390,0.04781609204866522,0.049239638910556084
391,0.04599407228598778,0.044949063041850916
392,0.04607554555213232,0.04373019084263807
393,0.0454032612922821,0.04617956258068427
394,0.045239027850121426,0.04500249156106525
395,0.043654456460695094,0.04323028782919202
396,0.04411553840363602,0.04353878175032685
397,0.043585415239439165,0.04745094216154519
398,0.04377538471711244,0.042004439006570575
399,0.04364486969486296,0.04289520148190816
400,0.04284323480793183,0.04551409430737183
401,0.043189280383515175,0.04202467944376
402,0.04330377281977714,0.04091539706567327
403,0.042591698916642357,0.04105623072011789
404,0.04302505029441356,0.04372207104465862
405,0.04330243473108724,0.041732542137391186
406,0.04246705554151754,0.04394314873995937
407,0.04205187917095151,0.04073031889987726
408,0.04173048871452455,0.04326939809664602
409,0.04261671697987403,0.041086788145912004
410,0.04201268255010807,0.041279397916633875
411,0.04113820074669582,0.0421799645959837
412,0.04246003325391325,0.039027233588220384
413,0.04157766806770214,0.04143695751735801
414,0.04200464608572084,0.040460807798340645
415,0.041529561332661474,0.04470627499125374
416,0.04164743946000136,0.04000621949687847
417,0.04208654779375052,0.04014304602972946
418,0.04185937227179511,0.04573311305795256
419,0.04212937189517714,0.04566790613962518
420,0.04215115513637674,0.03849782293696242
421,0.0422011744104427,0.043019414339111654
422,0.04261118616479978,0.040161222664914266
423,0.041589605915311766,0.04219688629347834
424,0.043221226768295685,0.04225213832465231
425,0.04258164660714799,0.04193733347360789
426,0.042305850310714176,0.04285254815465461
427,0.04254380243865372,0.04177445117692921
428,0.04124742045962839,0.03904222944294174
429,0.041633768468725976,0.040632096815328006
430,0.04192476832925034,0.039134583270563884
431,0.04235605714093748,0.043598542076659745
432,0.041915824892912075,0.04257171122385182
433,0.04152763589210123,0.040716323894231736
434,0.041090968109631566,0.04256089163125267
435,0.0414802304399814,0.04137401173704237
436,0.04084165552206677,0.03861089431531522
437,0.04071283654021702,0.04681964444721319
438,0.04110481942684459,0.039103838573220966
439,0.04161850760559098,0.03978708816137997
440,0.0416284703569923,0.04173389917949616
441,0.04109930573068529,0.03962988926843103
442,0.04087756786697941,0.03874783036640853
443,0.04101928410386081,0.03967510820781752
444,0.04235710139772732,0.04057961044467004
445,0.040855651087076256,0.04231085235601396
446,0.041644705250281557,0.04375572541865337
447,0.04055806750031136,0.04434448002816282
448,0.04070551642443803,0.04203276024821149
449,0.040453467739941025,0.040268765727165375
450,0.040273401057638,0.04375078350646626
451,0.040944090184512186,0.040027393763201295
452,0.04239440261632752,0.03880117451529524
453,0.04002512244062482,0.038774004673560306
454,0.04076897659429091,0.03901844977121138
455,0.04179520412034792,0.040975266986694875
456,0.04112458554543942,0.039535013544237226
457,0.041042263496765416,0.04233252226530141
458,0.04139103287894973,0.038626326311265
459,0.04113465653200873,0.041104206505166135
460,0.04097273955039746,0.04000587013109801
461,0.04100513990393741,0.039004225704316185
462,0.04087540151314627,0.03940934239759535
463,0.04090486519592557,0.039550275267664144
464,0.04130642701217311,0.040614709602088184
465,0.04167652863422505,0.04450899663351141
466,0.04077466246526804,0.044327243412797056
467,0.041058571931781716,0.04175200986939805
468,0.041115786807297425,0.042110318978094356
469,0.041487891768231144,0.04191679828568717
470,0.04104368365053341,0.03963864583083985
471,0.04006598140005108,0.03873219322810139
472,0.04060451282734732,0.041318411494134066
473,0.04167190453426229,0.04744688315933016
474,0.040385910906910086,0.04059371251639364
475,0.040941964505876095,0.03913214420216142
476,0.0412693518853421,0.038438846396125013
477,0.04042681591208581,0.03795310102503132
478,0.04078057090298449,0.04512543039103851
479,0.04176901059327937,0.044183307608858566
480,0.03993215918433752,0.038724601108524964
481,0.04139646893288258,0.04330953306591266
482,0.04018153058071669,0.038197725995104896
483,0.040582113098248926,0.04043498399190387
484,0.04035796872976658,0.04077431928563419
485,0.040398018550035435,0.03743865735234947
486,0.039924355227497224,0.039322608940732605
487,0.04043230841637587,0.04441627070025468
488,0.040479289204013245,0.0393073424849815
489,0.041047906536582135,0.044086092893378226
490,0.04150092481619877,0.04428199401394344
491,0.04039112156737956,0.044608427048458674
492,0.041347256357626,0.040095278396379226
493,0.04077367984252773,0.0385062809219112
494,0.040754727928413094,0.0391363387158539
495,0.04078873392897282,0.03842376020825935
496,0.04021726317218335,0.0372558373916709
497,0.04003534198245056,0.03889022144799921
498,0.04035016755870492,0.04300795064029161
499,0.0409348345332616,0.04420017715228902
500,0.04098284263223362,0.04257944206124276
501,0.039874111002178594,0.043239115896886886
502,0.04098017587155985,0.04461137428232884
503,0.04188059993999468,0.040885902895653164
504,0.039640237394121765,0.04179852759728727
505,0.04137596346997767,0.04380766144014995
506,0.04091998298007021,0.03698790857558092
507,0.041146534279906014,0.03830280329741026
508,0.04049258420525266,0.039158436510162084
509,0.04048843298711889,0.039459179904555934
510,0.040286374023760396,0.048246802443134194
511,0.04120076635478736,0.037821653227732704
512,0.04069163386213431,0.041847915224725085
513,0.04136904520388368,0.040072961759642534
514,0.04140339383883752,0.04002882243702284
515,0.040859240786188085,0.04114023907567303
516,0.041247010093292506,0.039573700306165284
517,0.04046276374850318,0.042934910087730815
518,0.0405796308808928,0.038904320153142394
519,0.04152340636023586,0.04390674319497553
520,0.041507586383437226,0.04327439217465829
521,0.040472253672421264,0.04002260155358367
522,0.041524736597824345,0.0441546290142619
523,0.04149780166130677,0.03964968845130613
524,0.0423274949724547,0.04373415153923473
525,0.04096031243236159,0.03939952909793549
526,0.04069936842837041,0.04007942235536856
527,0.041956288678248486,0.04588141121799398
528,0.042453968068130676,0.03973501988913755
529,0.04226561653674197,0.041411238405691796
530,0.04247994403497016,0.04040924044239211
531,0.040847695296366726,0.039266375457278464
532,0.04166507738739919,0.04371168832834913
533,0.04163134275905067,0.04445273573374362
534,0.04173296211372248,0.042108785034684376
535,0.042157620723864773,0.04090586759079462
536,0.04236164276631806,0.042740458757826075
537,0.04072018041030513,0.04029059329973541
538,0.04192353985893974,0.040408414302668706
539,0.042010289825332295,0.045516154045957984
540,0.041844642095768055,0.0409170863583931
541,0.04156021157176875,0.041871554921686226
542,0.041388995081132696,0.040490024238707234
543,0.041234523677330416,0.04085518752578308
544,0.041672852607987386,0.04052870151981559
545,0.04080115399173767,0.04016273462264295
546,0.04023160205053673,0.039657330696177745
547,0.04150252692404387,0.04003245504345119
548,0.041642849900864726,0.03783013381728433
549,0.04073816232404096,0.04484597433449578
550,0.04131095733517389,0.04446800567956543
551,0.04126452893870387,0.041775091280006664
552,0.041201909680923014,0.04147536608948422
553,0.041523974222078215,0.039015653543909325
554,0.04205230969063146,0.044832050703295406
555,0.040952530892775785,0.04308794384885465
556,0.0405012276567084,0.037696710491483855
557,0.04157015670025401,0.04722630314899413
558,0.040655273600197814,0.03922101042153286
559,0.0409668280663405,0.04026484408731195
560,0.041331350868143484,0.03915069463068139
561,0.0407789399851855,0.042654664275525306
562,0.04009071739314557,0.04133238064620612
563,0.04053034914730431,0.038441949683493674
564,0.04205929022952378,0.041926528157367894
565,0.041860283077727975,0.03768848274388272
566,0.054576454404964864,0.059232580298359414
567,0.05694020874381399,0.058062456492349306
568,0.055497325889819815,0.05745237746997056
569,0.05375165415169905,0.05342003803967771
570,0.05020276614599567,0.04357684889386372
571,0.047707419000494536,0.04789250511337945
572,0.044863500575766525,0.0452507515353369
573,0.04433863332270266,0.046808686864510146
574,0.044435811595325704,0.045400427285384834
575,0.04306048308636883,0.044499859725431655
576,0.04480345032105652,0.04764655657588918
577,0.046386612556892616,0.04438480949757037
578,0.048595974354339926,0.05782750268020589
579,0.053405593604230576,0.04844962830501649
580,0.050337099911664414,0.05455515228782287
581,0.05326426486900861,0.056040474493718094
582,0.05230978738180072,0.04251306135598467
583,0.044137960391418395,0.04308469232462858
584,0.04069433273296419,0.039492141858225464
585,0.04186501471753076,0.03804060297811605
586,0.039393889093153674,0.03758636953775207
587,0.03857866331911106,0.03440177079728248
588,0.0390856445586081,0.04068908049638994
589,0.03952529133229757,0.04145110138025261
590,0.04588695063436632,0.03843730252350797
591,0.039074966589437064,0.0399403670257297
592,0.04039832674782815,0.03682831254359202
593,0.045526758722252224,0.04988694715224671
594,0.047601312476334624,0.04599767418662064
595,0.044303386738683156,0.04872023847303997
596,0.04783084189562465,0.05049431635965112
597,0.04467425201844564,0.04025427121213316
598,0.04525159014318939,0.048456534907962735
599,0.05152079070077764,0.047938543062395436
600,0.04924991665531596,0.0597891364872879
601,0.05434787032498921,0.05353590043668871
602,0.052744604054567434,0.048895305435701725
603,0.049167275065474275,0.048499472136443865
604,0.04856883089760129,0.04617065549390751
605,0.04699902565662952,0.04468314935642147
606,0.04783656695882956,0.04737818011486258
607,0.047426626890254536,0.045474870051033116
608,0.04089804194855699,0.03937628179723904
609,0.03998863277621835,0.04108088852539247
610,0.04617281082040853,0.04708629517265446
611,0.04579770886045185,0.04480307938820655
612,0.047790016611959106,0.04862863674830431
613,0.04505980444132543,0.03785644708041046
614,0.04101799551001508,0.038264578246550475
615,0.04168822745949649,0.04058396047085594
616,0.04614361101086977,0.05166646490357199
617,0.04766711215231773,0.04816021568244051
618,0.047168976288559816,0.04613447067604916
619,0.043741377842553754,0.04396345867718781
620,0.04146859427090648,0.046402305051472685
621,0.04219343550324583,0.042553629558577534
622,0.04584072399616456,0.03992785928122576
623,0.04559767581477797,0.05000386047217445
624,0.04694531866305356,0.04475031775182029
625,0.04757487575868241,0.0470190542766967
626,0.04862528449470858,0.044947088861451344
627,0.04713141285538149,0.04843085360343567
628,0.04778568739954421,0.04170022542193685
629,0.046456472728577114,0.047123229419246564
630,0.04666454908099296,0.03979874641032509
631,0.04129561565616886,0.03879166461362694
632,0.04165527509669844,0.03765961912261424
633,0.04060040207223879,0.03537332179390876
634,0.04298039945475251,0.04795031649102446
635,0.04625130262222889,0.04746660180301674
636,0.04856710478538375,0.04143836378504323
637,0.04231194449554411,0.04169937922974318
638,0.04140279685436703,0.050253369117004246
639,0.04480288985396008,0.04278729074203131
640,0.04429606847140453,0.04629117706327478
641,0.044978829949415274,0.04607561778427111
642,0.042501311815477054,0.04310942228645345
643,0.041741734153950674,0.04303073606967644
644,0.04055676816536082,0.0417454318079477
645,0.041186576227484034,0.052099301446679076
646,0.04319422876984953,0.049189942094314355
647,0.04257348767346997,0.04469987965867382
648,0.045163588698872985,0.04545737729770232
649,0.043919972166401165,0.047417288768122116
650,0.04307495116469838,0.0380858922452205
651,0.04181455250615053,0.045855980678134386
652,0.03903407922727789,0.03601603333756692
653,0.03776444641606723,0.036033242016195684
654,0.04157297892405165,0.0441050510853529
655,0.038664740193888346,0.03716626100759621
656,0.03636797078975218,0.042004532875359386
657,0.049746182532780035,0.05446414152879177
658,0.06310701941093094,0.06555969960511249
659,0.06353304017749098,0.06774919425690842
660,0.061029614658831215,0.058477952179587914
661,0.0595758476009448,0.050730769264481626
662,0.05035473946496832,0.047638927907598425
663,0.05024675919944577,0.047382915555701635
664,0.04915096420648811,0.050230888001497276
665,0.049234815524052754,0.04600621043941875
666,0.05350013527361085,0.05144411087882923
667,0.04542206089756043,0.04387548546164922
668,0.04684495949502781,0.06392122186197008
669,0.050256982340003184,0.053197987198288645
670,0.04781677241516795,0.040701378689639287
671,0.0413576750439122,0.041738065844658986
672,0.041203276552021696,0.04109028601414732
673,0.04318974615944971,0.04701804718254068
674,0.052181995391166754,0.053476492770680686
675,0.04654803300137929,0.040258986716641625
676,0.04236402927408758,0.0405988774049936
677,0.05328092195739825,0.051410987511594744
678,0.04822772608505641,0.05500707528079789
679,0.046968365591361846,0.04446144472298984
680,0.043574803049484793,0.041823223277326634
681,0.04265601700357944,0.05121614719904965
682,0.043722920806156834,0.04676535145483247
683,0.04329722751673463,0.03928383674851862
684,0.04274513991512388,0.043436158711609635
685,0.043531924263565995,0.04397939588071892
686,0.04343189326949495,0.04392303225467453
687,0.042723676690059026,0.04940173128691826
688,0.04279296468722996,0.03717537766326904
689,0.04246401821942829,0.0390439015910935
690,0.04248740204530273,0.04331465527685778
691,0.043143648981785986,0.03971589226260981
692,0.04253195452583518,0.03779870256393466
693,0.042420363194382874,0.03736477960474442
694,0.04216473301028391,0.041543359599931086
695,0.04142838716655851,0.04693812529108801
696,0.042173830176637374,0.05099585902860246
697,0.042877602516014655,0.040892724284421485
698,0.04213114236544767,0.03889278524159068
699,0.04178735857932187,0.03935697762076556
700,0.041211877971869725,0.04434410284913565
701,0.04111865248685952,0.05433989558795257
702,0.04175253041895578,0.03934859783015998
703,0.04128661177319874,0.04219642331075414
704,0.04263873991193912,0.03626356310789615
705,0.04139015142270606,0.03763100241723264
706,0.04117165568272035,0.04966325979112356
707,0.041025933093405506,0.04838556531837303
708,0.041275374851167966,0.03897898328279593
709,0.04106506484029867,0.0391255429260074
710,0.04125624514749939,0.036310698804699164
711,0.040833224041415726,0.03611590558458663
712,0.04025184054025929,0.04116475573596093
713,0.04076881153355662,0.03883027301067758
714,0.040544434562980604,0.03665735362496024
715,0.040941904683103804,0.03951578586411551
716,0.04045376480578614,0.04590033594557123
717,0.04009496284236344,0.04439010078729893
718,0.040335067335685953,0.03564355000647721
719,0.04023659806832564,0.037695485669252154
720,0.041202014780415,0.04057581785804612
721,0.04145337581905506,0.04324197114372498
722,0.0402856706005099,0.053683657404961505
723,0.04036178805982228,0.03914583033507935
724,0.03961892731615799,0.052294321043597686
725,0.04012059989712126,0.040844491167668764
726,0.040088592021228026,0.04385243379308797
727,0.040523997184892684,0.03667821612094412
728,0.04117478547300652,0.033920729363773786
729,0.039729655422508524,0.041311807104260696
730,0.04055177353078322,0.04526752044006465
731,0.040569481020756096,0.04154592344497684
732,0.04027031489136479,0.03863407346701519
733,0.03994217300735456,0.03631026610061703
734,0.03964293985028299,0.037318992726181374
735,0.04033206287863777,0.03952620353111622
736,0.04272648755335908,0.04088786379790673
737,0.04262137646711678,0.04258494961774528
738,0.0416812128845236,0.03656466986069598
739,0.042835845997621066,0.04087695083636041
740,0.041555064163810246,0.04053885616132756
741,0.041798412605530494,0.04962599417157971
742,0.04126995509203008,0.037262840346442776
743,0.040100343796394045,0.047463195217624835
744,0.040022370080909524,0.04748290534783228
745,0.040189381412637656,0.04265091750526767
746,0.040341770751394335,0.03638162416565484
747,0.039603485523326265,0.04725188500855791
748,0.04023166912511813,0.039853724128410116
749,0.04050578232958829,0.03585335394424911
750,0.03979512963289146,0.03467528652561492
751,0.03856762254731261,0.03557983091381844
752,0.03936065133172664,0.047269746918457645
753,0.03944630022618553,0.037161410537025735
754,0.03963888059932289,0.03763022660568133
755,0.03887597514356641,0.039757264782428366
756,0.03914772588268316,0.03358522615297723
757,0.03853234585425217,0.03869744260584452
758,0.03910306272440129,0.035414481797235726
759,0.03955013298174198,0.03883516913737099
760,0.03969374053078971,0.042137094233082144
761,0.039885272138672385,0.035959124907663044
762,0.03912532269034526,0.04369363468507894
763,0.039879337221914106,0.04743141119369109
764,0.03969963748591671,0.04003441452556646
765,0.03950888827833221,0.03854338558215792
766,0.03957935788711126,0.04326998722910787
767,0.039942598493723606,0.03826885450346176
768,0.0408840136383649,0.03494274143891111
769,0.04073657857836317,0.047418507789250615
770,0.04132992938625441,0.03603945033155799
771,0.04138385780456422,0.04345160720380348
772,0.04390533702101091,0.04251057843676965
773,0.04440737788533445,0.04103888235780415
774,0.044495452995703136,0.04550761305201496
775,0.0448685134600976,0.04450858053740264
776,0.04441025586788365,0.05217859152801505
777,0.0443738083579212,0.04428143788573068
778,0.04419628684918919,0.04140783206434022
779,0.044681673266476006,0.040687825424918625
780,0.043964416010500336,0.04270312456442036
781,0.04397667991332442,0.045690052740528724
782,0.04349640515490735,0.04350168137842732
783,0.04374265200052735,0.04285664560057182
784,0.043838184526403076,0.041977330707101815
785,0.043521150363703,0.041549924059808487
786,0.04321333200415428,0.044356261063205414
787,0.04370847601908074,0.04026380243204716
788,0.04399797074618838,0.040983670927002
789,0.043887856018861277,0.04836675996914941
790,0.043619553159496526,0.044467348681840733
791,0.0434299623831916,0.04294090496042439
792,0.04342881172558934,0.04254038857285818
793,0.04396290708479168,0.03995652738061822
794,0.04335750448037323,0.04354849940528997
795,0.04328791626976977,0.04768002455452811
796,0.04349918623524104,0.043839635155454054
797,0.044407111675970605,0.04105298485586327
798,0.04385272080791916,0.04487939072212744
799,0.04385207164035045,0.04807275333445469
800,0.04383727159428535,0.04308717761662125
801,0.04357137251868665,0.04517754640109725
802,0.04386102816880607,0.04406502926112068
803,0.044141854676190945,0.04405944726937807
804,0.04398011408454413,0.041580013952849416
805,0.04434509533230397,0.04347331613602136
806,0.043403075645408996,0.04422511418968227
807,0.043570613597246476,0.040935325961862855
808,0.04311445082048718,0.04893524416714272
809,0.044121886250659,0.05345040912010017
810,0.04361583323751708,0.04096622749774966
811,0.04345903737614933,0.04319367003086851
812,0.04393492691847179,0.042513819755405635
813,0.04357787817910159,0.04408116898578081
814,0.043630914822173156,0.041606826754764674
815,0.04321443071614186,0.044162821295158826
816,0.044382604330385045,0.041647703763929615
817,0.04343839305610084,0.0414475782597239
818,0.04393745233028603,0.045657010632842755
819,0.04318208828476145,0.04203895501051489
820,0.04300465037246688,0.04083852779087864
821,0.04358215507813733,0.04885461090695651
822,0.0435449345257702,0.044445261837004583
823,0.044161984309863796,0.044942317408492645
824,0.04329554333413343,0.0445639220299383
825,0.04270195939111338,0.04531077201159902
826,0.04333489071905351,0.04245018847610128
827,0.04310373319677717,0.03867859862180281
828,0.04227369490915613,0.040976192881577396
829,0.04312924707798268,0.038539606061982375
830,0.04331185726030506,0.039242503739711145
831,0.0412723052283402,0.04059962659850776
832,0.04155529324682973,0.04904014839634194
833,0.0421862508788955,0.04145052530982876
834,0.040712500215142514,0.04272600186616771
835,0.041504745495964966,0.04312056123081304
836,0.0410789361292069,0.04791625455939215
837,0.040748654354771645,0.03642101471048457
838,0.0406479949569352,0.04536882166081088
839,0.04042446000470246,0.04760592462731659
840,0.04131462740794503,0.04405816278663694
841,0.040637293382347534,0.03951536163234908
842,0.04040763120082833,0.03877352403172519
843,0.04017741216211129,0.035602112638087095
844,0.04063810127750813,0.038057834484806284
845,0.0403971027897047,0.036214237801889405
846,0.03948749568712392,0.03742594418175454
847,0.0398507156423468,0.0398431685756842
848,0.03936522076878664,0.03951727501289432
849,0.03989671365835136,0.038507927948610465
850,0.039187549851644195,0.03849495786235572
851,0.03904791513262845,0.031903610659591214
852,0.038072544527496935,0.03846291554378729
853,0.038168730043756254,0.03934962206888406
854,0.03954984801117894,0.0424660984897176
855,0.03883755359751024,0.039792100368942346
856,0.03962619799962766,0.03710037429288512
857,0.040303866951454645,0.04515811991043559
858,0.03911023993390522,0.033506956310162136
859,0.03763177240048524,0.040050093408000684
860,0.03939901968668238,0.03779363422268662
861,0.039695744192023735,0.03397542294100127
862,0.038761203835378115,0.04835598289102151
863,0.03961997433639259,0.03797718457548328
864,0.03899803962394726,0.03602607977659616
865,0.0388597150814893,0.036652337492170915
866,0.03852759204584536,0.034984942950490615
867,0.03934747240186738,0.034775465412246215
868,0.03882857379864613,0.03228314660765942
869,0.03838176423643561,0.038371305856868425
870,0.03850631962428323,0.03605732359668356
871,0.037983834127084816,0.03896724927697063
872,0.038653925421545735,0.03993995187784991
873,0.03791049264704914,0.04384849939404178
874,0.038891022913247274,0.03943435598279466
875,0.03747282825562236,0.031486896381969984
876,0.037216355541734386,0.0440298665929424
877,0.03878175519216213,0.035201987159021654
878,0.037717821395886746,0.035864450125686745
879,0.037756661826418604,0.034984705047924496
880,0.03767890628385577,0.033809455227762485
881,0.038327762610662425,0.03718376698173824
882,0.03860078242084058,0.03615800575768515
883,0.03765521850139141,0.0342952085095851
884,0.03752259613736142,0.04537231628889631
885,0.037817673790428656,0.0312664498602229
886,0.037927872994892316,0.03722350755537365
887,0.03810640695474321,0.050030627688532656
888,0.038347695204470275,0.03482649374044638
889,0.0365643638865851,0.03808652508883328
890,0.03720690693846233,0.03818798711451378
891,0.03719822054268788,0.042490614575187616
892,0.03700736715576703,0.032734735997506925
893,0.03770265022559251,0.0402411954784685
894,0.037653330872825484,0.03969720473635027
895,0.037102097812906014,0.043417400867923
896,0.038195866430334624,0.042737422718268823
897,0.03756507766618431,0.03883047279590872
898,0.037418104380631236,0.03844805889937147
899,0.03758126553550041,0.035837862031988583
900,0.0367657010645258,0.03217463830416844
901,0.037092182171835505,0.0354146536413195
902,0.03623051614799112,0.03704452933633337
903,0.036991347095740736,0.034134638536171644
904,0.03672205192668975,0.04215892544126501
905,0.03646026880627008,0.03219153567407671
906,0.03578676807684459,0.03572454284685469
907,0.03656509405390607,0.04190875586172259
908,0.03698832480211576,0.03494204866575649
909,0.036721693031745946,0.03227044252389138
910,0.036165847437088484,0.03634441008566399
911,0.03702377879710721,0.036131349223906255
912,0.037868133381300934,0.036097110099884686
913,0.0370647236235815,0.03174864679527922
914,0.03745990081859245,0.03385464873550064
915,0.03672889502738401,0.03641625631809376
916,0.03736599295033063,0.037459833792983406
917,0.03739828136872402,0.03411509334782305
918,0.03611054723794988,0.04326014022983099
919,0.037114473204199167,0.033062985450640944
920,0.03733857126711465,0.0418680826850359
921,0.03687834519026377,0.03735384708174873
922,0.03664272348898992,0.03422136784434883
923,0.035929692879343014,0.03395489845263177
924,0.03573983448440675,0.0388794371015859
925,0.03658859790276757,0.03515819421195335
926,0.037154416245468655,0.03733215348437816
927,0.036336963930034,0.047081714582753724
928,0.03648458756238437,0.037636506298429025
929,0.03708262501327659,0.03954209686031281
930,0.03718508135893648,0.03346671013936295
931,0.036738138124019167,0.04560479444422963
932,0.03777860249537859,0.034543527396073845
933,0.03677968605742347,0.039008234265159696
934,0.03649916321107691,0.03613952542019342
935,0.03677735776513172,0.03433677786409902
936,0.036145320421994497,0.03368302309134388
937,0.03668894361240043,0.03274647093244961
938,0.03682349407472175,0.03271530586388183
939,0.03686227624064131,0.037891047626686734
940,0.037144162849211196,0.030908783430993653
941,0.03668862493406478,0.04036684441597046
942,0.03515109551443661,0.04040465568175397
943,0.03607880974189936,0.040152630251968295
944,0.03572514218886455,0.03696122985471396
945,0.03677152034467002,0.038808189557413934
946,0.035715640995273294,0.036714895136636734
947,0.03579460440142502,0.03774248101640472
948,0.03668382843520096,0.03465395704964389
949,0.03648047457239944,0.03461442234754657
950,0.036800203203178235,0.03663766595675377
951,0.03570553360374378,0.040711484725962685
952,0.03650996236831879,0.035357395939723
953,0.036257867271052326,0.04160959944834649
954,0.036243111819779274,0.040071654459130794
955,0.0355978243240564,0.035939740921181774
956,0.0364503740019602,0.03958065340908475
957,0.0362061899301293,0.029684973413884735
958,0.03602002210822775,0.031683906255658915
959,0.036702428878896194,0.03859901223875635
960,0.036838274525789666,0.03711240614845984
961,0.036368128956763814,0.032536101037226234
962,0.03664155052654701,0.03336945131873887
963,0.03531664695298905,0.03441184462616316
964,0.0365918284664742,0.03364947834585065
965,0.035730643858976785,0.03278246046953203
966,0.035470646720448085,0.03352041212193545
967,0.03597901739644633,0.03452327651954488
968,0.03561255173142746,0.033324630732553255
969,0.035861617065876795,0.04099547835956339
970,0.03623419634842996,0.030879211039433068
971,0.03529338117578714,0.03239800607096095
972,0.036188688249045094,0.03573764662751553
973,0.03571836269727881,0.033364716973141036
974,0.03575983241745394,0.03283680491178828
975,0.03602984061778831,0.03464882899349189
976,0.03628783133238268,0.04417739638172225
977,0.03625792014575619,0.03603223163484586
978,0.03589716362733421,0.032619571557302315
979,0.03550542425959826,0.03585322416477911
980,0.035906366249777194,0.03235863799989318
981,0.036238428523137176,0.039570568305834976
982,0.03642322352717368,0.03243783980478616
983,0.03494061689919157,0.030179002706693586
984,0.037239677613700846,0.03294091154957204
985,0.03568589155652302,0.03635877876409462
986,0.03542542974163088,0.03254807359394166
987,0.03621983932678124,0.030946649064110692
988,0.03688631548012475,0.03461775175003951
989,0.03568260403696915,0.03068138935824455
990,0.03473125133725951,0.03537636593972122
991,0.034822925653526016,0.043179669557837586
992,0.03620394720040041,0.03338296575752552
993,0.03481268785375771,0.031553966776065784
994,0.03563844631809435,0.03135492625016346
995,0.035623466916126216,0.03213097064240579
996,0.036567686210504824,0.03257122102186919
997,0.036030179107759734,0.03925277571610654
998,0.035528695016509765,0.03711969250461767
999,0.03573302690499573,0.03621153047436226
1000,0.036373373645869234,0.03496707426920686
