epoch,loss,val_loss
0,0.1764693114159109,0.13587750024040948
1,0.11866116512426846,0.11176840466430268
2,0.10768442431228052,0.10697847104321903
3,0.09456872058024318,0.07526897190354806
4,0.06086860489335468,0.04912236553999789
5,0.04278043602748836,0.03715411111441953
6,0.03240814494589964,0.02867859777213084
7,0.027436162059237774,0.027519280315856813
8,0.027087710197749946,0.026062042902987494
9,0.027074845348426,0.026442489341995147
10,0.027715461211000606,0.025941771207393487
11,0.02801297121137071,0.02689560329293113
12,0.028689696802664623,0.028222363550971602
13,0.02927556242213118,0.027309896966887914
14,0.02941465750932217,0.03029484779742306
15,0.029109508557011374,0.028759283117285466
16,0.029523909684541605,0.028376867646247077
17,0.03011441744006366,0.02925531350623084
18,0.030119290737677915,0.02961600598921057
19,0.03066994130706711,0.030064491050842718
20,0.03116007558227205,0.03249227808936901
21,0.03481120043557039,0.03739630053409367
22,0.038310574257461955,0.04215190115060596
23,0.03944496979429234,0.037118314308920715
24,0.039756500037859,0.03882829760272576
25,0.04244650546595347,0.04166508338104672
26,0.043155793758700316,0.0460352097897428
27,0.048233529217809226,0.0494223425360345
28,0.049040773533564584,0.047962435765960786
29,0.05060244972804944,0.04655951633167342
30,0.05016257085328956,0.05293889120279943
31,0.05090333384682806,0.0469598835973685
32,0.05079299112339672,0.05375034480275558
33,0.051675236104227466,0.05456055728417263
34,0.05105318025433474,0.04965126482974194
35,0.0486906116677941,0.04775335903161138
36,0.04706437719597233,0.04674552853830047
37,0.04872153940306102,0.05059444306575603
38,0.04948642050965036,0.05100315222376994
39,0.050756276142206506,0.05337329326166632
40,0.05294689638532704,0.05703741540778031
