epoch,loss,val_loss
0,0.17261115728998833,0.12474515400797528
1,0.09916562311869445,0.0970523124935595
2,0.09786319947666783,0.09911151231511334
3,0.09910231841792115,0.09982638260983254
4,0.09959523327988115,0.0993742380105988
5,0.09958026157342177,0.10004188905998582
6,0.09987887039744883,0.10035359862994847
7,0.10009655609524412,0.10063502752907932
8,0.10037539667672486,0.10059832459302427
9,0.10030231001875478,0.10091704247782526
10,0.10038206497613761,0.10130610177624197
11,0.10048400928124154,0.10064636056194554
12,0.10035499709425308,0.10089650289129816
13,0.1005484874871709,0.10121789121237343
14,0.10078260279911981,0.10090659414112992
15,0.10057921620676939,0.10111394739212158
16,0.10077164770602036,0.10122923622967789
17,0.10060586248465675,0.10079914019770198
18,0.10065436376322755,0.10107048474481563
19,0.1006966882305656,0.1013030538713264
20,0.10072035257288402,0.10097052351569415
21,0.10058018256077092,0.10058418738978438
22,0.10038299405341335,0.10104531366686795
23,0.1006131801935885,0.10072355708599844
24,0.10038951360326495,0.10137594073140536
25,0.10071805666247718,0.10100077389612289
26,0.10076405110952856,0.10089426595885262
27,0.10083342337613102,0.10116692699474336
28,0.10087387186946344,0.10141083132402108
29,0.1008329911233424,0.10185419987437287
30,0.10122132035706351,0.10215890823900935
31,0.10138936804162323,0.1013804222350527
32,0.10118577022441952,0.10185344807727184
33,0.10138175512055794,0.10223126220910118
34,0.10180689485000669,0.10227868390205627
35,0.10183763165744565,0.10294999549754887
36,0.10210821139726707,0.10209773033974956
37,0.1018832315632003,0.10250995184670496
38,0.10208896943014398,0.10265621174223892
39,0.10241635511819121,0.10309766284715687
40,0.10289888307869101,0.1026493545795108
41,0.10325348320053064,0.10350289728548363
42,0.10373080605797344,0.10445255711498276
43,0.10395407635602448,0.10454169468514639
44,0.1033173910588574,0.10346057871687384
45,0.10272276524207194,0.10332760011340655
46,0.10273833907574868,0.10342414967051244
47,0.1031391503904268,0.1049909010623606
48,0.10379693150925312,0.10446384714970743
49,0.10302005515848514,0.10392390760786438
50,0.10221589407284293,0.10140827615710818
51,0.10133755859210909,0.09973710526042598
52,0.09918481938177638,0.10218443158181897
53,0.09530728864226695,0.09080674907967343
54,0.0718110338580027,0.062044625230068845
55,0.059460375389511544,0.06453906727077083
56,0.05758526993634032,0.05476366489502324
57,0.05335481741505085,0.05310802599790064
58,0.05320774035440456,0.052337652494235595
59,0.053296287464414185,0.0513900731114675
60,0.053579064796296816,0.05366765215828274
61,0.053975381683722005,0.05337048065867025
62,0.05341956845159344,0.05523179528239494
63,0.05311542784543537,0.05704697004821513
64,0.054309047672221604,0.05211476726426604
65,0.053779353644493384,0.05651278098737902
66,0.05398263379657488,0.05262041701725739
67,0.05408359893101106,0.0515796053704777
68,0.054673453955222474,0.05701283406945506
69,0.054653190278844965,0.0549865371879152
70,0.055441201966014694,0.05804269266591923
71,0.05538729619648722,0.058252632182794195
72,0.05660698914246784,0.05526007387578346
73,0.05625595266429736,0.05565014523884021
74,0.05684012550410988,0.055903182074651066
75,0.05672780475277695,0.055480155029467175
76,0.05727625200800377,0.05948445843657642
77,0.057277316756123645,0.060561634723652794
78,0.057499002701015496,0.05716253867653664
79,0.057193832470477816,0.05709413364941244
80,0.05736577605231584,0.05872392136935842
81,0.057411437003994634,0.05642827854571892
82,0.05702684453125004,0.05901480172984978
83,0.0569965178392631,0.05681146864780028
84,0.056871339640052296,0.060900944681292736
85,0.05703608520168195,0.056559997483582224
86,0.05778308882475566,0.05922756299976298
87,0.05698856513360612,0.05916979948342458
88,0.05717923081547713,0.057743759683223816
89,0.056744045520619714,0.05932265215780477
90,0.057773134012302337,0.05849473977545254
91,0.05757908467694724,0.05908959301595812
92,0.058031132621921416,0.05492671599998282
93,0.05729118110440808,0.05514176209599086
94,0.05812512919735566,0.06055257184211909
95,0.05854463746114601,0.05958532223267732
96,0.0574774083842953,0.05584437778512135
97,0.057213463767660226,0.055699376355571456
98,0.05767642111658192,0.056966690833209155
99,0.05758571768288227,0.05382908898352071
100,0.057053736124417005,0.05642862075494327
101,0.05712099487690045,0.05425448589550291
102,0.031919698635909814,0.023469099445649275
103,0.02348898737345168,0.021937398875063106
104,0.02239128568252142,0.02799945214106139
105,0.02219112467416804,0.024196254834826764
106,0.02157862592178831,0.021952986655478977
107,0.021238829563114996,0.019741930116053255
108,0.020992405035143658,0.017490747517773082
109,0.020849815296600287,0.02235364608595996
110,0.02044057572777156,0.020657372200051535
111,0.020328697850473587,0.018766099115173556
112,0.020622898645097497,0.021267472493632065
113,0.02144256579674048,0.02217955370128578
114,0.023575279339075945,0.026473496515001006
115,0.02428305079024449,0.02395148677773474
116,0.023619683771330915,0.02336688618592465
117,0.037674516474427606,0.09575865800538774
118,0.08282880134267105,0.07147722537816747
119,0.07161688371944866,0.07237604092262633
120,0.0777893787701067,0.08248412268031932
121,0.08138418273269225,0.08100347389667732
122,0.07547155726584885,0.0725769385954199
123,0.071526062157419,0.0722869426106127
124,0.07088814954236924,0.0713741323530627
125,0.07010817346717718,0.06929445761272826
126,0.06996441611664282,0.07087484718945052
127,0.06975501344846688,0.06576395621074874
128,0.06314468416843197,0.0610715671021259
129,0.06161524982844516,0.061217080301883754
130,0.06121413933215953,0.0614259670052645
131,0.06136051025524509,0.062128313473810245
132,0.06204409555172463,0.06157705074010068
133,0.0624125309044318,0.06226957554398979
134,0.06246391869039177,0.0626394891466037
135,0.062171876370954476,0.06256392895704946
136,0.06218550629693446,0.06296867956631562
137,0.06249586020787652,0.06369176637543028
138,0.06253089253708041,0.06318679135866116
139,0.06243667406417864,0.0627950605390198
140,0.06275496482372665,0.06288172069116663
141,0.06284504868000818,0.06203258284547711
142,0.06272240205824994,0.06457729958697578
143,0.06299811099573291,0.06306654468014096
144,0.06276007669923497,0.06307663576825924
145,0.06284774010844654,0.06404014649171008
146,0.06334641377190701,0.06341955759036984
147,0.06331377100649116,0.06431371401098646
148,0.06364302411318111,0.06374640939808682
149,0.06376161753869267,0.06402828643758558
150,0.06371612618748042,0.06350031954360554
151,0.06375566059403377,0.06424229077542026
152,0.06371175225297038,0.06434907854755939
153,0.06393589564769579,0.06470722378758624
154,0.0642402974083174,0.06468348952499825
155,0.064392079126468,0.0635553942089158
156,0.06446978178241555,0.06550643482225658
157,0.0649732647450279,0.06559638613754121
158,0.06507624719711802,0.06615284198767196
159,0.06520788493357021,0.06683710357431549
160,0.06569600345598137,0.0651837471569723
161,0.06536494265440747,0.06586537444883195
162,0.06622872188937463,0.06407243831358092
163,0.06524154374436986,0.06465665085186804
164,0.06519717961954746,0.06402478746969867
165,0.06528650420746929,0.06419219492972132
166,0.06540137884332883,0.06524395389627921
167,0.06552467313256385,0.06521376957433282
168,0.06602174816705245,0.06669646185170786
169,0.06610053282180468,0.065406565314075
170,0.06637772678030576,0.06565303310175627
171,0.06614116319327903,0.0657548396462235
172,0.06594962375960667,0.06673191261390296
173,0.06652284887352054,0.06712916485183147
174,0.0667916373383227,0.06594347940859309
175,0.0668617584627214,0.06836909034540076
176,0.06724010921305985,0.06575463688987489
177,0.06738779858219252,0.06710618932532247
178,0.0674706134114334,0.06694127945045646
179,0.06763644596572212,0.06675071399232582
180,0.06768144091827978,0.06664009997069882
181,0.06828284078388572,0.06619382974263148
182,0.06843958518130602,0.06926414100622322
183,0.06867835029280729,0.06775269323949656
184,0.06861146114212717,0.06811338957125687
185,0.07026192192717803,0.06785542911305235
186,0.06981519695749576,0.06953394619987627
187,0.06910097530836777,0.06972268652156195
188,0.07066240379040381,0.06832572951877597
189,0.06873350668189337,0.06712533417727501
190,0.07030191450572605,0.07050186273919003
191,0.07280478283739109,0.0756973888145814
192,0.07375883285721524,0.07299851240985678
193,0.07311651244652358,0.06527199133372062
194,0.06606484690218044,0.06668103261664804
195,0.06596692270047659,0.06584081268959753
196,0.07093385695148524,0.07600155292812444
197,0.06859116024560304,0.05358500243550506
198,0.03807667124834802,0.030586588107514023
199,0.025892985497060105,0.021077692689522573
200,0.02432775156472703,0.022716293868556583
201,0.024006377591444052,0.02368166143605346
202,0.023798839825627614,0.02385809611243908
203,0.02372411573208946,0.023008899339831242
204,0.025011436025099122,0.02346972638819052
205,0.024154474672903832,0.02600309878423069
206,0.025316794428209083,0.022929904731056685
207,0.02448782977386773,0.023722079911084746
208,0.02480761725068402,0.022496451121690995
209,0.02506777645795227,0.02580854732869597
210,0.02570795109845418,0.023597929237120813
211,0.02600041675871963,0.024915148178446266
212,0.0268010600945718,0.02791546765882478
213,0.02732740530519367,0.029122166373805918
214,0.02843523025363803,0.03194309720782756
215,0.031184685530422404,0.03169445187476741
216,0.028029712993535492,0.02861382013985089
217,0.02633658779723991,0.02539694514169689
218,0.0256848698489362,0.025639745876510592
219,0.026446566514247993,0.02748636147352825
220,0.026881202628060305,0.027695016760523147
221,0.027676634249284113,0.027926129566089506
222,0.02760817565702849,0.025403232993624205
223,0.02126078508037934,0.02089947630851967
224,0.020778676635659427,0.021603491548345892
225,0.021580592473056152,0.024870536995032874
226,0.02120536490217697,0.022380440026204138
227,0.021398124150294576,0.020189137388411806
228,0.021978549774643853,0.020822130908106102
229,0.021023694696061187,0.02056547864424778
230,0.02161928507939374,0.021693936444013347
231,0.02111499598823029,0.020765603400161158
232,0.02133155139170581,0.020340589687357573
233,0.021574734291769,0.021112021829142003
234,0.022650791998419594,0.021068991394897287
235,0.02176573865940507,0.021304116869564356
236,0.021998592487109794,0.020636007948333857
237,0.022752401286469614,0.02095840577750622
238,0.022664633956994657,0.023867184559402264
239,0.022296174491147437,0.02310897396096773
240,0.022803960269768175,0.022261893001826804
241,0.02239796355721071,0.021023122189476814
242,0.02266693765075682,0.021834089420000775
243,0.022878629603623437,0.022896848326429853
244,0.022884239007135945,0.023736097444886754
245,0.022483527044699393,0.02436484680926367
246,0.022654478811174272,0.022311415368927775
247,0.022244185146739443,0.02454954234628858
248,0.021878995989962256,0.020531288082781228
249,0.02228146851089575,0.020618966385875053
250,0.021500770049504667,0.020417584932534923
251,0.021424268581550852,0.021448579588177266
252,0.0211114446088362,0.020633212719244946
253,0.02127330944085007,0.023439132390160117
254,0.02102239123455507,0.020625443920351993
255,0.02109007572726928,0.019966458405596636
256,0.021620688154447756,0.02021535546404928
257,0.020921905830258325,0.022977960846536066
258,0.020954001236328786,0.021670809731581312
259,0.0209927046329057,0.019592344153734204
260,0.02114186820973881,0.01992659464010994
261,0.021214773346908945,0.02013659938778831
262,0.023032480753291187,0.021341707004673763
263,0.023423468918918514,0.022108363787384136
264,0.022093930070271356,0.02134766200029577
265,0.020920216623279784,0.0202263985917078
266,0.02127463780015969,0.021545425890970624
267,0.02130318485679839,0.02031048237483569
268,0.021133642898296282,0.020700483683617262
269,0.02134065828520617,0.02103973843080845
270,0.020970699997495214,0.023556776825506196
271,0.021174114962055575,0.021160767098334518
272,0.021136104830538485,0.020667497791943816
273,0.021052814417814227,0.02038896581027201
274,0.020884384480055623,0.019810530704746778
275,0.02122100121263477,0.02240333779205604
276,0.021107391080559253,0.021254004535707038
277,0.021259695403933,0.023948268654690828
278,0.021106818526369826,0.021506064525131364
279,0.020967090838133907,0.02245761163903205
280,0.02103781671323579,0.022647532670455085
281,0.02092568480002461,0.021832614656370177
282,0.021396361603338323,0.020689647099342793
283,0.020786272007510435,0.019899699679666275
284,0.021032130589513635,0.021442577212713747
285,0.02069647217781352,0.02068327154432024
286,0.020998150999132964,0.02142862476196784
287,0.020590801696500762,0.021853171668258727
288,0.020975000955325236,0.019751166812369884
289,0.020957109028492852,0.019828678059502673
290,0.02100652862908981,0.018471633468555387
291,0.020989652178127417,0.020125367966110818
292,0.021126984072913177,0.02068739834711273
293,0.020962932951849617,0.01861831566779018
294,0.02099949187285704,0.02191096011640382
295,0.020906120575190208,0.021062555496493426
296,0.020771137085839286,0.022471602363680985
297,0.020669330438549856,0.019364919775145772
298,0.020753801238241432,0.01899890172653247
299,0.020701496439764825,0.019885583353635355
300,0.020715584375446648,0.01910598923899851
301,0.021670031411160858,0.021567950982985622
302,0.021917393038735734,0.024113335031442692
303,0.02176599063166826,0.0210152048552916
304,0.02151943622923774,0.020878594018807067
305,0.02192747545503765,0.020587855675085004
306,0.021733741451659315,0.02155283129617466
307,0.022142634575190445,0.020713358591204097
308,0.021384924216915093,0.023236738791323215
309,0.021726915122960492,0.019926040888350125
310,0.02188392008969681,0.023124625413857205
311,0.024357617933222716,0.028654443789582228
312,0.026555529517902556,0.023940069328967098
313,0.027173935772953847,0.028385438795341878
314,0.026251191269609328,0.02498963932876476
315,0.02375423312440312,0.023964797179696122
316,0.022857449685247968,0.023559131869059807
317,0.024322725233914468,0.029638150549584144
318,0.07477873877631865,0.0667780109908323
319,0.06698013741156753,0.06529705151739136
320,0.06648224631814267,0.06658853324690295
321,0.06554442180170239,0.06570061661697037
322,0.06525710477626963,0.0677473036882533
323,0.06557783938581042,0.06699379278904073
324,0.06481921072188708,0.06479105314544174
325,0.06419205366016673,0.06374542340459839
326,0.06360675816198619,0.06423988736630803
327,0.06339859609885944,0.06401234943987162
328,0.06224836228038672,0.06130932669295697
329,0.06208354996727239,0.060981251616927704
330,0.06189658834660749,0.06131294870127254
331,0.062296218613235595,0.06334888937735332
332,0.06261058137428274,0.06231554265368521
333,0.062494347683436195,0.06257128944266191
334,0.061976511147525386,0.06275096707392981
335,0.06206538309629777,0.06340700612589423
336,0.06234105959903898,0.06144821366564251
337,0.06211260241046131,0.06263759120675458
338,0.061589462946144514,0.061665038615700385
339,0.06157269510183689,0.06099063305047524
340,0.06152429580867148,0.05994035387683686
341,0.061741005873484765,0.06358644295110416
342,0.06130704971597635,0.06097133252725605
343,0.06146996592481931,0.06229186176242279
344,0.06077110986236474,0.06262553255378776
345,0.061341446795337776,0.06260418473215863
346,0.061221367223180834,0.0637279097593574
347,0.06097389199584127,0.06311195280223544
348,0.06053338874039128,0.06381554511429385
349,0.0606936551273155,0.06254076207058111
350,0.06072750635486808,0.06057603324703937
351,0.06040431783913518,0.059481261643539195
352,0.06036095157098904,0.06066327076331781
353,0.06020768554650432,0.06380048084889421
354,0.060288112038831346,0.05945363426147339
355,0.059753089562522996,0.05872729529450988
356,0.05949388349132477,0.05925328440040985
357,0.05963745366909998,0.058213327479884676
358,0.05930684029246024,0.05969551841904069
