epoch,loss,val_loss
0,0.14620593134805168,0.10343182438597871
1,0.09224656348129352,0.08350787744008376
2,0.08002004941566576,0.07605776633558635
3,0.07646220476388169,0.07748936475405283
4,0.07767731265174589,0.07904228373432874
5,0.0766637334696871,0.07428666824017723
6,0.07025607053241094,0.06920294993466623
7,0.06672324864960594,0.06490667441884833
8,0.06407882318460494,0.06231414723991407
9,0.062122293441987435,0.06439911447694759
10,0.06071342088633495,0.06050473900589777
11,0.05886303901457958,0.05865118872806512
12,0.05774724007629567,0.05797221543063022
13,0.057466118592771884,0.05714163369107359
14,0.05675380629934758,0.05817600848313477
15,0.05619079591058713,0.05644731683143501
16,0.055137880453221995,0.05544968310452486
17,0.055126659265405935,0.05373012824917554
18,0.05414461668172805,0.054649360466163366
19,0.05406224744902145,0.0531524759529845
20,0.05376673311138039,0.058333542588995306
21,0.05303288810104013,0.07557548483173586
22,0.053440691860054707,0.05192743645482582
23,0.05220120935607776,0.0538815885088344
24,0.05167910858964939,0.051614111496669245
25,0.05038538755332347,0.0500159189046229
26,0.05000094170693299,0.050397610513827136
27,0.05008163980299906,0.050049501147059444
28,0.0489588005693077,0.050541788116156255
29,0.048118120212730264,0.0487272576550235
30,0.04793201389310838,0.04795163805760449
31,0.048480623521559914,0.04707155915325612
32,0.04745051536640579,0.04675777268543804
33,0.04756253248424553,0.047122094192157696
34,0.047502161742900485,0.04674962094757815
35,0.04790264651846352,0.04954424825362455
36,0.047219892289284034,0.04610680664089033
37,0.04654540281168086,0.04441619688834651
38,0.04596106703880784,0.04809112609867609
39,0.04614827229524497,0.04433853876348452
40,0.0451361016957737,0.04534828220071431
41,0.04511059729232014,0.04522431241649761
42,0.04474501275747038,0.04489447853300829
43,0.044935005525652646,0.04301863323364939
44,0.04472641357712799,0.04563407945698796
45,0.04497792144759382,0.04482566512644808
46,0.044425698769964474,0.04367376475256075
47,0.04459002174192862,0.04596389097697451
48,0.04468917579566546,0.04443480951774751
49,0.04465662565031688,0.046362445240615384
50,0.044111658325441165,0.044050385583053915
51,0.04486648937900194,0.04826094954323844
52,0.04611418668112213,0.04791851707490862
53,0.04699938738053079,0.049182947683894175
54,0.04735500959278963,0.047807880445738526
55,0.04761796920514888,0.04811643417439502
56,0.04799341925566526,0.047906398343917606
57,0.047687248494342076,0.048170398588526786
58,0.04641249105870295,0.04542045588380912
59,0.046674366048771704,0.05164859295714626
60,0.04690704472976432,0.046973848361125024
61,0.04533057452606069,0.04808447557047962
62,0.045199097852579216,0.04502729304434751
63,0.044418463848239415,0.045674027176757635
64,0.044464166707200686,0.044000180621926205
65,0.04383225011215698,0.044578381729530554
66,0.04324032636068994,0.04266765346161098
67,0.043786840443369106,0.045379175080520105
68,0.04417360764887217,0.04526490751645089
69,0.04424826013777468,0.04495956404421305
70,0.044909612103689205,0.04227247504016124
71,0.04417224757843833,0.04343123699890504
72,0.044616943185063575,0.044443158446072405
73,0.04445391968726445,0.043004731079467944
74,0.0436204758693846,0.04839194734487462
75,0.045028010271578954,0.04425436228913591
76,0.04452755417433574,0.04697452020414626
77,0.04658280926154291,0.0467816475417168
78,0.04915267963120215,0.05106916792261478
79,0.050583711648873576,0.048564950987731934
80,0.05184476266054513,0.05202923937691133
81,0.05098579954102838,0.05361932443767998
82,0.04998379942181585,0.05139289146264237
83,0.05073899631019976,0.048186923564656474
84,0.04799072413469295,0.04607488242607937
85,0.0471908015956124,0.046919928059487616
86,0.04637185449925639,0.050111616490483755
87,0.04549940456029513,0.047563741217354856
88,0.04414511735526492,0.044722077849114514
89,0.043741236952283116,0.04339163334365426
90,0.04339326798415584,0.045297044260984534
91,0.044199740506714574,0.045785376377221444
92,0.043736271006312014,0.043771331443288895
93,0.04296561199531471,0.04361156250431769
94,0.042749374619514634,0.04395780775875394
95,0.04412778257894859,0.04419156261547024
96,0.043291672200655384,0.0425640240064642
97,0.04249265498454146,0.04266333891977075
98,0.04186417844346006,0.041607309179858325
99,0.041825335112502346,0.042931313561047735
100,0.04204170679231342,0.045707406656965086
101,0.042486042013580944,0.045487382720447285
102,0.042445501090763664,0.04525980221338411
103,0.0422512431659525,0.04248423565652489
104,0.042212107168922985,0.042352447555280615
105,0.042053914791960224,0.04168505101937333
106,0.04296630986934181,0.04596597511665315
107,0.0433564034434293,0.042934121130344526
108,0.04280357114631209,0.04464676375217859
109,0.04274639777606912,0.042978010063177974
110,0.043219761995912834,0.04221091943116007
111,0.041452623585121424,0.04343159323309761
112,0.04150226317363963,0.0420725113626249
113,0.04117135784263424,0.04263812823672415
114,0.04151478282315173,0.0416843873414122
115,0.04161636517654887,0.04089833295300615
116,0.04135024713145362,0.041010555797260206
117,0.04110558223512342,0.04116355828887944
118,0.041218176046364026,0.04075286002872305
119,0.04107660308575554,0.04011585090629868
120,0.04100646912980137,0.039975456364199975
121,0.04184218708702701,0.046513656199848735
122,0.041969917982602294,0.03857186884452437
123,0.03829242002597149,0.03955065956502424
124,0.03922973496677111,0.04067866269560809
125,0.039750844603486296,0.03937368028471577
126,0.03980149476856684,0.04151683371299444
127,0.03988495372610984,0.04051812279501955
128,0.039662384458606856,0.040462456993470536
129,0.039167658882223066,0.043008234487124666
130,0.038831653831292876,0.03875399384450611
131,0.03916271836113491,0.038024664145689266
132,0.03902396540210354,0.0398848902642868
133,0.03883764328067299,0.03903590798401513
134,0.03782389000010528,0.039767158885898796
135,0.03884579621249442,0.04112110946447998
136,0.03953091432150605,0.04066979771019816
137,0.039366335096619395,0.03911630945146413
138,0.04015124561212999,0.038649127734112006
139,0.0401137441956549,0.041696802890126686
140,0.03994833105366579,0.03941448873177982
141,0.04003154933690834,0.03986263254270746
142,0.03987745731640205,0.04019183263582513
143,0.040129397701707294,0.042485565211750335
144,0.04008646377270742,0.03960133913166427
145,0.03966767044304658,0.04007618316252964
146,0.03948431189576213,0.04000397038005804
147,0.03984774414488642,0.04061635660673561
148,0.0399384564674682,0.03844763669343378
149,0.040590376930414056,0.04198588694033419
150,0.04008079684978957,0.04064788857229413
151,0.04186760589516134,0.04178375821345983
152,0.041202510432373704,0.04334054201923681
153,0.04038922102760068,0.04009524706659961
154,0.039887225861362605,0.041638620091924164
155,0.04078991427052793,0.03996885248004873
156,0.04073854239224244,0.043551731401879484
157,0.0402397181240203,0.038477007102665224
158,0.040132338721617804,0.042371409147648524
159,0.040458206537006186,0.03854340095816867
160,0.040780898660040206,0.04517009259505166
161,0.04148885418625949,0.042263984330286636
