epoch,loss,val_loss
0,0.11673973060155705,0.0992473072997914
1,0.0987382708392817,0.10690411897089507
2,0.10687573719397485,0.10684811135117427
3,0.10678531043082595,0.10723676629829049
4,0.10619313716084408,0.10586216735588158
5,0.10597908757865239,0.10694123990392723
6,0.10603108717877564,0.10633353411786746
7,0.10529225429953289,0.10359477257060554
8,0.10479906592056525,0.10540660094078733
9,0.10481845643475568,0.10624666849552597
10,0.10467718054594802,0.104283300649607
11,0.10493344791698084,0.1047896305547517
12,0.10466323724443868,0.1054484701106044
13,0.10474036247890106,0.10292823324839995
14,0.10417459593068877,0.10608710116326762
15,0.10392335365614969,0.10580287922847055
16,0.10386852567329062,0.10581290236458876
17,0.1037425320792041,0.10570793328681798
18,0.10271731615185642,0.10204114614094253
19,0.1028275978100076,0.10238526606580924
20,0.10168367514400173,0.09930482008380502
21,0.09728520834144,0.0600216626200675
22,0.05866985584383638,0.04918291076985441
23,0.05270575441950136,0.07673549336611331
24,0.07600075467381713,0.06890288887849781
25,0.06701845642652729,0.06379659725433978
26,0.06218187989135512,0.02268177676937104
27,0.011885791520705725,0.010616821181411313
28,0.011225276636929406,0.010044782499021217
29,0.011169799925874082,0.012175071924254474
30,0.01133558461671512,0.011283312720869946
31,0.011224658957890626,0.009263327961325228
32,0.010927691833573214,0.009909362265554968
33,0.011024152105300056,0.011810732898636829
34,0.01108352929054254,0.010687822925059922
35,0.010598176370578097,0.009891888803171014
36,0.010749293765950975,0.010517674911915726
37,0.010779039519565398,0.009531359982676069
38,0.010637856963415184,0.009829457605040053
39,0.011117500901029786,0.00949540113311352
40,0.01060319343762514,0.011052771991037196
41,0.01086973506736001,0.010818990415304711
42,0.010807716939426166,0.009497181410701312
43,0.010204064705605276,0.010203389150635195
44,0.01083613702205481,0.00931576996515766
45,0.010778649784285846,0.009422030183670405
46,0.011216691884805532,0.009340500895425695
47,0.010914191281634027,0.009343554713633191
48,0.010974389321407487,0.011054434970310861
49,0.011309827365557017,0.010243718349723985
50,0.011888500810474259,0.010827874187501361
51,0.012863047425817552,0.01026580152338872
52,0.034483668798955605,0.056491762038023335
53,0.05469850864898649,0.05876368212777513
54,0.05726196919400379,0.053903212827419375
55,0.06045499571124844,0.061261932292825234
56,0.06226137932948322,0.03859124832802056
57,0.030724320871786004,0.025805475259745154
58,0.03861189688465444,0.07934974823749809
59,0.025855185335139474,0.01653019422349162
60,0.01573605530366352,0.01599016904370784
61,0.015482868387759904,0.015678248626945192
