epoch,loss,val_loss
0,0.5005109552983884,0.501049386418384
1,0.5002698556140617,0.5010140253149945
2,0.499969975815879,0.5009866538255111
3,0.4997297492292192,0.5009574358877928
4,0.4994422804426264,0.5009212079255477
5,0.4991218326268373,0.5008976148522418
6,0.4987908425154509,0.500847920127537
7,0.4984334905942281,0.5008012743099876
8,0.49798826707734,0.5007241977297742
9,0.49761988167409543,0.5006264655486398
10,0.4969979336968175,0.5005052102648694
11,0.49645551708009505,0.5003424960633983
12,0.4957688196941658,0.5001506338948789
13,0.4950188508740178,0.49986965112064197
14,0.49419044234134535,0.4995283238265825
15,0.49316304701345937,0.4990705070288285
16,0.49214603503545123,0.49848501060319983
17,0.49088458992816786,0.4977608893228614
18,0.48957164530400876,0.4968858205753824
19,0.48794009177773084,0.4958166972450588
20,0.48615799347559613,0.4945182009883549
21,0.4840973372812624,0.4930200589739758
22,0.4818971940764674,0.49107187856798584
23,0.4791910195792163,0.48890984187955444
24,0.47620632582240635,0.4863765019437541
25,0.4730699669431757,0.48338325775187946
26,0.4692499880437498,0.4799337089061737
27,0.4651908587526392,0.47615669473357825
28,0.46056793685312625,0.47160587233045825
29,0.45541618378074084,0.46654719762180163
30,0.44974718822373283,0.4610386115053426
31,0.44359639949268764,0.45473854308543
32,0.4367256826824612,0.44781205187673156
33,0.42910716047993414,0.44036691733028577
34,0.42119982065977873,0.4320206097934557
35,0.4123414125707414,0.4230224101439766
36,0.40266053985666345,0.41329712841821753
37,0.39283327371985827,0.4026343965012094
38,0.38207386158130785,0.39149838297263434
39,0.37114536541479604,0.3798413211884706
40,0.35912555676919444,0.36765481985133625
41,0.3476429813437992,0.3550534222436988
42,0.3355451789167192,0.34238120654354925
43,0.3232905368010203,0.329578064058138
44,0.3112729511879109,0.31698349895684613
45,0.2997262058434663,0.3048691062823586
46,0.28842903949596266,0.29329156098158465
47,0.2778125692296911,0.28235614688500116
48,0.2680613221945586,0.2721273808375649
49,0.2589610627403966,0.2627228019030198
50,0.25096000344664965,0.2541131649328315
51,0.2434765652373985,0.24626308485217716
52,0.23664223044006913,0.23893800636996393
53,0.2301230960422092,0.2322762569655543
