epoch,loss,val_loss
0,0.16756097115963386,0.12859051750462736
1,0.08999436453497,0.08132683455755886
2,0.084780441181694,0.08789397375077457
3,0.08893873077407062,0.09073383332286751
4,0.09085175169290875,0.09220001226748269
5,0.09244586889454119,0.09376571505626732
6,0.09349562761356696,0.0977605534180846
7,0.09764054789245843,0.10425134683535056
8,0.10737167663878197,0.10716262013425767
9,0.10721479300305331,0.10708420964776764
10,0.10686685665429449,0.10703291585220534
11,0.10707625370922325,0.10741504514038609
12,0.1060570487491995,0.09925816679739444
13,0.0706725785408994,0.044601993648527925
14,0.047582598666635924,0.05069458374978523
15,0.038058998828514115,0.024896714452657065
16,0.02639639533037762,0.027942691780420956
17,0.024464461396334413,0.022472755937898076
18,0.02334121408031808,0.021131032128136933
19,0.023568738022630067,0.02166329465671233
20,0.023314852406718226,0.022883857240945972
21,0.023712470187998408,0.022100071804252493
22,0.023320885218804974,0.023661620573867656
23,0.024393951584347526,0.02295564608714575
24,0.024049325998005966,0.02302790464187995
25,0.024463241488831364,0.024946010431190976
26,0.02485434957098761,0.025612967090288673
27,0.025468455950657335,0.02373458808706963
28,0.02454717524519427,0.02554321225406198
29,0.025863351585487904,0.02620011696117124
30,0.02638854428032915,0.024247666234304893
31,0.026445755778218536,0.02452632484203403
32,0.026452027064719073,0.025038747903438845
33,0.02655019500493098,0.02820316283730606
34,0.026422607850173203,0.02520059267736695
35,0.026596052113542264,0.026005214168421848
36,0.026333029907521347,0.025584674114692185
37,0.025949685874549176,0.029577567347199688
38,0.025740996178844087,0.027508484170240686
39,0.025431918468680693,0.02562831851029688
40,0.02601182241615155,0.023028944025805548
41,0.024053430025406972,0.023744461538994885
42,0.024255190368482678,0.02522163577495406
43,0.028809517430667158,0.06975642194193747
44,0.08874503822980834,0.09094496951647979
45,0.09019315871689246,0.09231343590187668
46,0.09383903984590876,0.09475919753665894
47,0.09339243890665513,0.09105093199127569
48,0.0908202111339874,0.09205369373170429
