epoch,loss,val_loss
0,0.17784800852755372,0.1598161781219958
1,0.11750493000308387,0.10505682799815191
2,0.09918158131537677,0.1007912139031204
3,0.08908757367294183,0.0880005005761781
4,0.0857062978471974,0.0829344299381515
5,0.08505555083878416,0.08459215959344403
6,0.0854472166640486,0.08616989116524747
7,0.08524649347856843,0.08651205847347074
8,0.08523510509638858,0.08579044379205711
9,0.08536665604340372,0.08534541937809999
10,0.08564984621547109,0.08692039874541825
11,0.0861001203743388,0.08741838907221687
12,0.08693331622963044,0.0885947335043947
13,0.08736209606500171,0.08844496383263355
14,0.08786402240121584,0.08896526133299062
15,0.08796114734203504,0.08869008702867692
16,0.08848324464522392,0.08855959720139252
17,0.08926498341998704,0.08828772550953028
18,0.08929225338472546,0.09074380800374963
19,0.09002785948064211,0.0900635242568007
20,0.09002777942412382,0.0923656891463964
21,0.09048603500107781,0.08959341684287236
22,0.0908099408749101,0.0930605241771561
23,0.09021486038808152,0.0850986891676802
24,0.08599942483657079,0.08505967594006913
25,0.09374831887862856,0.10988521217217856
26,0.10531341338114773,0.10224533262173774
27,0.10187345207166329,0.1021094318617491
28,0.10199240872637927,0.10232663740886885
29,0.10205693765700483,0.10317309563001875
30,0.10213703138055466,0.1032697388162835
31,0.10200000769919533,0.10253828368204827
32,0.10197865367412186,0.10200581989517904
33,0.10190740627922314,0.10261733360712041
34,0.10161597848677044,0.10268810110338673
