epoch,loss,val_loss
0,0.485792944515784,0.26088646978370905
1,0.19752805568571166,0.1948309418304946
2,0.13304325991024182,0.22795123485631721
3,0.1327167830363972,0.3332898117775141
4,0.12932102751778804,0.3034567454064539
5,0.12036243644286329,0.220517022549644
6,0.11316984105767228,0.17942552476428275
7,0.10804150435398882,0.14753067990144095
8,0.10573211265361215,0.12734378597071006
9,0.10371003077020795,0.11683328022328458
10,0.10238227623654163,0.1096524701331013
11,0.10138216767254776,0.10456083553243978
12,0.10075867463519254,0.10347813916529795
13,0.10033584239445334,0.10254225082868754
14,0.09979822727169578,0.1009003500952277
15,0.0994013446405178,0.10110549391933189
16,0.09923500984203158,0.10054500129564788
17,0.09895893808190279,0.09997382448163143
18,0.09877089006224955,0.09977444706037063
19,0.09851812377689391,0.09967907645212587
20,0.09834456778182758,0.09973586893589921
21,0.09839918000960914,0.0998835589072501
22,0.09887561876708129,0.10037589275328689
23,0.09919296263709781,0.10056272790182469
24,0.0993397651812223,0.10040327190428741
25,0.09930042277170917,0.10058754642111387
26,0.09937464997289687,0.10022742959649064
27,0.09901930157124526,0.1000458520743274
28,0.0989215718362275,0.10014259254978608
29,0.09897091333556363,0.19958216471727505
30,0.09886704361814214,0.10026088397401248
31,0.09880848551594366,0.1004892475614252
32,0.0991050936575011,0.10014702876408894
33,0.09892351514711155,0.1001642405871273
34,0.098821127215239,0.10013602905033171
35,0.09878120676973673,0.1000530056135599
36,0.0988287553191185,0.09995153292204982
37,0.0989683630663579,0.10015040237543195
38,0.0987898216355504,0.10033618762742641
39,0.09900264013705291,0.10002076666253482
40,0.09879466680091196,0.09999241056137306
41,0.09891993992441282,0.09996125847101212
42,0.09886707682309188,0.10019781174816826
43,0.09879329366477456,0.10005779726098674
44,0.0989634043823077,0.10015192102323207
45,0.09877035579108816,0.10021811995164369
46,0.09889825902820572,0.10023345180260118
47,0.09885068472445481,0.100252312514209
48,0.09887189171680315,0.10005610938682112
49,0.09899955788465935,0.10035345922837886
