epoch,loss,val_loss
0,0.17683102300674985,0.10566296725406737
1,0.09749669107577974,0.09728355897442036
2,0.07446399108647443,0.055768073531310206
3,0.04945254562159093,0.0457411179438104
4,0.04319983467066602,0.04254763955933989
5,0.03851707822841992,0.0365561684674415
6,0.0345126013908026,0.031856786071572045
7,0.031585854000979956,0.032745019021872566
8,0.030031708675882608,0.03198567773167694
9,0.029277992124358814,0.028999595709539062
10,0.02956923445631608,0.030876639548280432
11,0.029199581995284815,0.027947680885008968
12,0.02729915192114006,0.02720115951835027
13,0.026701729315862382,0.026776562801370397
14,0.025519377754466662,0.026107647290839957
15,0.024121982239031916,0.022612852999248086
16,0.023269055580212583,0.02358822209353323
17,0.023121729740302722,0.021974333470074228
18,0.0235648341878927,0.023549615035764138
19,0.02305603943851521,0.022976243859649456
20,0.023411514813737044,0.02356661069511944
21,0.023666979841810525,0.023399193139765895
22,0.023870404666032102,0.02391408868104619
23,0.0241321554097781,0.025047778112971132
24,0.024897699773633222,0.023856819737423283
25,0.024617283573771694,0.02493855705883151
26,0.024717291869181427,0.02599181767314931
27,0.025241845186880166,0.02537824111625305
28,0.025093070251478566,0.025134635833404435
29,0.02540463362660387,0.026926548925140945
30,0.025742976330697154,0.026888818179434365
31,0.026129316560906186,0.2609836564891058
32,0.026219809823166983,0.03008868432094379
33,0.028748818511645093,0.028170851736249374
34,0.028298004623428047,0.029143038998933505
35,0.027678372399460117,0.026276017065088676
36,0.027863414225568303,0.02756769518531865
37,0.026807385394803818,0.026880138842558052
38,0.026524884889809062,0.025697181942183952
39,0.026052010446626077,0.026714936522112744
40,0.026416824454609914,0.024454292434766805
41,0.02549964188040494,0.024969895653303157
42,0.02546812508100395,0.02496881597038085
43,0.025257116865566212,0.024656027627501697
44,0.02505111539338847,0.02509659508003573
45,0.025215566883401142,0.02291213352036175
46,0.024514133903494984,0.02330597286754315
47,0.024211940683162424,0.024770905636397986
