epoch,loss,val_loss
0,0.1625505931359782,0.10265065409131377
1,0.0661988939991672,0.06373524707878021
2,0.05069648212701868,0.045449826754659015
3,0.03391351262859399,0.033405704989782355
4,0.031227337917108997,0.029724639575066956
5,0.02969500667405881,0.028471092797151303
6,0.029302566289175137,0.03158961190315053
7,0.029310252194365057,0.026969669546987846
8,0.02847827970981598,0.029263104008541582
9,0.028819676396324576,0.026831459115834903
10,0.028426248191607943,0.031548080091153716
11,0.03001669486858052,0.026897825297753267
12,0.02960926784034208,0.02726158852988138
13,0.03050320027329081,0.03155121440839702
14,0.030099970262518507,0.030992740205097312
15,0.031348332600425376,0.0277271215548855
16,0.02976513309456366,0.030913187389356844
17,0.03021296245946015,0.03025267798315378
18,0.029187380357814444,0.028597504903151466
19,0.029013031810748397,0.027910677857267734
20,0.02814193357892936,0.02670901814430082
21,0.028634481583174755,0.028694571590531785
22,0.026354071110201112,0.026292028140802975
23,0.02608283680248008,0.02488555149825756
24,0.025569872826421196,0.024887751101353738
25,0.025396919830126777,0.02592644374891116
26,0.02475627936604474,0.023524875409354256
27,0.024375779523724894,0.02454144821076668
28,0.024045820240017703,0.023817281299744805
29,0.023347063251375724,0.023753808387911687
30,0.022892062571629297,0.023270487426629478
31,0.022563330448723194,0.021447045069949402
32,0.022466526073452047,0.023000933360764145
33,0.021863916203183092,0.020118250397652176
34,0.021759472316879924,0.02074872775278227
35,0.021302402456500214,0.019883492110325016
36,0.021148018425793575,0.02082057369118755
37,0.020731271815588245,0.023123708614622315
38,0.02058718683604571,0.01951265449605547
39,0.020907423479466152,0.020130519087013996
40,0.020253506457086186,0.019445625484436634
41,0.020061618835329535,0.021967611843815637
42,0.020559461593782778,0.020608407838509698
43,0.02000912959776003,0.01904028693203768
44,0.020232026404191215,0.022900772684539692
45,0.02031402225248057,0.019373765150592283
46,0.022285992723348424,0.021221477845602837
47,0.02063346813566131,0.02101296845797064
48,0.020462424946214846,0.024403466224882108
49,0.020949413865167413,0.02113152093135685
50,0.02080243568626239,0.0201460650983107
51,0.020885303124434037,0.019713483155420566
52,0.020737021648549108,0.01934524838413511
53,0.020805646113747602,0.023614422727637904
54,0.02113680083596473,0.019329547223465218
55,0.020987453315850738,0.021573360575673235
56,0.021074394781073983,0.020555693694429316
57,0.0204450715955594,0.022716049742227053
58,0.021558894036556604,0.024510351363231368
59,0.02128018882366822,0.018848442038831365
60,0.021280772975094314,0.020617386299731606
61,0.020909898033697638,0.02436747846811798
62,0.02125430578957025,0.021090016655488663
63,0.021009851006610836,0.01959914317532445
64,0.02112595628437807,0.02020539258678033
65,0.02051079422116375,0.018721211412752483
66,0.020258860454874503,0.01838373307553256
67,0.019854309291189476,0.023304233506862913
68,0.020607588925867153,0.020825389547724844
69,0.020363913907064237,0.01986772397087612
70,0.020248583189660697,0.020367116757742797
71,0.020754860492228126,0.021700341848402204
72,0.020992253083649347,0.022920573069974956
73,0.02089543650812692,0.02471856282319765
74,0.021273849960818565,0.020377913916273294
75,0.02093036066544213,0.019883317173103602
76,0.021077849006624245,0.020361947603582536
77,0.020485998945032283,0.022673465402674845
78,0.021817024253743537,0.018519517786994916
79,0.020740503456434616,0.020139324948509188
80,0.02104677151528289,0.019418091954988292
81,0.020967241419072774,0.01883222641836449
82,0.02123896361251982,0.018903371597909984
83,0.02157342340499401,0.01967106563580864
84,0.020755228526937924,0.019282725903528267
85,0.021594254337221407,0.026063501714319343
86,0.02189672647042574,0.022829278594951697
87,0.021207721877863985,0.024211763347710035
88,0.021310136196382945,0.01904684269761089
89,0.021188939903690803,0.020644391348090055
90,0.021398622022240424,0.02046054421579311
91,0.021663215135683495,0.020504378737924413
92,0.020799594811445995,0.019709423341697938
93,0.02062478555004588,0.020422628960897814
94,0.020723148981640807,0.02038655751006238
95,0.02032417502421007,0.01983056698309077
96,0.020536443010139332,0.018786240327918067
