epoch,loss,val_loss
0,0.11666700150445401,0.08038065353174706
1,0.07061884188942677,0.06145381441467751
2,0.05740339705924526,0.05802996787400629
3,0.05538402508041985,0.0541856242218823
4,0.04815976839545343,0.04489722108760968
5,0.04229913437612456,0.042981521019913496
6,0.04187540403104943,0.04171031489586068
7,0.04198282540848049,0.04110317181828178
8,0.04222062547102297,0.04098263595197364
9,0.04188253883373656,0.04176129241515871
10,0.04214688760789035,0.04164501342513755
11,0.04168449837095041,0.04039693515433179
12,0.04214692053621073,0.047303999416183184
13,0.04247395802947353,0.0404562138641384
14,0.04266831996611697,0.04108989941457547
15,0.04182905504267088,0.04201143682179436
16,0.04186104842760175,0.036859309250796134
17,0.037394042312950015,0.03630912745696358
18,0.037922708264036147,0.03522886506677991
19,0.038556066534513954,0.038283849307045564
20,0.0381324301093376,0.0339687169641962
21,0.03730164560676216,0.03629253951107882
22,0.037745621992642885,0.04017769106632156
23,0.03619368584509448,0.03388331342420901
24,0.034483427225018765,0.03481375786234002
25,0.033002053196136236,0.028348277446438266
26,0.030747113856587478,0.027297128993068142
27,0.0309518879483477,0.032021700514108534
28,0.029787412549046686,0.02793201664058402
29,0.03013602194586973,0.029088243869322204
30,0.030060434896353003,0.027929396117172236
31,0.030578078912402825,0.02917060606187502
32,0.03089051827532258,0.03059322356989559
33,0.030742305206979136,0.02864707086526369
34,0.029827853425038898,0.028671892295167402
35,0.030588912493218,0.02803449741408123
36,0.031138240773644712,0.029702774504083485
37,0.03147740820221764,0.030054122943140055
38,0.03194367220337919,0.029600649062858714
39,0.031567197106927514,0.035201765914413055
40,0.031204011012092053,0.027902841012286878
41,0.031069053718142753,0.033768664830861925
42,0.03280091780400891,0.035929065263861734
43,0.03261636418113999,0.02889759409599353
44,0.03278295836038441,0.03176913797949465
45,0.0324062019568696,0.04229010696410427
46,0.03315396505228574,0.03384113898346437
47,0.033158282266198685,0.03429194125504877
48,0.03245590846809886,0.030728564304376833
49,0.03272441431632836,0.033546522555206834
50,0.03324400054753946,0.029106580660382218
51,0.03253106240683394,0.03233178416097973
52,0.03306802700115122,0.031013725913514183
53,0.032958820535928655,0.031810861770372366
54,0.03371287616033801,0.0360929659731692
55,0.03407193066404878,0.032852450190163446
56,0.03337207217391828,0.032657154595395574
57,0.033807491556072024,0.03673264610080523
58,0.033763267597902734,0.032806485642891466
59,0.03379802753423734,0.03303641407958569
60,0.03361108822958003,0.03255513576230574
61,0.034478010286649256,0.032920236935237775
62,0.03361574657035055,0.03455589116854562
63,0.03421190276080899,0.03144082859681879
64,0.033380029988076855,0.032830460355767796
65,0.03328989824052337,0.031876125626542386
66,0.03398772731027324,0.04296883040981774
67,0.03396234174238907,0.03472979254903009
68,0.034272123055218415,0.03199483326914843
69,0.03445905681884141,0.03664319500644657
70,0.03330884430167391,0.0345797823549446
71,0.03315242270170023,0.036882441301242797
72,0.03269578984601321,0.033335597940148
73,0.033945239379817395,0.0390769077175324
74,0.03357392455563604,0.03251051496135125
75,0.03450740674893252,0.033229052695580234
76,0.03367666794518701,0.034759952943263416
77,0.03423342373829594,0.031894057398131254
78,0.03506661341157105,0.032921102762386946
79,0.034045264672050234,0.030846050683917638
80,0.03395417348431836,0.03365497171714161
81,0.03313540001336536,0.031025583390514023
82,0.033421050228601354,0.03397890959661263
83,0.033080459561952345,0.033098150885589685
84,0.03363157534371797,0.031650070184819704
85,0.03488181359458456,0.032479981960171586
86,0.03482119611231424,0.03248308020355011
87,0.03432396570924851,0.03226985327087949
88,0.033938758154150296,0.03367630202961232
89,0.03473040033995414,0.04120020114249993
90,0.035068518934037375,0.032280685071375485
91,0.03446358494046661,0.03446081371855905
92,0.03458284168428988,0.04534347558977713
93,0.03483788230323153,0.035091306933370175
94,0.03343602652690537,0.031423707922660374
95,0.033780892838170824,0.032896358433055335
96,0.034222124451153475,0.03166793745919627
97,0.034543398375378,0.031105089947381353
98,0.03383031061930146,0.03183260741742841
99,0.034436365574610224,0.03189190537701842
100,0.034310466041125885,0.030959048994244228
101,0.03426233955102859,0.03199911767053811
102,0.034877886251955155,0.03235649276486559
103,0.03379969735839051,0.032037086380555954
104,0.03392597880485437,0.040117586468182496
105,0.034166465411416824,0.03389237821543179
106,0.03390839641584719,0.04774989978643318
107,0.03348822855419643,0.031217413968402944
108,0.034023453376526167,0.031339577089733464
109,0.033073025374419446,0.029983559738030185
110,0.03312664637364429,0.0319317384801611
111,0.03376407761627036,0.039701489568485834
112,0.03385486144000749,0.03769785055233535
113,0.033995646107897196,0.0349827150343061
114,0.03358078947540918,0.030302072324640845
115,0.0337751469359719,0.03267347365441337
116,0.03421464156758466,0.03606815980313656
117,0.03386606019567981,0.03323242369959838
118,0.03366273921131969,0.03105888474547402
119,0.03310200121316264,0.03167116139951473
120,0.03410390696133212,0.0283822650714662
121,0.03348198027717029,0.03181479904791833
122,0.032928753706762834,0.03592912929945558
123,0.03344891000044741,0.03317950718434147
124,0.03361704934769564,0.030784470697345936
125,0.03344728497953581,0.03010961687267297
126,0.033755687000654296,0.031326363536499105
127,0.03387317430603204,0.03461526507466161
128,0.0332748624425438,0.033179004523012236
129,0.03323111514435064,0.030248667840458505
130,0.03281793099635249,0.030291670449695534
131,0.03363325622686141,0.030065028307093535
132,0.03404822978574476,0.03588701762411899
133,0.03384061895093496,0.03860733602945741
134,0.03356523853953746,0.03375500765935633
135,0.03362259943988159,0.031306099903717605
136,0.033542052295496706,0.03127872655146124
137,0.03432505457795305,0.03298182326391774
138,0.034315175392466195,0.03213708850995423
139,0.03473883798922137,0.034910237910586166
140,0.03353342893336126,0.036882054591411764
141,0.03450811571842856,0.03255990964537685
142,0.033171009516520654,0.03315258838659727
143,0.034064679213767525,0.03155058617067789
144,0.03397755869191518,0.03360164680480722
145,0.03428560621414086,0.03409553354792738
146,0.033947719731550516,0.032615184015061506
147,0.03467777642242009,0.032043103480030914
148,0.03464346604316021,0.04097130184444792
149,0.03469038560248012,0.030723404500930442
150,0.034263481938397046,0.035860945587505855
151,0.03506048833899242,0.03099452957640319
152,0.03380142828728036,0.03807135237985083
153,0.03457395207780085,0.03330916391087265
154,0.035340372402277546,0.03140505591161908
155,0.0333278572081114,0.03245669406645394
156,0.03441682316922694,0.031189447587860224
157,0.03353952149824082,0.03416000095055671
158,0.0339717557787788,0.03420864980029796
159,0.034671136056728884,0.032532976960855955
160,0.03263240927111188,0.03622363379994009
161,0.0336429238160082,0.03663343036342956
162,0.03396083347627418,0.03345328315228059
163,0.032871443225140816,0.036888165406782795
164,0.03310863789748683,0.03166708390021898
165,0.033456385012069864,0.032857161299005774
166,0.0345589478398196,0.032451193151964666
167,0.03416677048246709,0.03585582923499872
168,0.03441776266451076,0.03794359027510237
169,0.03341433197501109,0.03490546307193546
170,0.03318091731989007,0.03205203903425888
171,0.03244864167519015,0.028633815764163597
172,0.032404195115291815,0.027437722769102058
173,0.03278882902779644,0.033539181388473546
174,0.03232003005741121,0.029826203847029074
175,0.03300536545641202,0.035129423924349104
176,0.032237052261609014,0.030844592978117875
177,0.032603637020525746,0.029342265365955484
178,0.032821246387093043,0.03072861231269569
179,0.032546959744824425,0.030110061348025595
180,0.03170396100512321,0.03121139363612871
181,0.031764788394548195,0.028974441133715924
182,0.032281708891699304,0.033112116066860986
183,0.032454151471482694,0.03552323944819613
184,0.03204217241432288,0.03133071795688103
185,0.03298045882953705,0.03284399087916422
186,0.031677684520366046,0.03171955184289199
187,0.032342950476975225,0.0329347463984751
188,0.030996193821585888,0.027435563490729727
189,0.03103481719700648,0.02945501985279777
190,0.03107555362870165,0.02853366749944796
191,0.03077313291142694,0.036701285867601185
192,0.03215461354449594,0.030474244686756535
193,0.030612639781701072,0.030589134471333677
194,0.030859579590501354,0.030302630875615407
195,0.03149557607709992,0.034073030315898215
196,0.032427673516936484,0.029092664368033126
197,0.032333902141777615,0.029829428007130843
198,0.03167184247977013,0.03920574863783092
199,0.03319068358679541,0.029351320020683937
200,0.032231508310494136,0.031956799434175995
201,0.032206245369726806,0.0304557769261624
202,0.033156859733128576,0.029899727701611565
203,0.03203798837767695,0.029349223174736927
204,0.03299852079755778,0.03168302432772863
205,0.03149783137000555,0.028898158777378728
206,0.03229715705489655,0.0331680185390135
207,0.031288340126427054,0.03719506930227626
208,0.03217658781253701,0.029309394911237373
209,0.03257760500161649,0.030271069338543732
210,0.03260105027542483,0.03169984660819232
211,0.03242141041021755,0.0321801403374209
212,0.032153545694945336,0.03592636809488075
213,0.031170637369138016,0.02689433400537569
214,0.03161551848837107,0.03121266791033952
215,0.030927491960950272,0.030080946954739028
216,0.032686949873582824,0.0365322013374568
217,0.03224987463115884,0.035400117754101186
218,0.03143754730121695,0.029875956244925485
219,0.03183369700470083,0.028775342830531035
220,0.03259657622746033,0.03610958073702777
221,0.031787576828357415,0.03163999347155877
222,0.0319969343478612,0.031190850100852697
223,0.0314637215251176,0.028901493237092915
224,0.0314679056447711,0.03095904910891378
225,0.03225290233628165,0.032272339189144315
226,0.031784633543792004,0.031081995149837675
227,0.03152841211502834,0.0347644642992173
228,0.032409970486293925,0.03346456180090686
229,0.03211065682304873,0.03429493255436938
230,0.03416202558155397,0.03165638045905468
231,0.035121537793388995,0.03299783076723448
232,0.03536186283744639,0.03503163602282517
233,0.03452294434961989,0.03660259533588258
234,0.03561943303272545,0.03465435230970712
235,0.0352189441075285,0.035226770298115925
236,0.03513096526434882,0.03168712776586496
237,0.035032187793240084,0.04616318583406138
238,0.034949974806831895,0.03373727717399362
239,0.03472157577715284,0.04136466786071317
240,0.035484397486834934,0.03639883672393676
241,0.03517646447931834,0.03430894537642892
242,0.034774658090020304,0.03317776652260286
243,0.035767360181688405,0.03736110193024212
244,0.034672341268542385,0.032054512496176156
245,0.034475012033951466,0.03910978635348197
246,0.03541348491989666,0.033254467022929404
247,0.03494520643078309,0.03485068273249111
248,0.03461860904959942,0.03204125607417104
249,0.03454138410480903,0.03472799741925456
250,0.034643540284681994,0.03595035753250357
251,0.03461870959521436,0.036741244619169756
252,0.034165315156568773,0.03301977642886076
253,0.032807782865602146,0.03542288901885617
254,0.03314783987771574,0.030489262040548654
255,0.03292368602850359,0.03207602141970429
256,0.03375792830473751,0.035064790422874546
257,0.033435187784941506,0.03280774801499089
258,0.03296310468156227,0.0379640957591989
259,0.03274095160730308,0.034645981425103375
260,0.03273274240081759,0.03540896810738233
261,0.033307838882003234,0.036723127346059516
262,0.032326639615755666,0.03176995752865909
263,0.03210828416004813,0.03524945036970496
264,0.03286064675317513,0.031676025764212516
265,0.03271643377000765,0.02924804548691038
266,0.03276429502375358,0.033763581125364116
267,0.032476637370253116,0.036819417125177174
268,0.03199692843236226,0.03152619230383809
269,0.03218534117866811,0.030393519196968054
270,0.032018289184398786,0.032561452015528736
271,0.031951689473290044,0.030308768436924247
272,0.03203234966728184,0.03333679934626926
273,0.03209785554114339,0.02863529811583124
274,0.03210938199431443,0.02813355998821915
275,0.03226707115260174,0.032918021479811176
276,0.032361147647573175,0.02914346440826802
277,0.03197019183554119,0.03073395752651586
278,0.03235655381001062,0.030340147353914562
279,0.031833641268283155,0.03283569293468602
280,0.03165677279906927,0.0315347332771994
281,0.03252680942886691,0.03275987453282397
282,0.031776139247629474,0.032763631005889804
283,0.03211582886005977,0.03321606004147569
284,0.03128579194746096,0.0312677841918762
285,0.032143169830886005,0.031195368730972485
286,0.031628580232389826,0.03083097501183789
287,0.03183104081539442,0.03166777168818836
288,0.03217358405528356,0.02946828272202491
289,0.031222664940950395,0.03164885243975749
290,0.03191867746192393,0.03139593790490371
291,0.03171849550141824,0.028210271191037164
292,0.03076552341340019,0.030118008730043645
293,0.0320456906033458,0.03149005321560879
294,0.03166216232856329,0.03044554343610273
295,0.03161048656738967,0.030211835942321533
296,0.031067569058188957,0.029904351802726572
297,0.030928209407640687,0.0381060074514988
298,0.031590109379838506,0.03163713136953967
299,0.031465590522765256,0.028393876261791566
300,0.03172906403162544,0.029809484768426597
301,0.030525171432456526,0.03143291947620773
302,0.031325941564415476,0.03152714536511343
303,0.03126298243494081,0.030722705478285275
304,0.03045384377407894,0.03540778301373983
305,0.030899558020539755,0.03725982546635801
306,0.0306001040220207,0.03240486599751928
307,0.03091487727559013,0.027853597853047554
308,0.031000860607166655,0.03184675080547346
309,0.03020040216899628,0.0303377156449451
310,0.03081808621651954,0.030180473045255597
311,0.030680124953889446,0.02989199827333299
312,0.03077312295796345,0.028765891450027264
313,0.03003919519093945,0.02974359931361045
314,0.030716314360940102,0.03173804395312433
315,0.03057768290228159,0.038978216863856975
316,0.03089998912983399,0.027846996365930965
317,0.03024206336157368,0.028521092099908683
318,0.03046200269435664,0.027373989752913518
319,0.030679646257808408,0.03067088327513921
320,0.031053371976117055,0.030767188299426717
321,0.030277997392306414,0.03061600622956971
322,0.030418052975323608,0.030276116157199044
323,0.030030641195585402,0.028273930751087164
324,0.030775009166839406,0.02852987265104065
325,0.029990274178461254,0.03417578776644127
326,0.02989382521553839,0.030791096449568692
327,0.030389830670345553,0.032383311703071974
328,0.030765891573924144,0.030353637025548233
329,0.030479135320817443,0.02884360525283695
330,0.030192575427881486,0.02938238339941146
331,0.030830089285743417,0.03384031501805208
332,0.02919000061787218,0.02759689149309329
333,0.030267668952741068,0.031271651238732295
334,0.03083786455918845,0.028102206088302637
335,0.03111318628981912,0.03257737917518324
336,0.031127513161853707,0.02869749317664562
337,0.030007781565850444,0.030727637276029906
338,0.029859730428148754,0.02912983110199529
339,0.030300855711042927,0.029500717092849366
340,0.030071889897503205,0.028811038792980123
341,0.030517904976044865,0.02888622051567992
342,0.030878137603556986,0.02749654661787596
343,0.030340839124513234,0.033107968944035934
344,0.030476624114091973,0.030019769517097682
345,0.03100011348545694,0.0324913858544102
346,0.030726491780705946,0.03382374741425172
347,0.03107845738491447,0.028782410454519545
348,0.030579748576868782,0.027546014933719724
349,0.030547664868909655,0.03422637392885119
350,0.030341884395260987,0.029505683417889953
351,0.02934695039872083,0.02974236814486011
352,0.03070966975330163,0.033795339601509856
353,0.030124966947765324,0.027169254052746034
354,0.030804292988970125,0.0299839821027411
355,0.030657610541833438,0.03299988609692339
356,0.03038319109304012,0.031516222762504056
357,0.03001985578186554,0.03301405716443401
358,0.029868247687629017,0.028580119678987322
359,0.03024105460633882,0.03176598392732753
360,0.0304926163461104,0.027963841767671454
361,0.030635973775862076,0.03719776211381429
362,0.030274514933760693,0.029032357680981048
363,0.030439633592445073,0.030780463328771733
364,0.030380077256585102,0.03273102224031912
365,0.03074820434673132,0.028986306919847875
366,0.030769608765959643,0.030943443048995316
367,0.030058895021849732,0.033314297390306384
368,0.03113432455775168,0.031165967901967226
369,0.03094611017124282,0.029547946605516778
370,0.030489452299382762,0.029517571705716186
371,0.030855555499015714,0.029212883624359202
372,0.03027587175684915,0.030594717975832294
373,0.030573965669672885,0.03102349392237655
374,0.03049094018062575,0.028996830006389515
375,0.030930054517720434,0.027086813680551235
376,0.03042824671519615,0.032190851671672654
377,0.030436164109880547,0.03125844157103158
378,0.03073922418903628,0.028958878370373854
379,0.03051843358238014,0.03133825688007646
380,0.03097716637095697,0.03045121745898108
381,0.030646191910653712,0.028854334972440113
382,0.031167471216325994,0.0305505140516216
383,0.031219880588704067,0.028821831713147585
384,0.03204455397290577,0.031563812987357026
385,0.03163754322129093,0.03143341610268429
386,0.032143963564136666,0.03320017814101106
387,0.03180622649367908,0.030526433122397976
388,0.03128494445880731,0.03181072476231026
389,0.03163619415699054,0.029971550732568766
390,0.030493836667534593,0.03142896675649551
391,0.03018375487698854,0.02923746267664404
392,0.030268620602119503,0.03017789936656075
393,0.029869491902949047,0.028651844965912925
394,0.02968216097379903,0.028416487578693674
395,0.029733965974033095,0.02905674867373145
396,0.03000459423940852,0.0312476879266556
397,0.02955090824505694,0.025975464951267558
398,0.029480459874303793,0.03128272246925165
399,0.030142610839052165,0.027506140204059767
400,0.030725276661213403,0.02912559946256542
401,0.029995304551705133,0.025850860763638153
402,0.029810097380105753,0.034206412861971944
403,0.029272707229812178,0.027780582883557704
404,0.02961097544224428,0.02958007514823725
405,0.029845070321675684,0.028498397364583226
406,0.029700773420835214,0.0343640118722687
407,0.0290666470671896,0.031463632208678136
408,0.029494669852699402,0.029980241418790424
409,0.030297196689072988,0.032132957950998874
410,0.030391665098133038,0.029749236211486473
411,0.03026858590942302,0.02805426841176864
412,0.029722460478597838,0.02730836764774811
413,0.029722242333221256,0.03698697841881341
414,0.03009027800784051,0.032121712480096154
415,0.02980862159823938,0.026969356544686286
416,0.029195855253284497,0.029011040733393573
417,0.029977194941807374,0.033947567529711745
418,0.029268488163600486,0.03198595632870271
419,0.02933992893560875,0.03362999777232415
420,0.029089541428333088,0.029517123585929998
421,0.02981700875359378,0.026115313396534067
422,0.030007644488716678,0.028768225040083903
423,0.029430244569119503,0.028872410004521884
424,0.02946311102206294,0.025959757186807604
425,0.0294998328564026,0.027630545048964898
426,0.029573792975833662,0.030212777817435123
427,0.0294528825679045,0.026822716532820496
428,0.029429522587908066,0.03256190104973109
429,0.029334011567320278,0.029697481382582352
430,0.029183935107131728,0.02777566125170984
431,0.02849244288385486,0.026576634125979565
432,0.02925473653214822,0.026834856132199752
433,0.029249854198248267,0.03353646012271542
434,0.029461147403605073,0.030335363343169865
435,0.029014005505150077,0.028574177167645192
436,0.02875981111820939,0.02802831193854137
437,0.02886280023472772,0.032476640786408155
438,0.029562222788469206,0.02993401657457698
439,0.029706395953315957,0.02720686991352826
440,0.030082918673033098,0.03164104120577991
441,0.029875455522458617,0.029815788635867924
442,0.029189611068940895,0.026769061622098852
443,0.03023047055781102,0.0319859836038846
444,0.029802042182436664,0.030132559891834255
445,0.030379800808628638,0.033964654058806054
446,0.03009011019333947,0.027841942733993142
447,0.029102240256566127,0.028123138717948307
448,0.029993384629845334,0.03198050924715746
449,0.030165702458932627,0.02784986235789408
450,0.029389120177548234,0.02792625873472362
451,0.029204925597026695,0.033380017229947594
452,0.030088196938885727,0.03111288639633742
453,0.029708182195024333,0.029251884889583843
454,0.029627984005520098,0.033798643707605734
455,0.029914358567497093,0.03637238535897743
456,0.029806588750353438,0.032737910281499256
457,0.029713621577448984,0.03276811734329977
458,0.029458086461209947,0.027206936365268365
459,0.029343051285736804,0.030060915485165585
460,0.02860608794089916,0.03105056365391779
461,0.02862747907519436,0.0327500296225911
462,0.028310025316312444,0.029186620648241738
463,0.028639758444971127,0.030254711863756084
464,0.028953174496148464,0.025794346929302155
465,0.029055463089097698,0.029106518044926654
466,0.029456485503559393,0.027764528098897664
467,0.029878398904548607,0.029136919631860155
468,0.02967070670855,0.030566852031115387
469,0.02897322182130399,0.033402236282896035
470,0.0291430120602798,0.030665726622165237
471,0.030055847929434762,0.03156868171684838
472,0.02831540688340791,0.024678646474371017
473,0.028733526846374587,0.025692345512753033
474,0.028925613573879648,0.026385693945396388
475,0.028117456315211852,0.028012659921124873
476,0.028612214493469224,0.029673983012903086
477,0.027670740155498686,0.026127825456582474
478,0.028267065320702955,0.02378482437430166
479,0.02813817421309382,0.028329483112107135
480,0.02735645531994595,0.02757395253220504
481,0.028836317689453574,0.026424311611569107
482,0.029519383152716048,0.025203177542958612
483,0.027898963286186292,0.029411003006814783
484,0.02818756089877072,0.02565757850083598
485,0.027601691627343425,0.0268390514103559
486,0.027764827131757513,0.024121453118199614
487,0.028746798533654448,0.031047862493554342
488,0.028372255665771992,0.025218592420802544
489,0.028492550731157893,0.022730902151955144
490,0.02803304425026063,0.02858889086764444
491,0.02841250929604772,0.024670115592665295
492,0.028655793810401745,0.028645750549022804
493,0.027752081268756605,0.028723739674160493
494,0.02735384837385538,0.027339917605400273
495,0.027581298162864386,0.03161516469398303
496,0.027374004619828852,0.026486713610495417
497,0.027098121498596014,0.02536695418716206
498,0.026901662749105052,0.024747569949734417
499,0.028019537296828084,0.028229392953246432
500,0.028048553999489564,0.024230041868261398
501,0.027036771856450873,0.0251151739399889
502,0.027769703585148263,0.027405708169692504
503,0.027387631859788174,0.02708973164354828
504,0.027405245919346358,0.028087256596098054
505,0.02735160806772413,0.028464087075608963
506,0.02794098814831768,0.027051064656237352
507,0.027345048350398894,0.023805826442241197
508,0.02624158167706834,0.023456671697858665
509,0.026112154737743233,0.03041984290531421
510,0.026395786397656402,0.02317582360074077
511,0.026090147299803704,0.02522962736502443
512,0.025693694985718083,0.028723506811174145
513,0.02598188627328125,0.022671115553063864
514,0.024646177671650213,0.024804279015597248
515,0.024502763063829248,0.023624066803707273
516,0.025145605196067088,0.029134727327186898
517,0.025364026823323026,0.026027666157127698
518,0.024445817133204803,0.025374294327014813
519,0.024472811475967905,0.02240518372264803
520,0.025418953011579197,0.02277934265079678
521,0.024858247680808427,0.024688009832027916
522,0.025331665486689928,0.026299383897031493
523,0.026501731952647867,0.026059174961642007
524,0.02594572919860875,0.026192539144416164
525,0.025964171605945514,0.02743565783142785
526,0.026499978151636943,0.02619193573044973
527,0.026664078872141648,0.024289344166917838
528,0.026197313972794227,0.02660800010883253
529,0.02563915858722681,0.022945403069957515
530,0.024880366823855613,0.0243912234927374
531,0.025645978597672484,0.024457739699917134
532,0.025396145041957557,0.02528168784782302
533,0.025354650748564567,0.024951356281574164
534,0.024369919859840692,0.02310027777354785
535,0.025626268332748177,0.02324416472605226
536,0.025074218606783286,0.02173585172128094
537,0.024937101732492806,0.02957816221754948
538,0.025898860307778125,0.02659431005509801
539,0.026057658760215072,0.023528342830618488
540,0.026607172493692592,0.026429797732216126
541,0.025566439158830355,0.02295524213718869
542,0.025304866620792833,0.02474384154057117
543,0.02551741243528424,0.03248191969329528
544,0.025724571327761493,0.02592990655619607
545,0.02461254487013657,0.03309408974875685
546,0.025104007963612257,0.02833079328082778
547,0.024540277588427615,0.023926274681165403
548,0.025783076125244015,0.023513592323898422
549,0.02413793537671939,0.02249900950596689
550,0.024471636213508133,0.023058372573969678
551,0.02506307950972927,0.025225221928453105
552,0.024505385141864382,0.02628386291309944
553,0.025065372098344477,0.029896323131757545
554,0.025211195694841,0.023135763381320423
555,0.025413311429420035,0.02501892728764849
556,0.02536493378112928,0.02538616656404409
557,0.025321685399735075,0.024322788713274975
558,0.025860649612482838,0.027146209000470888
559,0.02577599694842188,0.02417845705019835
560,0.02546008569460145,0.024407558300441987
561,0.02580555223582162,0.027455585209715996
562,0.02602428659911362,0.02200789245737874
563,0.02699538630557706,0.025781344945800522
564,0.025090439877525676,0.022517779645022672
565,0.02578894729628492,0.029985888554599216
566,0.026381703280880273,0.029356365817604143
567,0.025939880875121658,0.026066760394366454
568,0.025883843045425618,0.02572077439676003
569,0.02471551339184459,0.02763748069859059
570,0.026065390314355934,0.02217893036421985
571,0.024574368629682004,0.026014027429778413
572,0.02525146508166532,0.02726712814240401
573,0.024385882111982428,0.02428679936289811
574,0.024558736905113135,0.023087002349474955
575,0.02428587870396894,0.021973386500251275
576,0.02534867078289211,0.022982514257547933
577,0.024606397318885292,0.02911129903456971
578,0.025583778806909215,0.02710340393599837
579,0.026143612652022443,0.028461681218742853
580,0.02615417876831002,0.025386171577161658
581,0.02587622340223629,0.02457309001505422
582,0.025669251267480358,0.024411553239865904
583,0.026250263786600003,0.02644376240188481
584,0.026539748686802783,0.026768131944591263
585,0.024814249562780014,0.025982990642625842
586,0.02528566121831715,0.023918310928598762
587,0.02547306928345911,0.02676343272095392
588,0.025704173323922424,0.022845738581378065
589,0.02513296731437246,0.027158042291016114
590,0.025786336336424836,0.026869726857580628
591,0.02554254775731374,0.02816763019002533
592,0.025178403973647897,0.025167861104382006
593,0.025736186300872637,0.027849799646880558
594,0.02481329269025275,0.023776476341281338
595,0.02568878464030026,0.023292743572972615
596,0.025549697896300388,0.025480567925295777
597,0.025208016177810592,0.03185841998404396
598,0.026075311551178745,0.024335668190737455
599,0.02644536837631707,0.025586067269620174
600,0.02627160193675535,0.03107517678511124
601,0.02650168932547017,0.02661701467773203
602,0.02682726894677293,0.030169283938112697
603,0.025964576743176874,0.02369650228914894
604,0.025634949974385167,0.023978585954358613
605,0.02637812085442251,0.02347060887770758
606,0.025846443856306238,0.020963642875580873
607,0.025999827749675793,0.023738039737595237
608,0.02610692125726506,0.024696488211985498
609,0.02595569815696608,0.02818758797706138
610,0.025057417381894317,0.02646926290119668
611,0.026091703877811855,0.025705235714758815
612,0.025451321810704294,0.027041211633133718
613,0.026708184050948477,0.0225068271871665
614,0.025060206895126856,0.02595806368071683
615,0.026179757187713225,0.023998217851264606
616,0.02535330588563824,0.025725841503840267
617,0.02612403018897374,0.02312911621896931
618,0.025830750221864495,0.023745291440026583
619,0.026325571914311414,0.025650111546015167
620,0.025725510976404596,0.02469153163753209
621,0.025083221090163924,0.025373892318354456
622,0.02530592298105383,0.023538289451273342
623,0.02508814611675428,0.0223427646504546
624,0.024030945355371893,0.021798695625785822
625,0.024506554491803063,0.027072961481130774
626,0.025262409814824756,0.0226390311294533
627,0.024571267620315678,0.021060077822675317
628,0.024207534505237494,0.022596772532283836
629,0.02478739405519885,0.022654386451901556
630,0.024240871006957918,0.0234333324527637
631,0.02412906901458268,0.03146560270201059
632,0.024277611340818215,0.02445941903990794
633,0.02485296080561934,0.02019424313913087
634,0.023858576704063814,0.024249985073152826
635,0.02427015206192156,0.022269047712929247
636,0.025548736924762658,0.024310854538516585
637,0.024618532952683556,0.023113381920269183
638,0.023579583950355636,0.024218934357325063
639,0.024395332828783492,0.023450813477457557
640,0.024237650279461932,0.025048284548104705
641,0.025265125449460975,0.02648664941612834
642,0.0254352075266663,0.02458925119468144
643,0.02452706324523218,0.02540483048160714
644,0.02478717030066964,0.02532975641376947
645,0.02505743123634125,0.02183614056425106
646,0.024376292950097772,0.024244320517863075
647,0.024920650511804365,0.025577857383271795
648,0.024298760576916635,0.031754603148559324
649,0.024480665351251523,0.024818124780291727
650,0.024531446002739415,0.026219626440245426
651,0.024455421692434903,0.027806460716994663
652,0.025141007368185586,0.026562642732424913
653,0.024764933660968866,0.025063390121005048
654,0.0245834487936289,0.0259454261376313
655,0.024984154086426007,0.026452526600109657
656,0.02536264105255512,0.023319892148651187
657,0.025318193489865814,0.02437174391889417
658,0.024971534030885697,0.0257811407355008
659,0.025040993900250472,0.023681913851668446
660,0.0249288092943565,0.024494117506630515
661,0.0252936560564565,0.021828707373732645
662,0.025398769389114364,0.023152354956937522
663,0.02562879888321475,0.024037887842850884
664,0.025344993749768924,0.021669765945374026
665,0.025236983340587927,0.022640502674250784
666,0.025387246715579386,0.023317121960893097
667,0.025569066398596164,0.024242721710445236
668,0.025061360893876766,0.022663284338652005
669,0.024705877856646987,0.024908361496328836
670,0.026116789310804304,0.024828641468125388
671,0.025178622139124966,0.03562819463919022
672,0.02470994846177675,0.025455760765870725
673,0.024787095390620538,0.026210377816090268
674,0.025674264709041605,0.026314016764552788
675,0.025136108757729987,0.02684940870163261
676,0.02502241013809848,0.024565421827666713
677,0.026129062476975145,0.02258898273269163
678,0.02498896475427216,0.024668443930389004
679,0.026293616642509933,0.02334419060895409
680,0.02527542641873268,0.024149972000898058
681,0.025407884766881488,0.026025584171913512
682,0.025493980210786648,0.024442592135909137
683,0.02499011331956259,0.025750154022189137
684,0.02512671330759077,0.02251740641180417
685,0.026251601851094875,0.024611556829021688
686,0.025078083623013052,0.01997377765280413
687,0.02493525528424173,0.024173320984084163
688,0.02572542582441279,0.023497366428745715
689,0.025055077550061745,0.02576764359417494
690,0.02538551786373988,0.023922860024801228
691,0.02583933585836328,0.025760723097836443
692,0.0249475089652236,0.025359695122357466
693,0.02474638484760845,0.02244783286813826
694,0.026563215250377175,0.023859142108975478
695,0.025855185421217952,0.0270843570449205
696,0.026085198221863698,0.026326107263312203
697,0.025065258542875307,0.026861432975050777
698,0.026216994382167083,0.025864175501725716
699,0.0256570446730065,0.025910665606014023
700,0.026696769416043393,0.03195252540597035
701,0.026060830063218597,0.023180102342894065
702,0.026016567054641643,0.023492739229347637
703,0.025930881458926473,0.02633240807657413
704,0.026015202605279442,0.025002127970497535
705,0.02570653883040511,0.02756247064355987
706,0.027127290276704814,0.026963555197442434
707,0.026773646830482115,0.02666940724355152
708,0.02581631653770197,0.023644877787335424
709,0.026728211173253188,0.02524362246769803
710,0.026436955839630773,0.03289453364943978
711,0.02651864751134154,0.028760200146594524
712,0.025721164012653865,0.026597562955358693
713,0.026183480775053742,0.028892924938565556
714,0.02721528795925226,0.023817784194823506
715,0.0264176627227234,0.02653251076080405
716,0.026577686180742525,0.025869873803676398
717,0.02589180962004655,0.03205649085907411
718,0.027518411505324164,0.02507862097039031
719,0.026060777590152243,0.02598624646328478
720,0.02667442496365709,0.02648713586127184
721,0.027223643304468942,0.027942648319190848
722,0.02851359918155223,0.028547755788038497
723,0.027398096296272212,0.029546429748605017
724,0.02684283421652542,0.027778379136921386
725,0.026361447935410256,0.026345864047120665
726,0.0266886882567339,0.023631632422856347
727,0.026880643356198386,0.02487732635938872
728,0.027240997394747873,0.03222390989925133
729,0.02869988376606735,0.02636655835668544
730,0.028224519561145373,0.027349545597594935
731,0.027667517260500162,0.03571772231075739
732,0.028710586783051086,0.03147479655822385
733,0.02875466255633403,0.024915297659027266
734,0.027589473803769603,0.034293885589022285
735,0.028855086512696877,0.027261314224878114
736,0.02725934202252008,0.024051096091148368
737,0.027517340967891744,0.026126870899457536
738,0.0281024804762412,0.026830533910439817
739,0.027854206637932744,0.028276793968929206
740,0.02775296579255796,0.029033901887315885
741,0.02831825707591683,0.027887566706816934
742,0.027463671507136665,0.027741002032846424
743,0.027473438901902673,0.030892794459305508
744,0.027854511950561087,0.02615576823871956
745,0.027673911109721536,0.02240413842294968
746,0.02714108357721155,0.025704161972601346
747,0.027385618561859445,0.025357205321499234
748,0.02718379599884224,0.030596203416962273
749,0.028020721108322856,0.028348466030071358
750,0.028581379918004874,0.026172220586389655
751,0.027377238010259555,0.025188937487746657
752,0.028363365942030122,0.026255839854190693
753,0.028998935994558887,0.031198454316596676
754,0.03133202356686123,0.03475896470489799
755,0.0326536664661827,0.0350396036734215
756,0.032013540592440645,0.03649479679869166
757,0.03082707694855978,0.03269080544403668
758,0.02792700172046856,0.02774367736536354
759,0.028016111441254377,0.029463625440246118
760,0.027432604706276665,0.031598962130408734
761,0.02876224251706704,0.030251427201499783
762,0.027774400159651092,0.02705262712810862
763,0.028587079130122057,0.02918996690715874
764,0.029875553425603944,0.030827485570344478
765,0.029828477199364312,0.02784666742015139
766,0.030600355453431892,0.028857550608036832
767,0.03043520284353567,0.029594522604649707
768,0.03134243219843705,0.03447120577161625
769,0.032240609030167074,0.03463959922659745
770,0.03210862551843353,0.028468126922128422
771,0.03300089295357942,0.02915729887360132
772,0.03334081418764629,0.030647242147748922
773,0.033316800293388314,0.032351303156156565
774,0.03335134419378081,0.03178320401557666
775,0.033267264580465764,0.03424283647476074
776,0.03296670267845301,0.03723356758862522
777,0.0327051337205356,0.03507182758739593
778,0.03297308750441678,0.03248274651074513
779,0.032933790994202086,0.033130108589790146
780,0.032445537938113264,0.0335980140234343
781,0.031327456928235735,0.03421061048056304
782,0.03215618340371491,0.03367237909311089
783,0.03148368285368863,0.03424816586565294
784,0.031213054210126257,0.03061526927041462
785,0.030625138101990607,0.027592489290056307
786,0.031731515651573235,0.02963545984473159
787,0.03129725647475317,0.03275307819494226
788,0.030294642698832697,0.030232319308425747
789,0.030274840830032415,0.02760063281875242
790,0.030190820239564712,0.02924757917141858
791,0.03000114776408501,0.02961692079642954
792,0.029437320196716715,0.028726609547246887
793,0.030078860447942304,0.030034078883437915
794,0.029941632518832157,0.030274855044994563
795,0.029823135038529583,0.027602888695930954
796,0.029439792528355435,0.027492659073837553
797,0.028745695274862215,0.029848788599553498
798,0.028832104458338875,0.02948734059859282
799,0.02901798385760481,0.027969953278410408
800,0.0296020201198179,0.02977581707365229
801,0.028862732519536353,0.031844073124435726
802,0.029887673103337665,0.03921642213554108
803,0.029744615036842347,0.028142839215178374
804,0.030121419122062926,0.02987706668280953
805,0.02959874679120801,0.02726359704793111
806,0.028890969055287128,0.027505300757522975
807,0.028235860128360664,0.024302704930129065
808,0.027836224042641508,0.025299031699066003
809,0.028304448027422817,0.02516672755323274
810,0.02780013492585515,0.026365797792509162
811,0.02779656777427875,0.030017727810298492
812,0.027944962324337852,0.033362072897632475
813,0.026972229731716604,0.028131105752563328
814,0.027429458353189017,0.025958872409780006
815,0.025779267614461678,0.03323769035154473
816,0.02618301350721638,0.022605719682102655
817,0.025793051237700513,0.023151450220792427
818,0.026226064411373876,0.024776663891412466
819,0.026145694061568817,0.03171050872421444
820,0.026866157605446025,0.02598128446848988
821,0.025037809634666078,0.024757696963970174
822,0.026178990801175434,0.02651298311175139
823,0.025799215241945048,0.02790714168572694
824,0.025706461067203517,0.0248088894357527
825,0.02567095013460417,0.02705814094512761
826,0.026177944641539472,0.0278278031373939
827,0.025844908930989598,0.022361922231462404
828,0.025491885447072135,0.02504165318956997
829,0.025434390516679208,0.025231727485669205
830,0.025280207330785353,0.027043949918499496
831,0.025679895525528705,0.02467482374950173
832,0.025931565557047426,0.023717290842383748
833,0.026392268000928452,0.0330398014754692
834,0.026797266220666475,0.03254897954073259
835,0.026457687902772763,0.026045839817519723
836,0.025325061888512163,0.026921178298048975
837,0.026268974285674013,0.024422501199882426
838,0.025857157373188926,0.025425559245696807
839,0.027417480394312684,0.025449435424350714
840,0.026365407953615024,0.024037215461029767
841,0.025570378378614318,0.02954455593273032
842,0.025823739907822663,0.025625388597409465
843,0.025889741089329017,0.026898454229370195
844,0.026234088561979296,0.023862915615615123
845,0.025451761778357694,0.02560066982909696
846,0.025267139447184443,0.021006541164193506
847,0.02480413268791507,0.022170701016390428
848,0.02489224435697547,0.03394558832149338
849,0.024937707337838927,0.026008815736154826
850,0.024187616447804216,0.023812332432408358
851,0.024619973015611907,0.025032108037305472
852,0.02509317739935909,0.02591695257292762
853,0.02432131310024088,0.02577852647407561
854,0.025097705957611544,0.022994533663390656
855,0.024756059587689686,0.027438029083081513
856,0.024068308414982188,0.027107157792246237
857,0.02436908052751808,0.026770596625467127
858,0.02471003181514718,0.029170787403684905
859,0.023789730957812734,0.023525421357704083
860,0.024035262073845053,0.0257312243064864
861,0.024386881954884594,0.02530941430732149
862,0.02534265283288227,0.029907533053629212
863,0.024023628051427725,0.023035673940614537
864,0.02450817144013566,0.023359509792117122
865,0.02418687675731907,0.024295005907658148
866,0.023952088441229244,0.024438675641484307
867,0.024619643556342708,0.025278751875825914
868,0.024204657392220483,0.0243214027582717
869,0.023740679126896924,0.025189302456671784
870,0.024283334878247253,0.027038879793992922
871,0.024688859086790436,0.024649281905936085
872,0.02407309450774932,0.026288240183594665
873,0.02455706935119834,0.022594773919919202
874,0.024094050328398377,0.022697000992914402
875,0.02470316106846614,0.02319170325338817
876,0.0239716853904013,0.02947088086796776
877,0.024404688137505265,0.024215716473176052
878,0.024151785943886454,0.02726298743298817
879,0.024088636253231602,0.022247818680134642
880,0.024582234231738758,0.022121574679696852
881,0.024034643851720886,0.021931650741841724
882,0.024102439320341743,0.02395908751369887
883,0.0235219136849016,0.023884817796164644
884,0.02434547900703909,0.024809252349446632
885,0.024175268826823082,0.023605151745125404
886,0.023661583040779133,0.023968507720991062
887,0.024615277233589396,0.023667982678004816
888,0.023760096962488503,0.021696574746351026
889,0.024459198024570583,0.024977671306642052
890,0.023721413120335575,0.024039769153409853
891,0.02361763627540103,0.021169642056320114
892,0.024605920167563917,0.021920579088662163
893,0.02301821803196157,0.028566564045899388
894,0.023953221649375203,0.022693559975049443
895,0.023598728967989854,0.027838158710097458
896,0.022732576181878336,0.02186619783086436
897,0.02346689960838174,0.023705417438812302
898,0.023118182117838584,0.022625095027204143
899,0.023387979327080893,0.019207795216733534
900,0.022520198519873937,0.02686002212719905
901,0.023106919391993448,0.022598061554028045
902,0.023126551211788523,0.022598305174635448
903,0.022662282335854097,0.02650942335577113
904,0.023458906672344054,0.020024701244335242
905,0.023137212138352015,0.023163929745560804
906,0.023205642861282107,0.022926829762656857
907,0.023339863816316395,0.024499643568299423
908,0.022918552495643413,0.02000524116358069
909,0.02351985553794687,0.02703936022854077
910,0.023939945133883866,0.02087764968858898
911,0.022462921732996435,0.020723728554201296
912,0.023316331721431344,0.020345847073122095
913,0.022203212708151406,0.025856012316757333
914,0.02351340976544469,0.02261295055951438
915,0.02328894169611051,0.021487514276701397
916,0.022552621770474457,0.021662405804505288
917,0.023362555720141346,0.02256307461546718
918,0.022672394418986223,0.021713853439561663
919,0.022762324705684213,0.02707179692436389
920,0.02391416767424495,0.027965652287423894
921,0.02210254445195579,0.020366039583584458
922,0.022921354433210445,0.021966302306512583
923,0.022798275579508545,0.02064150438188989
924,0.022752607303807775,0.021088373163698833
925,0.022500618451016603,0.02120916344351837
926,0.02315599042110794,0.024616666308706354
927,0.023492620167263643,0.028443171550838045
928,0.023545666317121208,0.02529689328320142
929,0.0229053850234341,0.02047894618473212
930,0.022513011707548353,0.022039506008117896
931,0.02323562466538698,0.021085230242563875
932,0.022424443100067637,0.018744925673589426
933,0.02267237956807625,0.020465950692556183
934,0.023032157133585758,0.021844723902866185
935,0.022725740401111513,0.019066592529945327
936,0.023461277769367805,0.021013234092926734
937,0.022342952112737985,0.02255830223853652
938,0.023641541115954505,0.022138524265414444
939,0.023212642316966296,0.02150369832628857
940,0.022588528499162073,0.020895234199612745
941,0.02252672377379714,0.02394046798648332
942,0.02391973366666076,0.021327376387713457
943,0.022279071265743744,0.02720544091701484
944,0.02316308628505678,0.021793180763509768
945,0.023422159395626575,0.020984492396263973
946,0.022058586903782984,0.020062915175188784
947,0.023076383440161972,0.023820009624295896
948,0.022026368027491916,0.019995166460712217
949,0.023096022772700262,0.020704369213587908
950,0.023507175949602412,0.02224119483466071
951,0.022952044954810808,0.022209988267476295
952,0.023403735000931982,0.02021917976415477
953,0.023291806353897833,0.030634865295597672
954,0.024047586563259934,0.02634720787502996
955,0.022752821997111792,0.025186100628465154
956,0.023937714820300385,0.024691539651904647
957,0.022859220503926945,0.02068012607546307
958,0.022622026533609053,0.023620629038488244
959,0.022842913672855073,0.020507815807775522
960,0.02425090880948398,0.020759724934703738
961,0.023034621092999318,0.018771745107962142
962,0.023018238477134925,0.02681091835320984
963,0.022902154359225033,0.020688253490146965
964,0.023713115298246545,0.019659790211895976
965,0.02335710911382493,0.026195106053932174
966,0.023617897881008834,0.027844639843434167
967,0.023380880842996325,0.020369337346101947
968,0.023333493562089167,0.02154490064709038
969,0.022967028291635425,0.02165219809892334
970,0.023114261068150604,0.023509385922795785
971,0.02224172389009695,0.022815954032770838
972,0.022516897131728348,0.025708093896696392
973,0.023072446785423514,0.022693216530187167
974,0.02328624850850728,0.027002120697054932
975,0.02176253445078727,0.02846478238987024
976,0.023127520412242385,0.022220513484960434
977,0.022225864016809028,0.023435738045007766
978,0.023297338176229827,0.031038505497117303
979,0.023129033566125744,0.02468627721920974
980,0.022974718346831492,0.01977137535525267
981,0.022262405358079218,0.02359477750039656
982,0.02308010404481352,0.019300210066933565
983,0.022228428781282703,0.028733948526437958
984,0.022684612655736725,0.021456228117087316
985,0.023345501486697406,0.02048815168799052
986,0.022700266968414224,0.021972817438636227
987,0.02302290527983833,0.02594249947371451
988,0.022398806987054865,0.023139376107282825
989,0.021978802809255016,0.01958083810289144
990,0.022558793383125636,0.022575411854433843
991,0.02256188493186264,0.019826247642770845
992,0.02309168112515617,0.0221857981485827
993,0.023117405185989624,0.02380792691351018
994,0.023402216112826297,0.02101983268904752
995,0.02224379133836602,0.02466736784412128
996,0.022272443284558283,0.02446489610901101
997,0.022900230039825303,0.026248547879224843
998,0.023277738153172148,0.030032794172092744
999,0.023042996856588706,0.02222756217083149
1000,0.02233599120420482,0.0254433773878459
1001,0.023083792080720075,0.025934930730555222
1002,0.02318671255035223,0.02016719020814903
1003,0.022313449460697427,0.021339977116727558
1004,0.02246322140594919,0.023683270373350065
1005,0.021861420443309822,0.01989856310521018
1006,0.02299544579542274,0.023061461468839514
1007,0.02235773938978247,0.02110126850010729
1008,0.02307557696766919,0.02420934994691055
1009,0.02230080638265462,0.020931887711621026
1010,0.022844634119340842,0.022923362196585563
1011,0.022858083600641416,0.019565254786502402
1012,0.024413124798498543,0.025777629065755887
1013,0.023265394391112332,0.025251739553301563
1014,0.0231449343193379,0.018644628045902584
1015,0.022831965921644708,0.022463538250999837
1016,0.022425805480196345,0.022916984673069046
1017,0.022659915120085534,0.024253607247592242
1018,0.022779099342467593,0.0218120680264864
1019,0.023167343124922968,0.018900590300436507
1020,0.02225204630547183,0.023207296519565976
1021,0.02291067091332708,0.024319652032809832
1022,0.022616272383137976,0.01897955732677358
1023,0.022457394648051496,0.02068357030040016
1024,0.022542145873734848,0.019390805291442676
1025,0.021820364331976948,0.020421179117312935
1026,0.023159486520812095,0.022832397095882574
1027,0.02252595377884966,0.025170496864142904
1028,0.022833303635869977,0.018678228135625724
1029,0.022320719138398278,0.026140492737305003
1030,0.0227743721057882,0.020990041590309698
1031,0.02247221214580629,0.02232659263381971
1032,0.023713700572322076,0.02165885415110493
1033,0.022515115970976465,0.02327360551886631
1034,0.02257281467750323,0.020194562619527023
1035,0.02279193160927398,0.02738867457456234
1036,0.023262236590424982,0.02410305558682523
1037,0.02246449711687154,0.019525106225218608
1038,0.02235129451659098,0.022976709818636563
1039,0.022083408950041118,0.025360727959092715
1040,0.023098043628412186,0.0230560595200536
1041,0.022752316298631788,0.025424888561132064
1042,0.022292485572680605,0.023712315726745946
1043,0.023707087578655455,0.025313482698473576
1044,0.023468650038094282,0.021895150354112946
1045,0.021949167893030683,0.02218256508321417
1046,0.022937757053154168,0.023890314000381573
1047,0.02229505977507749,0.02180705047796915
1048,0.02273357176273275,0.02120629154460324
1049,0.02265404784332791,0.02210648131175312
1050,0.023283036045289394,0.022464574281576118
1051,0.022832747443849378,0.03089618716968169
1052,0.02212770619458682,0.019015792825633416
1053,0.022357564441841855,0.026082589121236986
1054,0.023524487943877632,0.023227982187015904
1055,0.022593735749993345,0.025578509857429703
1056,0.022387987392456482,0.023368378200707186
1057,0.023029049154933836,0.0222506861481007
1058,0.02327284768118049,0.02376171601193809
1059,0.023899567995419937,0.025237589953989142
1060,0.022942281464378326,0.02176548936202146
1061,0.022553649490519013,0.03185837187208147
1062,0.02244898487443773,0.01973076045274993
1063,0.02268839250210759,0.022696432731045966
1064,0.022838358806042697,0.025339125971667816
1065,0.022373265551803686,0.023311856634997203
1066,0.022156266878983623,0.019746350101691443
1067,0.022621770130305124,0.022650992776389985
1068,0.02214894102786561,0.019623149555373493
1069,0.023226607926294125,0.025058159165837066
1070,0.022770104921243484,0.025557672463786724
1071,0.022721600456000995,0.0199592747889465
1072,0.021803180374827483,0.017748063128079923
1073,0.021764011228372224,0.01923951963087707
1074,0.02218916947483647,0.026274500878552754
1075,0.022506982676958817,0.024844897406700567
1076,0.02338841672447755,0.020813641155281212
1077,0.023245061501312694,0.02457956096558775
1078,0.023195258028683163,0.021367105251088467
1079,0.02296652090434226,0.022325893341407076
1080,0.022664010138001494,0.026698535328088496
1081,0.02170885792694432,0.023246656217551315
1082,0.022680081179191312,0.02177528708279368
1083,0.022164734313822838,0.020587816592614626
1084,0.022478244589384105,0.023122218071432356
1085,0.022385736134537548,0.02149467007936976
1086,0.022566742452827814,0.021736883822219902
1087,0.02292665242173558,0.020585036617516296
1088,0.022387808233836026,0.022489954646156357
1089,0.022881003916725148,0.02256142833264987
1090,0.022956647294507228,0.023548211564986887
1091,0.023062352027422447,0.02355426739116259
1092,0.02312237995160784,0.024792562074218337
1093,0.023743015772802273,0.02130801560932031
1094,0.02263085504801725,0.025010341674018867
1095,0.02318365218119322,0.027081866860360307
1096,0.022979846634387638,0.025334147399037065
1097,0.022940702721116236,0.028745045591419195
1098,0.02291461204414626,0.020740151188491412
1099,0.022822912103108627,0.02927586649145399
1100,0.023172244219649897,0.02666219026247229
1101,0.0224421473482786,0.02679388897365581
1102,0.02220993790608778,0.0218852386863545
1103,0.02298193619765943,0.027409627330919468
1104,0.023043502245372313,0.026150714947115086
1105,0.022398964433054582,0.021385330037194016
1106,0.022543443731299573,0.02476546976012608
1107,0.021890437149693617,0.018330505563221113
1108,0.02298583087215809,0.021066526911017833
1109,0.023027902311585146,0.02366739718115579
1110,0.022475951930044962,0.019078797409377093
1111,0.022282436810177768,0.020848075163145657
1112,0.022459303041537412,0.022816285173443234
1113,0.022182122382486492,0.01991641322178759
1114,0.022808175534754397,0.021665301681117646
1115,0.022701175005691087,0.02584643337446329
1116,0.02251476288693462,0.018389224214442574
1117,0.022419620176135517,0.026047959170306445
1118,0.021782698126496386,0.02513333783288734
1119,0.022178958938773467,0.024135119490466584
1120,0.022552681180070058,0.022131274148510165
1121,0.022395345752762495,0.02295927207434775
1122,0.022283078205185852,0.021552504167466437
1123,0.0218574760822679,0.02682378175929365
1124,0.023324849781581013,0.025317596439963123
1125,0.022804084113336724,0.02817375294940624
1126,0.02304398144843231,0.01880464630367583
1127,0.022347500256681852,0.018817239324102838
1128,0.022652291972711264,0.02247833479460455
1129,0.022279021872146476,0.01896267879795468
1130,0.023354207770042806,0.02135468175709718
1131,0.021725474761502682,0.02006653048709658
1132,0.02285163468725199,0.019413856252875023
1133,0.023423856174905333,0.019863065824665325
1134,0.023238349279729748,0.02283354296371776
1135,0.021932559528222068,0.024342349646635054
1136,0.02298803755650215,0.02350300429690256
1137,0.023535788821191977,0.022302228217943032
1138,0.022377157351560446,0.021337064632876896
1139,0.022630916898333128,0.024339385474013972
1140,0.023872352109553456,0.024274149606770292
1141,0.02273014028609502,0.022042432263340645
1142,0.02364931440466254,0.020068788172525737
1143,0.022296790486584298,0.02223576173545012
1144,0.022607680321183446,0.022611826661189147
1145,0.02292626155622238,0.019260912455894764
1146,0.02408381130175589,0.02419929285316883
1147,0.022059110829682586,0.020542740591764214
1148,0.02303131225241198,0.020794202127415267
1149,0.02286892168396573,0.022333585715249193
1150,0.02302248145399286,0.028119129808685774
1151,0.02209795643832329,0.022777896896357508
1152,0.022664423299794026,0.018997365191296602
1153,0.02390394505518351,0.021076603141343537
1154,0.022706823613714996,0.02287327703500156
1155,0.022279826263866598,0.02218683538906976
1156,0.02325790260004983,0.024351297599140734
1157,0.022758023638418206,0.024672824896037015
1158,0.022925481897407323,0.024231232641722004
1159,0.022546666382858866,0.019687819500448626
1160,0.022681315675553537,0.0252672003834981
1161,0.023565337834261853,0.02441780014814781
1162,0.02213116997568537,0.02477642728475929
1163,0.022426248575336667,0.022020824596832706
1164,0.022868880064418014,0.026598092053900013
1165,0.023301790893110606,0.018884498233471034
1166,0.023057747675816146,0.022909550055796788
1167,0.022716171825848085,0.022864637726619428
1168,0.02248544468292051,0.01927730884555883
1169,0.023304698567057282,0.0214814403643442
1170,0.022774151361493064,0.020179141313572662
1171,0.02272171307381966,0.024280030171562578
1172,0.02332507450986716,0.02137843782454141
1173,0.02272392020595791,0.022586163957386433
1174,0.022313378649286564,0.023108528853462453
1175,0.022776840899368937,0.021854869865510253
1176,0.022990797168026558,0.021859201754060382
1177,0.02272824671448504,0.02652504638237283
1178,0.022425423646874304,0.027100247147933364
1179,0.021802256440298616,0.025751362913438863
1180,0.022752847072841833,0.021630163587506305
1181,0.023462941054534687,0.026246179578842004
1182,0.023642317810692162,0.019970007737673635
1183,0.023147157688575278,0.02642097092662139
1184,0.022288780284600317,0.02864381600753496
1185,0.022858394767722782,0.02447341250265995
1186,0.02320031445699749,0.02785475716882789
1187,0.02252749751004086,0.021138898132261604
1188,0.02321396109951045,0.0214521189572344
1189,0.022194520667117894,0.02467769199736775
1190,0.022647226448926472,0.023119340542683286
1191,0.022696018591969847,0.025132294814083977
1192,0.022986359107006582,0.024825439841325535
1193,0.022500830761296192,0.02100812924045249
1194,0.022722819349918363,0.024691067453717845
1195,0.02169765568458193,0.02060283897422554
1196,0.022880621712288555,0.022519216909504775
1197,0.023027131078224315,0.019412398602939914
1198,0.022743218774191862,0.02386731043349196
1199,0.023348526551584,0.020484581939587937
1200,0.023203042634337735,0.02278826980400998
1201,0.02209609077698428,0.023175634706176777
1202,0.023500690974449987,0.025303974453633284
1203,0.02184504678146802,0.021485470695496077
1204,0.021350934617980707,0.02270698102651239
1205,0.022620808046540434,0.021787221339143865
1206,0.023094550433600668,0.02248981451922947
1207,0.021932621040924204,0.023818408125083842
1208,0.02259184307099389,0.02716997448184425
1209,0.02277221191312662,0.01986707246552891
1210,0.022120419815614474,0.022377132718181553
1211,0.021893080955983208,0.022258857440059357
1212,0.02270973005632071,0.024301960668140683
1213,0.022246349921195414,0.02406507863015548
1214,0.02293952871344799,0.025006601758942232
1215,0.02226393664185759,0.020647356612277058
1216,0.022228150600589795,0.020275068496542835
1217,0.022269046325668347,0.01993107925086108
1218,0.022643664419996462,0.021827107482099494
1219,0.022336058687496125,0.026824624376884574
1220,0.022677392908018366,0.021975587907922766
1221,0.022398057707892858,0.02107209088714483
1222,0.02275222795438483,0.026509310584882862
1223,0.022672492155371954,0.024215331243023264
1224,0.02276792943248336,0.028426888869265306
1225,0.021910682777322527,0.021717532792943806
1226,0.023557753325979727,0.020518741271978256
1227,0.02279446823157662,0.021117732455129216
1228,0.021868378044940608,0.0241538939039034
1229,0.0224725287876648,0.021303407452418377
1230,0.02169956967047007,0.024079068341154985
1231,0.022200602340139004,0.021684476353034037
1232,0.021674363251156112,0.023605856884950104
1233,0.02253992770940697,0.02147948928324369
1234,0.022450511157289327,0.02495648051908309
1235,0.02221247826708104,0.02060849056377031
1236,0.02234203641345318,0.021389799869539188
1237,0.02271446066429849,0.019176834976651957
1238,0.022806785172514086,0.021969139649464373
1239,0.021956299018445348,0.01827119379477089
1240,0.022049304287728787,0.031074205952995673
1241,0.022273440033102113,0.0217410848816326
1242,0.021463336943046484,0.023715590876574908
1243,0.02249476089768356,0.024481560705610403
1244,0.021158786946915083,0.022071665178634514
1245,0.022646503537881384,0.02331544050539608
1246,0.022264461081064075,0.02328772568779732
1247,0.022033586265440348,0.017451604354123997
1248,0.021851985543358814,0.024256024621397657
1249,0.022483581306709112,0.017777760233068523
1250,0.022039794805664405,0.023515435525208076
1251,0.022010914830239318,0.018687276104972318
1252,0.0226231583298819,0.02338946273222554
1253,0.023120047795183535,0.019746004578076015
1254,0.022631717431504165,0.019405619241297245
1255,0.022087971250311457,0.029143216286880724
1256,0.02222865623430156,0.022388550366885848
1257,0.02234661341685769,0.022242930773630938
1258,0.022870111260205793,0.021933462587644618
1259,0.02238238130329098,0.022417791672168563
1260,0.02271085605434746,0.02006766184482315
1261,0.021827386099946416,0.02231394607300305
1262,0.022304830747357996,0.020049013825164316
1263,0.02225646022766781,0.02203268138728536
1264,0.023008688822385673,0.02107078138585978
1265,0.022932440191388227,0.024535882636616574
1266,0.022223851013315216,0.02221511102898227
1267,0.022279091835242334,0.01979433164153404
1268,0.023199751859621632,0.02594130440382103
1269,0.023293034561413177,0.020637483981415194
1270,0.021777455485035048,0.02147925268835149
1271,0.02221831846811014,0.019088925307891504
1272,0.02269594547384196,0.020801002121491514
1273,0.022730701811817123,0.022757907651641186
1274,0.022695745645220474,0.024615245053122715
1275,0.02284159557819426,0.022432254360519766
1276,0.023276422364856126,0.02006365828974659
1277,0.02309208238150457,0.022816692095987894
1278,0.022415323986959973,0.021170139691300674
1279,0.02276396238915831,0.02335732971592244
1280,0.021959446334122994,0.02369429138963182
1281,0.02239787571138139,0.022554569348440034
1282,0.02284188389027719,0.023935443871664127
1283,0.0226598020511226,0.022795857192732354
1284,0.02183007158943527,0.020573506511794883
1285,0.02280501801621833,0.025851703481932466
1286,0.023030047859552857,0.02549079736663821
1287,0.021952593965987435,0.021607736711432214
1288,0.0222301142886549,0.023296348868201075
1289,0.02215382765991975,0.023473387268013905
1290,0.022478021483653954,0.018497969186331873
1291,0.023082048076091054,0.02341314812132761
1292,0.022689515939555604,0.022387535612656783
1293,0.02339169237916049,0.02396872065867273
1294,0.022123685737939287,0.02019289228697649
1295,0.02183037187582512,0.024116316008298482
1296,0.022962704818654093,0.017023521648968358
1297,0.022452337557537783,0.02264016207040015
1298,0.02207135123950388,0.023664443516234947
1299,0.021837515499276056,0.021942035178929543
1300,0.022748633494063152,0.01932848077311512
1301,0.02200080143387536,0.026994151535907784
1302,0.02353129535206228,0.02577602168752414
1303,0.022420097652414768,0.02118092439421868
1304,0.023876099054404586,0.022887733750245238
1305,0.021864506927096277,0.02182947445569682
1306,0.02271489548622716,0.021345612750298268
1307,0.021932804083405474,0.01922753098073115
1308,0.021988126086733704,0.020883160830720164
1309,0.022196159611339215,0.021043392045286668
1310,0.022580517971847982,0.021598785782663627
1311,0.022277624826494168,0.022432860303831882
1312,0.02204730516585479,0.020922621357054014
1313,0.021820346130241308,0.021809091946608503
1314,0.02257057645847257,0.029640126738170985
1315,0.022398112175746453,0.02275541449008302
1316,0.021482616208484778,0.022843097375548536
1317,0.021968665855864492,0.02088539762203394
1318,0.022616120940111548,0.023364616374190437
1319,0.022099188311199704,0.021462421418089
1320,0.022170340817653948,0.02217621063547475
1321,0.02205484420385697,0.02247697679324468
1322,0.02244482098666908,0.025791367518861838
1323,0.022172018097971175,0.021836721486079007
1324,0.02230062940679818,0.025084858971935325
1325,0.02276275089035908,0.018997250016758126
1326,0.02202805991714104,0.02234115121090798
1327,0.022742942163198113,0.020484295109141362
1328,0.023068934766505716,0.019242341486088808
1329,0.021946774298722722,0.02529509318514706
1330,0.0224380082135155,0.026666922420527914
1331,0.02297169553431616,0.02364620594006405
1332,0.022056972760585047,0.023028472036376136
1333,0.021901083050398448,0.020607397098449994
1334,0.02234924309399369,0.024123636896162638
1335,0.022669703835140553,0.0216804842406556
1336,0.022459239349049104,0.025668407940315326
1337,0.022819674435368687,0.019397341744017207
1338,0.022080249284103,0.021752991459987346
1339,0.022831355197002277,0.023945134210281938
1340,0.022238374190058093,0.02175098396293766
1341,0.022728623890077515,0.018890854701158703
1342,0.0231669602571703,0.022829046716947392
1343,0.02279565434234379,0.020156453225405883
1344,0.02339954341990318,0.025701553762935238
1345,0.022316748079814784,0.020829774121053357
1346,0.021901273111299836,0.02092733177861409
1347,0.02234740447227677,0.022655989008131653
1348,0.022082917353541825,0.020641771736889254
1349,0.02323495873028962,0.019203564164617586
1350,0.022702088924966078,0.024251858633961277
1351,0.021960278444787224,0.0211606549522483
1352,0.022534328784204,0.01888181385014503
1353,0.022581309750512372,0.020275103588365814
1354,0.022039026554620308,0.023617335552556976
1355,0.022489348443583856,0.018333806892255677
1356,0.023095042680015714,0.018138944804256794
1357,0.022545458040208362,0.026752673176241467
1358,0.022493627472526784,0.021155922561178268
1359,0.022291247287376536,0.023095150428935122
1360,0.0231840200703606,0.019912146258255395
1361,0.022822649176452135,0.020384481999267484
1362,0.022579936079121083,0.021315299166364987
1363,0.021693284947166054,0.02688942934682662
1364,0.022757755745452444,0.023149869556155795
1365,0.022333313865835765,0.02089675820573
1366,0.022594123921669027,0.023642664615008996
1367,0.02329866864981292,0.02111833540233177
1368,0.02272453583437476,0.018115103628483453
1369,0.022433373315868785,0.022827467818662888
1370,0.022247419808339847,0.02073390701684245
1371,0.022711457814172588,0.02308212743811868
1372,0.02190601872838587,0.024331936017325664
1373,0.02263457279877185,0.02506944373244127
1374,0.022491080959295508,0.022184668627774143
1375,0.022796002814440514,0.020450351718627944
1376,0.02347914036549479,0.022333295221992525
1377,0.023436280946767658,0.02077105083894617
1378,0.02228037449088302,0.024088426625419292
1379,0.022193190242669327,0.02034189638217886
1380,0.023122722077161834,0.020152476620614153
1381,0.022130504806267676,0.021931278793510246
1382,0.022414203056861624,0.021043331043290498
1383,0.022758364910073728,0.02038342105158573
1384,0.022344566983648007,0.024229755121611806
1385,0.023248844183713414,0.021100420798097857
1386,0.022585310989232967,0.023473348173047484
1387,0.022375384720115306,0.021998775007104725
1388,0.02251002551477066,0.031171508473009694
1389,0.02353680223415641,0.020393445996689626
1390,0.0226115407708803,0.028374501152644734
1391,0.022485077815155664,0.026313785728928653
1392,0.022639907020658587,0.021369028380750762
1393,0.022524236591992906,0.020777718019954736
1394,0.02340846152888309,0.022805810714877067
1395,0.023102034458058248,0.023506963973969293
1396,0.022681338483278603,0.021658429490062744
1397,0.02240416976652271,0.029939173739888626
1398,0.02328063059169397,0.02603444159354341
1399,0.022335401065439152,0.024574429101818597
1400,0.023512708590470915,0.024779771451692037
1401,0.02294036589836855,0.02975452265054599
1402,0.023137580912685293,0.024973889463673026
1403,0.022493782062768388,0.024066661613175222
1404,0.022792100103097044,0.022794664136906638
1405,0.022720586122136465,0.026249773354190913
1406,0.023079299965767647,0.021928801712151485
1407,0.022774836800763195,0.024537058408947657
1408,0.023184583102874787,0.022119761848176853
1409,0.022884156471557563,0.025367032283742125
1410,0.02252364484779388,0.01895608469599824
1411,0.022396116091651645,0.027354858259963727
1412,0.02319624658962853,0.023626499441794128
1413,0.022483945332860633,0.022354835464274355
1414,0.022019097122916883,0.027750091142834832
1415,0.022321534181887703,0.025802105675497768
1416,0.023589860911084285,0.021939466483214754
1417,0.024118390628884878,0.020909328722257547
1418,0.02334712144228623,0.02447160423734029
1419,0.02356026390661224,0.021616510777854037
1420,0.023459254761414826,0.021998108749078687
1421,0.023302110122720734,0.020558042775166253
1422,0.022052659109669574,0.02195455765700072
1423,0.02353264012044187,0.025721258411791115
1424,0.022768004233840938,0.02013376873609887
1425,0.022786726340574086,0.02350126334260958
1426,0.023474224201730377,0.025345455066410453
1427,0.022447747913160197,0.027075233698720384
1428,0.023528019032202106,0.022975794955552943
1429,0.022654955996740923,0.020619581510836954
1430,0.02331434309647845,0.02256681563681096
1431,0.022875338127251437,0.025434379914265358
1432,0.023492607364742207,0.02121873305347508
1433,0.022387610167729482,0.029513840603288603
1434,0.023163549440111116,0.02144228597557512
1435,0.02284308874251531,0.01876865683862941
1436,0.022887046168596267,0.02219130437021403
1437,0.022858208373299153,0.01983649127226508
1438,0.022384145194746487,0.031367584848342775
1439,0.02287425085095217,0.020996805121673782
1440,0.022833115930820137,0.021102164963138274
1441,0.022995773073789076,0.020505802314831408
1442,0.02373464721449309,0.02157700952912821
1443,0.023100413438632523,0.02185012887789917
1444,0.023105236855398812,0.023797179742818426
1445,0.02299137560533081,0.03041807926703177
1446,0.023037216264671152,0.02165790727242957
1447,0.02245635047054691,0.0255134684131455
1448,0.023294391508826867,0.030086071167255868
1449,0.023766658882678246,0.025649721808466933
1450,0.023304369556698963,0.021116941892369206
1451,0.023452588402815788,0.02207297868306301
1452,0.022872759497908356,0.027750787639809624
1453,0.024025464960508686,0.02410261876934047
1454,0.023456874490379812,0.0264179326679143
1455,0.02357836130434732,0.024623863008711267
1456,0.023933694165625827,0.02370426053329773
1457,0.023556660548102657,0.027475150255743642
1458,0.022601814778651193,0.02367119605402332
1459,0.023505965253705983,0.02397358112901614
1460,0.02389735322509655,0.0231684724731928
1461,0.023940492641749522,0.024958042596961535
1462,0.023966475491889183,0.02321909925288094
1463,0.02342993600054277,0.022703127392318508
1464,0.02323714829944104,0.021618597054355662
1465,0.02353781636254929,0.0244648520714929
1466,0.023541391814510218,0.022503296066231398
1467,0.02408634891121579,0.030912721409052962
1468,0.02367091118294796,0.022107223038515332
1469,0.023758121468737233,0.022753882493850228
1470,0.023602835576442317,0.022815668540135697
1471,0.023307803746902472,0.02320968393742121
1472,0.023672525731133494,0.021048085047365786
1473,0.022743158394189403,0.022542991451242823
1474,0.02323369150363403,0.021542197265371904
1475,0.023743586280464316,0.01906843668168915
1476,0.022761914536630887,0.027060137796285542
1477,0.023099035730765615,0.021853068478893557
1478,0.02330032205112356,0.03061415036609536
1479,0.023455979988175474,0.02397185830721351
1480,0.023491765129388116,0.028042559178976818
1481,0.02352777281649512,0.02339141018065347
1482,0.02334240314064564,0.023251024998089367
1483,0.023404707071288743,0.02575811052264171
1484,0.02306148967892527,0.022344769754879992
1485,0.023665740972103402,0.024820568491340907
1486,0.023839111142843174,0.02209892921993581
1487,0.022059272026656557,0.022442627983386816
1488,0.023409867150371046,0.02656562148351531
1489,0.02365478026799018,0.0214124379059169
1490,0.02285389532353714,0.021870825236079583
1491,0.022856559507254,0.02523105616086613
1492,0.022854175468494328,0.02140695001083208
1493,0.022644646406593583,0.02493770977066155
1494,0.022985995808567146,0.02353839186147361
1495,0.022027809604656973,0.03385087976051346
1496,0.023267023037928495,0.0237935311657148
1497,0.023062621431647064,0.021316654086348197
1498,0.022492810737246353,0.02115112819709619
1499,0.023672768685350315,0.023920491160626427
1500,0.022361766658261787,0.02045033216893955
1501,0.02256996666440825,0.023142772346687955
1502,0.024361417974999768,0.021698215294955702
1503,0.023728308015890855,0.02188166267596532
1504,0.02308570097299586,0.02259482800939959
1505,0.022891632518727334,0.019882343796206067
1506,0.0228263226127048,0.02849326390940652
1507,0.024155698275546447,0.02087433298721898
1508,0.023085687063458704,0.02397609843733561
1509,0.023121198241730673,0.024337187882045308
1510,0.02327129883106521,0.023847503900739652
1511,0.02207253351331138,0.01844327011452172
1512,0.022473994069632224,0.0272993479584121
1513,0.02319598666241141,0.021385186548832136
1514,0.02302454824936833,0.022137855723553177
1515,0.02281673939721428,0.019851774914482728
1516,0.02365822012839224,0.021914383802260108
1517,0.022528782318294836,0.02249826008090845
1518,0.02355412322042181,0.028356105738246686
1519,0.023993228439712147,0.022761734606052773
1520,0.02350259922909365,0.02947522507393887
1521,0.022916777537752994,0.02324665130146183
1522,0.02337719553889488,0.022487749130962728
1523,0.023356754467156318,0.021855501460989066
1524,0.02340112224170606,0.021478349528177666
1525,0.02376596878344516,0.02508744782376402
1526,0.02362340644968273,0.022315916070169178
1527,0.023935484754995143,0.021016986636355248
1528,0.023444613145156612,0.020346535263905022
1529,0.023389143826846454,0.028897411489143272
1530,0.022992833719985614,0.024204111696994955
1531,0.023494664677898947,0.02500390051772205
1532,0.022707603164582993,0.026700156766571392
1533,0.023412245156751166,0.023312271068397478
1534,0.023375791417126604,0.024211595847838115
1535,0.023175277934446157,0.0220458200811493
1536,0.024006132052453468,0.022879228927930133
1537,0.024148802632178595,0.02552049708329935
1538,0.02456696786553704,0.023951108525518176
1539,0.02358246336115612,0.022371885243247555
1540,0.023914664326761242,0.023977095835298983
1541,0.02441709551537375,0.029043881884895872
1542,0.02321728576625363,0.025463964332897736
1543,0.02278566904452374,0.023180268266794715
1544,0.023631527186479335,0.022322656330964936
1545,0.023192453568504988,0.02029055277813276
1546,0.02272144963422851,0.024557176505486705
