epoch,loss,val_loss
0,0.16367859309382862,0.08724541290594821
1,0.06416031470199188,0.05383429220850391
2,0.03287796118333162,0.016166318797498306
3,0.018679580345249577,0.018951848391869825
4,0.018944489593944437,0.019558626977578333
5,0.019533358457729782,0.018238660173039316
6,0.019827636850656843,0.020119604445117706
7,0.019286951392615062,0.01757412644480991
8,0.019166948284200437,0.017186285904369773
9,0.019710791613281275,0.017014734686632373
10,0.020008297582014764,0.019797917340765248
11,0.01969009861320281,0.020526730617171633
12,0.019607968774321173,0.01847921581916811
13,0.019880253675696756,0.019499571314750455
14,0.019662440878798444,0.01728707725945169
15,0.019577984594636492,0.016502453817676493
16,0.020116799360633993,0.01958781352888531
17,0.01975665757690164,0.02305821510327314
18,0.02047346667985884,0.01864212210383487
19,0.019941752199545134,0.01808861327440652
20,0.02010423967690705,0.018171520933109
21,0.020521704370318222,0.019901465029906314
22,0.02026014993425837,0.020882580426375322
23,0.019791162176002606,0.021887095456894403
24,0.020131114276228764,0.017676230234071177
25,0.020371026040124092,0.01918979890603387
26,0.020562600019833833,0.018786203355808474
27,0.020256513047763866,0.019028767465592466
28,0.020039960727107516,0.01812165747995723
29,0.020217408954674342,0.018938409281422656
30,0.020269610646585053,0.01853587148430292
31,0.020871844600519832,0.020992096269469424
32,0.020098952242998864,0.018723565384586825
