epoch,loss,val_loss
0,0.1871239142499858,0.12295923573159757
1,0.08950983435153771,0.07175400420941042
2,0.05520143902463783,0.04992427741601511
3,0.052046271283730426,0.05389715577663167
4,0.053053627896914,0.0527543908583431
5,0.04952102995735945,0.04490407929118449
6,0.04383965555152638,0.0440629193884186
7,0.04312734863609909,0.0419214408912335
8,0.04170537981197989,0.03982652500624627
9,0.039621177054256745,0.03929520048342216
10,0.03796387494033237,0.03778585691619503
11,0.03652583980571023,0.03547278038963334
12,0.03361236765313682,0.031027904562446293
13,0.029447735815817454,0.026225562910854393
14,0.02378666784307606,0.022539077116427875
15,0.02165016095689256,0.0343095027498354
16,0.02094579892728826,0.02814374728262095
17,0.02025976509144671,0.02177010431750468
18,0.01997928730220341,0.018990893327081964
19,0.020449951617903323,0.02044334067524232
20,0.02142147529128787,0.021323702957454685
21,0.021973804832040835,0.02417788151930944
22,0.023585744239360117,0.024156814402861677
23,0.027915894569788904,0.02171992485565093
24,0.03278105773350341,0.018197272432307936
25,0.019589542736597864,0.01903085220655119
26,0.020139970615666976,0.019064144210062257
27,0.020147037481685146,0.020921807561213798
28,0.021573228614894652,0.02132768378884847
29,0.03973749619897464,0.0397499015594479
30,0.03501755048146398,0.031323724959248525
31,0.03392953443810713,0.030860038122842888
32,0.031119567487272713,0.030121759304978193
33,0.030179328641755213,0.028556908230167162
34,0.02763487687475866,0.02736433415034905
35,0.02629719230589821,0.025828666951222125
36,0.03254361829156879,0.027128567601588643
37,0.027458554937047876,0.02619182215834473
38,0.026919860854375657,0.026972883661007824
39,0.025238198344316558,0.02490993730735619
40,0.05413647203130735,0.041191525601479796
41,0.04521068107101509,0.04094629630963917
42,0.03885788305980458,0.038167134625653444
43,0.046777525184144506,0.0278865560924527
44,0.02044298731648236,0.018000462997319572
45,0.01825048089873114,0.01701816931313996
46,0.02422464398710395,0.014797253382040134
47,0.014893111145997838,0.013775092611367203
48,0.013532058733011441,0.012964392019892971
49,0.012756275690922277,0.01222109456709053
50,0.012596112439970223,0.011923603550328829
51,0.012190663090108229,0.012917727234184554
52,0.012101691253453516,0.012300972470274193
53,0.011668906491294467,0.012744691989574973
54,0.012184915324147467,0.016886040441186155
55,0.012850848514941051,0.011972364544686174
56,0.015143089785540608,0.013359398260600895
57,0.013334929143159771,0.011935285162459985
58,0.013097554787347237,0.011557207113512642
59,0.01479565109134459,0.01208369102955288
60,0.011970567908011478,0.011919595626048338
61,0.013497297092974423,0.01143254327897244
62,0.011690400354340852,0.011053987740500057
63,0.011271025525773767,0.010707126345614819
64,0.020779270946765117,0.011894850715650827
65,0.012254572295912092,0.011071148366338757
66,0.012579905170333876,0.012617592277165558
67,0.01154137323710987,0.014106508953042546
68,0.011643511351856062,0.01109741223518808
69,0.015914441440343784,0.014999267697369572
70,0.015314547574057502,0.011978345582424865
71,0.013156571567875983,0.010621500102290038
72,0.011333510933293522,0.011911094386421656
73,0.011758081221522734,0.010042882321553852
74,0.011723601215926232,0.010611688783620178
75,0.011958684027976662,0.010957863639037536
76,0.011963040422764328,0.011394280757999082
77,0.012286802958161067,0.013210461724875899
78,0.02050368746870654,0.022099105031145025
79,0.020733164879474804,0.02137217728601917
80,0.0203907199622356,0.0188096163106381
81,0.01876634671438417,0.016812192917093575
82,0.01762983158638747,0.017413709390593873
83,0.018241839509436506,0.02464079268088516
84,0.018547342706033938,0.01742824886270579
85,0.018286550430942784,0.018167229755189866
86,0.02304414139210368,0.022954101473586994
87,0.02170184145731439,0.016133028336145695
88,0.01629101318849934,0.014860344528799087
89,0.016270313547815468,0.017055840670309765
90,0.01873884789480401,0.018069817270751347
91,0.021171707728450343,0.020041360154500983
92,0.018645452862277145,0.012270278723700224
93,0.014471177469200487,0.014238903163722772
94,0.015079484735842613,0.01429890996270064
95,0.015984376678414507,0.016691670373035115
96,0.018957753137549122,0.030432812603456632
97,0.017567701364154937,0.015869219278021412
98,0.02328846363356705,0.028495982039393453
99,0.01917960290625084,0.016806646281060923
100,0.02304395196287871,0.02225565080896267
101,0.02447841778698323,0.023522783866138937
102,0.02178406147442633,0.014637666239146653
103,0.015278142076253677,0.014291664702345889
