epoch,loss,val_loss
0,0.19297840708880115,0.1688686324299652
1,0.11065493385306746,0.10957170805901924
2,0.10839738652741404,0.10782556161108033
3,0.10791732995010775,0.10806596422628238
4,0.10734342379893044,0.10708208329205261
5,0.10680832915740619,0.10714596104767724
6,0.10642405928705903,0.10639236308781293
7,0.10607721189038455,0.10616393222663943
8,0.1057827876066323,0.10600501575875489
9,0.105560678515217,0.10571600631432168
10,0.10540959931653943,0.10551980722933749
11,0.10507857841219928,0.10512295545276545
12,0.10494189583759704,0.10514107572345538
13,0.10498479754328251,0.10535852174732567
14,0.10500920199447399,0.10490503599654057
15,0.10513480635974809,0.10544537130710922
16,0.10541933393783326,0.1059750038263077
17,0.10544748746638866,0.10520172505488806
18,0.1052466489487796,0.106448144779115
19,0.10549377821546664,0.1061175058653906
20,0.10532047397060265,0.10495703422773892
21,0.10515580962983062,0.10493024454496937
22,0.10492121386561368,0.10433184957659518
23,0.10481788846347734,0.10422378316251142
24,0.104463188387126,0.10430203128279714
25,0.10411419711715217,0.10390543464891724
26,0.10397469134425087,0.1045269403303808
27,0.1037932975019673,0.10368625437451237
28,0.10368775850315269,0.10341655494146866
29,0.10334751286881147,0.1026948683887085
30,0.1030965039996411,0.10301714920348413
31,0.10291016986854166,0.10404843501246813
32,0.10342348340175135,0.10379580216630764
33,0.1035109628185475,0.10345365416961293
34,0.10370758939966214,0.10347044980704738
35,0.10417515786288739,0.10423393427572951
36,0.1044645829023503,0.10375922324390231
37,0.10449877263401909,0.10431133349438587
38,0.10479679267755229,0.1051643916891613
39,0.10500851243162612,0.10459110874097556
40,0.10504187382072758,0.10592243405854317
41,0.1052302760745791,0.10567174696061399
42,0.10536579751996972,0.10579474895439848
43,0.10512129982098115,0.1052059598778681
44,0.1053365317406319,0.10486277620342649
45,0.10522146041778256,0.1050466645417857
46,0.1054719303556674,0.10656294064344904
47,0.10562245385180846,0.10610744609970132
48,0.10553300506372056,0.10546861485458305
49,0.10537334762031225,0.10583780114939575
50,0.10544206264565031,0.10640578768153593
51,0.10530125686257101,0.1049829661763834
52,0.10541866395732673,0.10545569818816791
53,0.10547913333399594,0.10545166998207804
54,0.10536175954351418,0.10572905656782397
55,0.10547453012588404,0.10544408072777028
56,0.10550557732057991,0.10544261570958142
57,0.10549773125768565,0.10531310979997255
58,0.1054843774528431,0.10520130237704106
59,0.10541047053419048,0.10566493475423051
