epoch,loss,val_loss
0,0.40651793536947095,0.216450881421421
1,0.15989467186675824,0.15189767866384085
2,0.1503565498740316,0.148507593938324
3,0.1467489633944819,0.1440248279337562
4,0.1399574655237152,0.13412445421056446
5,0.12812846227346944,0.12141396605620419
6,0.11667402053447223,0.11115615866286718
7,0.10720820595518506,0.10268985839003195
8,0.10019925452643533,0.09683721979048227
9,0.09460940359352683,0.09062918053225395
10,0.08778447192535102,0.08347672005905335
11,0.08042227637896641,0.07565532796332629
12,0.0752537610580484,0.0732770130062432
13,0.07402819438611535,0.07265045232194667
14,0.07357800654094633,0.0722483167513927
15,0.07331493253214919,0.07191187405576574
16,0.07281949173351876,0.071760357973156
17,0.07255982904373598,0.07178406260865351
18,0.07258696084002479,0.07188096477530008
19,0.07280725070698152,0.0718066565638041
20,0.0727661008878743,0.07167443764809178
21,0.07266479611599608,0.07167139926748554
22,0.0725124220671751,0.07154013347620898
23,0.07255053012859258,0.07146063863941063
24,0.07244060697068301,0.07131228690237315
25,0.07246164875843221,0.0711813524655472
26,0.07244579207071597,0.07111528129690756
27,0.07223597099725679,0.07089714994782466
28,0.07211386002272105,0.07108888741271435
29,0.07219457853021767,0.07105867201515262
30,0.07220435816887096,0.07075636456845161
31,0.07200263448960309,0.0707014913324022
32,0.07200413631846468,0.07066345055317937
33,0.07198029524796576,0.07075024255991756
34,0.07192980831532216,0.07067774468844051
35,0.07193322660173293,0.07071960933766322
36,0.07193586257718104,0.07075379672252542
37,0.07200271099674596,0.0707981813146105
38,0.07210457003455432,0.07068339101396144
39,0.07200879041102526,0.07072384863342586
40,0.07202148856557876,0.07105406399420482
41,0.07206707077027799,0.07096375076633493
42,0.0721558212005109,0.07081964166059981
43,0.07201802621694733,0.07088735448279616
44,0.07204920488944333,0.07094628021834057
45,0.07208283679534475,0.0707496439030474
46,0.07208243537070849,0.07077676603164212
47,0.07187424762677058,0.07098324992070813
48,0.0722323597622834,0.07090275772127405
49,0.07210849482324526,0.07099455857871513
50,0.07216495332465446,0.07107404739703962
51,0.07220297763414914,0.07066325996817367
52,0.07211690938608756,0.0707499922222223
53,0.07193008099822067,0.07090157306687385
54,0.0720541383131587,0.07063696006522949
55,0.07203477178756193,0.07054551530082537
56,0.07193554115531633,0.07096009630791462
57,0.07207630081676406,0.07070828495669539
58,0.0719124272620802,0.07065313037512076
59,0.07200722291087322,0.07075098730980238
60,0.07202126199097705,0.07062158582540227
61,0.07202661687655865,0.07102149674806378
62,0.07205166925696299,0.07095813959087673
63,0.0720788331820165,0.07107523306056145
64,0.07194715524442774,0.07112823740336727
65,0.07215478432307347,0.07112315624638099
66,0.07215020178650931,0.0713732112123535
67,0.07223245826623648,0.07128919423569148
68,0.07222098642714125,0.07152750270572603
69,0.07224489665859408,0.07135070706600594
70,0.07231811983727092,0.07139731183442659
71,0.0723827316867914,0.07146777773377186
72,0.07237138034547683,0.07154211362662204
73,0.07229905397451525,0.071583685110907
74,0.07233823535798357,0.07149723314794214
75,0.07238685075727533,0.07156731190110065
76,0.07236394541169568,0.07146083376848494
77,0.07233038487388574,0.07146048620464061
78,0.07239966401405293,0.07160764031976292
79,0.0724340224410411,0.0713910273270982
80,0.07256181460855196,0.0717868413670413
81,0.07257779778016386,0.07177602548668854
82,0.07260762771861472,0.07189703057161309
83,0.0725795837332479,0.07167480869667374
84,0.0725849719227458,0.0716022328086143
85,0.07252444305701004,0.07176397745070763
