epoch,loss,val_loss
0,0.08081328616307067,0.04664037850242176
1,0.039664217147516084,0.02892231585012474
2,0.027795078603347553,0.026727545520198116
3,0.027850170297991875,0.024150406766826935
4,0.027940621631753017,0.025557342036858777
5,0.02819166043613234,0.02661521965748062
6,0.028030522068389963,0.02830310213955115
7,0.028094794709986593,0.026405634812058053
8,0.028220000944445007,0.029731137116440376
9,0.028327840900936013,0.028653287938145453
10,0.028336474138924733,0.026807373124244603
11,0.027960443817679103,0.02891687542602902
12,0.028533398104514437,0.02775388045880382
13,0.028193363564745555,0.029787104930023015
14,0.028863253726658943,0.025340244945450358
15,0.028685537698811932,0.027644652957809705
16,0.028774302946567406,0.02926498901645852
17,0.029016722965580548,0.02800792458172426
18,0.028457642812244624,0.02792584659728709
19,0.0284912147654889,0.027770380507169647
20,0.028651001113507865,0.028422062454676076
21,0.02828135390037881,0.02828559352690685
22,0.028653313805029796,0.02566819482364625
23,0.028184461289179993,0.02570761646597625
24,0.028681680890839462,0.02759896796351062
25,0.029006959878646738,0.02921499746492178
26,0.028333399182209354,0.027091708669737393
27,0.029006713091750905,0.033918963017893315
28,0.02933510474087916,0.030190073418627245
29,0.029359770417444222,0.027357741587610816
30,0.03042701150638332,0.04484389808202411
31,0.06728231295426604,0.07159072432987504
32,0.05973689017562772,0.0659304702788262
33,0.07091421951323176,0.0799020563370615
