epoch,loss,val_loss
0,0.14537231120869792,0.10388838668554527
1,0.08114728696650261,0.07123029733630928
2,0.06394072168236442,0.05779814781016878
3,0.0542623427488821,0.04944010695770395
4,0.0444138682693791,0.04222499976124271
5,0.040123287784896024,0.03940576728618606
6,0.039076695005766014,0.041646627737201854
7,0.04003111703349627,0.04103103471477387
8,0.04087305216373299,0.04363208414358987
9,0.04195313564807677,0.047681347361891495
10,0.04167259530388385,0.04294620428437216
11,0.04146264840980514,0.03997316338774625
12,0.04202030386498792,0.04425843275536584
13,0.045393430762630194,0.050371012579129265
14,0.04842038166751678,0.047914284201310955
15,0.048073163540433825,0.04928934850216194
16,0.048828790841295086,0.04997093130223565
17,0.0484652388022005,0.04957620693104608
18,0.04893883981471725,0.04721000945546915
19,0.047592615302232244,0.04765255786272702
20,0.047140037526282,0.04633423726014858
21,0.048494811493644326,0.0488913412710862
22,0.04817859908278516,0.04808583485158109
23,0.048054400923774304,0.04792829753497311
24,0.047675809536358534,0.04736639295234959
25,0.04733920283764482,0.047835986061578864
26,0.04625395783405605,0.05014871905580598
27,0.04594705862214239,0.04500392584781432
28,0.044699363913729515,0.04550841982875552
29,0.04407405129058374,0.04562696808950583
30,0.04440140218543206,0.04362811705049042
31,0.04298402620948476,0.04268041457436926
32,0.042420855013848686,0.04378922922858688
33,0.041722562211713825,0.0414092356711038
34,0.04159616356154235,0.03976595568475802
35,0.04152926162695237,0.0396495121777434
