epoch,loss,val_loss
0,0.16699044312313974,0.12055624909728366
1,0.07483820100244191,0.07104425411597894
2,0.0582068519447919,0.04219269163571386
3,0.04052459036590432,0.03679024277588657
4,0.03417507152584531,0.03075151746003244
5,0.030815443025528192,0.03207535362246004
6,0.029342520297121564,0.029781378929127647
7,0.02779233847691906,0.027260190105299453
8,0.02739079384584364,0.026813671792597873
9,0.026913408158744552,0.026583966086806042
10,0.026779166299948018,0.025812101627581685
11,0.025895567846110017,0.02668376282245603
12,0.025296528085166935,0.0238878576403988
13,0.024075454465753075,0.024724438049975303
14,0.02334969844088423,0.02294104203475961
15,0.02235339417142405,0.02077001260024596
16,0.02144350898306933,0.020998829153925768
17,0.020124115813657535,0.019979073940213966
18,0.019754309784903896,0.018927021140281195
19,0.018954985408777957,0.018754321779694112
20,0.018185854044487533,0.01678763736912653
21,0.01852766747737555,0.016226796220161828
22,0.016856785271418012,0.01609968815525169
23,0.015541509042481343,0.01429374155095222
24,0.014890472195464835,0.013668148951853414
25,0.014235799009505983,0.013833360355817835
26,0.013876396944920578,0.012155958305053477
27,0.012527800962436114,0.012903820846050436
28,0.012040503229275882,0.015327142251636347
29,0.01201492198240414,0.011036647663796475
30,0.012033462458156901,0.15898103214618062
31,0.011330100647408328,0.012281550299199834
32,0.010535602297017471,0.01127258362285293
33,0.010711829005133846,0.009501801325550749
34,0.010663900314997747,0.009696070234208194
35,0.010905486875311208,0.009861027130573376
36,0.010248433839869227,0.009230978636625323
37,0.010176464322125085,0.010897098081193764
38,0.009784269406066404,0.009605748743559774
39,0.010191047469788283,0.010376295848104929
40,0.009570606425851226,0.008417989139098912
41,0.009550506885771711,0.008941409914241994
42,0.009449572533742784,0.008194960483247686
43,0.009408204526872002,0.008607453819152611
44,0.009419803757579337,0.00806434369986346
45,0.009154016098609085,0.008849207935568119
46,0.009435746792724712,0.007994994489165888
47,0.009601008382251414,0.009304280098066052
48,0.009216722607021506,0.013247544036688609
49,0.009543445379139006,0.009402037931175427
50,0.009308973311831495,0.01056020941376545
51,0.009884687150262004,0.02009556482780516
52,0.009548635587921078,0.008311559204320881
53,0.009650125266905191,0.008566921511804649
54,0.00882745745478661,0.008205619258416527
55,0.009230806466398967,0.010436272867914839
56,0.009493359015974626,0.009089344666995867
57,0.00938760979621441,0.011772125685218524
58,0.00945194644688202,0.008119215985176453
59,0.009005066331030785,0.008994769799319444
60,0.009031370330377103,0.007253665564877247
61,0.008662175548785506,0.00707367784141518
62,0.008974925306685966,0.010345744772872284
63,0.008492424167866865,0.0073387670090338235
64,0.00849491222683403,0.007280180353124427
65,0.008432760886992399,0.008919305590752456
66,0.007828086735770035,0.008635416663315767
67,0.0077829460273210185,0.006384896192385065
68,0.007710803525063018,0.008109705326395093
69,0.007927462435532197,0.008020603523943235
70,0.007757130034675868,0.010153605363419207
71,0.007505278335698098,0.008733908546575431
72,0.007598069977933924,0.009426193733735638
73,0.0072018705337471385,0.007343863582513468
74,0.007041627744981032,0.007319472410775656
75,0.007701427940440049,0.008344122934711607
76,0.00695277171300279,0.0074194387641927225
77,0.007434290174177463,0.005349466961241771
78,0.006927754061924164,0.008515144629593595
79,0.007391328086442263,0.007701255910351414
80,0.007175095514472512,0.008505907546634762
81,0.0076090932648210565,0.010283675837171012
82,0.007585065487175168,0.00760528235898398
83,0.006876510682517289,0.009447441147838813
84,0.006311461469605208,0.005026625622679122
85,0.00665297413527367,0.0049538862984848005
86,0.00666658755856753,0.008522295566156636
87,0.006782655923651139,0.0062546892918208235
88,0.006687444662466812,0.006720958427168082
89,0.007026318421525558,0.005955787299490507
90,0.0069969193246826045,0.008523355778409632
91,0.0071382776414938304,0.008545351392224183
92,0.0064536606863909345,0.006433471259712473
93,0.00680684484634474,0.00611256133954628
94,0.006548295927261539,0.004990866343066649
95,0.006903668570847397,0.010126161762463972
96,0.006564807547215405,0.005406755486160705
97,0.00635023302488702,0.006240458391980219
98,0.006613748831686368,0.009030979609994575
99,0.0062832101405472405,0.004858235629928175
100,0.006783649434806775,0.005411463684803749
101,0.005860921888828849,0.005898601516284454
102,0.006497287747657133,0.015544996654942644
103,0.006742958552583748,0.00721807805538301
104,0.006208287560281237,0.006120148842938203
105,0.006040323989188148,0.006032920491586909
106,0.005705703110478783,0.012822079935332359
107,0.006493489521903266,0.006886628695676175
108,0.006327365899159254,0.006078917211202439
109,0.006266547744698394,0.006876287967534096
110,0.006198596336962961,0.007254341024767252
111,0.006592608571013839,0.005587771396911994
112,0.006675917295375013,0.00576954648055242
113,0.0064606951031503344,0.006372453056271434
114,0.006136155528981212,0.0045338865860579235
115,0.006212056228175587,0.005755756348507492
116,0.0061986320918213005,0.00460730646714868
117,0.006421252545308051,0.004919592241040669
118,0.006454317094974047,0.005314576062656815
119,0.0063336457772222125,0.00617619213499658
120,0.006315687378264701,0.0044748251932440145
121,0.006675509145117844,0.0049950354965954975
122,0.006565405511212417,0.005780928425311502
123,0.006686686917463486,0.005323865446692073
124,0.006394960919486658,0.0057728626201518805
125,0.0069292671190274,0.007941834925914267
126,0.005887653594345247,0.006635440471960671
127,0.006041214889124614,0.009611690050136554
128,0.0062403349490794575,0.004748902261924607
129,0.006240444712721996,0.004272370309596139
130,0.005786691903699484,0.005438606355092308
131,0.006207486628636652,0.005422926221216346
132,0.006201187949080458,0.005698093811848334
133,0.006242704275492237,0.005087447401956488
134,0.005749972942705861,0.0052113156018142115
135,0.005764562832314423,0.006104913585206998
136,0.005833992960868026,0.005788112143767614
137,0.00624571258960058,0.009159761978991054
138,0.005883545880831278,0.007332254863463948
139,0.00605808405794105,0.0049628942595514
140,0.005752220387860156,0.009279460317272201
141,0.006156158118082924,0.006062310725970939
142,0.005598628910989474,0.005347056021886689
143,0.005318890551762502,0.004601913303263256
144,0.02768105997688708,0.027970171985587645
145,0.06101997080538198,0.06341960956801931
146,0.05764923195580213,0.05002103740938931
147,0.05685558276687214,0.06402390172974087
148,0.06477773753251675,0.06219783721413778
149,0.05379278476921012,0.044645233722234584
150,0.040309887739727726,0.036480265854025036
151,0.03567831922653053,0.03351961737667705
152,0.033824258301553015,0.03269090600923327
153,0.029483084103091063,0.027443630275358434
154,0.02713335502809353,0.025664656829521144
155,0.027501249714173098,0.03685340905104835
156,0.027536142766356565,0.02679131526408839
157,0.029107427830509337,0.03246025959854532
158,0.030841552240730857,0.033898916335125186
159,0.0303966678964863,0.03012910487031786
