epoch,loss,val_loss
0,0.14077450399347347,0.1009164694711366
1,0.08425115743319955,0.07479323125087847
2,0.06584934120198234,0.05955505943559434
3,0.04835241519027858,0.041834053960529576
4,0.04020005604810566,0.037622323661054696
5,0.036850948708591985,0.03629839083954586
6,0.035949873427549996,0.03624229610624893
7,0.03619359320194887,0.03199888603216377
8,0.033642150150488416,0.03463085844595318
9,0.036723024200657005,0.03996876444617593
10,0.039224852805586456,0.039600660276158925
11,0.040551251403505,0.039942560301418836
12,0.039487526134895284,0.03885431857022509
13,0.03980148132804105,0.03867837261546759
14,0.03624295226062278,0.03663561713970733
15,0.03536671556853991,0.038066054984703716
16,0.03537016922829868,0.03710535930171197
17,0.03336526936204504,0.029427496467929425
18,0.0303453348984988,0.028260445041433505
19,0.0279839849553639,0.02672730231306265
20,0.025617608438721663,0.023347808306870634
21,0.023767775329623483,0.027718976103269215
22,0.027084257766354283,0.029202365793505332
23,0.028905139169949804,0.031869994739589486
24,0.026981909999804054,0.028989803213582042
25,0.026668845585805716,0.028254973692576905
26,0.028666441804535096,0.032781037645327735
27,0.02739069623787769,0.028080233285275612
28,0.025746800286842765,0.02497763110834873
29,0.029724433592302528,0.03777419795130028
30,0.03246589006333471,0.028541314850054865
31,0.026742265800194297,0.02540246779341677
32,0.025529377521287432,0.023477110867671545
33,0.02760322525990095,0.03383274383154928
34,0.034121232026879736,0.03868062205277471
35,0.03584823975090881,0.03683862686392446
36,0.03692785071151005,0.039170299019391085
37,0.03846495762485251,0.03706093965761287
38,0.03534794257258435,0.036564541799799136
39,0.03633181070782345,0.033033429309078904
40,0.036291245308568434,0.03088238796523545
41,0.03303618893938528,0.039499993532331516
42,0.03744498804527269,0.0360519563383772
43,0.04510013930958143,0.06350611219360495
44,0.05735470843222216,0.04417933026753548
45,0.041985284367339504,0.04367223660437348
46,0.041708377262147114,0.04035061036237319
47,0.04140704721033716,0.04624710781551198
48,0.04263172871310362,0.039059853009238615
49,0.04423708642730943,0.039934692358937714
50,0.043660074243132924,0.055388384446466446
