epoch,loss,val_loss
0,0.3777456431866264,0.17423934680604522
1,0.14534698136680893,0.12250498619339273
2,0.11863464949061449,0.11492070949091719
3,0.1086936888577555,0.09819044465612217
4,0.08806226320928044,0.08021314415695541
5,0.07636293432385706,0.07255049251555079
6,0.06969557885976908,0.06665900562490736
7,0.0639483922307821,0.061590970459305214
8,0.05905204280901203,0.05695968798428609
9,0.05465123579382515,0.052414779346245145
10,0.04932392452308219,0.04629537575799551
11,0.04144843231937249,0.038711982490325786
12,0.03891283489739914,0.04056094866172479
13,0.04074679293947445,0.04141443259514215
14,0.04123923330933308,0.042083802876292764
15,0.04240849157638973,0.0431192633126228
16,0.04307500590279186,0.04337831458110648
17,0.043383403579227264,0.04286211661718074
18,0.042917594274909474,0.04262878464706883
19,0.04211907799718239,0.04112606746421711
20,0.04116478944710976,0.040056399954005124
21,0.0398951739305072,0.03828383519092976
22,0.038695654947218376,0.03751252781255751
23,0.03754198336028319,0.03624565136378547
24,0.03644595143171571,0.03510763469992328
25,0.0355804894598935,0.033667368515914314
26,0.03398683739246891,0.03263101920238516
27,0.03263201319622241,0.030995368607630386
28,0.03068732622888782,0.029307784187741985
29,0.028240228673334505,0.026216569891009824
30,0.025702658902219445,0.023852505541061827
31,0.02438898793802106,0.023458083921009946
32,0.023441318055535915,0.022278194517873363
33,0.0226593252188034,0.021914923568009954
34,0.022387093419192743,0.02166809482116255
35,0.022028080144559117,0.021863595630323782
36,0.022048565969288017,0.021190667672681122
37,0.021899676910020132,0.021298136879655444
38,0.02150854783178829,0.02128173962188407
39,0.021590225586889507,0.0212364371016257
40,0.021763515276022903,0.02116054725181238
41,0.021716120841203453,0.02112183987582727
42,0.021609263843763694,0.020763865671316845
43,0.02126045960659008,0.02110374153348387
44,0.021369841074099023,0.02094134836786242
45,0.02187276588712665,0.021456212619791467
46,0.022021642433469005,0.02162423225791556
47,0.022174510467562268,0.022045635427153525
48,0.02264866930731147,0.022902783845869593
49,0.022512431854276444,0.021924233222828667
50,0.022396848697831734,0.022038240101844096
51,0.023911035939050522,0.02349185140475619
52,0.023232915382876956,0.022899888132440826
53,0.02307797284003237,0.02266506148000919
54,0.022629387284384118,0.022286779931566334
55,0.023083425013067052,0.02259646145584269
56,0.02308245169387447,0.023014613288295203
57,0.02378500515310694,0.024140734018224284
58,0.024273958439818867,0.024120833339565086
59,0.023610538759862156,0.023454098094140063
60,0.02331907553173941,0.02313746279803852
61,0.023617406877473913,0.024162702966590236
62,0.02397775598954287,0.02411639764199317
63,0.024018324936906116,0.024934635696831235
64,0.025512638510012037,0.02576682741600129
65,0.025566140438417356,0.02619927015446638
66,0.026117497434218723,0.025835470373623937
67,0.025729137507798098,0.02654335075355743
68,0.02607635845341604,0.026278678539496475
69,0.026918016789521246,0.0265616697759824
70,0.02639587561218001,0.02717624977966087
71,0.02833917349737754,0.028822892821072685
72,0.02753734122738421,0.027943430403754667
