epoch,loss,val_loss
0,0.1564022338957333,0.10269143491183667
1,0.08654579407662796,0.08321498654306453
2,0.08305724173021926,0.08269769988289571
3,0.08284431585162091,0.08259884193363205
4,0.08172598135152119,0.08050959086267612
5,0.0783560857784262,0.07479665645978163
6,0.0632664952680266,0.05317602441267602
7,0.04010457623985222,0.021260057417962528
8,0.020059180375245168,0.02293349701790661
9,0.02012395472090831,0.019594579596945688
10,0.021788520294782832,0.02024618998734426
11,0.021025069054963586,0.021591495995975048
12,0.021108275103709585,0.01878470130229476
13,0.021039065256488503,0.02029629729558797
14,0.021081247432477516,0.01937175715884639
15,0.020796629505680144,0.018432378252907916
16,0.02114005290570376,0.0191197755813434
17,0.021132374093007986,0.020266339447475742
18,0.021204213727917746,0.020106190237809844
19,0.020910473924567945,0.018884722506531882
20,0.02049106252576998,0.01765145737921853
21,0.021009421188214555,0.019973069489672604
22,0.021018104885312482,0.02302162891111227
23,0.021376863676610944,0.01822341738772985
24,0.020627809075756277,0.024421954505445456
25,0.021098257425865775,0.020913014042866728
26,0.020704006658588573,0.024879986421743903
27,0.042692538325508816,0.06899722537941695
28,0.07087698479374345,0.0697298839735345
29,0.06880755461365294,0.06913368790259772
30,0.0691271965577305,0.06854000354763458
