epoch,loss,val_loss
0,0.4956470511371283,0.49679891373477025
1,0.49086230933713876,0.49526032605506154
2,0.49085144263853747,0.4944642702001423
3,0.49085080242461915,0.49435857411153505
4,0.49085075265879063,0.49432206525516587
5,0.4908507333861457,0.4942985291592042
6,0.4908507274304458,0.49430344430781203
7,0.4908507249766974,0.4942963906602777
8,0.4908507208077075,0.49429141797695747
9,0.49085072180826506,0.49429755285676297
10,0.49085072240383504,0.49428412624015144
11,0.49085072173679667,0.49427668749110004
12,0.4908507313612077,0.49427293853771054
13,0.4908507391989088,0.49428438862760704
14,0.49085076561839364,0.4942954147577098
15,0.49085077245553715,0.49431341985312616
16,0.4908509063158485,0.4943141668399865
17,0.49085091782226076,0.49432605121581685
18,0.49085132066580317,0.4942616902427026
19,0.4908514328473668,0.4940978761441894
20,0.49085167410085906,0.49386986781973113
21,0.4908514338002788,0.49364894094576306
22,0.49085211067748585,0.4934859335563648
23,0.49085129558039514,0.49328213017477984
24,0.49085156842291977,0.4931114032782244
25,0.49085196664483904,0.4927844342370624
26,0.49085132066580317,0.4927823152613621
27,0.4908517871876891,0.49271156198412014
28,0.4908512530805205,0.4925271498234891
29,0.49085179993288697,0.4923734448514967
30,0.49085151067645333,0.4922859845616823
31,0.4908514210789038,0.4922134360414654
32,0.4908516001548889,0.4921177042311538
33,0.4908517749665929,0.49202220439440447
34,0.4908514558125457,0.4919586435913005
35,0.4908512680650615,0.49192187754582867
36,0.4908516947552264,0.49190012533173566
37,0.49085126863680867,0.4918283278441561
38,0.4908516813906358,0.49184955944672476
39,0.4908514053320332,0.4917536699922422
40,0.49085126968501186,0.49173001894446555
41,0.49085157471213886,0.4917117288569907
42,0.4908516270270069,0.49166182906682226
43,0.49085124424226184,0.49167822025004765
44,0.4908512011229944,0.49164411140974806
45,0.49085169737573436,0.49164972887701563
46,0.49085122163442496,0.49163659626137296
47,0.49085150391077825,0.49162988848072764
48,0.49085119221326734,0.49157742477347743
49,0.4908517536451872,0.49097177489780497
50,0.4537523258790124,0.4524287040909163
51,0.4512813049111721,0.4525710750303592
52,0.451270844057786,0.4527026437217077
53,0.4512747544274151,0.45251811545668574
54,0.4512719999876716,0.45258123268268197
55,0.45126698054760384,0.4525361377701763
56,0.451268920199953,0.4529290483895492
57,0.4512752926082825,0.4526282939604162
58,0.45127351428393264,0.45277575850957197
59,0.45127830154699483,0.4528083312247998
60,0.451266693459045,0.4526122217820024
61,0.4512771810892579,0.4528255467350876
62,0.451271914439998,0.4525394484624208
63,0.45127720862841436,0.4526330512061115
64,0.4512711759808538,0.45246457220911507
65,0.4512683006165792,0.45246094201809794
66,0.45127268267764176,0.4523905670680488
67,0.4512656953075616,0.4522720990730442
68,0.4512761228090282,0.45228946314802676
69,0.4512742115534562,0.45225025648758366
70,0.4512694332715895,0.45226402593675147
71,0.45126836712983587,0.4522011234662433
72,0.451268818643358,0.4522003556154051
73,0.4512697943775869,0.45209048496707743
74,0.45127147836365,0.4521115487404668
75,0.4512719994873928,0.45218217892729584
76,0.45127324086966086,0.4520961274852316
77,0.4512716752829121,0.45208614255465573
78,0.4512692688228034,0.4520819161525371
79,0.4512708742174504,0.4521832994193474
80,0.4512690510824144,0.4520853712460895
81,0.45127002179003256,0.4520849310326219
82,0.45126651726561867,0.4521190068716126
83,0.4512706539518446,0.4520887759085612
84,0.45126687994392084,0.45211020399005564
85,0.45126974692257,0.45209511782865214
86,0.4512669058154813,0.4520816665845493
87,0.4512687936055956,0.45207970899301153
88,0.4512695955048553,0.4520811479488695
89,0.45126534156280934,0.45208552183367273
90,0.4512656028750989,0.4520808118200716
91,0.4512637768098586,0.45209938010175865
92,0.45127165698700195,0.45210333294349103
93,0.4512633201744345,0.452080176421386
94,0.45126651967172143,0.4520863529115374
95,0.45126715464462386,0.4520959341347265
96,0.4512683941210679,0.4521361484759044
97,0.4512684154186508,0.4520873806329816
98,0.45126596884094744,0.452079204635161
99,0.4512666764019205,0.4520776014019395
100,0.45126389218367735,0.45210590826872304
101,0.45126560211276934,0.45208236457516854
102,0.451268082900013,0.452096097800519
103,0.45126467933662406,0.45207998238874403
104,0.45126731385239405,0.45208782192845937
105,0.4512672103899751,0.45208727245549096
106,0.4512662839689415,0.452125462261635
107,0.45126623541807576,0.45208663446938985
108,0.45126371294093265,0.45210331657220737
109,0.45126484821645096,0.45214269289654263
110,0.45126716865243005,0.4520808204291087
111,0.4512656546658654,0.45209939487354905
112,0.4512663634418012,0.45213578381496994
113,0.4512660726368856,0.45208802668711473
114,0.45126600733859173,0.4520843391730829
115,0.45126252299208913,0.45208779400789373
116,0.45126299594613095,0.4521084846289212
117,0.45126441292625535,0.45210021997683614
118,0.4512651073608658,0.452124947201293
119,0.45131686217874456,0.452708371624574
120,0.4512943444396857,0.45222901933383264
121,0.4512666239441156,0.45225006687707003
122,0.45126660271800106,0.45234729658926953
123,0.4512643826951226,0.4524270801818926
124,0.4512650265062837,0.45223858166888836
125,0.4512654435482147,0.4522649576886018
126,0.4512644775813337,0.4521272768161385
127,0.4512634468402603,0.45216822247855193
128,0.4512649580395574,0.4521644486859735
129,0.45126243591975634,0.45208504937159893
