epoch,loss,val_loss
0,0.15993604328420807,0.08808536262449168
1,0.05966285251968389,0.043910220691724
2,0.022342612889843235,0.015681796143420964
3,0.014962066114946401,0.015932997942247208
4,0.015174671619695773,0.015539981316754502
5,0.014999521541134488,0.014862510170596458
6,0.015075410630622451,0.014917252173657575
7,0.015256533166951984,0.014516903204371493
8,0.014558190963030767,0.014063517327825433
9,0.014526357796850155,0.01367208600447064
10,0.0140080644937454,0.014753126193811174
11,0.014036711404021147,0.014913260601549141
12,0.01436390596881902,0.013760863418155
13,0.01420213791060088,0.014490939434191422
14,0.014703938668276623,0.01437815753544586
15,0.014177065672833833,0.014026247431695367
16,0.01447099694486359,0.01640415874816295
17,0.01476074787762037,0.017120884251416953
18,0.014734200739430534,0.014523717693120077
19,0.014837763230908189,0.015118223066635036
