epoch,loss,val_loss
0,0.1575861161323093,0.0820619352661726
1,0.05691283436821138,0.04321005963077203
2,0.03769971601528039,0.03030314404537994
3,0.028061758214645058,0.026525446248329712
4,0.026888979829663186,0.02746410644668336
