epoch,loss,val_loss
0,0.20481599823271723,0.15217364585907703
1,0.10828746790341813,0.09619189905268806
2,0.07564313262760591,0.06245846437450554
3,0.05436613944044216,0.02757977243239426
4,0.023204454208919995,0.016205526484086838
5,0.016805692067776296,0.015608003063108286
6,0.016900420312856813,0.01649065568437469
7,0.016767240738381536,0.01570824087518778
8,0.016691114241294533,0.016025485654656304
9,0.01593497250233587,0.015811987148469937
10,0.015601224976209856,0.015192435591995434
11,0.01516921387026481,0.015938880371154766
12,0.014933955278709162,0.014774358679923423
13,0.015223372001781595,0.01538738581089519
14,0.014859821580404,0.01435624041992233
15,0.014464826798059053,0.014306838042010871
16,0.014304961817864652,0.015839998553717993
17,0.01497077487288512,0.014427781954772283
18,0.014642199331657777,0.015069175674047117
19,0.014600345807940625,0.014518228791001375
20,0.014491729659782493,0.01396913915922558
21,0.0149075112158178,0.014524165335116466
22,0.014416454674424432,0.014454729998397517
23,0.01490190038554293,0.014039381601992515
24,0.015278846164681404,0.016010775091163314
25,0.01515579147846531,0.014758404462665155
26,0.01540791963358863,0.015995497737394466
27,0.014653435007086118,0.014043648005408053
28,0.014860600878899212,0.01491286853973731
29,0.01502844200787439,0.01579443725221441
30,0.014887257796272242,0.014952751677027582
31,0.014706902086830063,0.014161432002418936
32,0.015003262801642278,0.014722673295928723
33,0.01535032783857555,0.01455916377518035
34,0.015786150347539704,0.013529509688185818
35,0.024230378630052177,0.03653066833492519
36,0.031381521101513925,0.028793443604456972
37,0.03068455467395169,0.029092238214816647
38,0.028868787225892693,0.02842539762629706
39,0.0294867163437674,0.02852724447417137
40,0.03018920666588058,0.030232729147693354
41,0.030172331205053294,0.02958546567711194
42,0.02949113827451861,0.027722589293790314
43,0.028670793222032673,0.026644735208226644
44,0.027726505491450774,0.027266835114656232
45,0.027156277661688988,0.025771930727052143
46,0.02657459028136673,0.025255106435096347
47,0.024880295653613826,0.024682763508199798
48,0.024152923530216315,0.02327965830482878
49,0.02320701130952457,0.02238548784601284
50,0.022452429619630416,0.02506524378076584
51,0.022133691547562083,0.020447786652645496
52,0.02098417409407578,0.0199370159802116
53,0.020641783481652885,0.01947208324001827
54,0.020623162903225155,0.020283326561009216
55,0.02047934293892863,0.019387952823136018
56,0.019717417032771307,0.02066524279316345
57,0.019547603281436683,0.020435604760048423
58,0.019976670077319243,0.019233675329595357
59,0.01988796008040579,0.020415589764667195
60,0.0204035091421587,0.01991997718893362
61,0.02015103334389764,0.02009598669855493
62,0.020178198917872377,0.019585280347653704
63,0.02023896749550514,0.01985558756166259
64,0.020747899671169304,0.02114730369043849
