epoch,loss,val_loss
0,0.16592907765024095,0.10664613438504082
1,0.09286534173978414,0.08816424303268389
2,0.08513748581460912,0.07898953067169663
3,0.08184517560292967,0.08256250862752534
4,0.08120337854639041,0.08078622478100853
5,0.07710277175398277,0.07507242018323107
6,0.07260731155042359,0.07243209710343203
7,0.06997528322916523,0.06887096918137316
8,0.06684177291455219,0.06510038327516866
9,0.06408560059541803,0.0629132411309651
10,0.062290258169603006,0.061449912792011424
11,0.061022930871620834,0.06126426102412716
12,0.06019439687617391,0.060636619463174855
13,0.06002035355277294,0.05928583056816644
14,0.05928113519383087,0.059680478166621226
15,0.05886046323094436,0.06038892965972565
16,0.058615698579618396,0.05880685904208091
17,0.05861414607158668,0.05828472228622286
18,0.058485696909667775,0.05758848608175224
19,0.05769503360791363,0.057010154671314296
20,0.056931848029533834,0.056443849541746735
21,0.05667467268822576,0.0569819513276137
22,0.05680878085793732,0.05770261753600417
23,0.05682572072072566,0.05655236061788866
24,0.05665083056826481,0.056120020094097556
25,0.056390825941932385,0.05584287592860405
26,0.05630838212004002,0.057153517702313604
27,0.056243550827463185,0.05756414001006354
28,0.056184758900476396,0.056474466961768076
29,0.05588301603230451,0.056017654841352654
30,0.05538762537397736,0.054835221988179125
31,0.05481484297701685,0.05470744378117943
32,0.054788232254658,0.0555512174734612
33,0.05423724575699281,0.05475600400752878
34,0.05423703612231141,0.054860832726828394
35,0.05378139061000135,0.0539111978247256
36,0.05365948696180785,0.05348265789678554
37,0.05321616953689989,0.05470813967540401
38,0.052991325329009485,0.05358011072652963
39,0.05283138926902549,0.05314647196406159
40,0.052582083301221154,0.05249469440015828
41,0.05244817895342787,0.0532630293202993
42,0.05252346489057362,0.052305618561245645
43,0.052263475070111184,0.05338669046406776
44,0.05242273528322423,0.05303775285089119
45,0.05240236220361708,0.053103388840628124
46,0.05232798281333429,0.05202493601976273
47,0.05229973855266849,0.05249277015981847
48,0.05206366370526626,0.05305364568318639
49,0.05242138805030157,0.05261023694262697
50,0.05237387931890053,0.05374905704605175
51,0.052575906588257455,0.052301897610748674
52,0.05280972159892726,0.05246106611348648
53,0.052545519675210796,0.05170222321832472
54,0.05283680182995556,0.05338793464634206
55,0.05268437559787127,0.052417712975602125
56,0.05283085814566254,0.05312876209569617
57,0.05273788861578984,0.05300509544190875
58,0.05304780994637979,0.054352784913030305
59,0.05306716911869941,0.05342030384663813
60,0.0534116564829239,0.053399700977219876
61,0.05309390265652411,0.05400197283491998
62,0.053320984212424066,0.054175946805640855
63,0.053730182147188055,0.05338621196273094
64,0.05392134534440738,0.054007309544081755
65,0.05403566036483557,0.05451662548844891
66,0.054265464932250554,0.0542608226143006
67,0.05398677755221665,0.054976870918142205
68,0.05405874818944626,0.05262694765990798
69,0.05394171729540939,0.05427058279255571
70,0.05400072492593579,0.053444933134477346
71,0.05479622881511133,0.05344858514799221
72,0.05478045718966247,0.054865913675846596
73,0.055834160187094806,0.05673689758015507
74,0.057409716098547746,0.05791740439649915
75,0.05737120182298833,0.05765066859213122
76,0.056742919116116446,0.055781656771827705
77,0.05547696017890239,0.05519979101059563
78,0.054324878265055346,0.054128295423693795
79,0.05382205105478243,0.05270006526452684
80,0.05159258752239408,0.04976455429194006
81,0.04681246218790444,0.04489459250278142
82,0.04495448915721129,0.04374129760895739
83,0.04499352210276514,0.046574781330533166
84,0.04702429779225307,0.04705192278056231
85,0.04632283899066546,0.045613629653779374
86,0.04629144067470309,0.045398993469074944
87,0.04634783077213785,0.04485653963266345
88,0.04611875274055582,0.04641182517196216
89,0.04651850611745692,0.04724072958412562
90,0.047006025877621156,0.04629965095347839
91,0.04674735100423213,0.046257227232889955
92,0.046468849823200445,0.047522867317498906
93,0.046323423754039715,0.04827368093894143
94,0.04610034155188133,0.0460290285804983
95,0.04586875170385904,0.044873765833681745
96,0.04538896507460722,0.04587441485819143
97,0.04559921157612599,0.04619051193805219
98,0.04522430234485202,0.04452697189426272
99,0.04556570458505079,0.04458888162342036
100,0.045630482606869714,0.045430772459309404
101,0.045613386127040634,0.045516748390003935
102,0.04627363527004572,0.0465815605885322
103,0.04571785755771146,0.04654152752227358
104,0.04616153978115077,0.04726465552421941
105,0.046508117771739486,0.04709039174531893
106,0.04619716390145483,0.04632068332505207
107,0.04677829945342337,0.04633045724895213
108,0.04660535232721568,0.04738455347205206
109,0.04726035221160459,0.04696930011979877
110,0.047737919791734855,0.04885572503484791
111,0.048128448778109775,0.04925087251904073
112,0.049516018146543286,0.05016460710432272
