epoch,loss,val_loss
0,0.4905376361580346,0.3751265757767729
1,0.23760774485238895,0.173481502389723
2,0.1360900459561761,0.17773942198864248
3,0.12809361071567835,0.1638092412505039
4,0.12650374522594016,0.1508207460937574
5,0.12359047651760222,0.14255699746368466
6,0.1213926740988033,0.14107760463574137
7,0.11935459188823624,0.12827937455140342
8,0.11188176837493116,0.11385074205869852
9,0.10275795299002505,0.10077676841223887
10,0.09374716021413879,0.09321425653012223
11,0.0892011561379658,0.08921750513620155
12,0.08611125352345114,0.08517432264810385
13,0.08250650933643025,0.08183123026938402
14,0.07940046471638942,0.07770137893137082
15,0.07707337424980373,0.07583600028540737
16,0.07402039859003907,0.07276192272818366
17,0.0713749891073685,0.0711272652297057
18,0.06925112413843786,0.06789115894325944
19,0.06732820728280413,0.06611384474491888
20,0.06664228087335121,0.06572051412721937
21,0.06626360769581607,0.06422662114103635
22,0.06398399951537763,0.06142790153507115
23,0.05718079977852153,0.05217246792113134
24,0.04616682557022478,0.04120399534355763
25,0.038167756285489074,0.03735204861145611
26,0.03913580702515099,0.039287346971127415
27,0.04077074610752853,0.04243931174278259
28,0.043091799653186574,0.041411189983288445
29,0.043590282654668404,0.04221546179217885
30,0.04326895234270359,0.04185756994772327
31,0.044860087833770615,0.042141546978968984
32,0.0439388069991521,0.044095952006042466
33,0.044000047603695414,0.044665892890026405
34,0.045718866070424476,0.04309443095626757
35,0.044510936437864,0.04390628653210263
36,0.04462879588167498,0.041918739705353744
37,0.044156390234945324,0.04266065844269686
38,0.04499978595596599,0.04283836850708769
39,0.04374670190369989,0.04210678918301597
40,0.044247031270519016,0.043320371141267376
41,0.044709369716212505,0.04239347135258276
42,0.04344623456672421,0.0413517531498458
43,0.04379358694074661,0.04285793765917305
44,0.04402905922588401,0.041576920784721076
45,0.04321546113397193,0.04142618820417759
46,0.04376046556070095,0.04211225175811339
47,0.04240108736035392,0.041465802045986634
48,0.043841387519216915,0.04209679033058558
49,0.043545048859879726,0.04115848794810532
50,0.042799797994414655,0.04066701395105022
51,0.042447633425316475,0.04054509998522988
52,0.04265225974945572,0.04138615131089392
53,0.04226772340498571,0.04056114717855934
54,0.04215986580829921,0.040620018951883614
55,0.042211492905231913,0.04069158697659655
