epoch,loss,val_loss
0,0.1456809789061451,0.10303753109879633
1,0.09497896099476505,0.0869978530583837
2,0.0787807156165822,0.07064909355651702
3,0.06410322411002206,0.061946690952862545
4,0.058279548811135916,0.054012887062241735
5,0.05025386576541513,0.04644008579751405
6,0.0475772402489738,0.0480968315321908
7,0.04648429842339717,0.050199386884988345
8,0.045552894574322766,0.04799390572763468
9,0.04525798488018229,0.046903423964977264
10,0.045844822014264354,0.04698853259693005
11,0.046791916726518876,0.04739368486717261
12,0.04868768844947064,0.04973363784607132
13,0.048213407004194006,0.05127823261372104
14,0.04805692815058809,0.04757957125483955
15,0.04594033531886306,0.04320132436014671
16,0.044471505430819604,0.043244033496188855
17,0.04407148272227898,0.04539894014773354
18,0.04365597747498565,0.043207420960903735
19,0.04361155306656869,0.04135440352601429
20,0.04343917809551854,0.044914087676094006
21,0.04417734162853681,0.04220901666930932
22,0.044964655727553045,0.04403961163187648
23,0.044442061174044506,0.04367791262367812
24,0.045267308727919245,0.04790069711789336
25,0.044718095620306465,0.044962707465924706
26,0.04289067591384923,0.04509587408923312
27,0.04290252800384681,0.03950661351138339
28,0.040921001287875514,0.04294918905928931
29,0.04074972020767385,0.04249872942914526
30,0.04115890372666619,0.04381595043011227
31,0.040834352743330235,0.04050281476273533
32,0.03960552337548906,0.04048917331712963
33,0.0417746286556351,0.040819235860525195
34,0.04391225941961618,0.054832731594861545
35,0.05025821385516537,0.049772509747870626
36,0.05217211535997052,0.049344531447871424
37,0.0520879297549252,0.05222277367677196
38,0.05171985027911089,0.05269973535434694
39,0.0519011085071295,0.0462713520724
40,0.05269052052228666,0.05361058639734395
41,0.0510146712525476,0.05280610727000726
42,0.051060330926728764,0.05347852371250821
43,0.05306740990169138,0.05399356463419799
44,0.05240283706943861,0.047768569247828005
45,0.050954135267330496,0.04885464582677516
46,0.05315860043719804,0.05519368154626713
47,0.05146373748529157,0.05170473767166638
48,0.050767516090477305,0.04869738141487881
49,0.0516350267769145,0.05917380101561264
50,0.05257516107756457,0.05486678390307227
51,0.05278440963009374,0.050718515099929654
52,0.05389182311263111,0.056284883116160964
53,0.05705459316154655,0.05615737626436383
54,0.055147540291769805,0.05524484167535566
55,0.05537981520310866,0.05624465706692781
56,0.05439105443805337,0.055234143435484606
57,0.0549156696860977,0.05115548640066183
