epoch,loss,val_loss
0,0.17889576083083422,0.11906733793730612
1,0.11250775431891044,0.11101310246204332
2,0.10906465926306616,0.10769500213527454
3,0.10740894613434657,0.10724033888696965
4,0.1029794058806414,0.10044489770351477
5,0.09636559085451442,0.09121964802493612
6,0.08417235800831152,0.07957135551942082
7,0.07738352886778559,0.07597765104217424
8,0.07349856156739686,0.0715489794618517
9,0.06818974525820341,0.06222453925408711
10,0.058906377940107404,0.05512028608556422
11,0.053541482304878756,0.050621348608876175
12,0.05440676691149064,0.051884625748023334
13,0.05728177643186754,0.05358419695835275
14,0.05484381697768216,0.05391915995207187
15,0.04910041476718242,0.048472331385492055
16,0.04856258387462222,0.046358465016382175
17,0.06410320245509715,0.06031478097002245
18,0.05866901116143409,0.05207351880073077
19,0.05336419639470194,0.04728435264237302
20,0.04882994463010658,0.046313431772573216
21,0.040662127909519306,0.035836855865479834
22,0.036402717042121766,0.03363446299436531
23,0.033158759453254256,0.03713407508011587
24,0.03328337864302617,0.06151347523871236
25,0.03897517192796123,0.03243524562670381
26,0.03441484843333848,0.031334325953459495
27,0.031689993292688845,0.031006096658644566
28,0.03067289752592381,0.029458572648483276
29,0.03214832971380245,0.03586093415142329
30,0.038686491315253826,0.033723818369050994
31,0.03159019012870691,0.035191187201378
32,0.02949399211191588,0.027904021164847814
33,0.03263576270686351,0.028052112183165345
34,0.027046196622778473,0.02424880320054862
35,0.030513702870177614,0.03109084849481801
36,0.03679470956283841,0.032182957306680665
37,0.034765901197370386,0.0345960061970713
38,0.03240487200441025,0.029160590830605237
39,0.031191522064957497,0.030812130133961727
40,0.029595991176702707,0.028560379753808103
41,0.03805410055716118,0.03577107593899368
42,0.031492911286646136,0.02800348397982384
43,0.027564914106465072,0.025371672378319308
44,0.026323929895087778,0.02460564858182359
45,0.030465636607840192,0.025516027333281035
46,0.024996769113494435,0.0238831428209674
47,0.029022956883414185,0.027722636721410805
48,0.0308575580040995,0.030655309427073837
49,0.02718806430119738,0.025617566071421308
50,0.031108719723330413,0.08551454071276002
51,0.03367506335604844,0.0269053134340984
52,0.026620352512700476,0.024731431368094497
53,0.02634474583309617,0.029932827105850053
54,0.025139727838915125,0.0245244049150335
55,0.024423808932191225,0.024081951517379463
56,0.02484989695274811,0.025406082402606035
57,0.029482932770989543,0.029903355509560223
58,0.030926508849842563,0.0298877839431249
59,0.027018468804675327,0.023480626265647002
60,0.022568170680291506,0.021984289092288868
61,0.022385889950910395,0.02000313274409466
62,0.020639675939611964,0.0208831912710757
63,0.039221667467976076,0.03342621788182593
64,0.029180770294724417,0.026953410142598985
65,0.02802709703572648,0.025581114405755837
66,0.026733086890370534,0.025245968855170633
67,0.02474745798060934,0.023496438267669437
68,0.03274739731540926,0.028383245327066698
69,0.027104222793414963,0.025641887246586247
70,0.025909877498354987,0.023178152265152126
71,0.025327404654271406,0.02170478750899399
72,0.022050918314418348,0.025129724906988282
73,0.02269382255343939,0.020734725121611577
74,0.030603035892859447,0.028521561661430862
75,0.026220219690712997,0.028465433166771775
76,0.023562540532462744,0.021692207721139185
77,0.02541391224898904,0.03092321758353296
78,0.018798154737833115,0.018528433440175223
79,0.02041667140350282,0.018328266155089368
80,0.017488788410598376,0.01455382397582118
81,0.015540143514765228,0.01567431968940391
82,0.01486987616609243,0.015018165425780423
83,0.03508348264571407,0.01578540862306376
84,0.015349081775127388,0.013099811654376202
85,0.013095096903864286,0.012157715809985042
86,0.012050583749245718,0.014217140854298833
87,0.011619594418626132,0.0099617212771158
88,0.012767561444481143,0.011732289314728698
89,0.012004325973341981,0.014090749836470212
90,0.014545316066441062,0.011042499176763886
91,0.013782142434078607,0.012684164702562997
92,0.013590279914108183,0.011076352911859445
93,0.013100594345429581,0.013895369202468982
94,0.013485108932508505,0.012206875014941384
95,0.014699513749252978,0.012562285959514795
96,0.013673205966789493,0.014303085815393746
97,0.014812316609655233,0.01317909754806837
98,0.01780404130608844,0.027055626038253167
99,0.01760157259988139,0.01484356341029399
100,0.015423705827423946,0.014375339553271726
101,0.015638480251051967,0.013862725994134382
102,0.01588733072729884,0.01824098229393563
103,0.016381684664657694,0.01619096894931539
104,0.01722120336754967,0.01808375977538379
105,0.017928291255865786,0.01664698789750344
106,0.017675415789939277,0.016131628087141803
107,0.02319387958603178,0.0216667895626509
108,0.02179762054991117,0.020477141510186557
109,0.022046910711287927,0.02112185506586753
110,0.025612148205391604,0.025054406379103285
111,0.024135756091945033,0.031508349082134984
112,0.027904560908579904,0.02863491853315386
113,0.022158984429121828,0.021844441035869747
114,0.02171492525156763,0.021558341060801105
115,0.021675121800737274,0.020395409811255774
116,0.02113656433437654,0.019402453305395268
117,0.021853091838441308,0.023019241690988512
