epoch,loss,val_loss
0,0.14364973048893193,0.0976447012296039
1,0.08746075845188755,0.08108576960514734
2,0.07865882634842615,0.07606395800916248
3,0.06817058701928762,0.0604891621264399
4,0.057942294031024265,0.056668497736682644
5,0.052719636890980644,0.04942585034523785
6,0.04589582151836819,0.042876940464634736
7,0.04106018898024452,0.038103611003416395
8,0.0364897985154276,0.03581438300324032
9,0.035294674055503426,0.034441623822054526
10,0.03354617879300904,0.03561287517670392
11,0.032419768082414216,0.03344893336719477
12,0.03266435122634057,0.03260866932470966
13,0.03293136400814584,0.032697024972022946
14,0.03233983948808923,0.03252456532151753
15,0.03167802307585017,0.03293282727122119
16,0.0314614762969726,0.03192224707263327
17,0.03146162610813725,0.03139670729496014
18,0.02973443430235727,0.029440681058281317
19,0.029550184480113376,0.030062927112524306
20,0.029829443281264804,0.029597185732945272
21,0.031716568517587265,0.031939083961703786
22,0.030956597985337963,0.03278140567872312
23,0.030873352855289107,0.03279045834878626
24,0.031200829066997237,0.030467058892855045
25,0.03094107463961835,0.03029433331483918
26,0.031513024307638526,0.030099780449457027
27,0.032424439466912015,0.036188136530421154
28,0.03361337820885422,0.03561210345944365
29,0.03560189967550677,0.03703422112288961
30,0.03609287445481828,0.03547615913678646
31,0.040010179760013455,0.0418923535423196
32,0.04635746326211164,0.05233467975962134
33,0.05132445917545939,0.0566808112441976
34,0.0506308485033939,0.04332418581316484
35,0.044349498333607455,0.04153679135154812
36,0.04340484949777262,0.04379002047201358
37,0.04261455196383998,0.0407657894763828
38,0.0424786438312319,0.040820300226241654
39,0.04106566532374286,0.04116143770486516
40,0.04308471451703307,0.0419048053442538
41,0.04203071483789826,0.04052935190933985
42,0.04588728903425778,0.04553827187950534
43,0.04334945282746228,0.04225376135454276
44,0.04223797824099767,0.04661266027928434
45,0.04233782741722824,0.03791425613526199
46,0.038795693015916455,0.04406850587138531
47,0.04189654106912996,0.043733355210654454
48,0.04076338943085082,0.039314937134638676
