epoch,loss,val_loss
0,0.151931773740158,0.06320633103552067
1,0.06084335628721259,0.038775897548837555
2,0.024808029570489477,0.02489823210858038
3,0.025339697168277893,0.021210763851899562
4,0.019969348002859443,0.018299390312692926
5,0.01711081842043929,0.016138643519578014
6,0.016303446240273477,0.015124407899731384
7,0.01696429486951525,0.01622721943460352
8,0.017052289726827548,0.017350433978686533
9,0.017860006602804103,0.018143083482698465
10,0.01803977417199017,0.018170190137100202
11,0.01809628644018627,0.016309251454559574
12,0.01810835957896414,0.016364721704830124
13,0.01806155656748038,0.016741007210682394
14,0.01809531739941961,0.01894756907342853
15,0.017886758993396895,0.017095447237873134
16,0.018189390859217475,0.017249359867602423
17,0.018997737626395495,0.018005669144906204
18,0.01885297776554986,0.01723410210174515
19,0.0184781234167951,0.017773637655407966
20,0.01830056985709176,0.018423415071403736
21,0.01802460189728583,0.01827948530011273
22,0.018298818235494774,0.01774292054785314
23,0.018401239040515407,0.019533896595298444
24,0.01878457203534224,0.01686914518457891
25,0.01805576388102522,0.017656366043116226
26,0.01789755099188748,0.017015572299926462
27,0.017715457804518924,0.015821280758372188
28,0.017259282587791424,0.01635486059531793
29,0.017424672323135403,0.018470321287237104
30,0.01714504755985775,0.018234714933310144
31,0.017257832685302343,0.015832694413488835
32,0.017189707071762338,0.016261959226468274
33,0.016866099772800645,0.01763344262656774
34,0.017390167989807543,0.0162456831847036
35,0.01739285025689051,0.014896447985670467
36,0.017365545054881287,0.01635800405231252
37,0.017359456118884134,0.015745297416856464
38,0.017519120072244668,0.018295466286095702
39,0.01709648474141193,0.015038821334644105
40,0.01713203582547897,0.01680363187068028
41,0.01694817109953621,0.015906711308184156
42,0.01638232049257528,0.014286727144661482
43,0.016542845930856503,0.01570801101713173
44,0.01655175040463368,0.01651874162115586
45,0.01637081567795097,0.01661630887347079
46,0.016777163458918092,0.015989071638091823
47,0.016607837624204674,0.01788404785778782
48,0.01708162505310669,0.01684854862198598
49,0.016641871590497827,0.017825295199693756
50,0.016862051042584446,0.01499343755924758
51,0.016582945706047337,0.01625664099307044
52,0.016581437935744472,0.015710705653091725
53,0.01694946397069118,0.016558760899135987
54,0.01667015079586066,0.015321489411752433
55,0.016560358404785657,0.015336298984317395
56,0.016301208090477828,0.01551873582814421
57,0.016604482449388665,0.016749598419598076
58,0.016808557683686845,0.017795223485452035
59,0.01661991443392708,0.016829331107025978
60,0.016497046021903924,0.01592912328162693
61,0.01665997887543923,0.014864979911266276
62,0.016773514436940543,0.01614448176763052
63,0.016298704563999632,0.015471195751373328
64,0.016148226914092078,0.015135546518458845
65,0.01640536958875833,0.01715277820228707
66,0.016267079807115163,0.013418498896679825
67,0.015847258918213664,0.014559540000833107
68,0.016204904169320678,0.017338815670028245
69,0.01607641737668408,0.014376881594116188
70,0.015919046248677824,0.015057865110532496
71,0.015744967447172444,0.014293486807398328
72,0.0158457291654224,0.015288114157411981
73,0.01534883913246812,0.015624898962159042
74,0.01577428863685337,0.014135973822419556
75,0.01563519423940687,0.013182262964282059
76,0.015468137457499281,0.01470243214058448
77,0.015092752607752212,0.014440363417831621
78,0.015633305022157998,0.013644145099679927
79,0.015390836025516002,0.013187543018599758
80,0.015349971839590824,0.014018719330071322
81,0.015820396429807735,0.015727216058837774
82,0.015746895822403816,0.015221334616017794
83,0.015558209771262132,0.014387607088587419
84,0.015402687589550833,0.015065751051722828
85,0.015320484655991876,0.014300284014857464
86,0.015501740908951496,0.015189335187536906
87,0.0157102688404022,0.014043970193034707
88,0.015520453665235774,0.016054180172149272
89,0.01519863053986566,0.014296741901816772
90,0.015117064174220003,0.01661416615970321
91,0.015377589316069366,0.01460361648674381
92,0.015395089434526808,0.01504017925367712
93,0.015034780399479288,0.014898176915096832
94,0.015116116755249666,0.016624275121570293
95,0.015508252373568232,0.013041895213694957
96,0.015574834675793882,0.0132900484445804
97,0.015486505335579506,0.018309082781518174
98,0.015312902062839502,0.016576213307161216
99,0.015639898947162403,0.014418139387048551
100,0.015455647165865468,0.01483554299700279
101,0.015427827781853939,0.014904815578670039
102,0.015205595708213194,0.014329341630544733
103,0.015118034376348143,0.01383616040360062
104,0.015682313860365026,0.014575198328015177
105,0.01561955689749629,0.015477283770290527
106,0.015536467737550262,0.015476425543674448
107,0.015833787105644016,0.015538168425694544
108,0.015835085406536154,0.015093732835473559
109,0.015446372193952116,0.015542855833957725
110,0.015868645840712327,0.015749351213367888
111,0.01587496033656023,0.016317400436674928
112,0.015992422862876235,0.0160534174770305
113,0.016058897731347766,0.014153524602586206
114,0.016142684468652586,0.014439824683372675
115,0.015695600747335538,0.01271991028385009
116,0.015978816599264253,0.015892495463683837
117,0.0158260802877583,0.01490242831738285
118,0.01552461084725855,0.014732831362090953
119,0.015784117819028172,0.015310264103579163
120,0.015684468102165693,0.01402001727913413
121,0.01588836162694269,0.014398509641666769
122,0.01577434711289301,0.017405323540143545
123,0.01562832306354321,0.015613997266161084
124,0.01521618207685834,0.014023001912184465
125,0.01501795091739983,0.01386299371078387
126,0.015132951583314262,0.015572498278323363
127,0.01522783166040286,0.01534972734963955
128,0.015125978232951734,0.015922715041371858
129,0.014928412468483051,0.013213270460714858
130,0.015368245686847363,0.01416658617529633
131,0.01513428063795185,0.016185486620849242
132,0.015300554738154443,0.016022269260476403
133,0.01514355298377377,0.015902043467985898
134,0.015391732183404916,0.014882378434525669
135,0.014887823953295498,0.013829264853034984
136,0.01534992733897327,0.013011562873204345
137,0.015015693995982503,0.014330718447266834
138,0.015054012183844447,0.014813367936733724
139,0.01469152482363472,0.015915765904842772
140,0.01507315256198843,0.012627726157240705
141,0.014683061072395908,0.01286865908640783
142,0.01578159037520357,0.014056617603582148
143,0.014788256658108638,0.013641824763512273
144,0.015172364491728142,0.014055304549746185
145,0.014644931741267277,0.01300107820831304
146,0.014447875095711504,0.013797004954138183
147,0.014058384804247166,0.014216922242679555
148,0.013693892176625588,0.01283744108828627
149,0.013370410742820334,0.011958659520694706
150,0.013003234404975252,0.017030196287908136
151,0.014177894622510333,0.014494434726772198
152,0.014898953333997326,0.014381759370741123
153,0.01569555906153066,0.018449643888490918
154,0.02009132075057232,0.022560500549395065
155,0.022907285289250786,0.023095618623243417
156,0.02503133388675398,0.028900578691555743
157,0.024462297711399295,0.021267777961556048
158,0.024604399638662903,0.023550417915210068
159,0.024465472022031278,0.02411462083876415
160,0.025304288666644734,0.026123655467472775
161,0.02561726262845057,0.025495107968550267
162,0.02526279526065103,0.022908309508400258
163,0.02544194558854226,0.024012856877863923
164,0.02554964112917439,0.026203463474419424
165,0.02633969887620587,0.02451915357588263
166,0.027156981359646143,0.027213266085548107
167,0.02713268008872235,0.024391239985306148
168,0.02756714341725758,0.02393742701466524
169,0.02703604318773289,0.025317315351814855
170,0.026743364868779405,0.026875032431018946
171,0.027059344757946847,0.027209866790493455
172,0.027742069875665135,0.02763397196615034
173,0.027839727808448147,0.02525600098990839
174,0.027757345494046678,0.03185959616212884
175,0.028993528662361115,0.027081224890962395
176,0.02980206523248427,0.030429307977068398
177,0.029654992982554588,0.029623517453458804
178,0.030322025871748547,0.031561023240354744
179,0.0304013247609877,0.03150102696965883
