epoch,loss,val_loss
0,0.6263161737808316,0.16494442529582376
1,0.0970163645206405,0.05446632015324053
2,0.038405228078627375,0.02907173983582193
3,0.025638889731298818,0.0235310509057029
4,0.0222073315496115,0.02134163669165703
5,0.020543444271889522,0.020020987745888983
6,0.01940838069015508,0.019066154699546197
7,0.018609846401646982,0.018401748989580087
8,0.01806605466567784,0.017913733121675116
9,0.017626355784825333,0.017529523527895077
10,0.017268583331135012,0.01718380297486389
11,0.01696520105754729,0.016865981138519347
12,0.016666849395431442,0.016580176461067554
13,0.016355845035700728,0.01625888794513556
14,0.016049790732878193,0.015956968151403395
15,0.015734162818131257,0.015611339382527376
16,0.01543776637879755,0.015331073590622657
17,0.01516096562751644,0.015089055636475758
18,0.014798102741815346,0.01459564956532822
19,0.014252491208980029,0.014146946228734837
20,0.014030601762288765,0.013990664673820668
21,0.013974802816460886,0.014002101594360212
22,0.013973954673424709,0.01404373869652718
23,0.013965413952581317,0.014120241988012192
24,0.013979090942735438,0.014101063424681667
25,0.013920409611607199,0.014053015847673498
26,0.013873697669475342,0.013961009360003067
27,0.013757413635097391,0.013746456999475784
28,0.013594675127961796,0.013591912350137354
29,0.01341945284547256,0.013375626093374997
30,0.013129196267464845,0.0130320903179901
31,0.012815040660550078,0.012650285543169718
32,0.012338498904318403,0.012188779856148158
33,0.011845279144767901,0.011731198862424354
34,0.01134864585347575,0.011021225666884559
35,0.010465454739733614,0.009813304122422706
36,0.009260373832888717,0.008733836787325736
37,0.008444152094221277,0.00813739761363218
38,0.008038868516055252,0.00790572579069491
39,0.007818929558481387,0.007770883603037674
40,0.0076694805104342055,0.007595753306765536
41,0.0074992755816566,0.007523234966324955
42,0.007433111423910926,0.007471014542289037
43,0.00735194650072929,0.007324582467115857
44,0.007258407232596529,0.007217873676938035
45,0.007202600575253951,0.007152635463011387
46,0.007167450600876201,0.0070762104691456836
47,0.007112543494310335,0.007013281180663733
48,0.007099387822575944,0.007039843902253526
49,0.007101648184898899,0.007087247643543329
50,0.007061713795028002,0.0070117620072065135
51,0.007058984715026989,0.007006055622522579
52,0.007022493984550238,0.006948759067059739
53,0.0070405323586935145,0.007061117192349546
54,0.006977002869332604,0.006954252530968415
55,0.00699569632654353,0.006989420495630369
56,0.006990144931920451,0.0069783702639726174
57,0.007002939436611511,0.007095663477141107
58,0.00698581089762201,0.006944241982773711
59,0.0070058987498265515,0.006991291514229567
60,0.006999531901142985,0.0070565199731586715
61,0.006997337448689863,0.00695542213319556
62,0.007001875364091352,0.006956349054591079
63,0.00700019260713582,0.006925512527151661
64,0.006967818225286514,0.0069683179356328315
65,0.006986437687020508,0.0069865858066171386
66,0.006979744815878826,0.0069240784590833045
67,0.007002431548295094,0.006946565256981089
68,0.007015691384476581,0.00708550371041473
69,0.007031074062519842,0.006960798960161449
70,0.0069685603952039776,0.006951473149432026
71,0.006973752129575808,0.007034848656596494
72,0.0069931329657538805,0.006985845608782279
73,0.0070031595898034284,0.006902291606332527
74,0.007025890851126824,0.006988458667279772
75,0.007018005356660111,0.006945014046615352
76,0.006989343394097283,0.006973931034799039
77,0.006975247682504755,0.006942725800648155
78,0.007011188710812661,0.006917035931922736
79,0.006991966620838042,0.006924150254350999
80,0.0069663053851940935,0.006910339484818944
81,0.006990179322365162,0.006943076492111539
82,0.006986637903134719,0.006963193307806397
83,0.006973633929777393,0.006887731086844968
84,0.006985535574176138,0.006907833288420042
85,0.007013950891477122,0.006964021802298437
86,0.0069747346771254146,0.006974956251154547
87,0.006966810333628139,0.006857820184888125
88,0.006979809054430369,0.006888663586987669
89,0.006982034596753754,0.006894535178520026
90,0.006968710758387566,0.00692480469001979
91,0.006979943503611546,0.006873117382369859
92,0.006991751048323824,0.006927640593721698
93,0.006998663995233323,0.006873885553327243
94,0.006978393656660994,0.00695015949394845
95,0.007007231623556712,0.006869962503993921
96,0.006959340574933018,0.0069399346243193185
97,0.006986841570577032,0.0068675462000701215
98,0.006961510201795496,0.0068659769939354255
99,0.006986952186908296,0.0069249047553747445
100,0.006968642169197234,0.006905986754342785
101,0.006978410623333366,0.00689105449748632
102,0.006975356525154137,0.006868784622404645
103,0.006954388681435875,0.006881794384324184
104,0.006983023942362585,0.006885823681979972
105,0.006986078294403524,0.0068643841824120155
106,0.006975192107263205,0.006880829595882025
107,0.006952633602182856,0.006831200730537771
108,0.006954284178258346,0.006917200541901442
109,0.006968541718501267,0.006929388792410599
110,0.006997421744549803,0.006859108529273412
111,0.006950586208244331,0.006938374562713816
112,0.00695163092473976,0.006892459392444699
113,0.006965450086384464,0.0069109845576453555
114,0.0069645514382685215,0.00683902999225948
115,0.006963359850118581,0.00684618168262781
116,0.006965148015890261,0.0068821964157714365
117,0.00697595693117423,0.0070631396456900175
118,0.006953870319648922,0.006858152227848181
119,0.00697169108480084,0.006898769889035701
120,0.006968293151781737,0.0069630943141707115
121,0.006987984449662965,0.0069155117659296635
122,0.006961229620955522,0.006921299495429224
123,0.006977556346298503,0.006843118356862756
124,0.006941357677390012,0.006853007933826148
125,0.006977999598148177,0.006894078700352628
126,0.006933886241420901,0.006860419718626572
127,0.006962024490628168,0.006933849978230559
128,0.006955531052053927,0.006861644744470233
129,0.006958931450732796,0.006875709954343424
130,0.006934526306074515,0.006880761124193668
131,0.006952919014584389,0.006852930543272393
132,0.00695259345406525,0.00687015531422907
133,0.0069817748809639785,0.0069118075424859675
134,0.006958963771199556,0.006918509574584963
135,0.006964969137932161,0.00686540011053386
136,0.006979547319658321,0.006866969805484272
137,0.006974943966003988,0.006842751474573256
