epoch,loss,val_loss
0,0.1673358962309065,0.11423321590474392
1,0.07044585018182735,0.05134656520497168
2,0.05094960213398381,0.04792260909313373
3,0.036982728453497475,0.024088180639384858
4,0.02199875083651474,0.022259759638038036
5,0.021981345645213823,0.02168928348586469
6,0.022058277938821667,0.020620560155918302
7,0.02225152255042637,0.021183139817302587
8,0.022645694240897917,0.02103906459283104
9,0.022463359365271007,0.021818356670809714
10,0.02210504696484831,0.021318445753985348
11,0.025561336739112338,0.030688603869518053
12,0.03023659240165584,0.029621809579861286
13,0.029057199525521053,0.029708461644864497
14,0.029004718432371183,0.02923963672901197
15,0.029270074316125504,0.029316227749319367
16,0.029301071377228396,0.029801847176492542
17,0.029560967956741842,0.02958956250263747
18,0.029758039736847798,0.030090132131349315
19,0.02975731761121064,0.03020680800003853
20,0.029706937863940387,0.02921126587955897
21,0.029134117406335095,0.02794198292853706
22,0.02786570317227301,0.02771912628656875
23,0.026758518038715103,0.027503850826465812
24,0.02649098981118245,0.026075396144317187
25,0.026051296013519822,0.026666002968457052
26,0.02549880012187907,0.025242647095844326
27,0.02512460615378704,0.02484496118502299
28,0.02466127772977074,0.02560889965986161
29,0.025195250395599077,0.02555254579837057
30,0.025444163106304468,0.026032610885334373
31,0.024709226444458884,0.02533764712330198
32,0.024712271910967778,0.025989539270019475
33,0.024948894878556067,0.024730246825747915
34,0.024856216152854483,0.024843969224307514
35,0.025016103183283366,0.024512842434275404
36,0.024298516365674903,0.025461502185042863
