epoch,loss,val_loss
0,0.15739820860653853,0.08994629157629179
1,0.06734837343890986,0.05727753257812622
2,0.05072089239544005,0.04429342735620494
3,0.03384284684054857,0.03235040797360224
4,0.031163422100478226,0.028332405897840893
5,0.029557419203811414,0.027750340715968054
6,0.02904397861021076,0.027156626902691192
7,0.028170196836788973,0.026485385826032465
8,0.02733464695834856,0.02577112952354581
9,0.024438845333929874,0.021165936167962737
10,0.021187551777443584,0.01946307700965333
11,0.018539093624648572,0.020375006943176652
12,0.017211405271150584,0.01585910739281583
13,0.015468803976255236,0.013190109876661481
14,0.017100936998959353,0.016169353394130365
15,0.014496716457403464,0.014608166661281095
16,0.015610858608933567,0.017428756499664466
17,0.014329244026454161,0.00960290756432344
18,0.013107445867855748,0.014243084863092876
19,0.012909491059387462,0.009219874022197752
20,0.011360927195892,0.010641291940433357
21,0.010979616110749858,0.011398027776707413
22,0.01043427573413857,0.010250081609744922
23,0.009382213203353341,0.008986161195179823
24,0.009795597995345523,0.009837694005230655
25,0.008755409607211861,0.007495457961811333
26,0.008974192550310569,0.009391738293323468
27,0.008727910135296448,0.010284353289812004
28,0.008317997676276079,0.008178072334131212
29,0.007807297598597386,0.007125486865648507
30,0.007548351453685705,0.006676923094211468
31,0.00714221357754681,0.006983994671688272
32,0.006727570976861354,0.006824929369709086
33,0.006401202793158278,0.01005422080352082
34,0.007064365902027825,0.005175558320373802
35,0.006588837456722691,0.007195855915728713
36,0.0070952407903686395,0.007639320306303516
37,0.006297229444139081,0.005664819863646187
38,0.007071916758930378,0.004844606829029468
39,0.006009585564218307,0.00651312576226108
40,0.00600192127268215,0.006499986877832518
41,0.005317225924283221,0.0045986055138674525
42,0.00574808070065936,0.004598025250286834
43,0.004902649207504468,0.004582177148948129
44,0.005949308700570323,0.004488758287806396
45,0.00533700469985707,0.003970679908442504
46,0.005408743952003067,0.003759372932680213
47,0.005184517574323852,0.0052086301396020935
48,0.005154572608875115,0.0037004205444386637
49,0.004743560681725926,0.00512347353498092
50,0.004833848244347926,0.004716069863531401
51,0.004974323900747407,0.004026738901776222
52,0.004352556388621568,0.006090083711721068
53,0.004631161246523946,0.0057531204552411
54,0.004739558276525668,0.00487566564651831
55,0.00533708752298409,0.0034999198837267513
56,0.005032772743079862,0.0044201008915598335
57,0.004698141000522442,0.003122373340278717
58,0.004874515155018371,0.005165157986851887
59,0.004250477778762177,0.003348038718085986
60,0.004662626127762307,0.003821651280204153
61,0.004585597102513922,0.003357668236175871
62,0.004936381302121431,0.002914511258772706
63,0.004638535794887624,0.004528831841788698
64,0.004154868498198885,0.004235350591554685
65,0.004862074243395383,0.007402725320753378
66,0.004944418534793951,0.003439162765120927
67,0.0044617772899489165,0.004057399702170936
68,0.00516828543452217,0.0036156254994367627
69,0.004893072074598191,0.0033216293901756357
70,0.0041782744853723075,0.003676487110855077
71,0.004495993677655505,0.0038423057203236218
72,0.004443655551221746,0.004624123863498045
73,0.005274930862329459,0.004043802387252356
74,0.004807693173419863,0.0043491065345414946
75,0.004806230735113035,0.0038856781656936915
76,0.004896120671292679,0.005036613761705376
77,0.004630586240959125,0.0044984276802113666
78,0.004668027661295219,0.0047665875057389204
79,0.005025989702315725,0.004624041573669329
80,0.004807598224673927,0.0042315861111912574
81,0.004832576511553947,0.0050337954020773035
82,0.0049724810399214845,0.0038378307222437934
83,0.004757130021859574,0.003961101924852066
84,0.004667608188880275,0.0077572068627320976
85,0.005551800704987378,0.0073816283180024814
86,0.004698026589851984,0.004592634523680673
87,0.0052715282358931186,0.004727290016628402
88,0.005282066902499363,0.006646276207423189
89,0.005213719998694045,0.0037835036425931407
90,0.004910472121802892,0.004484962418950336
91,0.004804230833740281,0.004085373851575763
92,0.0048536005254788735,0.005109826414335016
