epoch,loss,val_loss
0,0.08411602290320418,0.048202404088613406
1,0.031380712885955286,0.03556947135009995
2,0.030377313559450548,0.03031061753268988
3,0.026957474174450706,0.02553611235022721
4,0.025195930750004286,0.025392966290558053
5,0.023851475950764516,0.024227878923954966
6,0.023727597279413093,0.02752321718875157
7,0.023908778007025365,0.020472436275218497
8,0.022653384788462863,0.019580350343458466
9,0.021798777619754964,0.021038098841091146
10,0.0199531956759507,0.019477494395446052
11,0.02126844961754159,0.01998715910670254
12,0.022297065228139675,0.02120447356691959
13,0.022084187401989423,0.019072090244529313
14,0.021956794445018035,0.021621070296673404
15,0.02211982782295109,0.019922840874458368
16,0.021667869116044153,0.021136443369383112
17,0.021123237331393364,0.020655556157049035
18,0.021247214478567887,0.020723006017682538
19,0.02075353407782676,0.018706013522226284
20,0.02078540581423673,0.021439512703500117
21,0.021122552506490904,0.02010291760225781
22,0.021625230232976543,0.020312360206166107
23,0.021744890596258264,0.022931647164109087
24,0.021722437427967315,0.02186460445040356
25,0.022405457923275907,0.02004880670071436
26,0.022450369938431556,0.022505300187512397
27,0.022267951964505678,0.02199051816633152
28,0.022165782643380844,0.02034132742053214
29,0.021598938094406613,0.019366353879415894
30,0.02091827486000723,0.018391388429669867
31,0.020523121598441687,0.018117403926330766
32,0.019954508424719436,0.01956838928898113
33,0.02033426709097924,0.020444708471476808
34,0.02043106196458257,0.019465251901277417
35,0.020467297480475877,0.020326813518443832
36,0.02004987424422654,0.017572809551565392
37,0.021813329957093563,0.021205562004604873
38,0.02455703965635772,0.020365003737508543
39,0.0356993148200881,0.048597839785902965
40,0.03141808159547753,0.023574189454958067
41,0.02151876486700883,0.11014743969608877
42,0.021620425763711197,0.01915756490793823
43,0.02148376439689107,0.021900244958179795
44,0.021262744322514456,0.021665453913584116
45,0.02189710686721435,0.023099154630498026
46,0.021767926321150533,0.018895704627232574
47,0.021605875865976176,0.023197615448600117
48,0.021907028297597407,0.020365604313954875
49,0.025298730200744694,0.01931087537881813
50,0.02041615188035438,0.01838342520947132
51,0.022952929178314607,0.01994393589144136
52,0.020997991402939464,0.023894303874866102
53,0.02148375679211368,0.02353935517611801
54,0.021667836194237816,0.024964109510800785
55,0.022158668870549295,0.02112988746488333
56,0.021566385996984325,0.019270633185986537
57,0.021708125961281143,0.01980067948529963
58,0.02179345102916709,0.01846072293050593
59,0.02150455959798987,0.020695788260981524
60,0.021618773631895218,0.02400108593962234
61,0.021054730884623615,0.02364750723659569
62,0.02203737319416205,0.019810651465566813
63,0.02169997385739506,0.022908067232771133
64,0.02182185995656041,0.023114649145242822
65,0.02117139755308607,0.020575236687701323
66,0.021123693666240718,0.020588008574619537
