epoch,loss,val_loss
0,0.16169340776310837,0.08985827771480759
1,0.05959582991665788,0.04627989843817047
2,0.047241684302485154,0.052414140110539936
3,0.05080916612840099,0.05312965246653971
4,0.04915502732641977,0.04759682836665256
5,0.048095876825965944,0.045475416405871806
6,0.045413976596247,0.048577084105341284
7,0.04611511368879216,0.04635565071980503
8,0.0471562901697904,0.04806900266102194
9,0.04744935542237844,0.05052568297465674
10,0.047983361087995564,0.04758623083016961
11,0.047918347223437754,0.051832604556452506
12,0.04838161042435087,0.05052376153048983
13,0.048942235236664376,0.049102948677168176
14,0.0485275572241782,0.05179392770461991
15,0.04889531635182748,0.052093749517470526
16,0.048782981658201045,0.049920996546674735
17,0.0487594204388267,0.048627769478965015
18,0.048383110879565316,0.04919392223328046
19,0.048771978487714016,0.048943897554887594
20,0.048469424801621794,0.05111035093041791
21,0.0486604590638936,0.04929699390338647
22,0.048852642549932906,0.04794671372073132
23,0.0490199334913497,0.049956470886693756
24,0.048986009360074426,0.04937679511689726
25,0.04846420712608228,0.05018869066506554
26,0.04839307102237007,0.05067951071657528
27,0.04821754364575223,0.04982071951466841
28,0.04831783862101088,0.04804685600425375
29,0.047743343406443976,0.04853123694881738
30,0.04823501779140233,0.04748006155618835
31,0.04810158385754489,0.05092390606087216
32,0.04846859267420715,0.04554464728604552
33,0.04468519617315772,0.04575637992009838
34,0.04515816093825227,0.04477254984034453
35,0.045237915785454635,0.04483541651043068
36,0.04523519533786842,0.04397635746985415
37,0.04592041852031585,0.04476290260865732
38,0.04652838227447036,0.04750453721917137
39,0.04592653279372161,0.04636900724685841
40,0.04604584880643706,0.045267888175025174
41,0.046138903571309134,0.04421158997899167
42,0.04577897042095613,0.047396157530813394
43,0.046064682599666305,0.04652173343190266
44,0.04644432050778235,0.04567210916973703
45,0.045530788302659796,0.04501686224033255
46,0.045953742579090226,0.04775316192935373
47,0.045642206210086196,0.05017039263304896
48,0.04613207938889567,0.044245782775044346
49,0.04592691460768763,0.04577071266138563
50,0.0458212943046356,0.04584790806814546
51,0.046103062970246626,0.04438940727320259
52,0.0457375426512423,0.04637170468928217
53,0.045729414876297315,0.04821564198046005
54,0.046071986279946915,0.04680003587453499
55,0.046581529479899665,0.04624793753498355
56,0.046231240555227135,0.04792176791846799
57,0.04647108698360544,0.04507019064714801
58,0.04576214616723674,0.04505413501349226
59,0.04628049385555976,0.04794421942276849
60,0.045478933181860845,0.04654659389943802
61,0.04567827548173596,0.04711775948317764
62,0.04539028302335339,0.04485967917031158
63,0.04510784574109111,0.04398020479501752
64,0.044692861429936025,0.043765404703420455
65,0.044823912789019274,0.049637836787111665
66,0.04554492656549485,0.04577914882089646
67,0.045500659899745916,0.04502341175935545
68,0.04490777940082131,0.045203079805424956
69,0.04445903240848217,0.04487643842515554
70,0.04427490625485814,0.04307164334131209
71,0.04354318237895493,0.04412796110173521
72,0.041112066458740965,0.037942630241036224
73,0.03427981241694767,0.03091486779518643
74,0.030857656797249732,0.030311186170909662
75,0.030459309434540553,0.030305067822631176
76,0.030369818422029154,0.02931766872806585
77,0.02979510332153236,0.02948103528161075
78,0.03032795980804973,0.02963729139091043
79,0.029597184363958074,0.029078878006576644
80,0.02965480646492242,0.028256535778541026
81,0.029540719766673044,0.031010333460409434
82,0.029753974277814992,0.031195601826238182
83,0.027953831124589216,0.026544637851646402
84,0.021517772695792615,0.019511486332343148
85,0.018804469628990603,0.01855777194186892
86,0.018340956467351944,0.01732501629431274
87,0.016380784761377994,0.016718854501420057
88,0.015026506718819875,0.014473968727959596
89,0.013935092797534143,0.013879543787049278
90,0.018886960386637328,0.024961677815797487
91,0.022365397117067157,0.023951731742769128
92,0.024542823776328784,0.02690875537593532
93,0.02280625956747934,0.02000278128780007
94,0.016746483893572188,0.011588775623375116
95,0.016779272115047126,0.014183781549316885
96,0.017881752393073696,0.01336661207209611
97,0.02524526450644544,0.03455161022929432
98,0.03263984792839757,0.0313716390903013
99,0.032175827012073506,0.03366158690947478
100,0.03018317375329139,0.027434525846694056
101,0.0290429980563317,0.030253840228153105
102,0.029637559636426773,0.031163065052564068
103,0.029544022878249296,0.0284341666097705
104,0.02952562043998691,0.029771128197471835
105,0.029527075817997604,0.029774728959577706
106,0.032718518892560694,0.012520837961404269
107,0.012899402812269213,0.014357699240809976
108,0.013996599468780006,0.012925225570974336
109,0.01250617417747335,0.011006409006124184
110,0.010685983498459407,0.00944906197585336
111,0.010135542860047685,0.00907276455392354
112,0.00976973219732229,0.009665663079920958
113,0.009963748201975028,0.008867658721025807
114,0.009665701451594476,0.00954731487049394
115,0.009483439208147563,0.010135221484704525
116,0.00983345406342128,0.008977267598981757
117,0.009665524082661843,0.009989177462686773
118,0.010204679049591688,0.010173196135487204
119,0.010197568836128362,0.009921000392750293
120,0.010266003230933567,0.00935707043491792
121,0.01045226009278227,0.010249411277090741
122,0.010325952018197956,0.009308263257398742
123,0.010283346480349724,0.009591207231652953
124,0.010898473570949668,0.010154034074281226
125,0.01058781960700675,0.010032502910079642
126,0.010691967928487298,0.009537387052337745
127,0.010462734912284654,0.009689961025681003
128,0.010473424891496805,0.009460040826817949
129,0.01090525054997451,0.010210598577857723
130,0.01042972958730839,0.009647826284490638
131,0.010420781614215707,0.01045317283222171
132,0.010381776919524422,0.00961045869725338
133,0.010125459127908321,0.00911725017307554
134,0.010347042862939344,0.0099259464455373
135,0.00992916941942035,0.009619316038761608
136,0.009723832717628406,0.009331765351633247
137,0.00981434611406335,0.013226705692978995
138,0.00955963208486023,0.009802435482128126
139,0.010100841510491513,0.009476458855581947
140,0.009487800688544611,0.008710442742313704
141,0.009405558997896208,0.009407001157565412
142,0.009587831680010036,0.008276328993204102
143,0.008955116158717578,0.008043535314676747
144,0.009152151233658826,0.008360197509608827
145,0.00864015882153609,0.010179754731781199
146,0.008948357534043187,0.008880132562300778
147,0.00905489910737895,0.008310458290625156
148,0.009505770342844388,0.008886807471743087
149,0.009088397142012044,0.008732141493933589
150,0.00874964134871132,0.00861931850747062
151,0.008397750511615098,0.008821175467140603
152,0.008067604260062047,0.006923205155626398
153,0.007696249739093473,0.007289878365046388
154,0.0078031009779297575,0.007567775262271267
155,0.0076762649651652545,0.007449046553913048
156,0.008297988180470147,0.009777397667473122
157,0.008721608130133254,0.008681988880926216
158,0.009714802257161287,0.016494530186221743
159,0.03139355781299771,0.04333193367310368
160,0.04252046881784066,0.055094830915273035
161,0.021191603689864696,0.01366735011450917
162,0.01584900820480405,0.015378255708012274
163,0.016779543027924976,0.01770367932042082
164,0.01815345872351401,0.018274697790476593
165,0.0186709499896335,0.017534205973024856
166,0.0187013807217423,0.01789449247654348
167,0.01818924283811288,0.016983903848199318
168,0.01769588020243805,0.0168903778632772
169,0.01752681213227822,0.017136974321956135
170,0.017773429341286683,0.017070508907507186
171,0.01744786201999318,0.01681901643459921
172,0.01725997904436194,0.017245690724220723
173,0.017119262367486954,0.016953971547140036
174,0.016792175183958598,0.01763297875294934
175,0.016839470645467893,0.01716333077360465
176,0.01690868576385563,0.016954949947445997
177,0.016516288362374957,0.017205121846841656
178,0.016663226761299072,0.01555029963361483
179,0.016652906551766548,0.015881909528672224
180,0.01643821071657679,0.017908709442012172
181,0.016357110024129838,0.014954586647121617
182,0.016013046492450982,0.015530178583599775
