epoch,loss,val_loss
0,0.16172884060419815,0.1250529060259332
1,0.09946689576649075,0.0992827278333286
2,0.09893264565512622,0.09944601221731919
3,0.0988758112684333,0.0991891389264304
4,0.09878083440563756,0.09916572737924302
5,0.09868995774445012,0.09985314912347222
6,0.09862394669621015,0.09906159767082759
7,0.098578052233449,0.09904080618763873
8,0.09850862994492292,0.09914513187513825
9,0.09853232978916854,0.09893611798558352
10,0.09849622943323198,0.09895743938323166
11,0.09845877042134031,0.09902339570971107
12,0.0985721099815018,0.09906166438498455
13,0.09866112654657959,0.0990329944920427
14,0.09868844674764682,0.09886383244675168
15,0.09866944347306503,0.09920856253124168
16,0.09872476949537401,0.09932712740731597
17,0.0987394790974357,0.09902046621433844
18,0.09877310675396908,0.09897200547411579
19,0.09885372233381279,0.09918025570562156
20,0.09879392480773987,0.09959118110557758
21,0.09884413041704469,0.09898473284756375
22,0.09878285672905729,0.09932179100393966
23,0.09885841452008147,0.0994219882582809
24,0.09880441515375193,0.09974772588959245
25,0.09897707558745485,0.09914511468646653
26,0.09885696157348528,0.09909440217144205
27,0.09873929966410859,0.09920721050078415
28,0.09885285305771992,0.09934783594031549
29,0.09884087424531735,0.09906857477790648
30,0.09890906662225342,0.09905522030314405
31,0.09884869535978463,0.09954489067185085
32,0.09886041117443455,0.0992932066309612
33,0.09895537622112165,0.09932299609859815
34,0.0988005147063189,0.09915982160920125
35,0.09883069999807839,0.09936780620722105
36,0.09881790899496666,0.09918717745376932
37,0.09876440861504332,0.09913910346160089
38,0.0988765769987274,0.0996145672784514
39,0.09882823065768996,0.09929393190117267
40,0.09881198965459705,0.09933587922269939
41,0.09889715117254226,0.09928633503751108
42,0.09884154853775061,0.09918088360080214
43,0.0988933397568673,0.09945655246607037
44,0.09884130959506991,0.09927364183558944
