epoch,loss,val_loss
0,0.6282883244309779,0.39576499179393737
1,0.36582875606729737,0.3603651148179618
2,0.3575280142916764,0.35622816496979276
3,0.3539821291856057,0.35216050535652144
4,0.35052119149006816,0.35026315809613434
5,0.34944521592294187,0.3496812098169289
6,0.3491224074106422,0.34960912576131964
7,0.34963343385979234,0.35074136543198653
8,0.3512193824318673,0.3522051847536167
9,0.35230218997295143,0.3525625589614603
10,0.35079735474620793,0.35038490794546134
11,0.3480497347317535,0.34684860866278666
12,0.3453911340636887,0.345182464573453
13,0.34424573297409133,0.344330820824654
14,0.34351334345045326,0.34360453660505064
15,0.3430601428929183,0.34327201511131655
16,0.34274969624577284,0.3430639002016424
17,0.3425034426337333,0.3428192243344594
18,0.3422707363808279,0.34271299977799335
19,0.3421022072970438,0.3426041932160589
20,0.34180022515267205,0.34231475522504984
21,0.34167477081147885,0.34204082486191034
22,0.3413936760452249,0.34164485688179425
23,0.34088376447927654,0.3410568592721492
24,0.340378292982908,0.3408192510245443
25,0.3400337201990574,0.34040459221333336
26,0.3397034723981679,0.3401865447094427
27,0.3394639009623219,0.3397511756834122
28,0.3391955239023808,0.3395399544402757
29,0.3388440493914149,0.33894347841097977
30,0.33834243716477014,0.33868778422298446
31,0.338080554104728,0.33856824259167123
32,0.33776025475262644,0.3382139210637009
33,0.3374265876653002,0.3378504402024029
34,0.3370881525875567,0.3374431369901174
35,0.3367220238387156,0.3370146800799923
36,0.33625073722607607,0.3365507295683038
37,0.3358306202242414,0.33607127288710725
38,0.3354517497557054,0.3357761463689917
39,0.3350444494915618,0.33533489765289176
40,0.3345427975761328,0.3348433048168128
41,0.3341080719332615,0.33448795570853007
42,0.333747448061677,0.3340302554753792
43,0.33348488881528904,0.3337935082726151
44,0.33328471500143636,0.33353044258484993
45,0.3331095986276698,0.3333539634872443
46,0.33296230035148366,0.3333668237185986
47,0.33277917375191035,0.33331628010888315
48,0.3327449438192671,0.33323671430608093
49,0.3326993055766721,0.33303519060222203
50,0.33260762424682444,0.3328595675628018
51,0.33251000787142654,0.33287975384950075
52,0.3325345257727458,0.3327931559688008
53,0.3325729922329684,0.3330456309649732
54,0.3327478053186723,0.3331187288875926
55,0.3326587846620287,0.33296106335866515
56,0.33264274822531653,0.33311813954490327
57,0.3327002602991917,0.33318643371891393
58,0.3326930361781284,0.3328979260684377
59,0.33254233097953856,0.33279917267428294
60,0.33245815885819785,0.3327880262999245
61,0.3322971050830768,0.33268398088833057
62,0.33224506758385713,0.3326121368507936
63,0.33201697754631226,0.3321682966733976
64,0.33192968289915037,0.33218752185284106
65,0.3317367287514974,0.3319911661116081
66,0.33159229642958,0.33188225273645666
67,0.33135015217901514,0.33151742244387766
68,0.3310768048730876,0.33136340658214963
69,0.33094675151659525,0.3313369534809757
70,0.33076780365048936,0.33109185014922693
71,0.33069123605267703,0.3310188935230168
72,0.3305724727259361,0.33086521863561025
73,0.33050020442878025,0.33074659330222017
74,0.33036894082641904,0.33068970824285293
75,0.33024311473043705,0.33056737295548183
76,0.33015550543173705,0.33058205809100183
77,0.3301023766338873,0.330420481283644
78,0.3300299888892139,0.3304784446601898
79,0.3299569878503859,0.33052903100930525
80,0.32987992176049047,0.3301462045596544
81,0.3304920781621163,0.3301681666601899
82,0.32981694795244887,0.3301738223271193
83,0.3297328242390371,0.3301837682582867
84,0.32975678695001,0.33010287988628095
85,0.32971000273545964,0.3299780646317007
86,0.3298050363620313,0.3302302708189226
87,0.32993645443142555,0.33033822322795026
88,0.3297989159750996,0.33016090470218434
89,0.32977611607880136,0.3301122097302913
90,0.32964426038457717,0.33005087539824146
91,0.3295531190699525,0.32988867196588884
92,0.3295118353254408,0.32991501573699616
93,0.32947924099475456,0.329943200007328
94,0.3294371345775019,0.3298461903195355
95,0.3294456457253173,0.3298131209851817
96,0.3293283990771174,0.32982043946645534
97,0.32930681650205956,0.3297328120531204
98,0.3293080301069432,0.3297949871070383
99,0.32930678455568524,0.3298059551614236
100,0.32935676745754733,0.329868643276317
101,0.32927808041671675,0.3296470749114758
102,0.3292377796723879,0.3296825967158684
103,0.32926596359287996,0.32977664762344905
104,0.3293156033749584,0.3300385264872376
105,0.329283511729168,0.32961086085582214
106,0.32913158492123384,0.3294941380961071
107,0.32911038260570435,0.3295200717383327
108,0.32908581405711307,0.3294896793911188
109,0.3290732692328574,0.32933064149700003
110,0.32896561874188396,0.32934292417016664
111,0.3290067651717783,0.32924423640227823
112,0.3289299758551694,0.3293562768807821
113,0.3289029722591098,0.3293379629890845
114,0.32885571428054244,0.32935106669623926
115,0.3288711562907572,0.3292726686646267
116,0.328816166122278,0.32914670424472653
117,0.328833276395508,0.3293341307914812
118,0.3287943625431076,0.32913195284784735
119,0.32881016034683547,0.3290705244279604
120,0.3287269756328955,0.32923844106195477
121,0.3287899028435409,0.32934106029011456
122,0.32864811728231247,0.32901860231382224
123,0.32861144296366346,0.3289305063665807
124,0.32856131321806414,0.3291780743527431
125,0.32857075414592796,0.3288949441514621
126,0.32853044256222524,0.3292055261022196
127,0.32855105054654854,0.32887038259216433
128,0.3285001148279908,0.32883474449520517
129,0.32849688205025274,0.32903649483314157
130,0.3284966588544426,0.3288256578682536
131,0.32848730978729435,0.3288393632906482
132,0.3284521149597961,0.32875687206177234
133,0.32845882350782885,0.3288749631644236
134,0.32844499079920025,0.3287216456931881
135,0.32833802485637525,0.32876867493401385
136,0.32838447976836577,0.32876290847865636
137,0.3283515182330454,0.32879748601751624
138,0.3283745981187081,0.3286856421825918
139,0.328331555274846,0.32881801487802986
140,0.3283353912696945,0.3288882335481817
141,0.3283809964462436,0.3286419413695678
142,0.32830607698118086,0.3287297263565079
143,0.32827958855316414,0.32864705339697464
144,0.32832113208530617,0.32863306519358576
145,0.3282938370172926,0.3285081720342764
146,0.3282600474729241,0.32863233194354957
147,0.3281953799352943,0.32855754961342726
148,0.32820847575708356,0.3286770282764555
149,0.3282313861911722,0.3284890517157274
150,0.32827064466419265,0.32865283598839623
151,0.32821496618356255,0.32883250402858527
152,0.32819217786514504,0.3286198499923441
153,0.3282789398583291,0.32883500370719626
154,0.32824700663415646,0.32867857197559813
155,0.32821074468816974,0.32884372129812894
156,0.32822852786019935,0.3286625903567274
157,0.3283114181481582,0.32877007246770157
158,0.3282294720053959,0.32906016498074914
159,0.32834791963239557,0.32872409284726406
160,0.328312165564675,0.32884037925111276
161,0.3283646728495042,0.32916057592032927
162,0.32841590439958823,0.32904561669598814
163,0.32849118511358516,0.32881937070728384
164,0.3283913441413312,0.32889947393981134
165,0.328365889051073,0.3287723887691182
166,0.3284166233002139,0.32911582623961977
167,0.3284077013758637,0.3288183381167941
168,0.3283723860764675,0.32896697198958874
169,0.32834746880973464,0.32888985054174935
170,0.32837808558599746,0.32884264432170207
171,0.3283934794026885,0.32884285140903147
172,0.3283009018352945,0.32871110879631615
173,0.32828661087129135,0.32881535440330534
174,0.32834736444204926,0.3287877688374026
175,0.32833087675386574,0.3286781060996729
176,0.3283435855980971,0.3287526043080493
177,0.3283464095051245,0.32867409833416567
178,0.32839432651762196,0.32880257572258376
179,0.32831460625814685,0.32877529685950785
