epoch,loss,val_loss
0,0.17759283632040024,0.11273480930028229
1,0.10522500584594352,0.09966911096787397
2,0.09193909122980089,0.08139380032892009
3,0.07233225187356714,0.06712312848787187
4,0.05918882779187436,0.05690319733819156
5,0.05246534788732429,0.04897185642310457
6,0.048973374318876425,0.047664347568551854
7,0.04541278616201391,0.040087026012466005
8,0.03875874803304005,0.03674473824904204
9,0.03532619034941439,0.034092421034070196
10,0.03346337552675955,0.03277588412224447
11,0.03301824142577217,0.03282851866948482
12,0.032695654292794155,0.0322356780207383
13,0.035584678449076146,0.0331596146854436
14,0.032647248418580334,0.03147100403187495
15,0.03186301032094647,0.030994661849200866
16,0.030845681705670678,0.030247927073686256
17,0.03142873958187947,0.02972775272401704
18,0.03072664988704389,0.030429409164126783
19,0.030274541866924645,0.02935976120360319
20,0.030092562226463945,0.0305710939430259
21,0.029725653654653773,0.029861076438730403
22,0.02956407430241529,0.02946923569656303
23,0.02943969628573369,0.02843720366077199
24,0.02934747731103171,0.02917442702774279
25,0.029242973968231802,0.029081731667152614
26,0.029030501592359384,0.028343874650941934
27,0.02893525161754361,0.029031719677238457
28,0.028841124113491302,0.03025146270642717
29,0.02856029750858184,0.028028912915779833
30,0.02891778806112796,0.02771380944905219
31,0.028478859388511434,0.027911272846697442
32,0.028750263675630425,0.028704278600338227
33,0.02850346175356687,0.02765354822406688
34,0.028262288244865496,0.027480833823392028
35,0.028208864675603993,0.028602426904000066
36,0.02840010952100241,0.027763641260758382
37,0.028663739570968155,0.02816054891374465
38,0.028162224362675042,0.027031906340168325
39,0.028300707981133346,0.027306602343081864
40,0.028096479526776776,0.02774084733112553
41,0.02792271170809829,0.02868324346052396
42,0.027265566442129043,0.02849298500659528
43,0.02685908434226168,0.026109798998816706
44,0.026263324080778062,0.0249778383794434
45,0.025369723468161316,0.02459236601369063
46,0.025618159957378983,0.025111821064785794
47,0.02472725764756723,0.02330473199892486
48,0.024625548596332352,0.023565540851726716
49,0.02446132437955085,0.025254396933418327
50,0.024320633205727374,0.02476757231455858
51,0.024551263202627977,0.025629282135872174
52,0.024660613060259608,0.023154160260695496
53,0.024726524794225595,0.02624592344381721
54,0.0248998564970996,0.024043265190607652
55,0.02462633365957285,0.02523891136179595
56,0.02542148091548162,0.026427891178919558
57,0.025129074929095954,0.026034489785627578
58,0.025225776058586714,0.023602997832700034
59,0.02505856728126153,0.0242785413785534
60,0.02496724323831874,0.024282980767602796
61,0.024848380708973185,0.024917557904674675
62,0.02475594903984897,0.024146984601077264
63,0.02458434075200491,0.02391799983010578
64,0.02445660717338681,0.022623975537041086
65,0.024706930592864586,0.02501516941502608
66,0.024793905607289928,0.02390116244413388
67,0.0242198805379079,0.02292935037875185
68,0.03013138865663422,0.02523679307705319
69,0.024310016642800338,0.02388260416074964
70,0.02382293057595964,0.024293242170877503
71,0.023309416633447724,0.024391930201917815
72,0.023040843782849686,0.02330373809911787
73,0.02322627731757484,0.022455992935711978
74,0.022801804589293748,0.023405759656344612
75,0.022870766864024953,0.021684136615085527
76,0.022901280664002818,0.024098583615451887
77,0.02250990408698289,0.022531705753379386
78,0.022424642905610786,0.022005553797604816
79,0.02293957278897746,0.022987154807128016
80,0.0229396602752314,0.02364318045157566
81,0.022874771233210318,0.022845193577581913
82,0.022654006421434985,0.022941115693775046
83,0.022490984695456583,0.02276375704395696
84,0.022581915854276133,0.02226921835298273
85,0.022353022736754064,0.02149590415602231
86,0.02256913383682664,0.021367288455543504
87,0.022211496942311074,0.02209172212616515
88,0.02218142407927677,0.02297652754476904
89,0.02258680766295019,0.02156601238763511
90,0.022476781770843064,0.02328283045273318
91,0.022393039994233612,0.022407746584916923
92,0.0224404437266451,0.021904843608718645
93,0.022595693152561654,0.022006585483969245
94,0.022610231205154,0.02353659493447338
95,0.022571931993640916,0.021484489106494514
96,0.022600015571011867,0.02280082586114813
97,0.02249537479745851,0.023922975399276358
98,0.022923889131449778,0.022169841219683566
99,0.022609388664198055,0.022777174250314624
100,0.02270952274771236,0.021771052445049066
101,0.022979386850631684,0.025204423513636876
102,0.023168514942754802,0.02262198821080653
103,0.0228502742229975,0.023661163825932786
104,0.023482166311080507,0.022753969274443626
105,0.023404065824056464,0.023295732697247048
106,0.02380761210929504,0.023750462099592237
107,0.023369026254210397,0.023544269419130417
108,0.023103919409537058,0.022965880687147874
109,0.02325156411017588,0.02323976062508719
110,0.023889591276413387,0.02512203196200359
111,0.02358068290689914,0.02340848980605273
112,0.02354588147794767,0.022533328627436858
113,0.023477212365844744,0.023967097026032072
114,0.0235032914079827,0.023110564718730072
115,0.02383906443824442,0.023927031218676276
116,0.023424039380423884,0.023080237592028742
