epoch,loss,val_loss
0,0.1649695556167123,0.09642680598556666
1,0.07289558124961518,0.06064083984073166
2,0.05473676517450933,0.04951000341817725
3,0.04818339518112816,0.04884537867172647
4,0.04643805228251157,0.044181604990948815
5,0.046063624250946,0.04613889471849025
6,0.04499503462124976,0.041984461677196744
7,0.04234355372740782,0.040847872899170454
8,0.041037701680767924,0.03951026085578934
9,0.03971304456970627,0.03849419138461187
10,0.03827946862394956,0.03845197901470791
11,0.03825261654834048,0.038974033182026746
12,0.036963890197215604,0.036603734876310724
13,0.036157765672158754,0.0351288668964214
14,0.034900065667802196,0.034509303327576325
15,0.034440677590686065,0.033957302038158686
16,0.034400136647023835,0.0330364886339057
17,0.033576518629225706,0.033211162327050035
18,0.0330822258163318,0.0319633309486092
19,0.03298728961161048,0.03151240971030545
20,0.03258428476054034,0.03341152196442789
21,0.032429028107381935,0.032549887530993735
22,0.032381396304419954,0.03253561677594964
23,0.032261082904039624,0.03139722246409121
24,0.03209019689965877,0.03187500429946132
25,0.031821092434352535,0.030904764331577326
26,0.031855120369010594,0.03201490514503752
27,0.031563124504032654,0.0315144133254968
28,0.031015734455520683,0.02996444411358216
29,0.03073702786835454,0.030897473667960706
30,0.0309210577480894,0.03088908281174342
31,0.03127066915382822,0.032067578191844706
32,0.031274298636271035,0.03277533599296798
33,0.031545643908359546,0.030445561292210054
34,0.031462911400291844,0.030680456361200457
35,0.03200749265138718,0.031165559209395132
36,0.03244190954184122,0.03278882811529578
37,0.033261653920300574,0.033994225889514916
38,0.033684184048161044,0.033612844679025373
39,0.034053069644337366,0.03497179882231903
40,0.03369553725448825,0.034265689254865554
41,0.033122104891150785,0.0328433916072678
42,0.0327461636502394,0.03209984712831929
43,0.032837510890633366,0.03339204782268713
44,0.032150711633449645,0.03167979493619611
45,0.03164302572744975,0.031220210594108184
46,0.03156519626869524,0.03350288630261041
47,0.031959748662394774,0.03045830863139106
48,0.031280745044171956,0.0316577349049234
49,0.03122102180801088,0.030904242176424356
50,0.03136768382784131,0.032095319808305676
51,0.031372162739007024,0.03157892439664351
52,0.030947154512901386,0.031221807155913977
53,0.031181288300920353,0.03207372053252164
54,0.031206359488250825,0.03047020408165389
55,0.031124989702392348,0.030503074505499432
56,0.031015571199363465,0.031627875521202775
57,0.03120764806646285,0.030038473811573933
58,0.03088325505657829,0.030794496556130938
