epoch,loss,val_loss
0,0.34343646260334837,0.13660877178040154
1,0.11046165423549777,0.09907674439559598
2,0.09249881263658273,0.08706231904121695
3,0.0826175655301711,0.07891376235575959
4,0.0766785054969444,0.07561436937842443
5,0.08020599762662303,0.08555572191124898
6,0.08540202718410042,0.08424383496135981
7,0.08222459234577642,0.08163159569032001
8,0.08043939501548214,0.08049287836747931
9,0.0794192105949259,0.07989026338393768
10,0.07886210176422655,0.07869548725820806
11,0.07839143784452764,0.07847854124030154
12,0.07815213636267748,0.07853577084180696
13,0.07791699885463027,0.07823972435424895
14,0.0779127024167819,0.0785300540832224
15,0.07777910245309552,0.07856931410494222
16,0.0778445221119828,0.07802431581470895
17,0.07777889615135063,0.07825428322380573
18,0.07786564177589668,0.07834223404055385
19,0.07785095191531605,0.07765184025018078
20,0.07772613632335389,0.07781207267216135
21,0.0777414136941286,0.07824752639317455
22,0.07770746559190979,0.0779215421554816
23,0.07770345464432306,0.07813708372988164
24,0.07769005067401928,0.07838244454003115
25,0.07778314143729458,0.07820282732072345
26,0.0776070716788618,0.07786818944213841
27,0.07764953945139297,0.07817107614277827
28,0.0776891051362857,0.07769336594330617
29,0.07762331801285449,0.0787684832188238
30,0.07767744400531794,0.0785642746301173
31,0.07770190429720905,0.07830391595833493
32,0.077637788483961,0.07828678061999834
33,0.07758627096422202,0.0776761972556149
34,0.07757967783867406,0.07792352923680783
