epoch,loss,val_loss
0,0.10744719077154792,0.08853016838419597
1,0.087269884944379,0.08452148339472235
2,0.0856738497490446,0.08456280844281674
3,0.08543934241878233,0.08480043146368219
4,0.08430632000876893,0.08327536725372241
5,0.08389080839334347,0.08271474252736465
6,0.08364517203004336,0.08177211580778919
7,0.08343848873966103,0.08190789411539813
8,0.08335265486562948,0.0853372356180328
9,0.08348954172297228,0.08549323993210917
10,0.084200835357205,0.08613359406237632
11,0.08611466922908187,0.0839670601682392
12,0.08753085493308892,0.08955916104619203
13,0.08883739030546993,0.08761145034841693
14,0.08839606690845139,0.08779774843799663
15,0.09011264689725271,0.08363596291149707
16,0.08826301172063004,0.08506131595575442
17,0.08506004605591178,0.0853008607559747
18,0.09326774108675506,0.09488198740059406
19,0.09609696563544701,0.09553190082864396
20,0.09504483197238758,0.09573390014651918
21,0.09525164897791107,0.09461739124772862
22,0.09673906758808785,0.09633187403359936
23,0.09643987376990316,0.09711276119444064
24,0.09628553574474501,0.09679315994833997
25,0.0958679009163432,0.09766243980064011
26,0.09605781900153744,0.09393973423913415
27,0.0954115823280516,0.09550533570413902
28,0.09530434321364958,0.09493298438431338
29,0.09502307812926723,0.09753092475111971
30,0.09532531141061529,0.09652750208479924
31,0.09487007385928282,0.09331443421866072
32,0.09529334401263655,0.09557908629350241
33,0.09484254669019883,0.09181439374362566
34,0.09447918980747914,0.09625992059248964
35,0.09404169839116738,0.09369394911457538
36,0.09403162693484224,0.09632534034485504
