epoch,loss,val_loss
0,0.13630659281492805,0.09854648402806052
1,0.08858053901975008,0.08604976320793616
2,0.07719255691404632,0.07281354361970122
3,0.06465865239548645,0.058683524039098385
4,0.05659378940264861,0.053716627888281514
5,0.05051993789801971,0.04882909455163891
6,0.048334082533463205,0.05116904761580472
7,0.046689201426282106,0.04761187583737328
8,0.047533739870376915,0.05430409931757832
9,0.04909530564916315,0.04823941664201308
10,0.0443695299476266,0.04799130905622465
11,0.045389612286472966,0.05260371774046931
12,0.046855380819689076,0.04745472758279227
13,0.048090344662670134,0.049513940235574885
14,0.04917684642912196,0.04934437107221292
15,0.04749077397117988,0.0488352090437862
16,0.045719584654108414,0.04718338157437689
17,0.045726995662057235,0.04489675392091698
18,0.04447683038042604,0.04875530563618315
19,0.043391097429320874,0.04353665939481501
20,0.04202655307966456,0.040256915744849804
21,0.04143789873646794,0.04302413568735687
22,0.04158538884872632,0.044549290346600635
23,0.04148051229645785,0.0416840949340561
24,0.041544618009091566,0.044881405642560455
25,0.04128336782256762,0.04304088995848571
26,0.041240048747387625,0.04609120397842485
27,0.042051603366955105,0.046657764235983334
28,0.04147261905846455,0.04300974881616087
29,0.04264128358541823,0.04486925686226648
30,0.043089464869645,0.042273897042567087
31,0.04403991737573457,0.042509161229903246
32,0.04302887739442426,0.0445758954496156
33,0.04399537237332784,0.04342359857782192
34,0.04315868417898433,0.04169061796147238
35,0.04290876456861683,0.04169403870708376
36,0.04279372610931964,0.04161587097015358
37,0.04228187855675543,0.04474580865691474
38,0.042503724848445085,0.040990261188998595
39,0.04193366369862351,0.04356126910356339
40,0.04208638996398039,0.040604669000915215
41,0.04193964014522177,0.04274720550112679
42,0.0418297275737059,0.04252880403291266
43,0.041712459182734495,0.0423060197474313
44,0.041229790700472994,0.03924566011614186
45,0.04086779787552824,0.042134946345953654
46,0.04052006796621781,0.0407211282058974
47,0.04034587132523386,0.04047982390578939
48,0.040370337742505126,0.038473054890145256
49,0.039692703257802484,0.041501229309903985
50,0.039626094870727886,0.03928303546562567
51,0.03976431363474408,0.04206612907591163
52,0.03930544691959874,0.04094144740768935
53,0.03969298374149011,0.04233280580487887
54,0.040656543803586666,0.039930135288055994
55,0.040052971481788546,0.04518118859419412
56,0.040358214278062944,0.04730826772120211
57,0.04060167383602102,0.03888198289940841
58,0.04040494694305267,0.04431045298841683
59,0.04075554911074021,0.04331368382582066
60,0.0416062599275824,0.040106868125857
61,0.04078686633538142,0.043090538986926955
62,0.04319473098722293,0.05011451056766623
63,0.04557406297809691,0.04126649540455772
64,0.04079618219503586,0.042709448854802816
65,0.03954925815717017,0.040634395995698486
66,0.037880240545736896,0.03568424982766326
67,0.03720437077214297,0.0377953882257865
68,0.03711614100415882,0.03685711170146102
69,0.03697817552563765,0.034627242044684634
70,0.03606515342025734,0.03498338560126105
71,0.03609044797909108,0.04187720090197877
72,0.03598712655089551,0.035192558637451916
73,0.035430452581658826,0.03394911207711499
74,0.03569619161792272,0.037321121961866294
75,0.03438550247241267,0.03570979968854171
76,0.03410914267370884,0.03569483548555679
77,0.03422571123718358,0.03815344903962106
78,0.034444703995216666,0.03414393994948388
79,0.0341144996873147,0.03223932005506194
80,0.03404427413418472,0.031797290778915153
81,0.03356350394193646,0.03338665895064045
82,0.03373972906304492,0.040746789825484804
83,0.034403078652602684,0.03277952121401642
84,0.03404495488557455,0.03422996192147342
85,0.03361198221661633,0.03358778084357046
86,0.0336503840902512,0.03160179804954692
87,0.033722462461625545,0.03317735976324179
88,0.03400013065613288,0.03371610285474639
89,0.034300257733983576,0.033208224222640303
90,0.0339728460254834,0.03306871126593335
91,0.033409555334684184,0.03682358579264679
92,0.03516345134646677,0.0345895992446435
93,0.03398448612383134,0.03205692454813829
94,0.033911509481039076,0.034727500791307875
95,0.034062934953043404,0.03512769337411273
96,0.03540043337352508,0.035405853888183104
97,0.034548099391716276,0.033662192470555054
98,0.034607308143251046,0.03375721772237377
99,0.03451934228275272,0.03558691984723192
100,0.034005489443048396,0.037173001050078786
101,0.034319082747022216,0.03538320948617517
102,0.033491259826411254,0.03464788388998939
103,0.034762782794382455,0.03775057292322098
104,0.03373899243527846,0.03524419130212036
105,0.03438319720560126,0.03663603282859218
106,0.03452405791661198,0.032846171785243024
107,0.03454966165816231,0.034020042480590686
108,0.03503217318986388,0.037859712148874694
109,0.035174959798534806,0.03418557271184936
110,0.035465111437854434,0.03484324116521495
111,0.03598477051174231,0.03681048239568791
112,0.03503482190551137,0.03373850204326924
113,0.035872253378649216,0.03914782703922504
114,0.035820881885995304,0.03986158310755464
115,0.036011835570625074,0.03491413171367092
116,0.03652294515985713,0.034701686464220685
