epoch,loss,val_loss
0,0.17041566981662282,0.12280904955650374
1,0.08244892170758461,0.07022106348762572
2,0.0613960434439228,0.046880233759426564
3,0.041051911583228365,0.03723341481791017
4,0.036658380680876096,0.035043684304078074
5,0.03513784738902232,0.03139591559579547
6,0.0329457766560318,0.030752388885407912
7,0.03143628256664954,0.030844378537235997
8,0.030328678640184834,0.029504211728285407
9,0.02973446569931831,0.029119558323648095
10,0.02958629831528778,0.02782584765621688
11,0.029619018775786904,0.0300702624399312
12,0.030418914527618152,0.03030339765620448
13,0.03139550858240524,0.03137725204576304
14,0.031212727840748623,0.032957382400203336
15,0.03151113378088013,0.03270862434697415
16,0.030271129690104728,0.0319171702311372
17,0.029074656633402612,0.02911788560508882
18,0.02836405559719133,0.027737667354819053
19,0.027262075277838967,0.027536923227495062
20,0.026713557309098097,0.025809567365810075
21,0.02608031868044254,0.025589645917409032
22,0.02786196557154282,0.025468630848515663
23,0.024290123709487164,0.023801479851731467
24,0.023516314130255598,0.022090917880975457
25,0.022615265170429392,0.021354572775449544
26,0.021869949850556757,0.020832738112114318
27,0.021126752478077257,0.020709739517252936
28,0.020646312489932914,0.019942885832221563
29,0.02016489909772726,0.018827374130722663
30,0.020535076497871573,0.020117428452188137
31,0.020625692241706794,0.020190809685045937
32,0.021167098079993427,0.02279628812090656
33,0.021912392699342077,0.02377743009204411
34,0.02218481902700129,0.02450446152343652
35,0.022404269980107375,0.02590291207066745
36,0.023645283342402377,0.02204674815475329
37,0.023555737792802373,0.02628980134779201
38,0.023655031165993996,0.022856838391077924
39,0.022176184219499524,0.02533366248576116
40,0.021968828034040024,0.021445418691120002
41,0.020918675464578717,0.023332279660660354
42,0.020381859553565414,0.02062589493921966
43,0.020056191227323623,0.01910211168076687
44,0.01911268344180261,0.019088970269381576
45,0.018959185937129194,0.01642868819190064
46,0.018651956156325,0.017694325410505873
47,0.01759703197165859,0.0171835094752068
48,0.017977598659265383,0.018385190238857138
49,0.01726266120200892,0.019484879797428918
50,0.0169826660574757,0.016822889587608914
51,0.016435843019140996,0.019186821490549722
52,0.017158611816057056,0.018449670083132804
53,0.017586767851418966,0.01693213783680875
54,0.017287558883794848,0.015581057694370858
55,0.016900520998430694,0.016946777237554233
56,0.017417657833775694,0.015857032122385952
57,0.01741688346176101,0.017532214126898815
58,0.017930192313418327,0.018226458580066298
59,0.017659326567858766,0.01808545647752078
60,0.017606361415892315,0.015929871163791857
61,0.017119849629277328,0.01641611581419807
62,0.017768328435060907,0.014860785161251616
63,0.016760479584023606,0.01861591119651448
64,0.017542556970850002,0.01498498102236942
65,0.017319738665382733,0.016631762322182483
66,0.0176932509500179,0.014629745841226243
67,0.01722152516146084,0.10412869108480644
68,0.016939227376952113,0.014560346769487989
69,0.01762490814177991,0.01643271953155652
70,0.016764488252107617,0.014532750408476089
71,0.016347557316339915,0.024993708252836234
72,0.0176874528044193,0.015122565022583731
73,0.017526656394819918,0.017920546349793696
74,0.018037062147997027,0.01656120928664469
75,0.016090104072023447,0.014204521631879324
76,0.016204760585212523,0.016174351707565426
77,0.016327525458137076,0.01865290703829716
78,0.016064023742337615,0.016297520075843102
79,0.015570016092078077,0.018177539540929596
80,0.01590764469211753,0.013164119833187974
81,0.016258017588250465,0.016273766862641616
82,0.016790577100677717,0.012637142008192537
83,0.015373778514575949,0.015982786750666438
84,0.01770011129171895,0.015898727586944224
85,0.015621813392708841,0.017125878496288126
86,0.015986534450456297,0.016742055177182878
87,0.015663047399309328,0.024733034458714106
88,0.01656636613258105,0.015679678870122452
89,0.01548880451343221,0.016879073569099783
90,0.016800313559677198,0.013952815958137764
91,0.01671331421584546,0.01664042800235626
92,0.016898622234567083,0.01561506422443849
93,0.01664774872282212,0.014802779795803371
94,0.015468208417430412,0.013661400548784444
95,0.0165213332623154,0.0142552528215018
96,0.016442050011627535,0.014991523596901379
97,0.016337838783624957,0.023698222671283353
98,0.01647148729018349,0.013216780794118461
99,0.016354874883079344,0.017020494048649058
100,0.01750191161669582,0.01881956199482495
101,0.015825314308255376,0.01326895527609263
102,0.01677271628865509,0.016610301212181985
103,0.01806025060793038,0.015419786506359655
104,0.01593530365674616,0.017471067430253045
105,0.017217524721548496,0.01533508253516813
106,0.01698312470369297,0.016063452391769817
107,0.015532472767203832,0.011770706594390199
108,0.01671277570667015,0.014794658538727376
109,0.015757288950176047,0.020306524043666067
110,0.01703083103926157,0.016462292755941473
111,0.015168463787827775,0.013080169782689357
112,0.01642902334333121,0.01563501172576279
113,0.017399011030912303,0.014926758298581288
114,0.0166482636157861,0.015118132999582892
115,0.016411065051390183,0.012361230447023943
116,0.01575283903842993,0.014850677590855435
117,0.01532208188276866,0.012825976178820385
118,0.015808017579369622,0.015851706120861075
119,0.015812953248423495,0.014331398226009078
120,0.015562331431629441,0.014209503795284168
121,0.01554874659550907,0.01818302373057077
122,0.016365096367207718,0.014929771871727192
123,0.015777347664304858,0.01849781309019983
124,0.015770587145159547,0.0133543267468286
125,0.01603556820656732,0.02226112682398794
126,0.015249222135848756,0.01356119684281082
127,0.015619948919531968,0.014955223779816654
128,0.01452641894439344,0.016158936408531412
129,0.015881412890557344,0.01287099041835638
130,0.015376924570623061,0.01452245418535106
131,0.01618111842936523,0.017541947271807183
132,0.015825537235500644,0.017221356022459083
133,0.015404285524311445,0.015592345609178953
134,0.01606896409368832,0.017638694334719346
135,0.01556362224509009,0.017968891803013497
136,0.015815804999464635,0.015085045094642239
137,0.014123168454202507,0.012843878128240217
