epoch,loss,val_loss
0,0.2958537172451675,0.24269031285769185
1,0.21806875637156978,0.21462876100942857
2,0.213939845764475,0.21406671924673862
3,0.215018383330769,0.2160888082438223
4,0.2143116216603324,0.2136108172085686
5,0.2137884435584124,0.21484781725254223
6,0.214006778600214,0.21423481692925342
7,0.21387070335215516,0.21629995841535885
8,0.2140943500087511,0.2141942883464607
9,0.21365707932854539,0.21366855405688567
10,0.21421170971995826,0.2145755743429994
11,0.2136361657334365,0.2138065592618843
12,0.21339540922050948,0.21383624683239372
13,0.21348320527804746,0.21402146089189902
14,0.21345022304071415,0.21295658229087974
15,0.21440054771663855,0.2158636182264352
16,0.21444626471740927,0.21481669979389012
17,0.21438638946945243,0.21387310633060963
18,0.21427184021730217,0.21408481616012298
19,0.21403583939031637,0.21441079392711668
20,0.2141254598931443,0.2144094103419508
21,0.21441514907980994,0.21301345995259077
22,0.21453176724682038,0.21440548292745637
23,0.21404625811308123,0.2138179875704465
24,0.21429585370657256,0.2158197787161784
25,0.21443798429340863,0.21353928520158227
26,0.21416648078879577,0.2139695573483477
27,0.21387389950233873,0.21512835593372232
28,0.21390943980807786,0.21460513735297354
29,0.21389784341712267,0.21560075599185669
30,0.21416728532047485,0.21393573071275437
31,0.21388056910009406,0.21437176526910035
32,0.2142457653173535,0.21526026996271574
33,0.21412005324920208,0.21374550213612434
34,0.2142229671362969,0.21522409170748402
35,0.21404685649416333,0.2143537342642458
36,0.21392445509239352,0.21414775695966376
37,0.21408003617486032,0.21395831362836082
38,0.2136917650628147,0.21487542980989321
39,0.21377739275721527,0.21477012425637565
40,0.21383509896308495,0.21365724100592387
41,0.213695950764451,0.21322532839067546
42,0.21399742787738116,0.21326777511868028
43,0.21369533845894248,0.21401577661050616
44,0.2138032536688659,0.21320459560653593
