epoch,loss,val_loss
0,0.14351587002869132,0.08926759309178746
1,0.06010745319840815,0.05593238954727068
2,0.048667876600778454,0.03773384590375207
3,0.02987103858630625,0.026981394346906336
4,0.02666972452576617,0.027361031404116443
5,0.026607247137968585,0.02556470692475292
6,0.027098560862862567,0.027976845846097585
7,0.028086034935429324,0.028984864019651346
8,0.028988554247384734,0.028899654296198132
9,0.029228419326037335,0.029944481282555974
10,0.029557854041373795,0.03028547712370177
11,0.029650505880812566,0.030088830196784534
12,0.028736897374240518,0.02970925836302722
13,0.02869847079338454,0.028364627052395477
14,0.02854018901838816,0.027413907351344236
15,0.02771290961495168,0.02724910898379623
16,0.027185330830728837,0.026933832842365623
17,0.027109044114891574,0.02680076481134946
18,0.0269575482725704,0.02684568881623935
19,0.026444251601436108,0.02557220293801416
20,0.025933598315597866,0.025428974462912698
21,0.025256708693905748,0.02493570268377603
22,0.0251777572937006,0.025013034316492815
23,0.024997266504517515,0.024682011814007348
24,0.024874745639596435,0.02332360997366783
25,0.0242870607354539,0.024011973321037963
26,0.024068970775170673,0.023465653793223278
27,0.02359928029457585,0.024438589174762052
28,0.023165424094557,0.02359657886202117
29,0.02301201100374083,0.023113766495482416
30,0.02686886461027306,0.05119922297000415
31,0.05522180212249192,0.06985880883194465
32,0.06965291365492735,0.07386344776510158
33,0.07587467335301529,0.07467091144095657
34,0.07465734144004224,0.07427902696117605
35,0.0730362954965646,0.07127208271502695
36,0.06912181210770404,0.06929453909867564
37,0.07185433983957644,0.07445238999310871
38,0.06979602499664735,0.050756910017558506
39,0.03989505948726651,0.033422804245726745
40,0.03461501223565958,0.03437190766033923
41,0.032753809790709895,0.032304370991926824
42,0.03174099089692441,0.0294080686438667
43,0.03072104304522681,0.03131405499946817
44,0.029983866053054944,0.028699799125459877
45,0.03037660406659738,0.027936560370104464
46,0.029302951590203456,0.02732616267075149
47,0.028516504228663007,0.02649973034741094
48,0.028199855696788127,0.02717226467462111
49,0.027753507186897654,0.026723458991042722
50,0.02817907734371299,0.025519586242470763
51,0.028113776444197654,0.027446451760834375
52,0.02806016317844915,0.02745862186966492
53,0.028293849867608526,0.027428807268814488
54,0.027999037167996906,0.02633962190718094
55,0.028761810400515057,0.02853799619562718
56,0.028704126900751338,0.02776915532108264
57,0.029239861888708255,0.0282703982644083
58,0.02880769397327892,0.028326564948438375
59,0.028288624059560775,0.02631195078456176
