epoch,loss,val_loss
0,0.1732791205354446,0.12080694289309073
1,0.09410919676081454,0.08099910300504343
2,0.06840662123094932,0.06626351114183124
3,0.06300436247059767,0.049274900179847356
4,0.04257519352588532,0.037026028621474305
5,0.03437324344135112,0.03243200544447248
6,0.03292346201974044,0.030132519072414196
7,0.029589250214773117,0.028518535349673895
8,0.02853407051643546,0.02771249720010827
9,0.029341730605557764,0.029146285123399795
10,0.027547706103177187,0.026715854963474416
11,0.02760426545267006,0.029430983319067072
12,0.028077930036327726,0.03139219382791041
13,0.02816450164960824,0.02955243600960218
14,0.027751985246495758,0.02580026463526812
15,0.026354084528393024,0.02527854537360529
16,0.025585968510436118,0.02449796618283642
17,0.025459234587115635,0.026770887966984448
18,0.02606971052770825,0.02535214759821062
19,0.02574422950301763,0.02650777928842836
20,0.02624851125005862,0.02611725770184019
21,0.0262193305344938,0.027195791323575903
22,0.025403012797760544,0.022975252434058555
23,0.026014886973656528,0.0243071579530941
24,0.02534083025284308,0.024064160540888134
25,0.024666591231777467,0.024400455234741356
26,0.02514049200881585,0.022613392318080707
27,0.02383665652345601,0.02245004636977212
28,0.023681815430748283,0.022813842419443776
29,0.02312866170822883,0.02091177025605537
30,0.022323027304518853,0.02201651948950332
31,0.02291085790890417,0.022134041525394124
32,0.022777176572294305,0.026269814346482553
33,0.022176155430390584,0.021953075308273323
34,0.022178489396975434,0.019671192777878953
35,0.021429086810530282,0.019769043386006036
36,0.021877442159765153,0.023162442715963513
37,0.021688884660917267,0.01966034480162559
38,0.021338883558099122,0.0194756515771033
39,0.021564897138634315,0.02182167634550238
40,0.02133755877816515,0.0186298476236607
41,0.021274923772769246,0.02049421969119051
42,0.02107663011903481,0.01924762243277084
43,0.020528680210907778,0.02179553772998355
44,0.022065409311770107,0.019106660507201865
45,0.021218707975592735,0.018160163968119362
46,0.020615313975639243,0.02272658637668217
47,0.021411802359133793,0.023565291758588475
48,0.02080522643120812,0.020186990408348867
49,0.021530883801396755,0.02624634712428772
50,0.02079786294974464,0.02088730373870414
51,0.02064183495974512,0.02275336052466775
52,0.020667014719485094,0.019301522274714055
53,0.020163451601340948,0.021476269857671284
54,0.021002061479686977,0.019191754320320314
55,0.020177307242392112,0.0221687551035054
56,0.02076539605316951,0.01852493766098391
57,0.01977953887421736,0.02192092233358779
58,0.020690575952259756,0.02488511611855256
59,0.02081005665645611,0.021203097267680594
60,0.019653646239666915,0.019558201722606677
61,0.020816419212568958,0.02069618172161487
62,0.020450283942980874,0.02062132431527904
63,0.020136620150320677,0.021821070336034754
64,0.01993263172556004,0.021211461444115582
65,0.02018162649538782,0.020380558375483814
66,0.01975002483227294,0.019075225583691482
67,0.020836799881226723,0.023711575975828313
68,0.0210685649496629,0.020068937074613553
69,0.02086605162446876,0.019145378931157215
70,0.022018925733506965,0.019937210033435283
71,0.02187643650782218,0.022612727240563003
72,0.022322402716868167,0.021854891905586083
73,0.02238295088372499,0.02169422935562145
74,0.022747386977981798,0.020218917563404732
75,0.02300385063027235,0.020635579023936552
