epoch,loss,val_loss
0,0.14730392271380344,0.08136205533379726
1,0.06856319912784486,0.06174620815156573
2,0.0628215978912217,0.06275321712574812
3,0.059586114565031136,0.0586548811258438
4,0.05962540128593632,0.059628173126747216
5,0.06523398990086991,0.07327048976824052
6,0.07443894929498981,0.07497488630857634
7,0.07264053030051201,0.07180948730120061
8,0.07097347311193136,0.0698699905480469
9,0.06969394902888533,0.06893621493298516
10,0.06910287606701862,0.06819886413138969
11,0.06826491848968393,0.0672885061321808
12,0.06695501234748666,0.06609310326184828
13,0.06571827212469183,0.06452360635163187
14,0.06491173161781853,0.06475257989968855
15,0.06383965902036423,0.062457719325266586
16,0.06350107708995005,0.061721424383259046
17,0.06258696661316615,0.06231605675550738
18,0.0620950783381788,0.06269294563342759
19,0.06229375845653643,0.06282217581274947
20,0.06227879088631065,0.0618592293693404
21,0.06218532903148211,0.06316557229623704
22,0.06195574573618617,0.06115607567125639
23,0.06076409325277586,0.06210742095792585
24,0.05892852715534463,0.05712031205526561
25,0.058559693220398314,0.05761749960993723
26,0.05843392579103831,0.057909754820126856
27,0.05853656495360734,0.05982087086812662
28,0.05833430766916389,0.05659600680704275
29,0.0575174816327987,0.05594570031529256
30,0.057655464026996554,0.05941519485499883
31,0.057837176013836186,0.05791925388993291
32,0.05855888780727565,0.05940258972517317
33,0.058588957111779257,0.05924259543701148
34,0.058570626509680354,0.05882225786030716
35,0.05842098831642065,0.058330393419104856
36,0.057802194266391695,0.056562011069144054
37,0.05754385727474825,0.057504697269874006
38,0.057082167700778765,0.05633364589892228
39,0.05668749487836012,0.05514621924264937
40,0.05580601356417346,0.05427350473149894
41,0.05531052526512401,0.054169274087416064
42,0.055288893040373835,0.05654411149029668
43,0.055982690203270846,0.05510947115325326
44,0.05610503174132295,0.05598820698901058
45,0.055694014578462125,0.05546072592639791
46,0.055370808678041165,0.05749599036673156
47,0.055756198985280274,0.056252342108534185
48,0.05578343001463049,0.05416926511084836
49,0.055616834165928934,0.054870021283250206
50,0.05585140158399213,0.05518546297958072
51,0.056329401139970973,0.055754111951838915
52,0.05639392672051533,0.05521210455045328
53,0.055992811289932325,0.05603750185613192
54,0.056548989990608485,0.056859606887260196
55,0.05627097397578134,0.05561662347430118
56,0.05694372940668576,0.05848233574955785
57,0.05659034559659535,0.056887779293703866
58,0.056816262071676775,0.05624337262387998
59,0.057555588401502655,0.060312974218928915
60,0.05744818607263333,0.06240931383812625
61,0.057478930038823595,0.058732733324511184
62,0.057433323584776895,0.05681593910200726
63,0.05755691531357719,0.05807639754597089
64,0.057544136474982535,0.05676691403175868
65,0.057026287449968995,0.05717041033548733
66,0.05699249766439461,0.05794016422958193
67,0.05715970288542249,0.05626259859718953
68,0.05684289381765633,0.0582481328142188
69,0.057012221989609736,0.0552393123066463
70,0.05691598709538686,0.056184067787057125
71,0.05682407475287299,0.055968353720330405
72,0.05674479256788318,0.05768534816336989
73,0.056447107297220196,0.059682860582384804
74,0.05661842185292217,0.05751834285240429
75,0.056752077386462145,0.05745288322149719
76,0.05634231890717761,0.055699523985268284
77,0.05603633319540657,0.0555653042309192
78,0.05634952255254455,0.05648609095244965
