epoch,loss,val_loss
0,0.1508689959176915,0.10486389671311946
1,0.09011966925706985,0.0815343205135642
2,0.07468383457306192,0.06612835702763455
3,0.06142247002497375,0.055302183531171806
4,0.04558820281621459,0.044615445521843176
5,0.041900363977816844,0.041236892457236995
6,0.03827739359854127,0.03663582535021025
7,0.0351299299440867,0.03666020440850657
8,0.03476791774227227,0.03422094460491506
9,0.03251485812882011,0.033059178777303674
10,0.03138704895586085,0.036135538556887205
11,0.03032449899400643,0.030018583919203177
12,0.029889282391523476,0.030018389957127085
13,0.02947524843140424,0.0308680502020099
14,0.029147312204412325,0.027580156372514594
15,0.02795155396272572,0.03457486659770607
16,0.027970843386354683,0.026677585941252035
17,0.026516250344358092,0.028118392784845292
18,0.02685192659598508,0.027214162641196808
19,0.026239020738015168,0.02768038772046566
20,0.02626223672333238,0.030323505125228307
21,0.025859136933938775,0.02745469511378536
22,0.025848468516965945,0.024555913854064016
23,0.025398581783822496,0.024866667913527308
24,0.024975588131282065,0.025330549986605205
25,0.02441786350362259,0.024540203744758748
26,0.02470966808789735,0.023738815238215645
27,0.024291647120202473,0.023129582305122007
28,0.02401349043621005,0.024394039657105116
29,0.024080997760252035,0.02875575767837365
30,0.023637438346322873,0.022914185615781263
31,0.023651106597231828,0.025524969983790086
32,0.023894608991561556,0.023440646782411586
33,0.023558509754215022,0.025728280819958368
34,0.023608187946091166,0.02514811296342345
35,0.023496720908607223,0.026942040281695178
36,0.023684301934719418,0.02505509109451673
37,0.023292219801563964,0.023854846253861757
38,0.02316638514649668,0.02349970145437693
39,0.023554084591752143,0.02315702632616473
40,0.023044840241376634,0.022633456505229365
41,0.023290434027378033,0.027175840532852612
42,0.023997235678428177,0.0254581904063779
43,0.02387988703440038,0.022161053434814067
44,0.02389841322615135,0.02379001719963861
45,0.024010764938190307,0.02337159493522044
46,0.024680282673437436,0.025250933840929662
47,0.025217031720552226,0.027003342595948134
48,0.025529630561109833,0.025075051837969032
49,0.02609175655672209,0.02510194309737942
50,0.02604958494242242,0.02514881963658587
51,0.02636182279609662,0.026738950710717205
52,0.02682335663744681,0.0254399688251393
53,0.027009094387090368,0.027873697244483558
54,0.027671000660418704,0.028022612951513624
55,0.027772502151789138,0.027437079966879774
56,0.03110747516965218,0.13089008949220698
57,0.06653370218073054,0.06117067215251189
58,0.05966154956441227,0.058823862325491263
59,0.056931339397871615,0.05438982450418709
60,0.053095742461564156,0.05131066767256281
61,0.05086098317441037,0.04885024799073693
62,0.048887041618498106,0.04938931761702027
63,0.048407373647633596,0.05221054162580194
64,0.04751027151823139,0.048756001162877115
65,0.04752851969642129,0.048188141023044806
66,0.04832605008396218,0.04797830821941853
67,0.04753091127025805,0.04777557098239825
68,0.04660819569747034,0.046837234091904566
69,0.04782188345762275,0.05009895633691488
70,0.04814177658036649,0.05265038077085152
71,0.050062698003151815,0.0491705020711755
72,0.049149511115466185,0.048016143776035344
73,0.04926680481965117,0.050041799522471786
