epoch,loss,val_loss
0,0.12772486642372313,0.09950703080822938
1,0.08923764978286078,0.0767006323670626
2,0.0728517864003694,0.07059242475216278
3,0.06843096711825457,0.06706610755096672
4,0.0641041399969114,0.06207909492956623
5,0.06127950018026131,0.06080649526761852
6,0.059778338034661836,0.058643775803184736
7,0.05723218203966709,0.05500030287944998
8,0.05488920984990734,0.05597714775175021
9,0.05500727862590175,0.05753971138217831
10,0.05266831119765909,0.05108137200891548
11,0.051589178762656986,0.05031241016975518
12,0.049200707911063346,0.046139736904600236
13,0.04596266401953977,0.043205380874914545
14,0.044306657000852054,0.044427646822410016
15,0.04329669731501624,0.04358922814819506
16,0.04265932329624391,0.04386289993443636
17,0.04282192750309083,0.04349150929979292
18,0.0416117422059357,0.043052454741455574
19,0.04190757156213482,0.04182898311125263
20,0.0402326566806669,0.03894374412267624
21,0.038819758726997104,0.037354944319403255
22,0.03870231575957186,0.03686084754576858
23,0.03834089131089304,0.03765090119208326
24,0.03846792524366332,0.04148327012494171
25,0.03933843077539349,0.03841733713446872
26,0.039983416997569264,0.03855884539576478
27,0.03934065987103634,0.037735795380213925
28,0.038841716453081654,0.03869266239830661
29,0.03836535619308265,0.03770631003974927
30,0.038043601768200014,0.037634818349401127
31,0.03879417732155485,0.03726458139776384
32,0.03879362488497528,0.03798164967256403
33,0.039839521919985375,0.03977841075771468
34,0.03995878547415149,0.0427512862582139
35,0.041195889294659685,0.03892046334582139
36,0.040371485783321726,0.03871634580935892
37,0.041356144365009596,0.04398807159374338
38,0.04099527469498934,0.04023737845399903
39,0.03942303019438049,0.041370462529190716
40,0.03945921367104296,0.03950031025404289
41,0.039491962207455954,0.040690229992487344
42,0.039219287547210664,0.03880519815518476
43,0.03997817644246405,0.04123661770899181
44,0.03941824340032969,0.03897030208915495
45,0.04045166544538798,0.04230993200790346
46,0.04104805600976082,0.0412105253773382
47,0.04065615038940613,0.040425765336194935
48,0.04171862372075864,0.044953028426668075
49,0.042621367666825685,0.040888701880904946
50,0.040478207388346336,0.041343404456455596
51,0.04112767108487521,0.041830374639490124
52,0.04259215858053985,0.044456462466232215
53,0.04376501809183261,0.044538953262892124
54,0.044939274947307144,0.04243135143250768
55,0.04978087199457305,0.04441662700207288
56,0.04846098236546075,0.06608610859268654
57,0.05730568511719755,0.053284512775426035
58,0.048911223462004834,0.04702112224502834
59,0.04677686109233627,0.04450674573784281
60,0.04498960199928898,0.047580644123744284
61,0.043985254854875075,0.04181949633461053
62,0.04296379070729017,0.04031779015644056
63,0.043289726948459374,0.04484888160896753
64,0.04306493489984438,0.04022518440128408
65,0.04163555488389411,0.040422646734560676
66,0.042219956766525145,0.039468793163183365
67,0.04218196007553384,0.04265218609598507
68,0.04231963345600809,0.041854358721456854
69,0.043077902945814185,0.04353145067157384
70,0.04248837282811161,0.04599667472534041
71,0.04311978053018677,0.039118061246440086
72,0.041297444616623824,0.042341276378486226
73,0.04111745216616457,0.0407418110529174
74,0.04031683398867778,0.04212194226458728
75,0.04106394267550928,0.03651469961196866
76,0.04037359329111737,0.040666591104093555
77,0.040458192371373936,0.04032084041502218
78,0.03980787066098073,0.03812099025741325
79,0.039492860413361176,0.03798708448446728
80,0.03873881082579815,0.037117722525828074
81,0.03908712411750492,0.036391348519966
82,0.03907579669191373,0.03964695929981115
83,0.03996288953281993,0.040995485360286514
84,0.03966071778650788,0.04393919360630608
85,0.03905701125896782,0.040858564664622225
86,0.03846509427168696,0.03783759759370041
87,0.039773180378045586,0.038829680255834005
88,0.038861541945537884,0.039534133079078784
89,0.038996884922424764,0.04052767930103976
90,0.039207218841706915,0.04350215736438462
91,0.0389887941398209,0.03737043670504321
92,0.03829999360889435,0.03780956388301942
93,0.03878879910714621,0.04143216630301329
94,0.03858077364023045,0.03990730106677704
95,0.038334129457857066,0.0367411646342174
96,0.03840997468659298,0.04096785711525883
97,0.03915405725772909,0.03670475741182384
98,0.03866027747552624,0.03634846171227467
99,0.03928112526603644,0.03771007127307161
100,0.03913781438007963,0.03718354780706206
101,0.03883963418033102,0.03663209842072525
102,0.039806909905337126,0.03829956758288106
103,0.03836536398016029,0.036254308504752975
104,0.038595071978878966,0.038037989363544744
105,0.038931501545399115,0.03874567804539072
106,0.039246805322666965,0.03642972463325854
107,0.03925552915746002,0.037929358966383955
108,0.03885962605940924,0.03712387729345012
109,0.0401216568261516,0.03866796249313531
110,0.0403039872603153,0.04120393464931279
111,0.04013911462712774,0.040160010817983344
112,0.042372864576504764,0.04378728106200413
113,0.04038572610749734,0.04189199260373518
114,0.041089141815841244,0.04505814360814858
115,0.04079193136037635,0.04106347918974996
116,0.0432797623105901,0.04412946446659815
117,0.04263380970910108,0.041560433568299145
118,0.04225133452266693,0.04028984339027162
119,0.04131871138846012,0.04125313105792301
120,0.04162878340346922,0.04529866975774046
121,0.0438097740079073,0.04654310729822119
122,0.04323385014302201,0.04206310618218937
123,0.045053135964730616,0.04846832813620097
124,0.04467318064982085,0.045795779766392875
125,0.04462470951379179,0.041877225939634284
126,0.0450155372931648,0.041144753660015826
127,0.045849925287508614,0.04244103898965381
128,0.045309240751111396,0.04236622770546973
129,0.04451770236124571,0.04001425227536963
130,0.046200999377413,0.04500533654791874
131,0.04486815861726312,0.043770888533616686
132,0.04518236175736339,0.044511076618623996
133,0.04612333064885448,0.04474174641454982
134,0.045834661484491244,0.043057524094147856
135,0.04595210080851706,0.04853554794178201
136,0.04620614895920197,0.04813797050688619
137,0.04663247166188072,0.04620482372421398
138,0.045985984163348384,0.04690532715610378
139,0.04584354034168638,0.04894896236196125
140,0.045867866359287794,0.04540762354361794
141,0.0461150594345993,0.04706728093814173
142,0.0461799011474176,0.04358767204709945
143,0.04641397665072378,0.04621742812191866
144,0.04622487326284393,0.045138303669729665
145,0.045857769451279055,0.04523618518865146
146,0.04572118298678423,0.0462083023044427
147,0.04475809198146839,0.04627600676088279
148,0.04557737579523064,0.044468135744239176
149,0.04525988036208301,0.04610766287549048
150,0.04529877641736318,0.043331214121668564
151,0.045542026373396195,0.04442467715888157
152,0.045570615914275796,0.04375516473012076
153,0.045416392328636014,0.047164631844296076
154,0.04463167783233235,0.04838031549785866
155,0.045150827953694676,0.04720610887953025
156,0.045364651409127446,0.04562064124699079
157,0.04532771917963795,0.04177903548770988
158,0.044719713231582914,0.0420479901449574
159,0.04495835119186879,0.04413285990111124
160,0.04420545423547808,0.05217765600677071
161,0.04519246205416538,0.04609589957012468
162,0.04384605478581717,0.04376760279523075
163,0.044388596747192643,0.044900463425040525
164,0.04471011198744428,0.03982796538077242
165,0.04363508718378609,0.04408494028797184
166,0.0424025514766836,0.038576722078925055
167,0.0430643270707888,0.04525316268317372
168,0.04332365698555558,0.042912112679788235
169,0.044128680549603665,0.043166987268634924
170,0.04476145521881316,0.04621544948704805
171,0.04519036179445654,0.04551273598184996
172,0.04388212473343888,0.04898156536171167
173,0.045075630577062244,0.04485657779116187
174,0.043181148681530564,0.040208531822935746
175,0.04289965058857803,0.041387602175279405
176,0.041643779878940086,0.039974753167877165
177,0.0420342884767208,0.04026321549447814
178,0.04084013680518746,0.038011605643329886
179,0.040409990115840136,0.037620634150756754
180,0.044117932555546385,0.043893747628558404
181,0.043321109830969866,0.042569602718363624
182,0.04367435710068396,0.042271573950654895
183,0.04116790506729691,0.03910906395883003
184,0.041158926850415584,0.03966270251774421
185,0.041464578643214886,0.03935619408372075
186,0.041014085375636125,0.04298872396132329
187,0.04091631614645536,0.04072671017852842
188,0.04390661113282783,0.04541607919401227
189,0.04228815661190892,0.03955764034446902
190,0.041932574917765544,0.04472186723937176
191,0.04158454518363201,0.04360254545826186
192,0.04441596194506168,0.04853670154981192
193,0.044692691558485126,0.045683512127507646
194,0.04479779917255437,0.04957980244187454
195,0.04316430203214609,0.03982473928525444
196,0.04217114792221027,0.04308826677448277
197,0.04232848663445857,0.042048973371675374
198,0.041025672931310465,0.03933345444718024
199,0.040561993456751606,0.03792755833246996
200,0.03988448280519504,0.04102187927727071
201,0.0411471449944982,0.03967678938840164
202,0.03908898672468657,0.043558452072558485
203,0.0393458059739521,0.037928775427738044
204,0.03940605281366052,0.039443072150648815
205,0.03898998239650119,0.03621631588172329
206,0.03804345835420153,0.0369335876332321
207,0.0387547417840869,0.042248637241259185
208,0.03776067098770901,0.04539600573774154
209,0.03727837649362384,0.04240484537311257
210,0.03676280674921404,0.034454218247918604
211,0.038062170521615986,0.03674984603661576
212,0.03687472781426996,0.03710422386292547
213,0.03629085583036109,0.03358297496916463
214,0.036384251570964844,0.03511086731102397
215,0.036464268280614574,0.0344983519267382
216,0.036127020923538415,0.034904957571799775
217,0.036241205611663,0.03643759550128335
218,0.03639345089767238,0.03295370630020218
219,0.035593129242573095,0.03430904192819121
220,0.03500464827277892,0.031993540271458044
221,0.0354985890502064,0.034044742523953495
222,0.035573109313637184,0.03242151416550025
223,0.035139879676328,0.037369715787864334
224,0.03631276356504499,0.03698431901874839
225,0.03544755184428869,0.03337790583566878
226,0.035530064737410855,0.03355269154332337
227,0.035342769890868785,0.03242469975914462
228,0.0351501285745431,0.04703802295505483
229,0.03455436656803941,0.030532238368406576
230,0.034869007128242445,0.031963043923371404
231,0.03544065882589558,0.031168594976979724
232,0.03605481151857679,0.03732570007167045
233,0.03515302727697231,0.03730441777780946
234,0.03454155962673022,0.03329524620573589
235,0.03501663260090408,0.034878736717630865
236,0.03473551626533842,0.035184278459403584
237,0.034384883791327384,0.0374069830715868
238,0.03423634748667669,0.04200947563874741
239,0.03391155894610474,0.030756744733278735
240,0.03356019930272318,0.033168289942730106
241,0.03307071859858257,0.03279743637175144
242,0.033142185676172914,0.03016733908004053
243,0.032996840366303064,0.03696620865374357
244,0.03374607569659404,0.03305943892282252
245,0.03373846921810715,0.03579256114356614
246,0.03334913987198846,0.03308368166989478
247,0.03289472055416718,0.03540941047604948
248,0.033528552346711725,0.03351180521652232
249,0.03382318795805307,0.03065997443140588
250,0.03281426421782786,0.03200309626440552
251,0.034000982750031494,0.032985552433869365
252,0.03308159712222602,0.029839752490419803
253,0.03309938387884249,0.03425187611806882
254,0.0329081085142043,0.03243101772506028
255,0.03341720033389368,0.03182925556322535
256,0.033727271313355456,0.03029791548724662
257,0.03239733887557908,0.02989391611643494
258,0.033135480636791836,0.033586697795537857
259,0.03329357104621631,0.03513782097860265
260,0.03369719099676271,0.0334067429035855
261,0.032720769401922596,0.029838843206450895
262,0.03246635821857136,0.04097646866184854
263,0.0327071666585015,0.03591272935577049
264,0.03213926973111695,0.029388553151991674
265,0.032567093783854056,0.030729790108650335
266,0.033078605430476145,0.03051818398304501
267,0.03271515958225556,0.03401618498806043
268,0.03256302935813519,0.033638892020521526
269,0.032558193337246716,0.02802737003402533
270,0.03364623268451288,0.037000122289713576
271,0.03281965277654281,0.0316067974964464
272,0.03299304559308705,0.029521829124478344
273,0.03210290163966844,0.03210230686517334
274,0.03250275939318845,0.02976045937916145
275,0.03280057503486709,0.03446539129323863
276,0.03234998277536661,0.030837951583792208
277,0.03161472098590683,0.02895768012207563
278,0.03274338892240414,0.03137824073251581
279,0.03200331887678443,0.03809122042179155
280,0.03245572657506767,0.0329843585106714
281,0.032142618245227066,0.031088352429768
282,0.03142956499498692,0.030123890531208918
283,0.0324133596435892,0.03842421275752449
284,0.0317569445315406,0.028544104038410612
285,0.031874526627093766,0.030824923313030973
286,0.03235193451183091,0.028401001742449253
287,0.03176421357942619,0.028560597498055132
288,0.03223198835554121,0.030456852935248694
289,0.03293969901390285,0.03066147708325943
290,0.03081874078590807,0.028355286826380333
291,0.03199791118017228,0.033043089614565105
292,0.03171103323276023,0.03204702852762818
293,0.032564482391089035,0.031222271517613035
294,0.0327365630128377,0.03549502296895141
295,0.031537365587465435,0.035026287576205725
296,0.03181068198852163,0.033170206451695924
297,0.03209252322880294,0.0342511969891207
298,0.03212971286736518,0.027430693400640044
299,0.032461891483089665,0.031534106214108105
300,0.03196592832566332,0.02831538015242957
301,0.032017336760779364,0.02989233962768114
302,0.03321663009599864,0.03095450660694558
303,0.032154665976989086,0.035761663443228814
304,0.03254833266579752,0.03042363150349591
305,0.031500974351794817,0.033717956067589955
306,0.031901634715163975,0.032378460301913985
307,0.03297004858545548,0.03324328801038233
308,0.03279074415085103,0.0293629115231294
309,0.032035549906797876,0.03255638619260046
310,0.032065815162017855,0.03136690621482592
311,0.031758511666399085,0.026636829670303997
312,0.03157709901787632,0.034088378841235306
313,0.0323184208347381,0.03055182508918462
314,0.031237154475433362,0.030120318308590244
315,0.03198745653858121,0.03501945348851965
316,0.03224339826013163,0.028688566584284134
317,0.03210225401015924,0.029671508257278045
318,0.033087601568058525,0.036681048939594056
319,0.03220947267789897,0.028932012272109266
320,0.03174274645858913,0.03121512141240424
321,0.03365791006033107,0.033940948560633996
322,0.03361128832918587,0.033379781369381564
323,0.03264286389930261,0.030237872463716422
324,0.03282122091382003,0.03237645095471519
325,0.032966414819375504,0.029701748949599812
326,0.03343173207344411,0.03143766618994577
327,0.03360218155256612,0.03071588871158195
328,0.03245451256594093,0.03205964812639904
329,0.03232020563516709,0.032368753777247954
330,0.032390515338614596,0.03530331728531558
331,0.03222678653630826,0.03229759712045646
332,0.0322413685788169,0.03540708804716251
333,0.03223612438068449,0.04424297755500324
334,0.03174939870962398,0.028572304078746048
335,0.032778083515032634,0.02897107002531908
336,0.031929345699481304,0.03475861911439199
337,0.031793766453278534,0.029890570951289046
338,0.033265394891956915,0.03139435698667096
339,0.03206327896145322,0.030069347387201784
340,0.03197353549203355,0.03133066780659375
341,0.031517318246676196,0.0388704702293393
342,0.03275131967609568,0.029163388854396937
343,0.031990428057631,0.03504324035208905
344,0.03282983173957939,0.038133505202576974
345,0.031794228142858455,0.028906229557065205
346,0.03205944281920112,0.03190999526027723
347,0.032123855716414115,0.0306045526025586
348,0.03238347514445404,0.03541715898578244
349,0.032432964054508795,0.028604680101880428
350,0.0316644468673056,0.032199824643457324
351,0.03262925480710541,0.03177360067292519
352,0.03284984142508367,0.037593686241647724
353,0.03189218154535901,0.03579852777373725
354,0.031871322750134004,0.02957019844660631
355,0.0314529037161125,0.03208607239994179
356,0.03142413027959762,0.028201219979335494
357,0.030706158509741514,0.03586435117027425
358,0.031950153545926896,0.031250067522724315
359,0.03207360173342563,0.029561339309343505
360,0.03247293445700817,0.030435819252325778
361,0.03245512371083244,0.032370648112356806
362,0.0302655007853973,0.027370758484034623
363,0.03051333270704956,0.030269651461301495
364,0.03201233255166969,0.03035078831340444
365,0.03261343511990268,0.036330992804330074
366,0.03141610656710837,0.031103901838517696
367,0.03114657536920288,0.028131060791808316
368,0.03233571031274531,0.03915536669601158
369,0.03151627081773169,0.032755411649747636
370,0.03175404159981999,0.030759831427375255
371,0.032234634595850915,0.028469773770942872
372,0.03053444821080811,0.03389775281111933
373,0.03238445134694985,0.03389316282860623
374,0.03076995624308225,0.03376933398796944
375,0.03169091406474106,0.028600145986960833
376,0.03070349961840849,0.03312589197868706
377,0.031201303772014872,0.028403883100132258
378,0.03197415438082388,0.02930828692404746
379,0.031585992290843114,0.02929735223703151
380,0.03190636544895591,0.02864461323803536
381,0.0313017393807046,0.03219366618288768
382,0.03084459757546989,0.029378090518355465
383,0.03138358379639,0.03079807108537174
384,0.031145659179317293,0.027242324220188602
385,0.031847706684719125,0.032458116489314806
386,0.031247417398577303,0.032029843929605215
387,0.030276494312117236,0.03219435697872759
388,0.03137082886323035,0.03135375835548354
389,0.0323683298070082,0.03017938908868732
390,0.03188755945097819,0.027248552308697917
391,0.03132711543584708,0.03615327872006603
392,0.030857753362223732,0.03509735981856591
393,0.03098682637105314,0.03291093645986366
394,0.0318898619967792,0.033141090313374005
395,0.0313660248073278,0.02725552552142243
396,0.03180327898131119,0.031012569787164514
397,0.030477185211003684,0.02901675205033834
398,0.03078110038684748,0.029326790260134857
399,0.031546553953823976,0.028123517859588953
400,0.032130579115729106,0.029675294329789367
401,0.030501279423086287,0.028840598574565356
402,0.031861292929362524,0.027259252412684246
403,0.030617084372029316,0.03351569559128151
404,0.03155807117454344,0.03242448245740445
405,0.031284146140412174,0.02754651802873508
406,0.03107768434250979,0.03653549989384041
407,0.031220510596786138,0.027879868540692347
408,0.03168253175732639,0.028544880066069922
409,0.03136650302695285,0.031032043924494906
410,0.031885596173856376,0.03191453507780182
411,0.032115275796642785,0.032027779076463044
412,0.0314884999763968,0.030238434500351324
413,0.031550091706204424,0.03086187032322622
414,0.03266236052098725,0.028930389156951713
415,0.032256579492613374,0.02848128876968595
416,0.031542202221046534,0.030653325313056843
417,0.030507126252809397,0.035484399500978495
418,0.03193418492230294,0.027621925049171075
419,0.031043788436785354,0.029786353970524263
420,0.030809799528611508,0.02812118026565381
421,0.032010784622082275,0.028096097203202386
422,0.03146431456021458,0.029610467960009823
423,0.030791376459060146,0.039702058332401084
424,0.032535628264518286,0.030756938324883968
425,0.031329186010858615,0.032898137803118156
426,0.03341352428829999,0.02979119213175943
427,0.03264435589667871,0.03676135924768994
428,0.03189136723144282,0.03736304151866035
429,0.031188270121777086,0.038186441293984484
430,0.031688651935064156,0.0347893389313825
431,0.030985082042210704,0.029327176795021323
432,0.031200699959334423,0.03604406851101975
433,0.032145271055418236,0.03158406523992061
434,0.031633401847184654,0.031780952123165035
435,0.031851457140827585,0.039362026900405855
436,0.03156578500079904,0.029531719992209254
437,0.03134541665550045,0.03702039568263805
438,0.031362174832218176,0.028875649800111012
439,0.03186004381808493,0.029338578184171276
440,0.03057014168449324,0.028753212356870814
441,0.03117357045605624,0.030306491662690088
442,0.031188189784596435,0.0332350419700475
443,0.03130774121347377,0.03542515259433094
444,0.03233749172884783,0.03208181048995553
445,0.030705194872655838,0.027938443782203483
446,0.030744221594503268,0.03636770417153741
447,0.0316875072056167,0.026921378854359336
448,0.030236962364523483,0.031402388165668885
449,0.03131314792143974,0.02959970084784204
450,0.03125419775373954,0.031050062425957953
451,0.030440956264061274,0.0309732039330414
452,0.03152152144988116,0.03495426961730198
453,0.030592350431417913,0.029577567391303364
454,0.030822483651104758,0.02831056133947602
455,0.03087705729840447,0.026351105855467665
456,0.03068160807876159,0.02882708433424523
457,0.030556319877028847,0.030579967413982632
458,0.03079406999581628,0.030216495883551846
459,0.029697015304952192,0.03128035703046216
460,0.0306021079628004,0.028516907428686036
461,0.02957014572977138,0.02746841461260251
462,0.03022606473871701,0.028947676816439196
463,0.02950361276493608,0.02863164093410089
464,0.03110810623561545,0.028414284550212176
465,0.030086599365561652,0.03567002910529664
466,0.030824330001831244,0.029285446490031015
467,0.02947921570923498,0.03029245160367184
468,0.03077516947343624,0.030198010822556673
469,0.030178672983962523,0.02779139470729474
470,0.029731682622708457,0.02922982439081219
471,0.029958965029749127,0.029130645587322933
472,0.030659733613734124,0.028203322150066035
473,0.030733657534048855,0.03154928499763653
474,0.030527020002797924,0.030508101940590185
475,0.031088837674803298,0.030683820241005192
476,0.030780370012565936,0.030677348382671048
477,0.030863940825970243,0.0408844750451002
478,0.030451961935570034,0.02960940331055973
479,0.030694056323898447,0.029246584809993134
480,0.030667680726616645,0.028203419707392083
481,0.030034721412842604,0.02988845236811143
482,0.030154663804385494,0.030241908017478312
483,0.030272784763850348,0.028479971569369607
484,0.0305803840656837,0.02713074998955089
485,0.029816215375823966,0.03361437221417158
486,0.029478557117515618,0.030221570956490598
487,0.031162248755381594,0.033915944219564675
488,0.031270377607428006,0.03218488935778107
489,0.031424021104173507,0.028036652453355463
490,0.030210883531579486,0.02671097196203428
491,0.030559944879296395,0.0292502299947892
492,0.030598292139907488,0.03225450486609243
493,0.03042810098926941,0.029102461134695876
494,0.030107135424385967,0.028388295565226835
495,0.030857878347053277,0.03159513412412453
496,0.030551130121438314,0.03113024853663879
497,0.030188680484259635,0.02776754921524188
498,0.03036222994315634,0.026235986586980634
499,0.030230974905091607,0.028671929370185572
500,0.030449652756236012,0.0268677481036301
501,0.030678477256650405,0.031163137091504558
502,0.03047982278130323,0.032748448419154585
503,0.031028584362737994,0.031384154707310985
504,0.031244495830727186,0.026578049986213798
505,0.03046467738727824,0.029701148583932288
506,0.030560368157589703,0.03154658674664543
507,0.032180851382716334,0.038086797273184904
508,0.030717799958172178,0.027492695490975924
509,0.03102183529956759,0.03714273886456674
510,0.030089053559116275,0.0306350054085584
511,0.03153316863253415,0.03491283904969834
512,0.030324752375537115,0.028296075226193634
513,0.030314046299929242,0.031156461954928327
514,0.030083822669367568,0.030165229560167844
515,0.0298537213807936,0.03000576261228102
516,0.030543597298953458,0.027397738313912498
517,0.030315339623717404,0.02716276230071484
518,0.03029326153479868,0.028800513144015043
519,0.031218700649530935,0.026981225906156044
520,0.029891316860104256,0.03258034053693019
521,0.030649624481279072,0.029547630937883207
522,0.03102016872350427,0.030156438529267967
523,0.03152035519876759,0.03383285273969079
524,0.030732276414682586,0.026845399371179992
525,0.03116898126840639,0.039198766774905885
526,0.03005156291799127,0.03058652662846312
527,0.030425229176080867,0.033154466419518226
528,0.030078351907104516,0.02898788580049091
529,0.030816360301584553,0.02694480290934855
530,0.03106684993571348,0.028676133363227628
531,0.02966782406380446,0.02846567718431224
532,0.02951547414210322,0.027220518855288353
533,0.030059065409957602,0.03094292095852773
534,0.030728631503254677,0.037757643140505504
535,0.030409384370713735,0.029828827015191153
536,0.030324618242752496,0.02592766377854366
537,0.029986173186978275,0.03811098678565298
538,0.03215855362413408,0.031247343281438338
539,0.029922010129887898,0.0278970648835236
540,0.03081421407355036,0.030946004904230325
541,0.03079882033353896,0.030869131740226742
542,0.030573856690042405,0.03448750862106387
543,0.030469658343846517,0.029568970009343495
544,0.03079548328340673,0.03399049435119603
545,0.031869375323735294,0.029940054551260906
546,0.029746448812480692,0.02845113726675322
547,0.03082108351109411,0.03209311590510132
548,0.030225462520675216,0.030279127750090003
549,0.029831904025344875,0.03947279020708757
550,0.03191431332826257,0.0351687256208582
551,0.030123255159006084,0.029112442781018193
552,0.029057011758680824,0.028059549775230386
553,0.030917981690872346,0.03326627885850754
554,0.030083738865225102,0.029826856721795348
555,0.029987966177983584,0.030923422589168928
556,0.02970508443225893,0.027197801211779758
557,0.03106470011788116,0.02513958413033337
558,0.030397527582413382,0.03043456111858939
559,0.029815951590057756,0.029267534757681315
560,0.030747368094994485,0.028052190381918918
561,0.029599811891458636,0.03153054399861298
562,0.03154235487382451,0.03509737164570106
563,0.030220543363427135,0.0263063824340854
564,0.03001017117579516,0.036750221260380064
565,0.03001245015079705,0.027774432102172696
566,0.02964182126877024,0.031067317939747856
567,0.029898969730143426,0.02718745088814842
568,0.03025393881615427,0.034566410595952474
569,0.02872707500761981,0.03112599111199614
570,0.029455579856007125,0.027466083755503513
571,0.029147467782927886,0.032573978315918295
572,0.028934956190260434,0.02891303400708261
573,0.029685628027554683,0.03007764994051387
574,0.029496759716361808,0.03548470563045758
575,0.03070848942291346,0.03131468267266028
576,0.029671409599882046,0.029075817655604377
577,0.029332217289139328,0.029242072530802347
578,0.03008314363619716,0.029614067517350344
579,0.028911054163402932,0.02750641178713131
580,0.03002961872176801,0.027725105887630275
581,0.029782053759153323,0.027767932646699845
582,0.030263800485927663,0.026604580899499117
583,0.029710641887178906,0.027525472526027633
584,0.029901086095926,0.033534174113172006
585,0.030423054575836724,0.027596919537884283
586,0.02949193911291927,0.028262768395027497
587,0.030123488637332104,0.02921308047669604
588,0.03136517679010578,0.025896736195762278
589,0.030724463519825638,0.028614861230588654
590,0.030420413088175557,0.027300518469174924
591,0.02996676709193239,0.029863581975779388
592,0.02983377377936642,0.03198117985233559
593,0.02983905945038743,0.03049326195119165
594,0.029661922510877122,0.026574976636418793
595,0.030478003769844986,0.02875704146133649
596,0.029757026718448487,0.033378168634758655
597,0.0300909345031535,0.03268934388504596
598,0.030282296211667937,0.025746407160783906
599,0.0295698489669225,0.026288067689716768
600,0.03058508165972791,0.028564587301606256
601,0.030797575388273463,0.03203627956265197
602,0.030133471627318435,0.034280011417151625
603,0.03054330898724276,0.029059898503706882
604,0.030824517635040457,0.030334455035362265
605,0.03164240460080518,0.03053215687951895
606,0.03099822865904783,0.031003809639127026
607,0.030638228312021586,0.038535359288376904
608,0.03130045283710856,0.02922407407298884
609,0.030880647150875566,0.03273040602673154
610,0.030683994264923315,0.027566231776913884
611,0.030648951781995528,0.02998897385943002
612,0.0317642377149001,0.03092328366553727
613,0.031533148610215486,0.02868984858251832
614,0.03019783946556701,0.03004539281059271
615,0.03164457751484178,0.03141700447887629
616,0.030850873588562772,0.03147752436896714
617,0.030883598681851972,0.03509780342360604
618,0.030689322120911307,0.029096590168333093
619,0.031005964351655674,0.028781004372069756
620,0.03010834191034702,0.0315361264622649
621,0.02923115662341531,0.0279669871005423
622,0.03041604739263189,0.030677757772081184
623,0.030098029349794348,0.030895543331023078
624,0.031749598888142834,0.02754147540286901
625,0.03160807734681405,0.030340949587976736
626,0.030852623983285577,0.02960133941104634
627,0.03025458224987288,0.026460609023165965
628,0.030670620809993346,0.02984708889028103
629,0.030490823060297947,0.028541410036073394
630,0.03220805627249961,0.03252769753354548
631,0.0323957310078277,0.02933005378791076
632,0.030352700387777612,0.027786381755850402
633,0.031678077464790746,0.039101093617909616
634,0.030690882231393973,0.027607822774570575
635,0.030309759837528354,0.03375505431369241
636,0.03131937454837999,0.027986514473211935
637,0.03169814148898438,0.028686112181034347
638,0.031466228914239426,0.028282722053959694
639,0.03017456982386031,0.030071918299126175
640,0.030691042065257124,0.03336754530938761
641,0.032544952107044,0.029301343448959943
642,0.030613350196571038,0.029849612528212728
643,0.030870121098953568,0.03678529039054709
644,0.031106561283878,0.029994375793514706
645,0.03178979933327384,0.029765913845131785
646,0.03303290080192754,0.029660336026405856
647,0.032077268138230086,0.030830083247318264
648,0.03198311417076966,0.02759433489795642
649,0.029896785986783216,0.028583000933761756
650,0.03240863741006997,0.02839020381504471
651,0.030616531830480534,0.03079777370018101
652,0.03133304720501796,0.031830908089652714
653,0.03064269308658908,0.02887048958356021
654,0.03190243068254656,0.026836860598592
655,0.03154964660920447,0.03657903591936841
656,0.030790452337671192,0.02816978017354844
657,0.03137322282753617,0.030483395071448826
658,0.03126720895024417,0.030717451523786563
659,0.030414255274881084,0.02676545580424186
660,0.030557627100303925,0.030717466877745472
661,0.02978734968179505,0.029234068603464346
662,0.031036981875054555,0.04238940023279792
663,0.032437131485546666,0.03680658771199981
664,0.03178110181671872,0.02925071295794767
665,0.030562406067820572,0.031288322439121746
666,0.03183310174440546,0.031662663859451205
667,0.032459845982319255,0.030566656948805983
668,0.03189650126848278,0.032105515222193785
669,0.03330377315124162,0.03607254200589262
670,0.03274348173603165,0.034564851816293755
671,0.03251221739753283,0.041724119755868004
672,0.031042916500728,0.032852622778129184
673,0.031473299255408496,0.030563058494792364
674,0.031452065759556565,0.030680495832518227
675,0.03317413529936525,0.02840324650035661
676,0.031990650366041824,0.029121904664076777
677,0.030826981101247618,0.028301846652035178
678,0.032569015938356864,0.03170043890435769
679,0.03096157874313476,0.026836915203350308
680,0.030813383182687917,0.027381225313400318
681,0.031673358564230085,0.03058768698435509
682,0.031726694994901626,0.031548127686368166
683,0.033428542341271655,0.029736308724970073
684,0.03163651564567209,0.027277004139846295
685,0.03165368527415202,0.04203177967359442
686,0.03230381429234116,0.05052821910054362
687,0.03318357857600819,0.029004544401930933
688,0.03457639818277052,0.03750134459693035
689,0.036519154117887115,0.03488604799089417
690,0.038721136520985217,0.0378447042317986
691,0.037183256458779936,0.03573264093406575
692,0.038487303283640285,0.03612010986430257
693,0.03818261085880651,0.03600217020778602
694,0.03830835476687415,0.040321408715848855
695,0.03992663113494142,0.03995587756003135
696,0.03963724445688615,0.04184550935021751
697,0.039013584300750595,0.038022574332808076
698,0.03896839296122154,0.03921664542656013
699,0.038583186481871624,0.042660434073941295
700,0.03876871194654732,0.04128676298167777
701,0.038401694320660415,0.04219010166071161
702,0.03543274895214348,0.035577938751550575
703,0.0321069327626023,0.029702225608873197
704,0.03016510352694826,0.030226094370388853
705,0.029595884564462945,0.029314301763944204
706,0.0301903002187431,0.04066230133234655
707,0.02996280342027795,0.03482874941107271
708,0.03065282153896243,0.028532880963353352
709,0.03084586170627821,0.03149831340587224
710,0.03037139809475266,0.029109519904136846
711,0.030966695644881585,0.031930954821096126
712,0.031153984842070048,0.03675244815776973
713,0.03198818002956257,0.029265794018026214
714,0.03215137048573088,0.035320198689694
715,0.031673558200780244,0.029613576123774663
716,0.03223917968824303,0.027149398689876415
717,0.032220607467120785,0.03392987679793031
718,0.03160053146236258,0.03237203684148115
719,0.0322695153346248,0.038701555107285776
720,0.03162624791106708,0.0289034018867841
721,0.03189542425794901,0.029819254742107622
722,0.032263346116909446,0.029259708153573472
723,0.03228482993380676,0.030758747187073342
724,0.03213389020087086,0.03248700572599693
725,0.03402215308494133,0.03182789349183146
726,0.03215541409851193,0.029428214752118983
727,0.03152257553580925,0.03443307697114365
728,0.032006950083402375,0.030173648134073878
729,0.03149987277846566,0.03011575685380337
730,0.0328000320001043,0.03583577746891467
731,0.03347492773014364,0.03743684408567322
732,0.03296820832554885,0.03304178341664521
733,0.03293526868561475,0.03030566728270327
734,0.032236564257513464,0.02982335429912067
735,0.03165191058054578,0.028555357312723323
736,0.031566826768850774,0.030284076670350855
737,0.03270631412462555,0.03421196924124116
738,0.03190442475584819,0.028331296805118894
739,0.03615635175549751,0.04185024737406172
740,0.03992692741910092,0.04750645909849451
741,0.04146828084028691,0.038902649919090065
742,0.03886125621636756,0.03713490478635634
743,0.03753245713711857,0.03391414214934104
744,0.03845064419148256,0.03826901127438002
745,0.038031244850743544,0.03724727476781621
746,0.03925213384122657,0.04200635516417713
747,0.039368644454996646,0.03646965409410734
748,0.03903293010773514,0.038796839563744974
749,0.038396802549953944,0.03677870456832031
750,0.03646114388693699,0.03582866260548135
751,0.03631338377376731,0.038342401794001356
752,0.0345724728449786,0.03209021686184519
753,0.03411977512197648,0.04288390152532704
754,0.03316347541914379,0.03300193978889589
755,0.0329317090769323,0.02987280997705676
756,0.03307344687121402,0.031210907638637493
757,0.03289869190197435,0.035104575658830114
758,0.0324031129981176,0.030124678899076104
759,0.03210979133366431,0.0321044631305297
760,0.03303268223481296,0.033002235267337796
761,0.03187022773849724,0.031898913688181464
762,0.03285155262422862,0.037186425248338845
763,0.03206377944720687,0.028712263496205998
764,0.03218602249510497,0.02850605254432726
765,0.032067162031642824,0.031645083072247615
766,0.032079471229053705,0.033483978069807095
767,0.03209865990382948,0.043345843364602954
768,0.03246522047813776,0.038469323528241055
769,0.032204412299838905,0.030572363693669922
770,0.03237171856527158,0.03277095446205788
771,0.03207113382463856,0.03420830281023539
772,0.033043305857850015,0.03631644472244601
773,0.03285576852721919,0.03817314372325188
774,0.03324977743203382,0.0409928917540818
775,0.03337764358378762,0.04181617101905801
776,0.03278196171643756,0.02990119351366654
777,0.033790821150737366,0.03861528018896704
778,0.03249934990387812,0.029635161817097345
779,0.03301351427061142,0.03414938401139761
780,0.033975207983113404,0.030504629099719526
781,0.03415555152506065,0.03226561922118385
782,0.03593073488041151,0.04047703433667193
783,0.03573077128117652,0.03313216138351782
784,0.034433036021959726,0.03388976622240555
785,0.033770106681477396,0.03277136974518894
786,0.03650005446072462,0.031557051723656825
787,0.03679566287087927,0.03784183281802388
788,0.03914183424971849,0.04094520497893666
789,0.039061978212941134,0.037692646146843825
790,0.04224964290809669,0.04784319234310687
791,0.03976524897741614,0.04351943562684938
792,0.0377986278641019,0.040671200631884674
793,0.038182472395483585,0.043527140326933215
794,0.03897491907946569,0.04016837530461417
795,0.03913162625599489,0.03928170685862921
796,0.03924430291474366,0.042719363770796825
797,0.03906704734215776,0.040467941098579666
798,0.039312425548944784,0.04765309239337081
799,0.04407206649105135,0.04332072735303203
800,0.044442199607588925,0.042856419192893166
801,0.04177703931600117,0.04258358889445368
802,0.04151558283073225,0.04007530187557274
803,0.041344505664762214,0.04076549226466652
804,0.0409697916226195,0.040275796184988125
805,0.041827398399970565,0.04611807500601003
806,0.04104338419719709,0.04430268454529351
807,0.03997316522498449,0.038426991940226814
808,0.040722960851890005,0.042608697696544094
809,0.03965780660316503,0.03528462191889299
810,0.0358164281086277,0.03340927648910078
811,0.03456275385516367,0.030977031308643068
812,0.03301423043608189,0.03953627963133609
813,0.031678703417785635,0.0328997302044774
814,0.031390910364797624,0.03132879534690702
815,0.031930981416829964,0.03141504176543186
816,0.03150791944496685,0.039006432055274425
817,0.03115602549825081,0.02758179213954599
818,0.03170289424732685,0.03496837627433752
819,0.03170022904220745,0.035364902336459135
820,0.03186269059738548,0.03434573699468078
821,0.03241883344698152,0.03025180996258191
822,0.0316979612054811,0.04119553021798476
823,0.03322718030200612,0.03240963697856867
824,0.03181703606595119,0.031810793643427725
825,0.03356849609745397,0.031198210748178617
826,0.03308400802900918,0.033752233867593046
827,0.03322633356898189,0.03080384606008889
828,0.03495260897344894,0.03533224813381376
829,0.0336085274624977,0.035816216207717286
830,0.03315488177818431,0.03411097021298608
831,0.034486958772676594,0.03317338670144518
832,0.03580320658136924,0.033771521278790066
833,0.03429502405398946,0.03863157276666908
834,0.035576086217384166,0.03305329054141242
835,0.03524744812679067,0.03858557509312784
836,0.03536769307831185,0.03636379347086517
837,0.03420768487605927,0.03549650120354113
838,0.035507275483948435,0.03249708032522177
839,0.03534360421817008,0.03797384542460835
840,0.03495128796421748,0.03583343176798926
841,0.03478391299457501,0.03465000749363519
842,0.034623671267226305,0.03468662614462972
843,0.03450607638999665,0.030741849095334946
844,0.03507351468381979,0.03426062604875525
845,0.034290562275883486,0.03527529566345153
846,0.03365335871370957,0.037815997400559964
847,0.03507114455199165,0.04300767205502682
848,0.03583889394748411,0.03839753270472658
849,0.03503863223873788,0.037092220992285055
850,0.03541438151404059,0.04388428688631485
851,0.034839963608180924,0.03370560189795804
852,0.0353732838308056,0.03356784075092827
853,0.03595268936957315,0.03339955616880564
854,0.03519844650465855,0.037278908160063066
855,0.035606927938943954,0.0308433153343864
856,0.03525666263606623,0.03285103241435966
857,0.035630707850874806,0.03149555132657454
858,0.0354467976903863,0.03366007697169435
859,0.03442055646398609,0.031867264833921695
860,0.034797784561912216,0.03238320844608117
861,0.03430640039821085,0.03204357559515579
862,0.03558360953196633,0.03705356955886969
863,0.03348509126903413,0.036842962234459625
864,0.034048308064486624,0.03480465045961792
865,0.0329023006258251,0.03317666780894538
866,0.03299872468536099,0.033041941525374895
867,0.03347572004519325,0.027010551426668476
868,0.03082958837639061,0.02995812727966079
869,0.030920309719252144,0.03329371516140738
870,0.030794346340292458,0.031325067896998675
871,0.03106340543135441,0.03554472479537047
872,0.03137419842403951,0.030568318096031423
873,0.03172349544550232,0.03397528301768634
874,0.03190610617128231,0.03199044714116542
875,0.03289176812723017,0.03391719566865427
876,0.034976418911785385,0.03521911727283635
877,0.03331978212026574,0.03420029121326854
878,0.03405794754645212,0.03228902285470206
879,0.032445208260344326,0.029962202614936286
880,0.030162826805062097,0.030128228625880986
881,0.03143387600827179,0.02864433913223369
882,0.030564981335915512,0.027274813528019044
883,0.031638895651306224,0.031102374041689692
884,0.03323801592599859,0.03473380381195867
885,0.031197704171551932,0.03575004445978432
886,0.03435176054014267,0.03118469762515156
887,0.03131911806467411,0.03005111531663948
888,0.03360258447278818,0.04151911501667588
889,0.033168625948261275,0.03523361054855533
890,0.032151068401464124,0.027249276989390274
891,0.03461799910701484,0.03119075694213303
892,0.034376978183345355,0.03507955796757879
893,0.03514333250973341,0.03532037312707378
894,0.03534831434896262,0.03840513415222998
895,0.03519265668289505,0.043947411414409304
896,0.03478263744668995,0.03907058085296553
897,0.035503895997220904,0.03204323751550541
898,0.03393695998838622,0.044784733431668104
899,0.03516350979570576,0.03588308866452587
900,0.035101691862459566,0.035831459860399
901,0.034537613991168524,0.03363808444844472
902,0.03216888188502843,0.038694370382163314
903,0.035008847448441814,0.035593298643874484
904,0.034546074578069526,0.02987181658150177
905,0.031155808897261664,0.029982510532216473
906,0.034677087528099546,0.038257662833160365
907,0.03510257706111617,0.034530828285730064
908,0.03538122853721313,0.03869720280829055
909,0.03344877869959811,0.0324386372771217
910,0.03293657474976173,0.034049083207511203
911,0.03279237122052341,0.026496692131337398
912,0.03282465598137259,0.03074116018566214
913,0.034035440774070176,0.03855204544579221
914,0.033901626809978845,0.034675749071712746
915,0.03420650186411721,0.03556181110247628
916,0.034850582877973574,0.034349846930758356
917,0.03452202925409416,0.03530107697746889
918,0.032763554720575815,0.03589918806813745
919,0.03321663259664814,0.03754961088552612
920,0.031246092987896726,0.03152574051315613
921,0.03503189337172573,0.036059220939662955
922,0.03355437483739772,0.029246104135080265
923,0.03265822513310386,0.03714791334718583
924,0.03277798140009078,0.033037092711632424
925,0.03252890712613587,0.031099332645006226
926,0.03162976747585668,0.04719186068204509
927,0.032694835221018195,0.0316766526435385
928,0.032660310254167976,0.03487807390263162
929,0.03300510519977025,0.034883108482517494
930,0.031279868946569284,0.02890370391976697
931,0.0335946112236888,0.03129376052204746
932,0.030810421734726687,0.03135889993529199
933,0.0325533904933291,0.035569617612950424
934,0.03240206041451481,0.029344292028256544
935,0.03239840860340854,0.02827000232661862
936,0.030058232980291193,0.03117995865013812
937,0.032518372623820145,0.03105351873236137
938,0.034856700227498344,0.035301471875882
939,0.03495574589047453,0.036683748722452766
940,0.033893589553483525,0.03374764369690428
941,0.03538342142517833,0.03590520654658728
942,0.03355470604875939,0.032529579650466614
943,0.03467584895543296,0.032676624207689055
944,0.03374309495812078,0.03446336666264681
945,0.03480393299497932,0.03447842821126014
946,0.034648440537794076,0.038241487596222236
947,0.035165594802122654,0.031821389481919246
948,0.03497427301205915,0.03669397527500458
949,0.03485799638954975,0.031078545181132154
950,0.03448847573113551,0.036582401645646946
951,0.03423248575129312,0.02822169344857535
952,0.035159121807977305,0.03364616143645832
953,0.034510894846781597,0.03786425089468002
954,0.035408111317433134,0.0347711618125274
955,0.03365609283781618,0.029170794440426032
956,0.03216382219410724,0.03309671497141506
957,0.0331459620954107,0.026450059339903947
958,0.03354296043402047,0.03731840060055021
959,0.03421727943790259,0.03609650917851088
960,0.03447394932268097,0.03352656769371447
961,0.03324901115828209,0.03172603720430088
962,0.032062004415614666,0.03720998307418052
963,0.03442068213669897,0.03467722691083952
964,0.03318176766281291,0.03509647635729791
965,0.03447990914692076,0.03350282854002907
966,0.03510332020367388,0.030434800100225395
967,0.03388530791005333,0.030913668256120692
968,0.034378111660986733,0.0423542338628513
969,0.03544271630134514,0.0352121133316123
970,0.035809306235765094,0.03504716511448256
971,0.03507440659976144,0.03558011133232593
972,0.03353892040545408,0.03249982436170659
973,0.0333819549164469,0.03416786876219695
974,0.03319023224822194,0.029747112085947203
975,0.03577131393338017,0.042229730094876364
976,0.03649147469207918,0.03870117719907787
977,0.03537772420710392,0.04039713308279827
978,0.03438720431291967,0.03277523373419032
979,0.03528681412029514,0.03976514777896342
980,0.03488225827468552,0.03715524681194758
981,0.03418620433926368,0.03245736005691769
982,0.03479884786130808,0.034621284699806944
983,0.0334170844039614,0.0316318193701961
984,0.03451107667504455,0.03382322143531025
985,0.03359856410882622,0.03331720106738848
986,0.03218357622039785,0.034262958311291315
987,0.03213712207594816,0.03178465683174914
988,0.03281037695780337,0.026539760657189958
989,0.03252434858279549,0.031672672697158434
990,0.0327315798735054,0.03688996740644055
991,0.03372555921043304,0.03233873913683521
992,0.03395656765930706,0.028305446974574437
993,0.032932092163184705,0.03536897116644277
994,0.032373035784444504,0.031901177653973746
995,0.0329400968494461,0.03281590313560255
996,0.032339359668614294,0.03275380382974409
997,0.0345797654766914,0.03747871697342998
998,0.03428464144956675,0.033485742047687825
999,0.03690975929627554,0.03440297523479623
1000,0.03519070317758788,0.03507136179967809
