epoch,loss,val_loss
0,0.1612014297267897,0.11344067374245802
1,0.10030857601659379,0.07466786723486908
2,0.05804912199219354,0.04978899766221325
3,0.04346101909732933,0.04131727247265915
4,0.0420586291096098,0.044871565092710786
5,0.0674053889295037,0.08488042549110343
6,0.09175596982955361,0.09194667989589515
7,0.08499484618218968,0.08671037201793907
8,0.0808159179515023,0.08094114466219693
9,0.08006413286919598,0.07708418556292788
10,0.08108834837742751,0.07667448758585019
11,0.07929062076824174,0.08888806140413412
12,0.08072399444502892,0.08564381888275929
13,0.08133900374007358,0.08485343724771476
14,0.07998515155127675,0.08819768047393921
15,0.08368328065990353,0.08271355657664076
16,0.08314188033771172,0.0841229565400445
17,0.08259170300526013,0.08045673806693672
18,0.08252038155123294,0.08355966493804905
19,0.08128013074707738,0.0796605413860473
20,0.08193431175250611,0.08444286851122705
21,0.08601577499573179,0.09322158652986234
22,0.08447201083079993,0.08407590488867206
23,0.0822151064467754,0.08313637907192664
24,0.0825084786740043,0.08376125769649986
25,0.08287613360668353,0.07953038920472716
26,0.08220880505421178,0.08203146200341885
27,0.08176505086805037,0.0824227547647921
28,0.08286855943935761,0.0823534643770017
29,0.08267445829536894,0.08316148822243608
30,0.08222903476821052,0.08425050238242936
31,0.08233187354201797,0.08588423030105462
32,0.08286122610862497,0.08430932496910314
33,0.08231855503065313,0.08441283130443464
34,0.08348323100452705,0.08293907300237605
35,0.08320307533899181,0.08342168554840072
36,0.0832848273676267,0.08061958890005463
37,0.08289559828720504,0.08091170985278127
38,0.082907217565915,0.08267541960669768
39,0.08234034822308284,0.08736159690694727
40,0.08312377042407326,0.08313994868213771
41,0.08289587963446915,0.08491463264143176
42,0.08469213847871974,0.08224106876395684
43,0.08297385208660082,0.08020175585336542
44,0.08313686040927656,0.08101593425472421
45,0.08211111787149755,0.08262015966185454
46,0.0828709821585271,0.14683586048534186
47,0.08281552450929423,0.08470967750711147
48,0.08248811118084369,0.08267786399694343
49,0.0819496797393266,0.08101455693816047
50,0.08207506585797722,0.07954777704276902
51,0.08203412310706436,0.08081881940694145
52,0.08198427083156853,0.08250142435154392
53,0.08346412928222562,0.08198474329949931
54,0.08239471345401402,0.08113087205056045
55,0.08348206693319965,0.08033312827160534
56,0.08244753672445802,0.08648953613867041
57,0.08230835884857139,0.08392421360220981
58,0.08221596285855647,0.0836531443972708
59,0.0827238233827001,0.08348384177299024
60,0.08312872824646968,0.08371705911177392
61,0.08412595226657953,0.0834840236330183
62,0.08311260232536627,0.07954288357552715
63,0.08364252827698283,0.08975463616937375
64,0.08312546047899458,0.0867571231821624
65,0.08267346408060319,0.08389246683117906
66,0.08361323692982527,0.07896205818173259
67,0.08219352764763134,0.08193652423564712
68,0.08098226425339945,0.07408929222808076
69,0.08208521650277739,0.0817823674832636
70,0.08166986997488687,0.08571648238419358
71,0.083698390181259,0.08120714457324855
72,0.08326199721041724,0.08291858798679444
73,0.0825937287472516,0.08607739680567969
74,0.08314366485598942,0.08455080828896261
75,0.08198831196454504,0.08261801729944623
76,0.08355210387378002,0.0839027024999602
77,0.08303471900028386,0.08386794926970609
78,0.08313606664550295,0.0894665954415499
79,0.08647051098630679,0.08643021630953877
80,0.08145867046311224,0.0888209185300611
81,0.08411206478337875,0.08314169883939725
82,0.08282928340297809,0.08834844267241299
83,0.08515006828484394,0.08156633730492634
84,0.08070771234165088,0.08442936953518837
85,0.08246316007977958,0.0799398433178922
86,0.08257370853690887,0.08030338831769263
87,0.08260374871803988,0.0909520190770737
88,0.08539891106595429,0.08363302912336687
89,0.08191651255368805,0.08552343404213085
90,0.08646833205180203,0.08358670196598124
91,0.08194144007613618,0.07770323526958076
92,0.08022359594833746,0.08112895774530819
93,0.0798377728493189,0.07667567579174192
94,0.08030928830377204,0.08517748834866656
95,0.07839628428423243,0.07863652679095987
96,0.07708752778270167,0.07941043908518887
97,0.09063512010039758,0.07201712918427391
98,0.044339559357360205,0.03046902157248666
99,0.03043883230736692,0.02956036660429193
100,0.029581420591099562,0.028685824716229935
101,0.029534671092324025,0.029123473900716512
102,0.02935662232994509,0.02994932358806634
103,0.02934555389987622,0.02945906182290911
104,0.029278904912795285,0.02884369437607048
105,0.029258367488626764,0.028556659761830964
106,0.029451353198511422,0.028259545094212305
107,0.02939405431933731,0.028982254419984456
108,0.02920068050775644,0.029794862505633624
109,0.029055375275280265,0.02894163026159075
110,0.029164114931254363,0.029170919443468175
111,0.02944097211279219,0.02891830226440268
112,0.028817025743585696,0.03055373210115939
113,0.029025659170582425,0.030133880113252243
114,0.02934771611822023,0.0285265974497574
115,0.029378528067236134,0.028705043782904192
116,0.02873965734236246,0.02882462761555258
117,0.028758405059349717,0.028673131286439318
118,0.028915575962308215,0.02972049223172354
119,0.02875068322788897,0.029673434733674106
120,0.029290788471222306,0.02879690440355461
121,0.02915816548184382,0.028050069842008314
122,0.029241181880259495,0.029103730313462257
123,0.02934395464406692,0.0297843005034805
124,0.029799698763411583,0.0298351000791567
125,0.028907936996967195,0.029803731729406584
126,0.029096890936235634,0.029443931687202808
127,0.029330387544765364,0.0288278315710264
128,0.029032850648454435,0.02855633793879468
129,0.029139194473755254,0.028889112253897568
130,0.029274222688923636,0.029834352754168184
131,0.029323788105155065,0.029214265914347195
132,0.02904995279662091,0.02962720075117949
133,0.02893702196572229,0.028520573589189278
134,0.029048146169296175,0.029624507719123092
135,0.029148677358036036,0.029415438852869062
136,0.02928355706038235,0.028631386997644226
137,0.029345388312062487,0.02993303174542553
138,0.029226892345624384,0.028962342137648728
139,0.029107318235208377,0.029570685890698018
140,0.029189345893635452,0.029832251761005728
141,0.029493074618476472,0.028221673316718467
142,0.029197210146726178,0.02899216634427927
143,0.02880006359754611,0.029856993738141414
144,0.029088191600214187,0.029370014668216645
145,0.028933522691257853,0.028405574789151677
146,0.02858113878660446,0.028729610098048093
147,0.028928840948308974,0.028217458099291468
148,0.02824629701489358,0.027877635818677523
149,0.02811294219208707,0.028446975992529433
150,0.028839572265053348,0.02821660571935239
151,0.028643368511832207,0.02856488151280261
152,0.028605987156311765,0.028328545722337152
153,0.02878698493412835,0.027486373649082414
154,0.02917221650856433,0.02746861249843543
155,0.028971207355685848,0.02798980342602062
156,0.028564678428383422,0.028349001003222005
157,0.028583328579839088,0.028465739465314947
158,0.02877510735596851,0.027404285217587556
159,0.03539302644374178,0.03791493469086235
160,0.038044695031466624,0.03240535370917328
161,0.028985708004993786,0.026212837814626116
162,0.026500227194068006,0.022761874327225862
163,0.025561659021390903,0.03199377155994325
164,0.025199759320514523,0.030474895433520555
165,0.024696404460540635,0.020336769690300502
166,0.0253225595501961,0.02948821374989205
167,0.028043760453536213,0.024495594944413855
168,0.027437493106801446,0.02010948549376855
169,0.02690334253826087,0.035278002457324216
170,0.020942714450944908,0.017394546461280587
171,0.019961508777108696,0.02753316934184475
172,0.022018230292011054,0.0250849022214678
173,0.018675626949410884,0.027650320148293956
174,0.0209865442638715,0.021466363458096653
175,0.021357190283797057,0.029441619852018243
176,0.02586348554257938,0.038597274304094896
177,0.06408722777899316,0.09244005449686638
178,0.09337154922368143,0.08475400739729451
179,0.08584587581509309,0.08136237178059573
180,0.08207701356838838,0.08075001851112333
181,0.07965005244270598,0.07710404585879341
182,0.07624021453334749,0.07868064516580472
183,0.07557793082200366,0.07526485421404466
184,0.07853624746382093,0.07985729368399144
185,0.07678067855102172,0.07495136844213308
186,0.08401642140629385,0.0914971426176385
187,0.08576074391186571,0.052558222495977955
188,0.048867992892992394,0.04158346050057998
189,0.046327483461355325,0.04367682482714999
190,0.03770650269986271,0.024377074017650328
191,0.02402801599672182,0.023951862955608513
192,0.025948471078525583,0.027079947932307984
193,0.027935014054220882,0.027790574298108668
194,0.029217892379271422,0.030275662855231207
195,0.030301354557490178,0.0289169970235325
196,0.031118052829202894,0.030448245416794504
197,0.031546809635371514,0.03248085382364355
198,0.033128054426918976,0.03376093778050642
199,0.036224697900416374,0.033389881291465674
200,0.03136131805118373,0.029655946239288057
201,0.02454167190004143,0.022924550674449956
202,0.022532762628313687,0.022684696929466095
203,0.02222080300409469,0.021254155792195965
204,0.02158237669652672,0.02334251911059645
205,0.022584963966604713,0.020894912632377766
206,0.023083417509629618,0.021824389834312726
207,0.024970181616131876,0.02164556404785933
208,0.022138454369176254,0.021429452689360143
209,0.02646554128038321,0.022208255753156325
210,0.04494871208585686,0.04979342964625584
211,0.02898343511336713,0.02422997686238673
212,0.02177752999530779,0.021482587279641637
213,0.021244078704106103,0.021937482583835637
214,0.02133589449132399,0.02093185423105226
215,0.020886959959205677,0.02104176638828739
216,0.021020805884560616,0.02037126787930092
217,0.020622283795760643,0.020449379657490007
218,0.020281081605288718,0.020758438589317457
219,0.020109659750952566,0.019542511351165474
220,0.020161612552674794,0.018684584712102457
221,0.019693034152380474,0.01886205260892529
222,0.01941352676105895,0.018603201126407804
223,0.019180546250405738,0.018972836292239278
224,0.018659934554126956,0.01774032411901332
225,0.018566874717604175,0.018820215210659633
226,0.01828149556116068,0.017454591151194583
227,0.018033154200104404,0.01721482941088426
228,0.01764194384443579,0.016930721357652966
229,0.017393356331696305,0.01703636925050073
230,0.017283531750807705,0.01670556229810453
231,0.01725782003614018,0.016847027213575103
232,0.01702155294656146,0.01669867235164569
233,0.017285866001032765,0.016528517922243927
234,0.017457425809479492,0.017564234421562755
235,0.016998940110236383,0.017307659130375876
236,0.017394017015727493,0.01708517275932932
237,0.016779624455743176,0.017016666454734205
238,0.01701784052020259,0.016678055699094366
239,0.016368937075992736,0.017349737901431704
240,0.016624821180241,0.01662399739779726
241,0.01681799394637644,0.01643853358506874
242,0.016399163961243763,0.016358651694177922
243,0.016797692995134304,0.016436916808344148
244,0.016642263762914923,0.016793775803688106
245,0.01629041929875942,0.016194341363180972
246,0.016071455163820136,0.016453362703646793
247,0.01608010530650473,0.016479519858879892
248,0.015904244578567792,0.016357953366900675
249,0.016256048747946582,0.016322770787383877
250,0.015770308891509315,0.015852211678331538
251,0.01586624511370925,0.01556286882850229
252,0.015906652562963447,0.01561341898099776
253,0.0157748980545919,0.01466707951567873
254,0.015361607047936899,0.015352360530070603
255,0.015582333230670336,0.015382722833126947
256,0.01559059987318137,0.015888603052805046
257,0.015906103314916722,0.015714533455028906
258,0.015827667458708006,0.015176994397489452
259,0.015638607362810846,0.015256918265521762
260,0.015505639540268292,0.014793491574634976
261,0.015206133308027574,0.014566551878513223
262,0.01514053468381782,0.015713043633669075
263,0.014890931309204545,0.015618980689460871
264,0.014818190694150093,0.015334970836734197
265,0.01477795222299181,0.015357526213271747
266,0.015000602087492852,0.015267899790639094
267,0.014797579248448451,0.014564328726995575
268,0.014866093786315714,0.0145722640635653
269,0.014731037720433361,0.015563327225179491
270,0.01487061101198792,0.014897661283612251
271,0.014875323124911835,0.014651122753638494
272,0.014890285079657055,0.015619265829266623
273,0.014970163223620275,0.015322152306873353
274,0.014755755835633388,0.014724484896221166
275,0.014876944289879976,0.01492999734881833
276,0.014787797780363536,0.015076815031598238
277,0.014999173633712563,0.015091186839919581
278,0.014809549477198522,0.014455970262060414
279,0.014566624849784575,0.015172495702965201
280,0.015025892336261,0.01456209121238155
281,0.014650350369194405,0.01501896162976782
282,0.014588175587531784,0.01397668097047657
283,0.01464116262595097,0.01423533284050231
284,0.014734645349179789,0.014920552433913114
285,0.014885492185108382,0.015106531030600619
286,0.014691787612937886,0.014760415646046894
287,0.01458245175157329,0.014980413149027911
288,0.014365461878672088,0.014772189392957429
289,0.014335698432860066,0.014831334725169329
290,0.014702955887710258,0.01448392572620885
291,0.01421701443678648,0.014286517891106685
292,0.0144619442806166,0.01584598663444583
293,0.014590990024624016,0.013725214722347993
294,0.01431838300996285,0.014472225711084814
295,0.01456486993319661,0.014530257493898496
296,0.014598852598579596,0.014882064329632268
297,0.01573239527657616,0.0411707166679374
298,0.01621191183865952,0.011960452689694413
299,0.012937412778143403,0.01301683236910258
300,0.012321158908203327,0.012070701430362797
301,0.012856973272612055,0.012501309804424302
302,0.012951921686518202,0.013631217079509076
303,0.013069083204687975,0.013394087566255394
304,0.013300998495604328,0.01296226740112762
305,0.013641631855688197,0.013185495404848549
306,0.013638702004948417,0.014533675299264966
307,0.013930275245271117,0.013695241418838407
308,0.01383256706127005,0.01416164446378093
309,0.01405552261584192,0.014907258276804846
310,0.01407884105222581,0.014138707944766075
311,0.014110563130085942,0.014534802026105803
312,0.014229274872276518,0.014323273794203643
313,0.014245005104866483,0.014117591549078592
314,0.01433379576875747,0.014916207839094614
315,0.014268445914877737,0.014150329481813271
316,0.014760797356458591,0.014685914154887058
317,0.01449763820842385,0.014639627961728548
318,0.014461638210497672,0.014702887323573997
319,0.014784506431294621,0.015235522622279323
320,0.014569120726538458,0.01556635601115255
321,0.015070816854105816,0.014597271169934953
322,0.015486552243044288,0.01536012107202079
323,0.014503033338509184,0.015008791145481221
324,0.014872682240265283,0.01490861047412127
325,0.01508568987647871,0.01418881291551508
326,0.014739551483173307,0.013807078205260736
327,0.014658840807180086,0.014383865875392659
328,0.014822783271337656,0.014761582440340152
329,0.014883096962660956,0.014942440027172583
330,0.01467940961639825,0.014300358880843436
331,0.016573922799454986,0.01160512576960233
332,0.012326172798303225,0.01096767432555474
333,0.010431855717833213,0.009375560834662785
334,0.010176680159481833,0.010962218221132927
335,0.011451228218395814,0.011885621159351427
336,0.01252001086599845,0.013932825520417073
337,0.013040067264356083,0.013371481349208078
338,0.01343249093494017,0.01345597238639324
339,0.013763678060259393,0.014637731303826222
340,0.014639323498744021,0.016934367018768708
341,0.018546406225823195,0.017698105089454644
342,0.017353722534561567,0.01317097753912634
343,0.013245395598389643,0.01286153838511824
344,0.013684593495443095,0.013694525028166567
345,0.013984624328810891,0.014350755821587114
346,0.013899489452200327,0.014776160441421342
347,0.013916158272946576,0.01374641379257686
348,0.014170093123512946,0.014566277741838978
349,0.01461255179753871,0.013923745350243308
350,0.01418390566539719,0.013547717640654206
