epoch,loss,val_loss
0,0.24580677128214534,0.2753749506720051
1,0.11701960154443526,0.1404387548318884
2,0.11029941234573853,0.11258012078696569
3,0.10961993434708373,0.10914243779482574
4,0.10731837709697126,0.10538515505611003
5,0.09534993696567728,0.09166326733113464
6,0.08755044333285375,0.07487413659985835
7,0.06612946583534317,0.06151256547401341
8,0.05543251489129045,0.04849562910697831
9,0.05509126410602951,0.057328686812023716
10,0.05563328743016691,0.052730049488106015
11,0.05273167961846582,0.05289910550816565
12,0.05168174060104753,0.05085821014306351
13,0.051414639281807284,0.05111919738346418
14,0.051341581573005585,0.049336125611106334
15,0.050707884991971805,0.0511666197850183
16,0.050520980828921855,0.05358294008892168
17,0.050802400092974744,0.04908182047125196
18,0.04955991753470078,0.04851313884169357
19,0.04994638201197703,0.050293950747695604
20,0.04980118475187358,0.04935042330761453
21,0.04919974764974283,0.048193441308452656
22,0.049068821932105045,0.0484789966825387
23,0.048835189286455645,0.04934408813244542
24,0.04889671979315704,0.048796751516582276
25,0.04844686991388468,0.04790772683477439
26,0.04844589237954548,0.047973244162107326
27,0.04880135536914487,0.04865737344949097
28,0.04802251108389773,0.04824671963701685
29,0.046594421049471285,0.0469122844135893
30,0.04427517729876139,0.04060534889432701
31,0.042269065157234144,0.04003625918817784
32,0.041777120295652954,0.04220113602791043
33,0.042740106862559496,0.04124850323445795
34,0.04437281798085959,0.04236292732907452
35,0.044495641081917774,0.04307277244240069
36,0.045574327409684326,0.044954645493741854
37,0.04757923886126323,0.049435002816033906
38,0.04917683860333227,0.0472335321997787
39,0.05013321065377417,0.04957934169667672
40,0.05229231082260323,0.053534623661799605
41,0.0551470781056334,0.055096636466746646
42,0.05673772575025507,0.05674225275405486
43,0.057369320615411376,0.057747089216557655
44,0.057558501252441475,0.057881530144949456
45,0.056072239309168166,0.055820862720731494
46,0.05622939957524661,0.055212829982378205
47,0.05565216515412767,0.054461812787198985
48,0.05604254669077295,0.056552140552318275
49,0.05550706259411969,0.05466899506294925
50,0.05581124416953749,0.055041584141417195
51,0.05510673629824254,0.05648335274941073
52,0.05464929554739492,0.05519151478864682
53,0.05488468594789553,0.0535946552536576
54,0.054603494377695114,0.05600799138833428
55,0.054593595431195935,0.05439365066546761
56,0.05429998879208506,0.05571653376073939
57,0.0555563345804608,0.05709224213399846
58,0.05662079974800515,0.056040470512626485
59,0.05571622411898381,0.05683987448910794
60,0.05736819530526797,0.057570361835851194
61,0.05679324383495285,0.0571327688585564
