epoch,loss,val_loss
0,0.1557363037773364,0.10821224131636857
1,0.10105577105884071,0.09616487856657371
2,0.09406740230907926,0.09363919065496351
3,0.09234610723434307,0.09174595603273906
4,0.0879312980827763,0.0851220893243588
5,0.08215455476233333,0.08184999286328702
6,0.08205507284731602,0.08244167292386223
7,0.08118276981760462,0.08247903188736116
8,0.08041304820399585,0.07974869553249656
9,0.07946811679551165,0.07933699672463944
10,0.07908077280131652,0.07876498670844272
11,0.07909032713761814,0.07922391161828315
12,0.07857975961683657,0.0792804711160927
13,0.07814743358501904,0.07763751235738361
14,0.0767220440659401,0.07617856717382535
15,0.07510331803731782,0.07536953661205642
16,0.0766865534843396,0.07260995227093761
17,0.07589527622139235,0.072677590076436
18,0.06870443477249927,0.06463410751195808
19,0.06437913600286896,0.06047746757282078
20,0.054083400290551704,0.05102741464549101
21,0.05016182182873372,0.05005888629119605
22,0.04939100283870308,0.049322972304960265
23,0.049616249958626464,0.04955772479853483
24,0.044171140247064054,0.043295675863665485
25,0.041098806995162954,0.03959224785912573
26,0.041012529402875975,0.046597073502962105
27,0.048265599342677996,0.04944317618821584
28,0.048028324919043304,0.049050915639350615
29,0.04909622436352104,0.049845361545529064
30,0.04919456111953603,0.04946520786964714
31,0.04913282933400022,0.050270382476633894
32,0.04948273636132693,0.05081527968596641
33,0.050079749859899256,0.05029301406505452
34,0.05019511734183839,0.049518669152010496
35,0.04962052813143753,0.049465028932222536
36,0.05081044902189744,0.053337683082332554
37,0.05127641470800582,0.04937468542355012
38,0.042457657887769354,0.035650677043994584
39,0.03569312889775117,0.034541898712092435
40,0.034569937141714906,0.034474055149725506
41,0.034605290946200025,0.033350939501515034
42,0.03452440185530437,0.03627924026881698
43,0.03455198951792136,0.03563089530559252
44,0.034554381577147665,0.0343479096195598
45,0.03407915817688314,0.03574934860966341
46,0.03444667929689661,0.03502244473785609
47,0.034465330734039,0.034475707999579816
48,0.03437278352135854,0.03553821019322598
49,0.03428691722821894,0.03408703671940312
50,0.03448954387028202,0.03527011562082931
51,0.035590601136549105,0.03364734664477038
52,0.03513420819729972,0.03627571733205358
53,0.03503420998116763,0.03453790527880898
54,0.03572460840032589,0.038030410877883954
55,0.03890364962242109,0.041752442117742226
56,0.04112021712590751,0.042133862798079416
57,0.04061860765228502,0.04089252247630185
58,0.04413462442596801,0.042422963475371875
59,0.039087911911433834,0.036323396078859996
60,0.036967896047136864,0.03950980218934467
61,0.037412726394028116,0.040536770242800745
62,0.03815192209897662,0.040480016777034625
63,0.04376713744253754,0.0512057138223204
64,0.05215135516582443,0.05738745742398825
65,0.05311229490607286,0.05259410904069162
66,0.05139224623128188,0.049480486911116575
67,0.057402942692942854,0.06709741558747302
68,0.06617215052723503,0.06572182207782154
69,0.0645448084738996,0.0641795301834899
70,0.06776844780686662,0.06950198192128819
71,0.062084411146591224,0.05737154074630685
