epoch,loss,val_loss
0,0.16929047532099709,0.09677095263137908
1,0.07465931578136557,0.06293237233430077
2,0.061698697736675884,0.06157560449537557
3,0.055852466409536096,0.05425141706192409
4,0.05424732803035792,0.05274926391213356
5,0.048614848912846176,0.04010517423018378
6,0.03941471484168876,0.03736836432340395
7,0.03799097773006303,0.035040759758607744
8,0.03873848460680194,0.03999370760809933
9,0.04071231594206475,0.038634897380973185
10,0.04007582287553498,0.04675782385746042
11,0.039890726876380345,0.03847640904361983
12,0.03817759211555564,0.03841891289110154
13,0.037074441045558425,0.03797759223896966
14,0.03645418427116293,0.036470013020094116
15,0.036768321105711564,0.0329083821206297
16,0.034107216047964316,0.03086884823593222
17,0.031852720594175044,0.031207003951919485
18,0.03144192681919566,0.030147054359822546
19,0.029860929372332555,0.029684680270732344
20,0.0292120662143381,0.03006456345731382
21,0.028663688162855392,0.027073702909458125
22,0.028143944857503586,0.028420459392356327
23,0.027666645989620046,0.029611512780448254
24,0.027538504750787212,0.026584342729238514
25,0.027318748157861516,0.02562662802089738
26,0.02718644469922824,0.027939196837729323
27,0.026720137382261186,0.13347186091713956
28,0.02674833452738494,0.02651749765052039
29,0.0263091167911506,0.025360388669531553
30,0.02630496772228004,0.02522067971315879
31,0.026366515162525226,0.02646596703734234
32,0.027194407397060753,0.026643963301320572
33,0.028778404783573654,0.028586542147087505
34,0.02965894612899835,0.03227880036997908
35,0.02969990735002559,0.028593236143864696
36,0.02951166212266917,0.03276563242030783
37,0.029675645247506773,0.0293767095529478
38,0.02946192549793221,0.027699422883641654
39,0.029231850699567012,0.02874746861343508
40,0.02847100393645626,0.02904370383322004
41,0.028457049872997187,0.02776234346458831
42,0.028930474983916866,0.027822980836574827
43,0.028691817305797486,0.02797841192491429
44,0.02834297735973609,0.02941762751531394
45,0.028187709462216243,0.027933042861033163
46,0.027970379268338116,0.027368763377912043
47,0.027690034715546596,0.028675625272736177
48,0.027405475319134627,0.028618396197364098
49,0.027689384688123715,0.02770149449934711
50,0.02761522187314612,0.02664386683776563
51,0.02736394793736182,0.026391735462135184
52,0.02777713987615993,0.02812343623986043
53,0.027709659927492615,0.02726107195090288
54,0.027737751769886125,0.02631563885282981
55,0.02719416035760602,0.02659475888936371
56,0.027009906749025904,0.026342709240780728
57,0.026858923739368778,0.02579824313015663
58,0.027051231918408334,0.02713311467269743
59,0.02675927605488889,0.028340592489363926
60,0.02672339889774029,0.027098859859529027
