epoch,loss,val_loss
0,0.4565663535436757,0.45970168039379106
1,0.45189705779321854,0.456366837448084
2,0.4512858027510411,0.45626829198804914
3,0.451273690239131,0.455837889764849
4,0.45127396367722566,0.45575511307347544
5,0.4512769421465772,0.45689285304853083
6,0.45127544347807275,0.4562282972478829
7,0.4512794955933599,0.4563179514778818
8,0.45128078628882323,0.456256526421635
9,0.45127592958230006,0.4553833203515201
10,0.4512772397409907,0.45561523092197637
11,0.4512792637975191,0.4560208424349516
12,0.45127516463220263,0.45538917635497655
13,0.4512797358462946,0.456100580794847
14,0.4512816495079693,0.4553396289472798
15,0.45128332472724214,0.45399910232732876
16,0.451285199486285,0.45339404581660064
17,0.4512860738783241,0.45365855697580654
18,0.45128414580385556,0.4529650741989629
19,0.45128149978167337,0.4532484330807319
20,0.4512807990340211,0.45286700955129744
21,0.4512770980429783,0.45361164675609467
22,0.45127414182412157,0.4532406449364976
23,0.45128255639430714,0.4534989481566925
24,0.45127902447367363,0.4532106610245844
25,0.4512774567428729,0.45269577879085254
26,0.45128294168044625,0.45292012298210643
27,0.45127260206128766,0.45267106111631117
28,0.45128563532440497,0.4532312978038472
29,0.4512733009507616,0.45323672377884433
30,0.45127695291448267,0.45338130832282975
31,0.451278898975165,0.452612201788337
32,0.45127323241256695,0.4530764218616787
33,0.4512729738637221,0.4525627167608762
34,0.4512703461850957,0.45269409840560465
35,0.4512727096688738,0.4525607003644403
36,0.4512685093995955,0.4527257177287797
37,0.45126854806399935,0.45252070230767777
38,0.45127478756492945,0.45281766092767844
39,0.45127514921885126,0.45303529004647963
40,0.45127029336994884,0.4530326658661382
41,0.4512702834120186,0.45259259345969916
42,0.4512746816487621,0.45316307802979366
43,0.4512709035909624,0.45247626059998086
44,0.45127721067717513,0.4528806525934561
45,0.45127359204155076,0.4527846701331466
46,0.45126911435577033,0.453217540703708
47,0.4512727079536322,0.4530553114912881
48,0.45127344760391636,0.4528915771322168
49,0.4512652544190081,0.45301586184900583
50,0.4512716488872501,0.45274932801300083
51,0.45126820165666937,0.45276383868614895
52,0.4512763979385416,0.4526784010731337
53,0.4512684571800186,0.4528111822744383
54,0.45126552109142765,0.45261268368271645
55,0.4512701060989206,0.45322224942360134
56,0.45128007093779476,0.45290428889296425
57,0.45126667835539,0.4528875858791249
58,0.45126458047200546,0.45282540127529153
59,0.4512686449751484,0.4526066430789237
60,0.45126835452757486,0.4530461815368875
61,0.4512695858804442,0.4528892169858681
62,0.45126908524430914,0.45267023424887715
63,0.451266808809041,0.4528295776932467
64,0.4512681331899431,0.45251235690470654
65,0.451265406765812,0.4526432738731297
66,0.4512700360598896,0.4529124412512158
67,0.4512765609817825,0.4524690633508852
68,0.45126870784351675,0.452562958260832
69,0.4512688745554688,0.45267023417831126
70,0.4512698956244855,0.45245015494166724
71,0.4512697155955884,0.45234940951982633
72,0.45126710971482364,0.4527350456204674
73,0.45127146514199623,0.452453627135684
74,0.4512671361819541,0.452607174698725
75,0.4512710319005614,0.45276769847501047
76,0.45126961318137265,0.45257081106693237
77,0.45126716610339046,0.4526654535047445
78,0.45126621571662046,0.4527067925248827
79,0.4512693822431526,0.45259993489840505
80,0.45126781972954505,0.45268618761787477
81,0.4512641417751495,0.452706042856519
82,0.4512658000087662,0.4524069107839604
83,0.4512700063052128,0.4526169042278672
84,0.451264265034315,0.45260670305991985
85,0.4512711892263304,0.4529251234683825
86,0.451266305790626,0.4528071054719806
87,0.45126519683930133,0.45268043823945964
88,0.4512671890209238,0.45271612714385084
89,0.4512718809689645,0.45267707368192844
90,0.45126665524727433,0.4525663509506265
91,0.45126579081316553,0.4524054265718528
92,0.45126876399385557,0.4527471598764057
93,0.45127167878486363,0.45293848570539147
94,0.45126605443626666,0.45253539539362
95,0.4512637498424493,0.45258644258496133
96,0.45126672049792266,0.452828983951951
97,0.4512653583578831,0.4529949962481233
98,0.45126620771215975,0.4528441659418165
99,0.4512648344945183,0.45258328774921897
100,0.451266967445064,0.45292048340908825
101,0.4512674691532251,0.4527654181386696
