epoch,loss,val_loss
0,0.3851447784490257,0.1697564560977405
1,0.12051343915460586,0.10215707694913735
2,0.09857395788232645,0.09501368350017776
3,0.09057417943823137,0.08608530545780935
4,0.08416663157978088,0.0819207284378986
5,0.0798048357769334,0.07621240855737711
6,0.07334394933129426,0.06995583242840236
7,0.0680682127497452,0.0656545541044521
8,0.06537470927803492,0.06446221295294004
9,0.06427937188298345,0.0635962039353107
10,0.06276804810946135,0.061876451555829846
11,0.061397133682898467,0.05967299108123837
12,0.06049664602506819,0.0596997298100859
13,0.05983353834196603,0.058415942809515044
14,0.058982943843086784,0.05803575845312898
15,0.05848738931423669,0.057709019658339286
16,0.05817137064160205,0.057642938102393834
17,0.05786037987308373,0.05672725026600746
18,0.05758301074727713,0.05711860190971248
19,0.057481997744072144,0.05659142168297675
20,0.057571721611450535,0.05676256760423104
21,0.057523961779210354,0.057742567897592245
22,0.05763397432619138,0.057051941722220556
23,0.0577179591735904,0.057069788418788785
24,0.057733041385682325,0.05705807238080012
25,0.05774074022153361,0.05725907952209749
26,0.05765490113698644,0.05700922000848077
27,0.05769635856247025,0.0571642117476618
28,0.057741002530885564,0.05711207357563822
29,0.0575069779421302,0.057149084289433605
30,0.05776680509945314,0.056352119361082906
31,0.05740704238891983,0.05650993658944251
32,0.057404737907638545,0.05708432382777853
33,0.057340340078879205,0.057919147035404614
34,0.05724132700179747,0.05739718450222766
35,0.057503255649363164,0.05685305068781486
36,0.05734697083910529,0.05731811235747198
37,0.057416079343677616,0.05726538971066475
38,0.0572701618433285,0.05729403471255438
39,0.05747379554962043,0.05698866196224483
40,0.05746039009695534,0.057092852784745206
41,0.05740043317214597,0.05714816731209689
42,0.05738495686669365,0.05751784663082426
43,0.0576065878978102,0.05738600985798909
44,0.05753419123548236,0.05748915385276635
45,0.057558999667533216,0.057075301594639444
46,0.05764030834870209,0.057741506905910546
47,0.05760418550611687,0.057066220678358856
48,0.05738456578577777,0.05707114876609746
49,0.05730057936653889,0.05714794561351496
50,0.057353062231579814,0.05709325677480334
51,0.05739803279372002,0.05696445028240953
52,0.05735319877882974,0.05642716583568491
53,0.05710766472524886,0.05795750773639478
54,0.057294817756208254,0.05750961638594292
55,0.05740272719636738,0.05706522847614149
56,0.057412449858062646,0.05726613700148156
57,0.05756759900059864,0.05708014152321696
58,0.057483981799683254,0.057479599996833226
59,0.05764280492849976,0.057835332088516864
60,0.05779926519724633,0.05731502223672271
