epoch,loss,val_loss
0,0.16528479501211957,0.11034409595387322
1,0.08963853514475598,0.0915827923752044
2,0.09274960346192383,0.09511477376709986
3,0.09816246165288724,0.10338699584202025
4,0.10337202745876152,0.10557529194414286
5,0.1063801277991679,0.10214583211723235
6,0.09474467754745179,0.08125087970481111
7,0.08003234778114741,0.08324731944603721
8,0.08180930562537732,0.08820661795402758
9,0.09036324771164324,0.09372167606215451
10,0.0943594621084958,0.0969082007056724
11,0.09539953043921102,0.09586441212854897
12,0.09518650328393558,0.09647317622342068
13,0.09598585517762853,0.0943365736549166
14,0.0963061255314272,0.09904311119851486
15,0.09908476915600584,0.10082728291061231
16,0.10063920813879902,0.10089646903731829
17,0.10089605180717867,0.10213197908278235
18,0.10127921918217989,0.1020266134012564
19,0.1010703303509479,0.10126662191412256
20,0.10051980779635059,0.09804683974881574
21,0.09830571266172601,0.09733571013363686
22,0.09651051449785225,0.09654618649145892
23,0.09669708698201808,0.0970682129205073
24,0.09663892397396474,0.09662757068872452
25,0.09574895717209572,0.09869296010804157
26,0.09723791045298298,0.09993082342556169
27,0.09691199747849998,0.09581943078594313
28,0.09510345618835361,0.09479803582557846
29,0.09675643742560959,0.09686961596583228
30,0.09739856159301113,0.0963705112509306
31,0.09650319797410477,0.09642942699632404
32,0.09692848117636453,0.09713066542181521
33,0.09752219658699349,0.09745821934237477
34,0.09856787734895016,0.09864191211695358
35,0.09873216581954468,0.09848817835996353
36,0.09432048030751501,0.08608455965979041
