epoch,loss,val_loss
0,0.1395251300635574,0.08507482845691969
1,0.07273660263986134,0.06578802621990278
2,0.05889731450534934,0.05610637345601935
3,0.059411294046613716,0.06055462829939192
4,0.05675387765756614,0.04996380036448341
5,0.047887694841022975,0.04528936314754535
6,0.04457657604659204,0.04208725940174443
7,0.04060489162624025,0.03731555388483271
8,0.038563662076846875,0.037454679079100946
9,0.03819870555566417,0.03877934422446878
10,0.03848847278731046,0.04157009889572365
11,0.03873145524308169,0.03851330310000429
12,0.038537297551211214,0.040580342902310176
13,0.038009227368888336,0.03327156062331271
14,0.03832098568300549,0.04195216337502614
15,0.03806461879371596,0.04744557016650428
16,0.03900195620983815,0.03461465839334803
17,0.03487265903315098,0.037053125536314784
18,0.035388410801617365,0.033561454738924704
19,0.03478537625569901,0.03405387417928572
20,0.034412998508075346,0.03319117915246932
21,0.03369705839533743,0.032451428969897146
22,0.033704909441663586,0.0317261109735755
23,0.03480301602638597,0.03209428008478179
24,0.03133053210177582,0.03155925165017995
25,0.030390407566984686,0.02856641032842547
26,0.029905461197753225,0.035892569634184274
27,0.03070325553149199,0.03892456839815217
28,0.03019669795666429,0.030992259860226933
29,0.030252425958939212,0.02899118760143478
30,0.029945725677825278,0.03082866763259448
31,0.03070530571269808,0.028867825859865054
32,0.030902799644725594,0.029235733767064332
33,0.02988280149416434,0.027743525498773795
34,0.030720497440579506,0.031242846748729156
35,0.030025458733121648,0.026858010021315472
36,0.02983842949292881,0.029571799556970972
37,0.030086921206373962,0.031078092268746766
38,0.030346139157704597,0.02909608466672728
39,0.029821658496567004,0.029503376370894223
40,0.029617958958986567,0.033567973913150036
41,0.02941240840922776,0.029070345515821897
42,0.029652300800720184,0.031126344195716287
43,0.02951522961818724,0.029786610057035017
44,0.03002135864467167,0.02877624321143836
45,0.030208504032924306,0.03486800372259487
46,0.029706570171683336,0.030739070293394337
47,0.029016715563017784,0.02882148608882877
48,0.0289752964633141,0.027585881535072635
49,0.028537824493851498,0.028533674335517373
50,0.02930934292723616,0.024847631587484452
51,0.028196490653377357,0.0294638831262501
52,0.028259977507743714,0.028480676368125894
53,0.02827741705524407,0.027301659932523238
54,0.02823759691952039,0.02983769372652484
55,0.028559104160522576,0.02802410166660631
56,0.028538481266104535,0.029044387778289316
57,0.028267215763916262,0.02752768273017683
58,0.028329487942117485,0.03418409635019566
59,0.028246035811295516,0.02861330341386014
60,0.028846081809329092,0.03116863557882166
61,0.028185882978587984,0.02628357177151877
62,0.02747036466936318,0.025518464178858353
63,0.0269587095097291,0.02886651224811762
64,0.02736930423330584,0.030554761547057198
65,0.02859774067831173,0.028708131982406106
66,0.028839328069445325,0.029109913192765863
67,0.02726220849642365,0.03036550814087408
68,0.028155091551425072,0.026996799295543213
69,0.02905984975391631,0.03243602659691481
70,0.027707395492959842,0.02779370423879742
71,0.028997575441341128,0.03480217519680063
72,0.02886849917251048,0.026976123556565278
73,0.027082334220451084,0.02764276467004957
74,0.026904258640299883,0.030110350879822178
75,0.026058626111796337,0.02721803066715445
76,0.02596861162601853,0.025335299937552888
77,0.02657578662067628,0.022487490929680824
78,0.025844448952556706,0.028248075275272483
79,0.025292182175947323,0.025335840720627473
80,0.02623744461786666,0.021780416522330908
81,0.028432631825687265,0.028982309149703175
82,0.027394211918806477,0.03085157708886014
83,0.0273858076370925,0.023576213080721196
84,0.026484389612964874,0.024376649605058833
85,0.025789826682550636,0.02874965541029456
86,0.0261503216631109,0.025030861703506962
87,0.026467015738967512,0.028733641758925725
88,0.026606511173518203,0.025838387174489184
89,0.026576608135778126,0.022680341468237476
90,0.025462801138655268,0.02523920371916789
91,0.025142317203035076,0.02538374281872796
92,0.025300079873270934,0.02524036202570916
93,0.025835088815251223,0.027792665882487418
94,0.026883256500311415,0.0268846815312318
95,0.03586469663323449,0.040260237974615296
96,0.039286648961815905,0.04117687769240061
97,0.0370795855702137,0.03633758728851835
98,0.037114482291108315,0.039595245130083744
99,0.03740604429823651,0.03305555056654146
100,0.036505654430408464,0.0345117046711665
101,0.03563913310930836,0.03160890611219378
102,0.035204288221413284,0.039474526930368126
103,0.034398363437131346,0.03694275115052827
104,0.038454669223224325,0.03528876636462505
105,0.033987305946737455,0.031728533214956355
106,0.03389981253702435,0.039059376645459845
107,0.03525004816426933,0.040554871745907425
108,0.03511656235775454,0.04083018059288787
109,0.036466689022491686,0.035174651212561005
110,0.035879382582233964,0.03448947818380881
