epoch,loss,val_loss
0,0.14762518051669277,0.09652116932945169
1,0.08579602423045847,0.08234243074339398
2,0.07836893208021169,0.07437538664314629
3,0.06958721490870182,0.06488467559465387
4,0.06366289068731092,0.06393230489463249
5,0.062473951385532925,0.06163556121683723
6,0.06044393160538994,0.059961168117521314
7,0.06131354932912248,0.06309012317149397
8,0.06374906041591669,0.06071987191557696
9,0.06098593051413552,0.06077214959059161
10,0.058192161794046134,0.05662856508566812
11,0.05585846269159294,0.0544802448708614
12,0.05497427418423023,0.05599355017847213
13,0.05551994753350838,0.05544156468258002
14,0.05754356292321337,0.05837309521041523
15,0.06306122776737316,0.06271701972364156
16,0.061851195999972824,0.06132407347071143
17,0.06107373055305889,0.062329735107067165
18,0.06252185816018226,0.06399384215650543
19,0.06311871030097671,0.06163109032159352
20,0.06141452676803469,0.05890058796344165
21,0.055656651081107886,0.053431697251553036
22,0.055281992575866905,0.056188396568503454
23,0.05600082829630346,0.05300865281776076
24,0.05564949963149502,0.05723541544275483
25,0.0549806408006415,0.052496636946462887
26,0.05202459432571817,0.05134671900330234
27,0.049047274582034395,0.04658818308443372
28,0.047538357449592734,0.04689439631345805
29,0.04685590428699978,0.044402486423431836
30,0.04636601637378871,0.04749801376835982
31,0.04631755365837487,0.045430500463133454
32,0.04503083962509386,0.0439355888631086
33,0.04327255588688915,0.04381424706096995
34,0.04376040696561765,0.04566320691378265
35,0.045376470206762484,0.047130679792556224
36,0.04417164006429039,0.04149937643812882
37,0.043465819555244666,0.04160857150638395
38,0.042874382089653745,0.041501715520562955
39,0.04348948127109942,0.04494615289623002
40,0.044293302679352525,0.044166686341178256
41,0.045298359114870276,0.046195430050426894
42,0.04399722845827361,0.04562966013658019
43,0.04364198190774277,0.04436799014412049
44,0.04330718848440382,0.045497552436594896
45,0.04334387410697129,0.04462163174714549
46,0.04304915758595764,0.0425833290606008
47,0.04294748955386148,0.042477043932149426
48,0.042755182494493504,0.04303836212702972
49,0.041883141925032855,0.041047705191863085
50,0.0419547597376658,0.04428215256665011
51,0.04222069767643984,0.04228117579819183
52,0.04270855186702155,0.041936729923655124
53,0.04221775057873756,0.0430891486921222
54,0.042245564105318226,0.04294812868642543
55,0.042389784839084683,0.04219905344950184
56,0.04198328444330717,0.04492584218424704
57,0.0417741049560521,0.04066697521621822
58,0.04150388821018495,0.043341003514197084
59,0.04154271029418321,0.04580513171222422
60,0.041839146764753914,0.04487912194845991
61,0.042082354938574165,0.04209220134186387
62,0.04181923412924095,0.04134615353399031
63,0.04177222228188404,0.04750044067002886
64,0.041879793751142105,0.04142356574558892
65,0.042138294341395516,0.0424739494008301
66,0.04210603011728858,0.042634147374457795
67,0.042021565006779345,0.041749523765897786
68,0.042007194867701554,0.04352062720079166
69,0.042712323212747476,0.04157449274478978
70,0.042824104577183816,0.042583339227967684
71,0.0426711729786498,0.04208175781246895
72,0.042263368405193256,0.04419779033644894
73,0.0420772455465927,0.042878151319233
74,0.041872544120327176,0.04093332445188686
75,0.0414702914964905,0.04415228204021043
76,0.041196745326764865,0.04030077724519826
77,0.040850439964295576,0.0396878659819277
78,0.04005478525595318,0.038350263908917076
79,0.03987562503043315,0.04084521221862878
80,0.03986758989193361,0.042088713394014876
81,0.03954811654032039,0.03906439024816843
82,0.039688891837660736,0.03837310799765794
83,0.03949282194475095,0.03759811210557054
84,0.039672346736530036,0.039909633810043144
85,0.03936581128685594,0.04050623234758343
86,0.039380462655572775,0.04118662595384311
87,0.03913266221426136,0.04088409258245293
88,0.03916578570739638,0.038620098725537566
89,0.03921515746064466,0.03852908039831607
90,0.0390818208146343,0.04042284384416894
91,0.038920708340134835,0.03831053526385525
92,0.03923621055909055,0.04008995859215555
93,0.039350967487985854,0.039172771265517096
94,0.039159539354433545,0.03750397349930506
95,0.03848002071854927,0.036899043957172833
96,0.03915035530335183,0.03791261310876592
97,0.038463723983505456,0.03821110911520335
98,0.03847609207087712,0.03941065347044131
99,0.038863262730381855,0.03927422348695095
100,0.03828364010933016,0.03666414255783514
101,0.03905411894998247,0.03858699392594968
102,0.03905277844253394,0.03734898131161387
103,0.038511297600768164,0.03659438146917766
104,0.0383730736642266,0.03896399926991094
105,0.03831273446426832,0.03760172435815351
106,0.03806108043943759,0.03791726703131491
107,0.03846646246048425,0.03622328538532885
108,0.037796030574434286,0.039813727146307126
109,0.038621525866069574,0.03725829506447302
110,0.03841376579333124,0.038055804911662765
111,0.037754323340946444,0.036883111846145906
112,0.038207690856106084,0.0402512671550899
113,0.03810496456164727,0.037554888214971854
114,0.03793569782571636,0.037455489738434905
115,0.03794645793366728,0.038015969903241395
116,0.038188026026844214,0.03619320244596714
117,0.037500571924076374,0.03676468395902213
118,0.0373349261182032,0.03844119942120049
119,0.03770871140914474,0.03662421714276334
120,0.0377303630405431,0.03797162509131544
121,0.03793070525925556,0.03881970375788052
122,0.03804442856749661,0.03900768601386304
123,0.03875633481172301,0.038537512873700025
124,0.03908332504129572,0.03750622860834461
125,0.03902273028076505,0.03984730711005387
126,0.040479592898552366,0.04086260042420126
127,0.04047613335456208,0.04047858284899543
128,0.04053470189515635,0.038987203109377276
129,0.045442185491966686,0.052424690747176365
130,0.04165257939504539,0.03771192572816865
131,0.04269198177726292,0.0436229235136142
132,0.038948234906204214,0.04408382161299168
133,0.03665801023187445,0.042094746409035516
134,0.03673542254298425,0.044221227416723095
135,0.03695462624893057,0.03535154504200183
136,0.036132232944885316,0.03971782866527268
137,0.0363082689844328,0.03224398513731048
138,0.03583949723904081,0.040466408097518176
139,0.03672626687379049,0.03855312291912046
140,0.03828218690961671,0.039979350862652654
141,0.03741411617298206,0.03907809379762708
142,0.03749691670407637,0.03974897079551982
143,0.04099694864272023,0.053896365468202846
144,0.05254458069956179,0.036360735798456015
145,0.03427344623009126,0.03724885746048676
146,0.050824197055362494,0.05757925494764391
147,0.057515934776726195,0.05718429528041533
148,0.05617984405143274,0.055045668632615334
149,0.05548309785225313,0.05492720320444457
150,0.0541446601434482,0.05444038293861741
151,0.05459827298430992,0.05358217396106697
152,0.05392704063730179,0.052947910968581806
153,0.053953864365268195,0.05442496743744155
154,0.05319748809643024,0.050908072074638544
155,0.04506312494577883,0.04149991211546813
156,0.04056590255334985,0.0409263477593825
157,0.041797134804901936,0.04057829817955477
158,0.04987561990090793,0.05413192205407437
159,0.05606064535111641,0.05392452715451358
160,0.05429759676710402,0.05304301018226119
161,0.05429720246403528,0.05329675572000344
162,0.048990206977577326,0.04985315498514446
163,0.05391880260001746,0.05313062116256735
164,0.04559630389920146,0.04681408654342699
165,0.0472571271881878,0.056903070716544595
166,0.054355448351608666,0.055213537111278584
167,0.052768458401580315,0.051351899038573935
