epoch,loss,val_loss
0,0.42660681342335344,0.1952732840131001
1,0.1423490116660067,0.12555641155828146
2,0.12038521486506473,0.11482894722880956
3,0.1120771364711648,0.10807887448884411
4,0.10543780041327008,0.1013542610590347
5,0.09979569639185731,0.09702312696986812
6,0.09582914398323528,0.09316196883628006
7,0.09231212779843836,0.09026957554970563
8,0.09000640108192758,0.0884672605624421
9,0.08862452234605328,0.08708801382789484
10,0.08727807141870236,0.08562378286609709
11,0.0865019885160559,0.0853376787423429
12,0.08637287443299754,0.08491608189402741
13,0.08510546055104998,0.08263608622169909
14,0.08050624841003776,0.07243751196430345
15,0.06646688247351147,0.05982468918189347
16,0.05800579864975455,0.05447874060040303
17,0.05355642771096729,0.051560906274354446
18,0.05197570983061402,0.051287461736701845
19,0.052578930973077566,0.05250585226499385
20,0.053943127551548585,0.05393713927330139
21,0.055110897306058046,0.05452855460598606
22,0.055627806789631085,0.0552630710761756
23,0.05581508982155344,0.055072244303778765
24,0.05608767811819423,0.05556908233977719
25,0.05646126945730117,0.05552584129872996
26,0.056436636161318214,0.055682444205506165
27,0.05663862491218592,0.055822950515134556
28,0.05658298804700899,0.05581272768640293
29,0.05666332735086707,0.05562796749486261
30,0.05651360419359234,0.05562836459551915
31,0.056565611950046626,0.05602914591532292
32,0.05665399084428994,0.055868310764161454
33,0.0567325821680893,0.05585525610323205
34,0.05661219341172684,0.055912063645982515
35,0.056647223099577815,0.05594686762780398
36,0.05687139763963594,0.055928574050258445
37,0.05673873097264319,0.05596166607448221
38,0.05677718903830679,0.05608677058741627
39,0.05666927931656083,0.05616699392012752
40,0.056657405675863096,0.056170924521847417
41,0.056704639399842584,0.05583476699188928
42,0.056657558180493034,0.055948242521605906
43,0.05675843714786281,0.05582764715944206
44,0.05663092550244644,0.056009122576996764
45,0.05670331145147625,0.05611287661326054
46,0.056838227869223636,0.056118218376703305
47,0.05664828336901135,0.05606194448252315
48,0.056666595660310855,0.05604238211873393
