epoch,loss,val_loss
0,0.24194219144437906,0.3427972103915256
1,0.11891939007728505,0.1321680308352706
2,0.10175152524686355,0.09583390382395642
3,0.09185470603436208,0.0916244493240245
4,0.09217337182731175,0.09540278705067774
5,0.09599231759445082,0.09535434864455541
6,0.09474340396867001,0.09431737376745987
7,0.09417653831539394,0.09489727046725877
8,0.09309378002497028,0.09461021857319993
9,0.08792148466459472,0.08392431033626728
10,0.08408810982374931,0.08500390564515634
11,0.08393452142020591,0.07930201282041131
12,0.0765648157202559,0.07585437434130798
13,0.07479633741396413,0.07568863016018834
14,0.074605133308531,0.06935897846459967
15,0.07044295952331533,0.07161261094256283
16,0.07208409452800461,0.07097757984637838
17,0.07194411283958968,0.0731228234771207
18,0.07186308626136144,0.07300072184513193
19,0.07148996698889706,0.07186009504353802
20,0.07131815034982493,0.07096069139717316
21,0.07099229552679592,0.07189360485598151
22,0.07094768205766293,0.07343376449058633
23,0.07097926638502297,0.07117330863918954
24,0.07094863622332458,0.07082785328448807
25,0.07086680790664052,0.07113517149871225
26,0.07075762198560481,0.07099108938377677
27,0.0706774015515614,0.07244731750465701
28,0.07060905213324095,0.0707615814873715
29,0.07038886740142636,0.07096096549268398
30,0.07050429251369575,0.07114102905167777
31,0.07047466793172746,0.07089473813442894
32,0.070438950360536,0.06854760488340868
33,0.07016855443743683,0.06979801301751065
34,0.06989520523164103,0.07050885011654438
35,0.06999328855475744,0.06994700178668643
36,0.07004394218754426,0.06766754306188322
37,0.0696867610723209,0.06778150711917182
38,0.06960703109314353,0.07198412714036506
39,0.0696040766297294,0.0700832869836968
40,0.06966329911213032,0.06969064331797982
41,0.06958271463592942,0.07046226646101371
42,0.06936523322161915,0.06939276432781682
43,0.06934412693728408,0.06925326198539399
44,0.06913616769551802,0.06980494747339691
45,0.06934945503298899,0.07103665899294234
46,0.06885771622671355,0.07410428778289714
47,0.06920274793297695,0.06998285453622513
48,0.06886890607414771,0.06773378893486044
49,0.0693569932338431,0.06829487674685096
50,0.06883549791344588,0.0684095950387036
51,0.06875231501450546,0.06788651385265913
52,0.06842373200296926,0.06936529543083206
53,0.06836449104152043,0.07117001724083215
54,0.06845373586028647,0.06892718534384455
55,0.06840764471053554,0.06934223365811917
56,0.06874068300846478,0.06867134166203716
57,0.06818128285630287,0.06941779527957267
58,0.06853107935179481,0.06723602368969003
59,0.06818959139418497,0.06852000206414884
60,0.06783392521992719,0.07006601136598234
61,0.0678110220547703,0.06720426957392749
62,0.06737865845588661,0.06829433762354463
63,0.06753892174882474,0.0687053760318137
64,0.06711422414671507,0.06993306455832349
65,0.06716130096778024,0.06766015592589092
66,0.06700629007509,0.06680727477796264
67,0.06673678850604714,0.06618302411325541
68,0.06680275450239508,0.06550161636360255
69,0.06616907138422096,0.06748853685906203
70,0.06638513931440268,0.0682134584398042
71,0.06638732089472713,0.06590822902702871
72,0.0656371523888944,0.06748560988935977
73,0.0659322645425868,0.06533844644040598
74,0.06597746948270108,0.06549244122939873
75,0.06568847676302841,0.06805244356323248
76,0.0651704059983734,0.0639451752433696
77,0.0649172331167044,0.0665415254228211
78,0.06506208349748863,0.06643450547424282
79,0.06484881591358535,0.06778328778735276
80,0.0648216554146114,0.0628839384238129
81,0.06444331427379478,0.06443027004411396
82,0.06428363204871912,0.06296668910283974
83,0.06439154274868879,0.060746644756623676
84,0.06381432052633221,0.06322794871282747
85,0.0640937176709481,0.060885699902497224
86,0.06433248029743358,0.0631926595464925
87,0.0641429320120697,0.06410985614960366
88,0.06392508725241887,0.06733931222343972
89,0.06306982227414251,0.06862209901660563
90,0.06306407001795623,0.0615496174788842
91,0.0631529008545321,0.06304202004443875
92,0.062326669642369714,0.06331483089168803
93,0.06266635520566853,0.061723642036518714
94,0.06252109523800066,0.06227534766225901
95,0.061947788121543536,0.06288172995587833
96,0.062255800365925214,0.06346085631445156
97,0.06147639040085528,0.062143981750781084
98,0.06168312120804493,0.059976012790729984
99,0.061553199515699576,0.06260900861262428
100,0.06106926864392752,0.05867367203405455
101,0.06107480298552058,0.06258463813102236
102,0.06094061336416802,0.06045980193749976
103,0.06067269665154098,0.058966500524375604
104,0.06065948403847637,0.05769311031583923
105,0.06028104191281193,0.05792228587048206
106,0.059851847462457336,0.05984294034346597
107,0.05982393949187631,0.06299982271388749
108,0.059697101811329714,0.059518878054882284
109,0.05941104187185673,0.05971634078950231
110,0.059823977977609175,0.057587468571778634
111,0.058848532658222194,0.05971827945468364
112,0.058692874508998474,0.06356532646500415
113,0.059080386896142,0.054743977026880115
114,0.05779721032825115,0.06185003137179219
115,0.05830806968726224,0.05917566769183764
116,0.057839722054706014,0.057230361414619006
117,0.057740956678879345,0.0588824729881328
118,0.0574356361294536,0.06202367627030296
119,0.057990161305982814,0.05558083237581772
120,0.05738695680374484,0.056773502850095026
121,0.05730557821536188,0.058425515881300724
122,0.058120874475113014,0.05571948980946379
123,0.05684060639709973,0.05531724743198106
124,0.05675493508464188,0.058281957991450625
125,0.05650301522565641,0.061293751933415665
126,0.05659570392789982,0.057054791152594875
127,0.05672498165721373,0.05675497050702148
128,0.056857771157539434,0.05709970665723674
129,0.05660739268580501,0.056139701681877555
130,0.05670607046966406,0.054920806654603256
131,0.05575890989034629,0.059538792921693284
132,0.0568837249795977,0.0542390582452351
133,0.05566666128603722,0.05360755896535368
134,0.05602008379328784,0.05580742605730315
135,0.055661683690717084,0.05255732622406289
136,0.05508413052053856,0.061004309714334445
137,0.05590901198945076,0.057255262983837936
138,0.055564353802352306,0.05325374889592534
139,0.05545906248620803,0.05186004509477514
140,0.054454810552590854,0.05176349272091462
141,0.0551065778870472,0.053690422529203266
142,0.054944324543138294,0.05292483001371115
143,0.054225868587906983,0.053793757021921115
144,0.05418311694501449,0.0529687103110453
145,0.05487216397714939,0.05695265339835949
146,0.05367487767557923,0.056382726880868025
147,0.053663878361407895,0.05321418992357642
148,0.053026093388918775,0.05299818072388656
149,0.05314662108580462,0.060269968635634164
150,0.053607894272970066,0.054587420570092964
151,0.05319308892464181,0.050405661501255014
152,0.053124375563921876,0.05466416291745516
153,0.052979551303348575,0.055851177865934826
154,0.052604403221707265,0.04952268305968937
155,0.052791148211232285,0.04887406057850902
156,0.05297109073431467,0.05342399417448439
157,0.05193843887739187,0.05095530247231968
158,0.052383298407212724,0.05217761233825333
159,0.051670627655099624,0.053442372925044425
160,0.05258378409575835,0.05472834565880361
161,0.05255228061702469,0.05304045779976021
162,0.05165961283377463,0.048073473667994956
163,0.05172434247446527,0.055037428187566566
164,0.051963668044129434,0.05253979775998756
165,0.05206664557383358,0.0484881939068025
166,0.051692557487663604,0.051427428593716476
167,0.05069028706454354,0.05228574296140539
168,0.05128795392424178,0.05075142439675312
169,0.0519893362159304,0.05443659513283171
170,0.05105465704159771,0.051788637295494704
171,0.05089933508418971,0.04882940953125517
172,0.05118887078055708,0.05634454268765148
173,0.05134058166607964,0.053842224830492516
174,0.05111199256619342,0.050928869908756405
175,0.050337077872596864,0.05415584629470661
176,0.05084616579949189,0.05092801386821242
177,0.05024640659074322,0.04805810495493632
178,0.05032016386201294,0.04919378679971951
179,0.050271731221394764,0.05091168176920845
180,0.049454510028806804,0.04890924944132919
181,0.04908554645465146,0.05007270371339974
182,0.04920364755818503,0.04582108986794055
183,0.04867223134304551,0.04756971340458884
184,0.04843990293612107,0.04971128322284054
185,0.048714065415074496,0.05024760496385848
186,0.04830828118327853,0.05010057143990506
187,0.0468431380238655,0.046778926103954344
188,0.046460033451719916,0.04492004473576794
189,0.04663066726645453,0.04650595209075413
190,0.04615244100229155,0.04999619806457337
191,0.045672622265861475,0.046424252399329416
192,0.04582892532209508,0.04279946776043738
193,0.04563519384393351,0.048027353830218035
194,0.04526074272509721,0.045992203289091635
195,0.045664164415604586,0.04788334892023334
196,0.04533814929342336,0.04235672363577721
197,0.04526016391295609,0.04257287919791834
198,0.04545572512358022,0.04388345762405136
199,0.0448663329584993,0.043299214224953676
200,0.04557166670521291,0.04506488746853917
201,0.04491269768481489,0.04372645885152147
202,0.04503253249557232,0.04593248301624499
203,0.04466691271191259,0.04442169346450442
204,0.04529419274990269,0.04342546817665036
205,0.04477464303159885,0.044003646235674876
206,0.045625390428349934,0.04446039658742527
207,0.044970838699957355,0.045819680643839074
208,0.04491566174137268,0.04744115490363448
209,0.04530625116470144,0.042499899305550246
210,0.04525730938171978,0.04495116768973779
211,0.044696725255770266,0.043613465613117346
212,0.04457220332406694,0.04376388536714717
213,0.044260808670942446,0.0478044614583936
214,0.04431789527557117,0.04335234727895721
215,0.04432445280045438,0.043497190146979704
216,0.0444977443328769,0.047565693266531005
217,0.044454035217420376,0.04404476848331698
218,0.04486992434679652,0.0439515675887783
219,0.0444040049900778,0.04565854290031314
220,0.04430980973696108,0.04528867139906609
221,0.04415332969668195,0.04211162471145556
222,0.043946677059542645,0.04318931030187441
223,0.04374524867005771,0.04367758278700434
224,0.044069956170676425,0.045594506295017115
225,0.043954191017720246,0.04160555479158636
226,0.04306792310006517,0.04382051689213622
227,0.04317749761712018,0.04477343484230087
228,0.04325843494918516,0.04277268514307635
229,0.0435538136695834,0.042932922807070055
230,0.04345242805082163,0.040867459381788665
231,0.043469701467050634,0.041523499709819375
232,0.043087828767409235,0.04553782555620879
233,0.0426934954496644,0.043901683470115194
234,0.04290994367957544,0.0431359054722133
235,0.04324482956366669,0.05020228111506355
236,0.04267289380369474,0.04156574075887216
237,0.042343489312046435,0.04411852063689066
238,0.04295543953329682,0.04175529585182432
239,0.042517277393504964,0.03928829169734407
240,0.041737254570535336,0.04309047856195385
241,0.04227401866770381,0.042202726847417917
242,0.04174798279315781,0.048572496120724604
243,0.04207753804441598,0.041316308872075935
244,0.04200175865966496,0.04447270190635815
245,0.04147140046866011,0.04105282598119979
246,0.0417947901783587,0.041299515472167855
247,0.04165118072423146,0.043165404652410734
248,0.04140976226205925,0.041017536548772666
249,0.041007804632973044,0.0426463980577598
250,0.0417336648557898,0.03982720078919568
251,0.04163378331330802,0.03955072052218167
252,0.040948383879366154,0.045588712324847736
253,0.04116423464239501,0.041056880699477986
254,0.04155382917349716,0.04020623353786984
255,0.041048565492343654,0.03900038201623576
256,0.04142135414454958,0.03796839647306734
257,0.04093618415367546,0.043799867834410706
258,0.04086951029856952,0.038750780938926796
259,0.041051480738962774,0.03850431123861621
260,0.040569802792333395,0.03890379176172998
261,0.04029422671013742,0.04350812111311572
262,0.04097231610460009,0.042750597711661335
263,0.04104180531285936,0.039944974704106774
264,0.04045765762992328,0.03894253120990654
265,0.04042338492939893,0.039400238337931714
266,0.040232840236082826,0.04054567596824412
267,0.04100452861685357,0.038261034892726434
268,0.040314736733619544,0.03800647437496033
269,0.04021633698118867,0.03965010059131537
270,0.04022633034265418,0.041257525734668093
271,0.04043070861487556,0.03914060124917207
272,0.0405197739467132,0.043810519212658425
273,0.04041367379887451,0.04037190601817717
274,0.0400966938583554,0.03857270043105146
275,0.039630266311440725,0.04030528718101386
276,0.040126409557321184,0.03978940885405232
277,0.04017740249675479,0.03759498506249315
278,0.03983516558903537,0.040512290437012655
279,0.03967132697627842,0.04005953534884818
280,0.03985378605504926,0.03814649034729602
281,0.039647625215786346,0.03922237363668201
282,0.03926194929700199,0.03787822463647437
283,0.039437121195758845,0.03998768103221503
284,0.03917723377313402,0.039026476228175996
285,0.0390948087772091,0.03973388111170296
286,0.03918963516477963,0.03884274386686891
287,0.03916558437793852,0.037251139068483555
288,0.03924541388579505,0.03611991469672607
289,0.03902197343041952,0.04244868763102823
290,0.039260392791206696,0.037825837663735755
291,0.03875169851820913,0.03915942503961175
292,0.03909588188117595,0.0374745222303984
293,0.03926023323353913,0.037201065767112455
294,0.03853259658475193,0.04054349913734475
295,0.03877102016961927,0.03851344197953227
296,0.03855912833899665,0.03863730838473801
297,0.03888859456370798,0.0376156730593521
298,0.03847425751727548,0.03892280086698547
299,0.038875014737820165,0.03718962594896155
300,0.03870675561400198,0.038306450957892535
301,0.038410291131541166,0.03773596586737467
302,0.03863293306528331,0.03627715623498716
303,0.038473261497932655,0.03973893831824353
304,0.038306340529061525,0.03983099881821292
305,0.03880375376690349,0.036199531080561446
306,0.0381960208474887,0.03709206885813302
307,0.03822908374435491,0.04052769421543206
308,0.038685632706563965,0.03908552193827486
309,0.03819518446100416,0.036394461573358114
310,0.03826830822670703,0.038172984708926765
311,0.03837036838804146,0.037413445128614546
312,0.03793439093521602,0.036967695564996
313,0.03807368061969058,0.03782008698279216
314,0.0380913225187958,0.0372176438646469
315,0.03775143502228004,0.03799132862508344
316,0.03788284458916822,0.037181850234612575
317,0.03796361678977497,0.03615434738442055
318,0.03708381306746309,0.038080657184735564
