epoch,loss,val_loss
0,0.1620736761237506,0.10879236948988809
1,0.08707232142595364,0.08032113584177458
2,0.08236681141084333,0.08341198631554207
3,0.08242894931853437,0.08042622222943671
4,0.07645672049930247,0.07810053676249196
5,0.07688103930698596,0.07733834801269687
6,0.07733001967938208,0.07664387619627115
7,0.07766871283547007,0.07843420598082591
8,0.0779625558220654,0.07640916914712188
9,0.07720271217451392,0.07724537275255244
10,0.07734472533281472,0.07818309823381872
11,0.07748588238903087,0.07869288031873312
12,0.078602077744657,0.07900327289419656
13,0.07947678887825027,0.08046746410976363
14,0.07970066445408393,0.07931548266450344
15,0.07951048847368296,0.08012630385306282
16,0.07956520786626543,0.07979275765457583
17,0.07959192940633264,0.0798971619642242
18,0.07968347927601599,0.08101371612808511
19,0.07979781055550496,0.07880487111885903
20,0.07976386201181572,0.07916622024379383
21,0.0798906894336692,0.08008768232487842
22,0.07986110386898002,0.07933045681433688
23,0.0796476114603827,0.07981632012453432
24,0.07977615471938246,0.08000078548595674
25,0.07972111146774986,0.08022117151951545
26,0.07974984375335616,0.08137187398176261
27,0.07972581611929846,0.08024456722466326
28,0.07967429041719551,0.08030640054567649
29,0.07999078783509637,0.08056466246131093
30,0.07989440785108996,0.08175232613072587
31,0.08011621011080121,0.08142365731046063
32,0.08008028508471451,0.08110206603015983
33,0.08073222557965705,0.08069291874331194
34,0.0805299398150566,0.07926901858579294
35,0.08012414874313928,0.08089921833989934
36,0.08025689160437893,0.08091276319551957
37,0.08040367139519738,0.08083899643186894
38,0.08055621267651482,0.08123103853817897
39,0.08047663655093343,0.08003218177979446
40,0.0807260699885831,0.08073609234690196
41,0.08047440890475906,0.08080137117626918
42,0.08045320272993603,0.08101019833086981
43,0.08064554943788728,0.08032919956340316
44,0.08072614060531703,0.08110729908392762
45,0.08063988492405005,0.08133149920318102
46,0.08064066325660518,0.08134675124144121
47,0.0812012105465507,0.08194732418447004
48,0.08087744454233099,0.08054520250331161
49,0.08125711975099562,0.08136297238442308
50,0.08117177416618875,0.08169879417957616
51,0.08125462097753819,0.08164212582213914
52,0.08095141007698221,0.08284931388796081
53,0.08135705001110272,0.08200901557398106
54,0.081278213506027,0.08140443631204547
55,0.08117183464036572,0.08053909051625298
56,0.08127043702357488,0.08310698524952499
57,0.08232905218403021,0.08280655391214396
58,0.08259159767275139,0.0834734381750614
59,0.08293848516915342,0.08323621462910026
60,0.08291822423537572,0.08395994256449762
61,0.08307498221774753,0.08262670529387368
62,0.08274014260200002,0.08303793448581409
63,0.0824460704906953,0.08278153258674993
64,0.08267652648363373,0.08250900855451093
65,0.08265323783282182,0.08194324319510359
66,0.08260983600319147,0.08305357099637894
67,0.08284388096045724,0.08325880395444059
68,0.08261513821393561,0.08296086334556506
69,0.08228171871696635,0.08351421096871571
70,0.08279613203567852,0.08423085182599412
71,0.08262557610809851,0.08368110261569366
72,0.08349072024952785,0.08360529467522299
73,0.08337705849195651,0.08416753163489189
74,0.08307836266706506,0.08326960239197762
75,0.08347100045064465,0.0837605120386302
76,0.08315632198092272,0.08363807568328062
77,0.08350608859369033,0.08381718258360943
78,0.08365396326251454,0.08327474272806247
79,0.08296605389562252,0.08306047133954379
80,0.08207380803202173,0.08318169780763568
81,0.08300272875624023,0.08359955860435633
82,0.08390568554115524,0.08417463700133417
83,0.08422944339202176,0.08472766045072272
84,0.08423349187433196,0.08450517475299225
85,0.08460146060688414,0.0847015246960622
86,0.08445770423308456,0.08503428176221832
87,0.08453195358661535,0.08491079625691969
88,0.08447607585208879,0.08521009886956346
89,0.08485067719749981,0.08500079945282571
90,0.08498864396989679,0.08522612139312132
91,0.08512410899098638,0.08453195318638479
92,0.08500403470749096,0.08529865733497051
93,0.08509048468751206,0.18626290098738274
94,0.08520494972606547,0.19560282703874238
95,0.08561328899183815,0.08475316665778503
96,0.08523757669994299,0.0854450382921483
97,0.0897102308490103,0.08328083252803303
98,0.0816572902561854,0.08279950406340604
99,0.08143188795454497,0.0805403088184916
100,0.08120846421979695,0.08168891947878187
101,0.08126559518843436,0.08190935012173634
102,0.08205359376710858,0.0825219683366774
103,0.08167751574163719,0.08177149811525841
104,0.0821780404753441,0.08190209590245535
105,0.08267283602226838,0.08360405304508127
106,0.083382914523236,0.08472543671409634
107,0.08390309946904842,0.084174204320774
108,0.08358304851132331,0.08364421447361184
