epoch,loss,val_loss
0,0.4560874709932823,0.6247312523597894
1,0.19968129846993393,0.5674743578415509
2,0.1379549274529059,0.3509690479714741
3,0.12763476436297724,0.262300744768261
4,0.12549376980526242,0.20530962401120237
5,0.12394420814326429,0.16827971135923106
6,0.12129879044735525,0.1478772395571997
7,0.11651599600793809,0.13244144248869993
8,0.10831568255199223,0.11196979579999465
9,0.09742437297199655,0.09762198010156321
10,0.09131240926858947,0.09423116167155347
11,0.08911197485886221,0.09148542427046355
12,0.08954849328816407,0.09168252724316693
13,0.08886374046248714,0.08775808783464653
14,0.08444935212454457,0.08426492176083632
15,0.07967959872380954,0.07876380613838979
16,0.07296361128880283,0.07258844375610352
17,0.06878750058492338,0.06877489867367485
18,0.06588971001778061,0.06682721860418024
19,0.06410002831633635,0.0670562760196915
20,0.06395414251628823,0.06689597504545552
21,0.06358802365505789,0.06746077644386032
22,0.063849963423774,0.06668307170156361
23,0.06362983094542984,0.06760655571670496
24,0.06396232653907903,0.06745260743092196
25,0.06393269848401152,0.06576643670483152
26,0.06167055422982832,0.06166268368215524
27,0.05481584452268645,0.05106771312827288
28,0.046887455992107314,0.046814717121364535
29,0.043193347194767376,0.044463708679112354
30,0.03841311255777915,0.035793538169227826
31,0.033438850458212724,0.03167468024952005
32,0.030551637016882106,0.031634978762315226
33,0.03187035386428589,0.03279123852361542
34,0.034738077730761735,0.035787386891915816
35,0.03814222848438841,0.03956830510219862
36,0.03874969984016081,0.03897349971036116
37,0.038385438109476734,0.038459503113530406
38,0.037380019686822814,0.03982699025682239
39,0.03698393187712966,0.03911859364530375
40,0.03841434417688471,0.040947750918278396
41,0.03787071948621686,0.038496336026131645
42,0.03681357515843835,0.037388864875763886
43,0.03700407321645519,0.03795528125970862
44,0.036939345857524494,0.03756480151426422
45,0.03644097913203277,0.0370038213107244
46,0.0355886220052017,0.03675613792021145
47,0.03481103205598715,0.03639448891834233
48,0.03484469452711541,0.03623091365939887
49,0.033690986626847524,0.0344134782722523
50,0.03261454027938092,0.03373540162520353
51,0.03276727495231028,0.03438270606042803
52,0.032340517252918304,0.03330809549363547
53,0.03227183986895197,0.03357371697996476
54,0.03127009336521307,0.032970687114568645
55,0.031015422591191576,0.0319879082890675
56,0.030514625905770955,0.030530897149628446
57,0.0299936268390633,0.030369448309489924
58,0.03031072193595368,0.02986045929697133
59,0.030107789621578427,0.02922954905576022
60,0.030705586882440124,0.029689287564666697
61,0.0299380558476908,0.030357421642934628
62,0.030699108455946127,0.02900801297248334
63,0.02988404902358224,0.028816529080387232
64,0.028824932755917076,0.028949317168588787
65,0.029172703007778782,0.029077579202347024
66,0.02835066901065233,0.02822730548737585
67,0.028108806928663743,0.028254769684732423
68,0.027836701488049013,0.027303769679148066
69,0.027547397790110017,0.02837421756613162
70,0.026603292483161754,0.027183062461919563
71,0.026832049888536685,0.028217099144939306
72,0.026663089743045373,0.027484282851219177
73,0.02669157288733899,0.02655329929245997
74,0.026361022467218984,0.02750802887675836
75,0.026385016871366913,0.027155242051727087
76,0.026224140649822755,0.026989501835994942
77,0.025731480130412446,0.02709323001751142
78,0.025408821297794815,0.026231123509910678
79,0.025711105007120944,0.025668229359064914
80,0.025496172638038012,0.027443784108573153
81,0.02580019999588803,0.025820772560645442
82,0.025233175737533982,0.025733709205375162
83,0.02566684779571736,0.02501481323856716
84,0.025845914111128004,0.026837800015774807
85,0.025301220218145,0.026031042470834976
86,0.024394587254313035,0.024488715599327124
87,0.025473544726104247,0.025488104931143826
88,0.0240570275538315,0.024633783861532692
89,0.024472704729226632,0.026009295568909754
90,0.02547327867584435,0.024475630560471105
91,0.02471119485150172,0.025202474823986836
92,0.02512975037097931,0.024544827510104623
93,0.02421657032677977,0.025360566455610963
94,0.025236109858305437,0.02487466257614221
95,0.02402651691295969,0.025235809125872546
96,0.024519291567051505,0.0256330387074818
97,0.023925517883709096,0.024087172073795814
98,0.02407512702341155,0.02452098364515822
99,0.024393651810452693,0.025238396571010582
100,0.02433356985919119,0.0246620194250068
101,0.024811564248025886,0.02430639780566905
102,0.024552281447282925,0.02387862499485644
103,0.024207770179106494,0.024602413567346194
104,0.024115928866731837,0.024992964627553325
105,0.0237681895758458,0.023509221129812474
106,0.024062637401026064,0.02397212827968043
107,0.024578861481561437,0.024007192950031554
108,0.023127007070840814,0.023808514489972777
109,0.023835239858608546,0.023181638326640278
110,0.023211073592363848,0.023791600155911242
111,0.02389535505881929,0.024484059968313505
112,0.024013061751061538,0.02717506869645544
113,0.02412320475468016,0.023606723925286486
114,0.02436851665348284,0.0245268321920966
115,0.02344327980256456,0.02552517946780652
116,0.022980737301895,0.023614131650605868
117,0.02311588518732176,0.02288108050476673
118,0.02263741709995927,0.02371005926194579
119,0.023090733728540227,0.024343113003428594
120,0.023125790088899492,0.023750976695455322
121,0.02304570277140835,0.023707831393956214
122,0.0227755717639848,0.02370937943978365
123,0.024222026307751814,0.023582826014752537
124,0.023584179022884743,0.023883693829871887
125,0.022765547763116248,0.023096929715816363
126,0.02356843623208014,0.024226303190685982
127,0.02370121547086971,0.023686862066965693
128,0.02423163232811558,0.024518538295298584
129,0.023262031537693316,0.025512465542947598
130,0.02303729050125428,0.025173781237514445
131,0.023293384900829925,0.022618463010231193
132,0.02344036477757251,0.02467860184725403
133,0.022873904233373057,0.023773660320182178
134,0.02380632980191332,0.023688974133295605
135,0.023851672510110486,0.02409482361792132
136,0.022548725527865212,0.023010455606173177
137,0.022883985088918153,0.024015199335277543
138,0.024242601540731632,0.02377825364643751
139,0.02354824290735515,0.02389063598053862
140,0.023990548897798607,0.02217372280884852
141,0.022955895144873718,0.023940099071162617
142,0.02235105105741756,0.024576307628159374
143,0.02273404396571747,0.021618368609469068
144,0.022025246547139065,0.022308297924581888
145,0.02272853770065965,0.023698856512647727
146,0.023108642064328267,0.022816758162464746
147,0.022548587956121118,0.02191234894039095
148,0.022623967335332097,0.022497042544301626
149,0.023408585176693173,0.02338890838184098
150,0.02336958428390148,0.022624332096803097
151,0.023459120895566902,0.021930264337926872
152,0.022133092483960268,0.023392311477845953
153,0.021885110168006476,0.021906074006543604
154,0.02245950779518274,0.021696856043250987
155,0.021968598609540875,0.02224687678927137
156,0.022514241916222835,0.0232227867137092
157,0.02209932634269628,0.020801231597167576
158,0.02195283395098889,0.021001226492514905
159,0.02211329019738464,0.02170493661664253
160,0.022325565422496457,0.021932326351083064
161,0.022060946172733947,0.023658382251512174
162,0.022230501624014902,0.022669900273687617
163,0.022860607044316653,0.021978925133860388
164,0.02159460048799909,0.02094008194556994
165,0.021463616333139226,0.02090950884184865
166,0.021744799631552434,0.021521662665141182
167,0.021840527375030706,0.021023487397866657
168,0.022416640623054637,0.021173342347664888
169,0.022279768001552173,0.021034300608863663
170,0.022876994332342637,0.022749738984329755
171,0.02189133336078229,0.02080230645893156
172,0.021734661430003136,0.02146843820810318
173,0.022497479451864255,0.023523456886295202
174,0.022269723364922004,0.021744063600551252
175,0.023167201259180786,0.02203913727529751
176,0.023550715840120955,0.02088833255909903
177,0.023108429744781004,0.021113886339084585
178,0.021223487816457675,0.020574877897725087
179,0.022117536815660675,0.022528263603069986
180,0.02192515232343608,0.021743845548336357
181,0.02236384566961311,0.021541679732848044
182,0.022347197127271824,0.021883904009826424
183,0.021957306572654114,0.021778087521535018
184,0.02238957558971221,0.02175123959981887
185,0.022401585419640296,0.021243516565120035
186,0.02204645892942515,0.021792698016231373
187,0.021161984402950355,0.021511649857311285
188,0.02297007095978016,0.021441636549294457
189,0.021793143823742867,0.02157300838464221
190,0.02284596658744446,0.02211726533407851
191,0.021983427758233285,0.021079639254441094
192,0.022234541188016183,0.021657553248742755
193,0.021665756275334697,0.02171320068223994
194,0.02141094237829991,0.02098662274810233
195,0.02325370225058062,0.021769059157764264
196,0.023212222045096827,0.02228724653291148
197,0.022367567909280146,0.020907746093679767
198,0.022100513881644395,0.020889024791675946
199,0.02157078079849951,0.021380313997005306
200,0.021852811417124404,0.022317011104246904
201,0.02224720039910923,0.020249344394073006
202,0.02152297260078389,0.019851029388491037
203,0.022151080671492525,0.021302010791823846
204,0.021750850778982395,0.022057607141864853
205,0.022170949037971458,0.021334411511414273
206,0.022439286186117825,0.021991646162761273
207,0.022296853231515472,0.022313001240755238
208,0.021409765208565343,0.02149204966114011
209,0.0220060397203513,0.021532347801235294
210,0.021921114240751022,0.0229412740775088
211,0.021159696458714215,0.020742020894621693
212,0.021991320702386654,0.02068458929253641
213,0.02222251678692309,0.02340263209139654
214,0.02212180443636076,0.021659200960524785
215,0.0228868199468363,0.02160966693055491
216,0.02257453632636333,0.021581752514538838
217,0.021597577948269883,0.02086236696805834
218,0.02176667619349919,0.02093105934300395
219,0.02183485352324219,0.02034860325962767
220,0.022859032449173176,0.022448729420470638
221,0.0224471692670518,0.021335567614828892
222,0.02285362279966591,0.021332030928181124
223,0.021212130916986878,0.021939756543657114
224,0.021269675351561993,0.02059100872237784
225,0.020654523004521065,0.02064175316847341
226,0.020327746384139134,0.020230746199918347
227,0.02093965338733722,0.021309590652989326
228,0.021766161824774553,0.02105145902885485
229,0.02117139586489501,0.024430125605228337
230,0.021863797738209484,0.021089279432167377
231,0.02078590597077383,0.020476138349189314
232,0.0211428587698913,0.02128492622065914
