epoch,loss,val_loss
0,0.16544946915597367,0.10365233366284299
1,0.07884281569068952,0.07259366193223206
2,0.06861048086369924,0.06611343285608405
3,0.06514022739337598,0.0675894292843276
4,0.06349937915861559,0.06266244547331343
5,0.06033500911389514,0.061463966489355676
6,0.058052345196143995,0.05670535996344584
7,0.05531651758664041,0.05439104560553886
8,0.053494176245945914,0.057051949402951024
9,0.052498443107262885,0.05067377718019975
10,0.05110195644801374,0.051693386626859864
11,0.051402254210268374,0.05083394100288283
12,0.05139783604873075,0.053223481279780945
13,0.05391387822780964,0.05629781284314399
14,0.05547624468195925,0.05333509802194966
15,0.053512934896109296,0.05302827625631722
16,0.05363792343903408,0.05107593231767581
17,0.05334848350734352,0.051167411795848924
18,0.051610300033021986,0.048031729846698804
19,0.047978206414827626,0.04705478243629765
20,0.046535209914167625,0.04575038024451475
21,0.045078230381524156,0.045524662414943504
22,0.04464096663821992,0.0424936562805968
23,0.04415637413136583,0.04451631958101712
24,0.043590386702621775,0.04346928594379606
25,0.0434723189420742,0.042565979436921995
26,0.043031227748861894,0.04137582871724793
27,0.04296923002941336,0.041646763226627456
28,0.04303487814176712,0.042520025331929806
29,0.04228594608986073,0.04198063660968733
30,0.04259110772781235,0.04061164510243035
31,0.04187055160220769,0.041398811041603145
32,0.042229968010724116,0.039726861950301146
33,0.0416594128966403,0.03990821109903828
34,0.04130408451181474,0.03965808715209682
35,0.04066708529268285,0.039151002168537785
36,0.04097246652771291,0.03928697117455098
37,0.04077558915356366,0.04156944856059391
38,0.041339654750901636,0.04032775463614298
39,0.04138248419459108,0.03976325595188348
40,0.04051289767425933,0.03974987229813058
41,0.041561585629908304,0.0404088740378924
42,0.042122479766416705,0.041796394036502094
43,0.042058365610089424,0.041429857475699265
44,0.04158924239204465,0.041295829295947405
45,0.04180716253745613,0.04106555118180676
46,0.041200391781463515,0.04040069404427894
47,0.04028148378441326,0.037947442475191794
48,0.03874931839420546,0.037013320356678
49,0.0378086698784245,0.037471086895291786
50,0.0374153026228519,0.03666768146894913
51,0.036623326331960686,0.03563518344550361
52,0.0365417906262582,0.035115530001383274
53,0.03614537372327537,0.036545834982592756
54,0.035672388966385124,0.035790183858529924
55,0.035540277196420465,0.03611321190420624
56,0.03511263417313806,0.03453822535386966
57,0.034429509713828896,0.03319035713055892
58,0.03398939564550142,0.03256801530224842
59,0.03428614665296295,0.03244830454804809
60,0.033494210531778756,0.03280515343703524
61,0.0331162939102744,0.03296737261439932
62,0.03225045898507872,0.03271625064395738
63,0.03251774577821473,0.031891686165589184
64,0.032284571063354146,0.03124155750573152
65,0.03251922418840593,0.03170634346448867
66,0.03148290694510336,0.032994799880456435
67,0.03139071196591635,0.03031300796870651
68,0.030338029224547647,0.029198636483892083
69,0.03124340921104383,0.03383681884045759
70,0.030635763431707923,0.030558184922717647
71,0.029760262075004627,0.028946084040198727
72,0.030917449039127902,0.029910946313377054
73,0.028850859962403774,0.029861461429988294
74,0.028991384733971552,0.02630415187756095
75,0.027515677176118136,0.027276592955416644
76,0.028267186087408035,0.029806463455085974
77,0.02808910309017705,0.030032572501883698
78,0.028624868941315405,0.025879038631586738
79,0.026577192892452223,0.026612487522372132
80,0.02643125431000186,0.02598864734231626
81,0.02606423010976671,0.03101739093908289
82,0.027856031216109255,0.031548612912045096
83,0.02839210819450023,0.027060430974720873
84,0.029315758882154472,0.029119459103613552
85,0.026077850837912635,0.025258770635926357
86,0.026009376560576815,0.0258319296586697
87,0.025315786909154182,0.030041198205752642
88,0.025259519786500245,0.02268844348949622
89,0.023808996274257355,0.023358692703937676
90,0.02534148463016029,0.025253708483893852
91,0.02392789042241377,0.023833835078513613
92,0.024575979745150994,0.02539030766671769
93,0.02400568179893408,0.022797654971668545
94,0.024383832739262607,0.025553183225825157
95,0.02440239042698813,0.025024173438737217
96,0.025450783018633235,0.023653399330088257
97,0.026535466829274625,0.027405377453885497
98,0.024699785416837122,0.02606594993570421
99,0.023206275859497767,0.022177345689089165
100,0.021623224454770367,0.021009800563130496
101,0.020750811621308516,0.020552928904225814
102,0.020649491485467346,0.019511142988184255
103,0.020540075907431586,0.019544018680948672
104,0.019546417438303775,0.018906273873965384
105,0.017821154224393752,0.016600788695165843
106,0.016343477817489016,0.014230303890450366
107,0.015487537018025665,0.013542906811935701
108,0.01468086066796518,0.012531163620791194
109,0.01368635221158149,0.011336276080568145
110,0.012893343502529067,0.011831840820722252
111,0.012362627756612883,0.010446770381308862
112,0.011078125001567837,0.01194116592351362
113,0.010716668762293437,0.009298771066295649
114,0.010543504104890722,0.011733505054543878
115,0.010309063286954563,0.014203966350457098
116,0.01017059863516711,0.008509104478231028
117,0.009105863676463767,0.0071531294693622
118,0.008804136011984012,0.01034026284832228
119,0.008362048030492189,0.008960374356442275
120,0.008435727494637028,0.00720420172959919
121,0.007985492646552735,0.006151227861930982
122,0.007795053869962311,0.008025453972278109
123,0.008785745562080272,0.005851446326760297
124,0.00768427504114896,0.006366870604380495
125,0.007763187122009367,0.005460446909578677
126,0.006665118663630587,0.006614069525305338
127,0.007397444773023184,0.008474307878261936
128,0.007054848084728763,0.005202116509759836
129,0.006932886493809932,0.005336161702320027
130,0.007066545965091186,0.004966806496317839
131,0.00623464230917019,0.0051762145975547316
132,0.0068320270788634,0.005266608000345581
133,0.0072389881406314405,0.013544824494794305
134,0.006330813352380776,0.00744766872537917
135,0.0062299945519576,0.006165230399197601
136,0.005998016280398669,0.004624166913001983
137,0.005896039421950801,0.006460967483057772
138,0.005773555350134061,0.004866044764019602
139,0.0057328007883112354,0.006033277514132641
140,0.006606674163515191,0.00441552236176007
141,0.005285853208431663,0.0035688615580116586
142,0.006168764853793428,0.004534582613144825
143,0.005612304012767961,0.003915504434997923
144,0.006483368603769485,0.004502370219785006
145,0.006402499504111183,0.004650503991560565
146,0.005931120631817302,0.004801561088696705
147,0.005807470145291365,0.005658501670964139
148,0.00522461578642263,0.005778934643861133
149,0.005571666511111066,0.006935562488043
150,0.0057600815325873425,0.0037122605935962253
151,0.005688752257004589,0.004113124269384217
152,0.015192880484310509,0.00547718914279357
153,0.005490333699307842,0.004116758391049403
154,0.004990217429230274,0.005632890977521133
155,0.00507847920649586,0.00573586610615571
156,0.004877829307950453,0.003080756577990961
157,0.004519561193507465,0.00427491605421859
158,0.004360709148983982,0.002858617965926967
159,0.0037885438693187785,0.003120781880900434
160,0.004095146155485855,0.0044297520282598184
161,0.004313583926457412,0.0037391274538436563
162,0.004860328432979534,0.0035401094149343885
163,0.004825629262418541,0.006586366330310937
164,0.005147365526371389,0.005053794644453255
165,0.004483259188087224,0.004676663870379276
166,0.0047245128713507235,0.0038105402220461014
167,0.005805030976106479,0.004070135713139609
168,0.004734935861141931,0.0036900199309503035
169,0.004173355795972371,0.003454199131363569
170,0.004945899554186587,0.003446181008339387
171,0.004470530154544943,0.004693920915026068
172,0.004772142549291056,0.006451639163380617
173,0.0043638117005508825,0.004021856056536594
174,0.004506497912918129,0.004637123257746507
175,0.00523376777038748,0.004716234679511016
176,0.004197686803240558,0.004165062940960284
177,0.004125080216885563,0.0036996620540538745
178,0.003999565514487599,0.0034792794917299225
179,0.004240432863781075,0.004170787085366642
180,0.004196467728372276,0.005265253952236871
181,0.004653329585653191,0.002439203976242617
182,0.004292225075126674,0.003930909081708402
183,0.004153010179679528,0.0033917649468626085
184,0.0041833561687390775,0.0031804381493014456
185,0.004329219428568536,0.003088875981150658
186,0.004733726800457358,0.0072788665897706144
187,0.00485016383644049,0.006112898663645603
188,0.004361553767269446,0.004088786081502827
189,0.004331652516611576,0.0068538886869448255
190,0.005219758831993412,0.006031203125408706
191,0.003887568468426754,0.005833013110644174
192,0.0035805691469205374,0.004015299045585901
193,0.0049235027459402425,0.005278798863446103
194,0.004457615016174944,0.005280227379321364
195,0.004250610928763252,0.002815608888105199
196,0.004143437529554134,0.003846753493848903
197,0.003703148263007057,0.004111811092517382
198,0.004365491686849673,0.0038014976064260717
199,0.0041525451334578235,0.004710394146245035
200,0.0047385944605828805,0.003465704742639716
201,0.004247933815314928,0.0041194490728394114
202,0.004273664454963404,0.004765608703446352
203,0.004256140108858284,0.0037041409921537622
204,0.004590379277221504,0.004660647408503836
205,0.004055438080024969,0.004289652829719289
206,0.004518987315989432,0.005582366660314494
207,0.004203217209837542,0.004832730523987593
208,0.004244646338986413,0.0033134354813937348
209,0.004118235222883612,0.0038182269109246904
210,0.004437348665548586,0.005271571430715056
211,0.004548884909103091,0.002837620332841515
