epoch,loss,val_loss
0,1.3720854812865253,0.665204516008508
1,0.488333275683111,0.3987566334060919
2,0.39442956709652116,0.3960703985843493
3,0.3921252397848643,0.3891090325652471
4,0.39013905488520406,0.39588899885751927
5,0.3955799706167073,0.3905950108191679
6,0.3849254159999789,0.3799492613763064
7,0.3780334444640638,0.37431527863549924
8,0.3729783453577333,0.3715772805434094
9,0.3683812058896279,0.3667139267488644
10,0.36456874725248795,0.3636185412060678
11,0.36310822641153895,0.36145325883599655
12,0.3602545886731548,0.3588966184369955
13,0.3595727721183039,0.3590951789855581
14,0.3573581717378325,0.3567048681704379
15,0.35367163691779885,0.35014790463560475
16,0.3504386206420301,0.3484328290375557
17,0.34939011459727937,0.34808659689955196
18,0.347954473001875,0.34675754680817955
19,0.3398735674975111,0.33149545084047055
20,0.3201787121576085,0.3155515444918514
21,0.3145321013687326,0.3135041618968148
22,0.31019627907388597,0.30633804100935347
23,0.30614516884684084,0.3038351559554298
24,0.30381897537351893,0.30341101386646824
25,0.30169304366782607,0.2996430795260462
26,0.3000203761265432,0.3004115647985508
27,0.299346415806922,0.29844289208926267
28,0.2962780992428271,0.29549442738553344
29,0.29444442407118615,0.29355769149882643
30,0.29371804735071655,0.2939332949663582
31,0.2926208292313522,0.2916667876322625
32,0.29122933264163664,0.29094685622341726
33,0.2908095916350492,0.2925444197588863
34,0.2908031890670554,0.2909024113872998
35,0.2904315325710699,0.2897428575470961
36,0.28889917031371243,0.28826467160079644
37,0.28884471642027654,0.28872909074047937
38,0.28811964659477407,0.2875903022035239
39,0.2871327004034361,0.2869979835629181
40,0.28694170580017003,0.2861021050526198
41,0.28597042231346304,0.2861479844224669
42,0.28564873356803905,0.286116139288483
43,0.2852292761004133,0.284632137678887
44,0.2847646266865216,0.28499966130636767
45,0.28444495380258294,0.2846350084399274
46,0.28406070957747964,0.28357276052307123
47,0.28332461856252,0.2824393648186724
48,0.28261996425694225,0.28210534478795746
49,0.2820329734747358,0.28175855913120834
50,0.2815789141767412,0.2814170122381826
51,0.28144873667963977,0.28132029673953457
52,0.28116350434571624,0.2810929311996571
53,0.28115293688530163,0.2811455907507402
