epoch,loss,val_loss
0,0.1643179395644785,0.0995764671674185
1,0.0713969478212434,0.048662199561602504
2,0.030869243657596107,0.032946055331623925
3,0.03387356593424706,0.02647718716333396
4,0.01917134090025219,0.016735986150042598
5,0.016052007075878595,0.01516158888285543
6,0.01509631252873668,0.015230452562458138
7,0.015112227001275829,0.014517689123014672
8,0.014890604783117557,0.01531395974224279
9,0.014680265748261406,0.016055296811009825
10,0.01483542463227773,0.015232218099403729
11,0.014590243149703617,0.015072784264555059
12,0.014369386132898853,0.013975018391351861
13,0.014431320576385843,0.014586731531284602
14,0.014002731135435147,0.014186420308127588
15,0.013843263733944447,0.014224461694384008
16,0.01392787958880206,0.01452192081610401
17,0.0139176881277292,0.013457218978198241
18,0.013999179963746089,0.014139280561137219
19,0.013891240167948935,0.01381394678348971
20,0.013448083009064603,0.013571328906917205
21,0.013310991946405334,0.013925790372168631
22,0.013028518229404347,0.013899277345863213
23,0.012955995008191593,0.013212554627219429
24,0.012546522144919081,0.012093819058173128
25,0.012456208167092905,0.01181179625088762
26,0.012583289020356062,0.012756646195486858
27,0.012270307660826462,0.011528956073894215
28,0.011935742290170906,0.01062442015359603
29,0.011797227283871229,0.010931466530417492
30,0.011760597353612038,0.011712401627541624
31,0.012146646877732887,0.010787132626874247
32,0.012036848305013599,0.012072981085301904
33,0.011766102277025355,0.01113136494333761
34,0.01176501999644162,0.011180517770902745
35,0.011711701901508964,0.011390538467939623
36,0.011721569480081137,0.012446427374531315
37,0.012208964058505498,0.01372691485501573
38,0.011669923572597815,0.01128681164217235
39,0.011575444030659578,0.011461826256713768
40,0.011888608224034834,0.010547123930248672
41,0.011403019167780639,0.010495898979050773
42,0.011679450307208166,0.010885734599886348
43,0.01171067525870163,0.010595404609138088
44,0.011391530853422949,0.010454384586534918
45,0.011771942338653855,0.01066518596343361
46,0.011996557907782776,0.011898779613866331
47,0.012101977973131181,0.010185221313398211
48,0.011967628008330898,0.011595196026688312
49,0.011692486533658395,0.012674818415968033
50,0.012045323503666001,0.012845270281647286
51,0.01164691295805309,0.012413334069095828
52,0.011783533868455081,0.010647625846151724
53,0.012034229396713628,0.012673667277008789
54,0.01211643170678525,0.012482867072664949
55,0.011626605886584825,0.011453810222182297
56,0.012213728359366635,0.011596457346180056
57,0.011897288609019143,0.01098404997840653
58,0.011815192827435253,0.01222382544156902
59,0.012130649515437327,0.011888556044928042
60,0.012020522689850306,0.012512850831685428
61,0.011610673896098832,0.011066161860559715
62,0.011452458938099831,0.010864945260871088
63,0.01156090720177745,0.011549708558409677
64,0.011631999831671992,0.009779006450774402
65,0.011414276722403202,0.011168890161514752
66,0.011163995061873747,0.010281850225508989
67,0.011421772459303018,0.01044406700069298
68,0.011025497111395824,0.011101007638330076
69,0.011170976191497059,0.009928465924492575
70,0.011206624160656969,0.010776646986924224
71,0.010732885915599913,0.01068481694702603
72,0.01058218729489451,0.010716499836458263
73,0.010961630528488999,0.010701646106192678
74,0.010764685727813713,0.00977977820625786
75,0.010508103647546993,0.010266473249994636
76,0.010743448244434574,0.0105905591807201
77,0.010162695230235703,0.009678845606955987
78,0.010524667882294262,0.009042165673248934
79,0.010316638492619533,0.009602404558250495
80,0.01003022530160064,0.010084171540558856
81,0.010229351317813749,0.01063290899715018
82,0.009870619204328607,0.009273939846478984
83,0.009924661471239693,0.009411203319937484
84,0.009543380086986923,0.009602990807067153
85,0.00987303902139719,0.009097736097295969
86,0.00947710485953233,0.00877417965653193
87,0.009496708553534546,0.009490830357750288
88,0.009816214898236388,0.010016210435286176
89,0.009703036379642326,0.009352805592404898
90,0.009667234222808902,0.00983897264460256
91,0.009701655919497593,0.00879318596010156
92,0.00984457932687331,0.008993781556911185
93,0.009745715278499335,0.00935603038502685
94,0.0105947462537011,0.0107058231235903
95,0.010399179954675855,0.011225122579865176
96,0.011748429254176828,0.01738779383675499
97,0.027399663668986468,0.017592251591896015
98,0.016604821869565977,0.015473474065560756
99,0.015502984947833916,0.013893816704643507
100,0.015071080482790438,0.016434109076598827
101,0.01456043707113043,0.013679039010362024
102,0.012432784634194881,0.011145179037919126
103,0.009841297264787838,0.008592304350968506
104,0.009075926591848417,0.007555976071951421
105,0.007451834141847779,0.006082717403872401
106,0.00700837553428154,0.007264471812072286
107,0.006972710412705867,0.007948790873153151
108,0.006739915763255027,0.007125972751410415
109,0.006660221798195065,0.005475349551553366
110,0.006368391409733718,0.006391567144257729
111,0.00645286788967409,0.005979451295003095
112,0.0062939783714214366,0.007115976667750536
113,0.006779349981535444,0.006484533493806209
114,0.006329861874182185,0.007101494013298753
115,0.006497362156403805,0.006034586343755497
116,0.006351455402702724,0.006634922466963389
117,0.005999660259373278,0.00842526513567134
118,0.006200664916628902,0.005573571873159863
119,0.00626326437617431,0.00830722101188567
120,0.00625397667283569,0.00726667103440675
121,0.006492289425849879,0.006146545417536265
122,0.00604778683861996,0.006993590244007515
123,0.006502206622660875,0.005622023572864477
124,0.005735844557957469,0.007603044716836834
125,0.006380627899215542,0.004990948816385023
126,0.006541495182388406,0.005621727843031628
127,0.0063237499532778916,0.007124034904352232
128,0.0063585086709274045,0.00529394069122005
129,0.006233394900664425,0.005554920002515262
130,0.006274451840956279,0.005894654526742029
131,0.006114445881900205,0.0058658851649474
132,0.006492180490887149,0.005819428783063001
133,0.006605464274429982,0.005766661373138334
134,0.006717836849657978,0.00661965859311485
135,0.006456208188454513,0.007227962097886659
136,0.006557204310769598,0.00632702341875107
137,0.006625599366687923,0.011557250253520994
138,0.00796027098101922,0.008680930311167533
139,0.011258192700992743,0.02690158649579267
140,0.025194410597987407,0.021108854503239245
141,0.02096178540312272,0.019880292282955046
142,0.021431279595387424,0.02275024381361096
143,0.022251344786184155,0.0261177706540266
144,0.020926836936873833,0.01806826736107645
145,0.02226638213636802,0.018970308086637116
146,0.02236704312884312,0.020372415958200277
147,0.02181722519980322,0.02611327238069243
148,0.02237617539064728,0.02118955506269115
149,0.02280576026318766,0.022652763528594983
150,0.022489975953994275,0.02073977871018079
151,0.021071958081643406,0.017295201378856106
152,0.020801027166209726,0.024412699423042358
153,0.021677130482626334,0.021105755482165946
154,0.022150634531881645,0.019258044190387277
155,0.02228039740432176,0.022518564311856584
