epoch,loss,val_loss
0,0.14071206755632404,0.10281175838367339
1,0.09132236549608427,0.07400780398730886
2,0.06907197732112105,0.06796814440716507
3,0.06777266626783031,0.06713933400639231
4,0.06673016425647992,0.06951534970947956
5,0.06537662372945977,0.06361525315253304
6,0.06266375486668256,0.06283947551400998
7,0.0606523350024109,0.06127429577715301
8,0.060258707432128446,0.05949282399786676
9,0.0596389012585441,0.061053990203396205
10,0.06006627759451775,0.060139770718804476
11,0.060144871092147584,0.059348127333522314
12,0.05966546850429355,0.05858060432378947
13,0.05894976689053668,0.06056999096142653
14,0.05783899592981636,0.05758733365570078
15,0.057403021061020215,0.05690451211280586
16,0.05645722956906596,0.055662488525155596
17,0.056066147202877496,0.05710231987928535
18,0.05587271870457106,0.056710561265508865
19,0.05516214296817303,0.05643949324548856
20,0.05513207796368477,0.05432796475919288
21,0.05454106024391264,0.057081747456103116
22,0.05484995762292716,0.05468674167849553
23,0.05439085886180162,0.055034559428832994
24,0.0546136563666147,0.0536836268940401
25,0.05452741424647643,0.05475845765660575
26,0.054949806870626124,0.055510431601597555
27,0.05559604058412911,0.05506177905185446
28,0.05517062488839114,0.05581784226888263
29,0.05485843598759241,0.056546062436880984
30,0.05467983800694525,0.05668972530817553
31,0.05395629893925836,0.05462262086458534
32,0.053644576500788584,0.05537951985504934
33,0.05368882253301515,0.052469125245392746
34,0.05333719671451502,0.05542879680725845
35,0.05400736576361622,0.054817369232731915
36,0.05391911341310691,0.0531930653841456
37,0.0538979064759543,0.05451525368778463
38,0.05353586885223476,0.05275908677641011
39,0.054131143765864996,0.05430499751829405
40,0.053718194958093546,0.05419581983864731
41,0.05440140851169563,0.05570976135939148
42,0.05494153557969131,0.054994763181660244
43,0.05537621729629789,0.056094887142305594
44,0.05530032426488104,0.055392163228640524
45,0.05559797437011386,0.05644978536697194
46,0.056864037779238014,0.05856697296910429
47,0.057378700981251626,0.05761716740342605
48,0.0585718955144846,0.05724311216595423
49,0.058891900875371134,0.06124636901052993
50,0.060804860644060356,0.063696406452366
51,0.06522204150422681,0.06835311617711066
52,0.06896325845500643,0.06899062113655582
53,0.06911265746735745,0.07029659179316418
54,0.06947532683301219,0.06776758876718116
55,0.06674836169806221,0.06672925666715558
56,0.06529519201623354,0.0657332414068758
57,0.0642903672217084,0.06559597583812526
58,0.06327986574287323,0.06373479869437199
59,0.06302417580077022,0.06509683038613037
60,0.06302722061959674,0.06393415759587344
61,0.062271699160456565,0.06219994766018761
62,0.06151896215778747,0.06213171624864475
63,0.060973504223197486,0.061796453823324445
