epoch,loss,val_loss
0,0.3743056628248579,0.1785507819247039
1,0.1381019077462544,0.1182857271116271
2,0.11535856039594594,0.11033134664619826
3,0.10061660566799742,0.08775277074717497
4,0.07928610046942838,0.07281190792617595
5,0.07074994347292743,0.06795822559681669
6,0.06537026121652574,0.061210301311447
7,0.05769705980551614,0.05416771794221678
8,0.05324916337593663,0.05163042022366644
9,0.05080102015134814,0.04926150076638175
10,0.048297217039824675,0.04651535591720688
11,0.04593938670391373,0.04427837749506511
12,0.04387786050887702,0.04273031077155845
13,0.04164333790272689,0.04051693945523313
14,0.04000918463402563,0.039088155689113425
15,0.038706416867190986,0.03877521370667685
16,0.038132267780036186,0.037415107872392966
17,0.037624849314741096,0.03711378562904383
18,0.03716007530165138,0.03732090099658097
19,0.03760835250540317,0.03696778345185655
20,0.037430784475210185,0.037284330600885866
21,0.03751090827057783,0.037344046974967765
22,0.037505581199253304,0.037725956324008665
23,0.03756842735133392,0.03818812270390771
24,0.037545577488202364,0.038005165574923686
25,0.037429313546867016,0.03708857170878759
26,0.036927145852935876,0.037429417512175975
27,0.03721954983076174,0.03818711747533709
28,0.037676113248943426,0.03878137265826739
29,0.0372184457080208,0.0387681380073057
30,0.03746971559020684,0.03783051071404799
31,0.036864227422481056,0.037950477053447326
32,0.03702797878274529,0.03779164337109842
33,0.03668084181994081,0.037474235139005094
34,0.036320128240626304,0.03628326976714449
35,0.036057819056210756,0.03753322135324824
36,0.03600828576800253,0.03635936397426977
37,0.035633828340591096,0.03650034765618094
38,0.03518504929318607,0.035882823413271744
39,0.03458574226350902,0.03484319045775127
40,0.03406504203351758,0.03508768821959902
41,0.03400334545212398,0.03377145250352142
42,0.03323331509800933,0.03320944713224269
43,0.0328964582792551,0.03205658420008896
44,0.03215287254153967,0.032477627678141406
45,0.031825714912131535,0.031217462100212087
46,0.0309166304505081,0.03131320055253692
47,0.030959070949769803,0.02949999803243515
48,0.02960378934385822,0.028814656405629562
49,0.029159786943480266,0.028311402489149675
50,0.02866857132906441,0.02691572919582041
51,0.027692309067808656,0.025861632577257543
52,0.02672772649094927,0.025199148759845684
53,0.02603350449308789,0.024493800480603796
54,0.02496266624496447,0.023622685161308218
55,0.024281035549640895,0.023103725742886834
56,0.02342905258785168,0.022260413810187375
57,0.02267885451866902,0.02122004312957801
58,0.022174212191965605,0.02133337615885505
59,0.02140616789999173,0.02020151461985465
60,0.02082188832659206,0.02009280832468193
61,0.020441726558833577,0.01939883618082648
62,0.01991205850763501,0.01915728470756016
63,0.019452530864647013,0.018647815250801166
64,0.018960150695003147,0.018283709657291022
65,0.01868421973944973,0.018012223555026508
66,0.01831082944541598,0.017563460537341983
67,0.017972379499267666,0.016694811394036804
68,0.017603541719172593,0.01722013926752435
69,0.01732317483771762,0.016319004657083643
70,0.017084121857833066,0.016430413673154794
71,0.01687984938936518,0.01587767052245874
72,0.01648823287841275,0.015902696908014255
73,0.016460855145284312,0.015684713220669232
74,0.016583815446312575,0.01597644227623775
75,0.016179055203315165,0.015838047088180457
76,0.01593912573312398,0.01541700607846361
77,0.01588187666593505,0.01563305079190159
78,0.015672593099101604,0.015498401710341649
79,0.015500794853464209,0.015518532219124574
80,0.015439258245520478,0.014956885304128503
81,0.01559899289676135,0.014924913536001588
82,0.01525954918438594,0.014695498765973284
83,0.015120227601927081,0.01456015241378661
84,0.015242788193227766,0.014640983983936066
85,0.015223170278875304,0.01438641160411941
86,0.0150965053824891,0.014444206955224487
87,0.015025733522311461,0.014777906714617359
88,0.014983475813902705,0.014830418840350603
89,0.014989071224498258,0.014538596379081847
90,0.014823136846724747,0.014465776072916499
91,0.014921867320288738,0.014470226620930381
92,0.014965240979086247,0.014709289086102004
93,0.014978886986944934,0.015161060196683458
94,0.015054716768084194,0.014727300030033044
95,0.015167230746889715,0.01575689883086751
96,0.015261223301482049,0.014946817305018418
97,0.015303821522194585,0.015220834545044326
98,0.015425389824281755,0.015354530510199334
99,0.0151873745912348,0.015305557754258283
100,0.015267725799420326,0.014760909790221688
101,0.01525625917907182,0.015124646337422077
102,0.01535755980739014,0.015512689806215153
103,0.015317448867495349,0.015568551082596265
104,0.015773012822450732,0.015450897743453543
105,0.01567101224677728,0.015373998763364606
106,0.016153249282130806,0.016213621963300662
107,0.016370645278303935,0.016813344083250085
108,0.015830011520576445,0.01568762069507763
109,0.01559209061316032,0.015201357613011147
110,0.01613842303470837,0.016618422928671245
111,0.016437750922398364,0.01602654297775115
112,0.01598080376358174,0.015226372466191074
113,0.015902295602198174,0.015770614996917058
114,0.01607638085112095,0.015073357321595407
115,0.016355966546123833,0.018383764528802464
