epoch,loss,val_loss
0,0.14209126604856442,0.09827872743828615
1,0.09539287930412545,0.09824628905108715
2,0.09943899561723264,0.10041133192056921
3,0.10011291252575713,0.10071233293628165
4,0.10035161135627402,0.10138585829508992
5,0.10051081779239465,0.10123255861233611
6,0.10034159224906224,0.10069445631192628
7,0.10034504985447219,0.10073089882460935
8,0.10036974483066136,0.10086200657964411
9,0.10029281710954212,0.10060668819023101
10,0.10024327756784898,0.10082772113059389
11,0.10004021758608204,0.10021571605668449
12,0.10000910772551164,0.10099966091933736
13,0.10002751858066693,0.10031822893618597
14,0.09984197738549883,0.09993351726030494
15,0.09979739347450453,0.10037617179570277
16,0.09989867919235587,0.10046487834948485
17,0.0997141407941171,0.1003487278437558
18,0.09976954911228755,0.10019938102625633
19,0.09988097977533425,0.10006055555761378
20,0.09968665171322301,0.0997808661661754
21,0.09961804707678293,0.09987679063309433
22,0.09969733963362414,0.10018980691845998
23,0.0996815119799283,0.10015319207802285
24,0.09970800660782866,0.10009372209058376
25,0.09972938658784238,0.10035362648582873
26,0.0997031894233301,0.10019200406351142
27,0.0997947497631339,0.10057204941195019
28,0.09972267377552844,0.10029652231353046
29,0.0997241950518698,0.10058929507738977
30,0.09974918658618065,0.10021663919361727
31,0.0997540479202827,0.10061201209756646
