epoch,loss,val_loss
0,0.14971291632961026,0.09567283143913455
1,0.08506068400889755,0.07908746316123404
2,0.07449969253856406,0.07074655320762929
3,0.06948836200790916,0.06873380504519147
4,0.0686523603836743,0.06873668204543153
5,0.06793731406069012,0.06745109531290436
6,0.06716054496909979,0.0670429536956638
7,0.06590246596186758,0.06488216007400331
8,0.06444238108113039,0.06508874181649209
9,0.061666993384095405,0.06028843719009443
10,0.05890888178484331,0.058653308741671885
11,0.057362611607300766,0.0558913937154584
12,0.05515824424193727,0.05343609358806636
13,0.05324020039894693,0.05242742096451012
14,0.05277662745101465,0.054104897563346466
15,0.05357681157336913,0.05334005171716825
16,0.05304146734930629,0.05296358051573844
17,0.05305570375612028,0.053475608021585415
18,0.052445099698744425,0.05173130731826799
19,0.0520432988385693,0.05135711846724682
20,0.05149641793539865,0.050188333290057945
21,0.05130202673393473,0.051578789878851235
22,0.051111300822070466,0.05180023062824262
23,0.05080968771371053,0.05023508445722152
24,0.050512678444766694,0.0521346704024401
25,0.05022289942232348,0.051224284071031294
26,0.050358512415755376,0.04883365040819948
27,0.04948471275736674,0.04755072383285039
28,0.04894379258965798,0.0479074796630862
29,0.04924342773860688,0.05058373679901637
30,0.048650695649768524,0.050158284754501896
31,0.04893956675851564,0.05006020534092644
32,0.048168319884202275,0.04639579816453082
33,0.0478370013050467,0.048047978475090077
34,0.046684103755118084,0.04707801486670547
35,0.046262422464877294,0.04452432297176043
36,0.045849155997939345,0.04300965002393196
37,0.044519688990666904,0.04535611369003907
38,0.04444065305004589,0.05061788299806775
39,0.043589611848195396,0.04286642438175646
40,0.04259022636164864,0.0426887095433196
41,0.04234030250784495,0.04157133190800754
42,0.04156542933292145,0.04502903220803134
43,0.041280706264942194,0.04165271847217029
44,0.04077301136583542,0.040556972844918694
45,0.04032767071224136,0.04129161439312662
46,0.03979788064587412,0.04012080691254976
47,0.03937330078050721,0.04180154778892446
48,0.038548260595170046,0.03717785593542699
49,0.03826921012142389,0.038386657675279816
50,0.037707807369631446,0.039371705272226894
51,0.037614687005702634,0.03550623275851206
52,0.037104674593376505,0.03562989000645602
53,0.03709838952687528,0.037863283161582585
54,0.03681078370806458,0.03744156989721021
55,0.03690661235655145,0.037260324850784295
56,0.03595659129923101,0.03507162325654617
57,0.036217881969625144,0.03672309857576309
58,0.03543206865934254,0.034694575055575126
59,0.03619339831358047,0.03487956148131965
60,0.035477018402182134,0.035780198433992896
61,0.035054558728762765,0.036600663434734663
62,0.035298776049777374,0.035278910105046836
63,0.03510548551674846,0.03728311658846457
64,0.03887246900515781,0.03797853406409909
65,0.03816489264410701,0.03585724921598619
66,0.03718272541805232,0.03604760433487659
67,0.03635383243385932,0.04421663760327409
68,0.038989785171265036,0.03667637003966458
69,0.037634095343814004,0.03904632567159755
70,0.03990050396628136,0.04034772739343598
71,0.03856627755522204,0.03695908240568196
72,0.04069494356145914,0.03906484773557489
73,0.040662695734883,0.036644819691694905
74,0.04106221300699442,0.040126559975091736
75,0.03979895311853678,0.040325826646990914
76,0.042197689917281,0.04001399029954833
77,0.043469671222517534,0.03990268916914853
