epoch,loss,val_loss
0,0.1422525449789209,0.10488704180943278
1,0.0982129532608578,0.09277445153754436
2,0.08477785236400952,0.07879783256654205
3,0.07604612651274359,0.07386763602048277
4,0.07365368220874731,0.07209155480388402
5,0.07200326045139802,0.0723569801381562
6,0.07011521177040302,0.07105299736936918
7,0.0687541667101004,0.06830053338406118
8,0.06732851462505704,0.0665681388496694
9,0.06679118147713961,0.06859016007998842
10,0.0660820356983361,0.06918906126444793
11,0.06561740431532585,0.06583109141666305
12,0.06544213230125338,0.06676404015252979
13,0.06521815206590507,0.06455933649589814
14,0.06500102052514216,0.06510166001183458
15,0.06522198470769454,0.06539964891717297
16,0.06469158668943542,0.0648254878413235
17,0.06518158045032327,0.06461751239922636
18,0.06462595405743467,0.06925970435895219
19,0.0645882170781386,0.0644292593790305
20,0.06445696629542146,0.06401496148876253
21,0.06435748013696796,0.065303964968168
22,0.06412290895490243,0.06571565382035587
23,0.06401601268483295,0.0638250681529764
24,0.06358553833967681,0.064458108041803
25,0.06373785037717088,0.06373438778044486
26,0.06341095660015833,0.06324690151680334
27,0.06345695666939044,0.06249782955825282
28,0.0632070181079858,0.06369389041423233
29,0.06327095424993147,0.06395047822498202
30,0.06339498597393028,0.06315425440857235
31,0.06341025572743633,0.06386458623239913
32,0.06315035839601577,0.06318956496518902
33,0.06321494412019575,0.0655781891146982
34,0.06356032559875961,0.06267222392813089
35,0.06317666061311888,0.06262304059331965
36,0.06284244864178504,0.06312491360760714
37,0.06297641391341063,0.06359335763090318
38,0.06190555844065859,0.06014157432089571
39,0.05964990387515103,0.058348141701769995
40,0.05735590478344311,0.05577258774812238
41,0.0557622903679534,0.05710317220041953
42,0.054661086104589876,0.05342158580223876
43,0.05244844868409929,0.051668660637305866
44,0.05126550216838229,0.05061082145597583
45,0.05016748326049625,0.0510802383063436
46,0.04819134490595733,0.04763591404189815
47,0.04612813963235425,0.045695214487476994
48,0.046246538267766445,0.04818608620348838
49,0.045891552815119994,0.04640333306547122
50,0.04611250991932303,0.04812532152330772
51,0.045368547907931434,0.04564853460949147
52,0.044406143976725355,0.04543169145343712
53,0.04360319589146321,0.042243430909907245
54,0.04251337250311979,0.04406117270652855
55,0.04143469283978144,0.03959090567260816
56,0.040131720680770255,0.03860832338280911
57,0.038242683024536504,0.03855771733111251
58,0.03673653050566272,0.0338604558250428
59,0.03512980927416175,0.035170989403620234
60,0.03426112161337329,0.03441212893167442
61,0.033531665794557325,0.03215296934899046
62,0.032378616198587666,0.03245201367582029
63,0.03282408114466116,0.03269134837643029
64,0.03252748064518118,0.038092352138227994
65,0.03262818856484932,0.03222150636076833
66,0.03233093486206947,0.03650262580203935
67,0.031845393907025656,0.03238983727527022
68,0.03157217004042354,0.03396146962361817
69,0.03200300843071499,0.031168920906068022
70,0.03212263759710996,0.03234593535537501
71,0.03174634700526389,0.03513376375670591
72,0.03173166112922174,0.030846387144963197
73,0.03194946504021577,0.03265864543628533
74,0.032074312846973645,0.033670696599707416
75,0.031716320693469066,0.033414580192543335
76,0.031667501937380604,0.03373872933596161
77,0.0317933637764957,0.03190946425204683
78,0.03277835834601657,0.031864635946248214
79,0.032356498782321226,0.032659146561336595
80,0.03254337330236376,0.03224759175932445
81,0.03231474007967469,0.033926236589498754
82,0.03241282739906574,0.03298995083590474
83,0.03263319982327432,0.03370250076431878
84,0.03261915983842145,0.03328871645250937
85,0.03283548348849054,0.033913852370563886
86,0.0326247695151517,0.03507637083177596
87,0.03284074904339062,0.03261134318195889
88,0.03233426980090608,0.030110073870528657
89,0.032530196453277156,0.03372431738153629
90,0.03286822081999861,0.03453018416921831
91,0.032149979195518076,0.03177878103309385
92,0.032692898669355305,0.03196795945421108
93,0.03319420336152343,0.03430851938786616
94,0.033440521985983296,0.03410292599106174
95,0.033066709854191155,0.03362197399245253
96,0.033872152811927285,0.04005288948682038
97,0.03336405974003575,0.03768119392379966
98,0.034313935080735235,0.03641849341960337
99,0.03418681241994758,0.03472980325152155
100,0.034825190106670345,0.03233800659098772
101,0.036077075619265424,0.036579706606873395
102,0.03786582819414701,0.03940618264576348
103,0.03845905577190679,0.03726601033179706
104,0.03751722073329867,0.036507046986562396
105,0.03523021924951904,0.03496984506192034
106,0.03485235526300163,0.039187129625158225
107,0.03507766424478006,0.03453753990927548
108,0.033438475513689336,0.03567410034922135
109,0.033450297092636236,0.03279541848902168
110,0.03282108119309997,0.03471013562255425
111,0.03388458549928703,0.03396183371708538
112,0.03526714355569425,0.03497816537872204
113,0.03673394690963814,0.036254342554259134
114,0.03648552825476387,0.03792810826999706
115,0.03723108735706785,0.03728953726889585
116,0.037374398104554646,0.0365892610826545
117,0.03844086173102915,0.04023545961341899
118,0.03942087152861148,0.040751585676595745
