epoch,loss,val_loss
0,0.14445563702346037,0.0857544091971916
1,0.06988375564868883,0.062157585149617674
2,0.047508295741584376,0.042111261226619054
3,0.03944982278148095,0.03968992827264643
4,0.03190562705830228,0.029621145066870604
5,0.02933577994118444,0.02798323044531347
6,0.02696870303572082,0.025267489999826725
7,0.02431590553316519,0.024537987632187407
8,0.02319783281957765,0.017856164467127754
9,0.016193778512420223,0.014599688336453103
10,0.01563678477793265,0.015973664770210082
11,0.01543648693960705,0.01641162825805659
12,0.016277802059148475,0.0160236637973195
13,0.016343367816828235,0.016569577595593896
14,0.015951388239336433,0.015334110734241867
15,0.015719301449201948,0.015822410973078543
16,0.016615768428519667,0.018318699731623082
17,0.016862395443588044,0.01707364567985498
18,0.016781577062484124,0.01710295875063541
19,0.01675479652450906,0.016306487914695217
20,0.0168671484591423,0.017110486803745415
21,0.016886635228610343,0.01631541281568082
22,0.016626073868660857,0.017055735687395202
23,0.01671777320556718,0.01640614341200574
24,0.016262874401790157,0.01740530872277933
25,0.016615069587063564,0.01664773249761999
26,0.016189715988058552,0.01639637787368416
27,0.016351239836896115,0.014584906349265868
28,0.01638757281651576,0.0170189204369249
29,0.01637250576600087,0.014807921929112925
30,0.01564752988049762,0.01533928850478983
31,0.01622354470157652,0.015565128103133817
32,0.015702281266355592,0.017050278869228937
33,0.01577764776029842,0.014853599820147844
34,0.015382790238225013,0.016031577046769475
35,0.015245450321855925,0.0168546125448611
36,0.015267127433971916,0.018029019562196758
37,0.015031708976913461,0.017582768155372134
38,0.015034652245100692,0.015176899857589741
39,0.014924240413216426,0.013888682330640263
40,0.014695260090847238,0.014688976966844314
41,0.014821108242274998,0.014584131398471256
42,0.014661461461430712,0.015621075468415714
43,0.014986820010502609,0.015919152828816976
44,0.015081952091494053,0.016443331798666465
45,0.01507456481924279,0.014636507075523992
46,0.015284591321673372,0.014744959032161553
47,0.015102042285777587,0.014802580489097097
48,0.014639665479872296,0.015738075253595586
49,0.014799367448093174,0.014159667698171022
50,0.014759153489479059,0.01644852674539012
51,0.014480275615638824,0.014734419021570222
52,0.015363063202421966,0.015329888502860644
53,0.014590409156277502,0.013158990995665892
54,0.014694930151771965,0.013370507692987277
55,0.014362295786905989,0.014614914509378837
56,0.014749740968070489,0.015529779356411103
57,0.01472505280185196,0.015636115709809262
58,0.014719831878594833,0.013593770432761549
59,0.014707390581526392,0.0141030791941104
60,0.014575392898577127,0.01430283286685937
61,0.014770220743297197,0.014923306008552413
62,0.014569734788606232,0.015879806367814213
63,0.014590636963288274,0.014036355677612813
64,0.014658244932703167,0.016096039989047288
65,0.014801103455706132,0.014104450597106563
66,0.014685460138503166,0.016337399945786223
67,0.014643801937548282,0.014043917341397424
68,0.014332475352118151,0.014671494135369959
69,0.014598429098064237,0.013695722652397808
70,0.01422844177557172,0.012839397677935618
71,0.014601369881235676,0.01408060822538861
72,0.013922850646787315,0.013592731734648077
73,0.014374493297076315,0.014504236397028393
74,0.014128120286281494,0.01606879309819454
75,0.014258203593244274,0.014171841178727414
76,0.01411477328135932,0.013107868610501242
77,0.01474396100224589,0.015084339399846313
78,0.014057270124655881,0.015118895310264642
79,0.013878061695189643,0.017256239955420086
80,0.014442197246689924,0.013038212094594149
81,0.014294867847504899,0.015008380428550511
82,0.014435437937482275,0.014943863214497127
83,0.014101735419697232,0.015176179954060297
84,0.01413847270982264,0.014297845600659487
85,0.014369208179190934,0.013247486431777901
86,0.013951625731542147,0.013222435853887281
87,0.014365823025242697,0.013705994295075406
88,0.013910458045010324,0.012848976538637867
89,0.013501313344525586,0.012449961174029531
90,0.013607050478309513,0.013679485052865184
91,0.013439926885360247,0.012380586398270013
92,0.013235086167929507,0.014382059513881579
93,0.013428139026097352,0.012513937857869393
94,0.013456258489538154,0.013959283511953365
95,0.01337867353459914,0.012909626993979162
96,0.013281182090429474,0.01257308902940768
97,0.013369773561469943,0.013987605005720279
98,0.013379403284276656,0.01327267904848966
99,0.013638946783098339,0.013407046766988433
100,0.013113024679171166,0.014248919059487901
101,0.013254217242153523,0.013733964245075444
102,0.013187923809613207,0.015148583765787784
103,0.01308988428769185,0.0136881657224075
104,0.01308778835256561,0.013023121050914018
105,0.013386192398040082,0.014321897827212323
106,0.013208805328066781,0.014603713211245487
107,0.013241497024024228,0.01703285428841658
108,0.012868145250713081,0.011571141948883775
109,0.013006192927943359,0.01262070994380194
110,0.013000739988484543,0.013505421369391675
111,0.012890375676385457,0.01498107963712811
112,0.013244865365403828,0.012034935320285755
113,0.01303285851383762,0.012776678271485814
114,0.012775566459794958,0.014352769209417473
115,0.012850772641557488,0.014438434920017186
116,0.01316904501846547,0.013121846605359849
117,0.012987389160003021,0.013704200624396411
118,0.012858615829337606,0.013121501195678913
119,0.01275655681298648,0.01327457700377505
120,0.01264837274787952,0.012304684953600898
121,0.012046210968094192,0.01115963858094334
122,0.01175203607704261,0.012014247422660065
123,0.012021460024331757,0.01083573500383954
124,0.011567333354715178,0.011622208624125562
125,0.01201887160046793,0.011803892102965757
126,0.01154062047981911,0.010521756807061378
127,0.011607722110516257,0.013041430993127653
128,0.012123886320507713,0.011862054922204133
129,0.012091244108227494,0.013370005571192988
130,0.012936410650113623,0.013335995249679546
131,0.013307513321469204,0.013573451668917897
132,0.012564834210646452,0.014160562958641841
133,0.012433722665493223,0.012719595241018563
134,0.012595112821895727,0.012537474252265932
135,0.01247519956414791,0.014231165735772867
136,0.012559482772692407,0.012664329331888631
137,0.012570209251411503,0.011807172844405474
138,0.012211796419276631,0.012297503764857998
139,0.012200718596324527,0.013666002920754518
140,0.0125464145555723,0.01296275914238726
141,0.01215599468543673,0.014689193440905544
142,0.012583782586703103,0.014069438577521572
143,0.012779728098170197,0.012749995271092385
144,0.012638605174442513,0.012340234963027812
145,0.012390180907810001,0.013228407978641065
146,0.011836100946650278,0.012203270752473948
147,0.012178136042500143,0.012932720856524962
148,0.012133077379214844,0.011988730440335238
149,0.011905580820838849,0.012866890929704024
150,0.011740766780571543,0.011017244008546893
151,0.011693409383133185,0.012936781306075552
152,0.011836375502927555,0.011514036156143038
153,0.013181263420114414,0.012433892439377524
154,0.012076816610920487,0.011605164108925809
155,0.012841584952287585,0.01211250910789786
156,0.012493857895757417,0.013081957154628699
