epoch,loss,val_loss
0,0.5645911957112719,0.10178059418909928
1,0.06093530760382672,0.037941856731696685
2,0.03032103359705205,0.025723448384850158
3,0.023908942148720712,0.022343009672088705
4,0.02136363350688744,0.02035992281789279
5,0.019683775996013606,0.018957438192902912
6,0.018418650084035953,0.017869999677813136
7,0.017431579344867946,0.016992613560010715
8,0.016602798566061387,0.016207088973599574
9,0.015792283948680624,0.015355488418468408
10,0.014868392661172184,0.014356494774628834
11,0.013790985808330332,0.013267960039209267
12,0.01275880523115325,0.012304109530765989
13,0.01191260356405418,0.011525536501440553
14,0.011223959121599996,0.010925669350970798
15,0.01070915204402116,0.010527443082675326
16,0.010389419370066585,0.010190983663071255
17,0.010058516349128301,0.009926192324987856
18,0.009709773383450976,0.009408294779690308
19,0.009198882771160105,0.008868134622451068
20,0.008568466864719832,0.008243304642024668
21,0.008004412715726024,0.007672513322794447
22,0.007465309345444067,0.00725652783632796
23,0.0070225275151407736,0.006696829891704088
24,0.006691530530752657,0.006408017852006225
25,0.006463634892836583,0.00635928385755034
26,0.006336815456459991,0.006128507953331215
27,0.006177484799700556,0.005970294006248229
28,0.005989983065543677,0.005799916273331374
29,0.005664889469741286,0.0055459334332004905
30,0.005181358412479897,0.004708747852861223
31,0.004551178444069709,0.004088617929999129
32,0.004063563892799471,0.003674765540677951
33,0.003743574720808118,0.003428508120720534
34,0.0035919002190285877,0.003303222304934837
35,0.003442044877972034,0.003217306828064566
36,0.0033452964008530432,0.0031582359445076246
37,0.003279987898700648,0.003128015883700612
38,0.0033075563081217817,0.0031330187120654964
39,0.003280991241693211,0.0031489286918690005
40,0.0033193647861108483,0.003160919203741245
41,0.0033605482800938874,0.003490310647813772
42,0.0033226284196787924,0.0032870847757188303
43,0.0033310912288933825,0.003447359948233064
44,0.003362274260820745,0.003222599231778411
45,0.0033462146898436784,0.0031960416490016555
46,0.0033643486530636904,0.0031920366585342875
47,0.0033835148497251607,0.0032543435166483333
48,0.0033670646754718073,0.003241924119520794
49,0.00342230210702369,0.003263890318390226
50,0.003390099082665472,0.003219789039048101
51,0.0034178403713520794,0.0032514478129591286
52,0.0034501862560147993,0.0032395873488542267
53,0.0034738448636455954,0.003293049236908026
54,0.003485402336521305,0.003235769525740734
55,0.0034545010335811917,0.0032487784202880248
56,0.00352825187055467,0.003498269478777966
57,0.0035467254227588623,0.0033648391177064805
58,0.0034573354255251713,0.0033931349050959287
59,0.003524169825735114,0.003305877605195862
60,0.0036084852704359924,0.0034056162009943325
61,0.00352428842810162,0.003400198089130864
62,0.0035440083913248982,0.0033246433366407604
63,0.003588161928367784,0.0034598066326710026
64,0.003534859177737618,0.0033560402977303107
65,0.003564953648423453,0.0033574580180369784
66,0.003529201849080104,0.0034000472744137354
67,0.003537212203306665,0.003447320570819368
