epoch,loss,val_loss
0,0.10361964842677117,0.10775299245864153
1,0.10730558385451634,0.10738140381872655
2,0.10747644084195296,0.10766339197009801
3,0.10674232695500056,0.10317804926633835
4,0.10282882154732943,0.10106212750822306
5,0.09495205473403136,0.09299751715362072
6,0.0932049623678128,0.09299118170142173
7,0.09401137702415387,0.09484989231824875
8,0.09553049896160762,0.09586894453316927
9,0.09598173438757658,0.095785982824862
10,0.0957990214129289,0.0955876659154892
11,0.09576729171723128,0.09573835141211748
12,0.09577634728699923,0.09568369547277689
13,0.09572813195486864,0.09565950443595647
14,0.09594334984819095,0.09573210287839175
15,0.09625795235733191,0.09571397984772921
16,0.09598348854482174,0.09569705324620008
17,0.09568499550471703,0.09560876724869014
18,0.09567444833368063,0.0960070471316576
19,0.09623980526874462,0.09687477111816406
20,0.10003365451842547,0.1005415788218379
21,0.10073893671731154,0.10054899283498525
22,0.10010979570696751,0.09960107788443566
23,0.09957025346159935,0.09936165619641542
24,0.09880656135082246,0.09861523386836052
25,0.09868185439457496,0.09859700007736683
26,0.09888349835326274,0.09885076875984669
27,0.09898243778944016,0.09896994043886662
28,0.09894044196108977,0.09875505898892879
29,0.09870651710033417,0.09853489065170289
30,0.09886409668127696,0.09899295996129513
31,0.0989783012419939,0.09867690908163786
32,0.09900254792471727,0.09888761243224144
33,0.09907286990682285,0.09845294028520585
34,0.09876350654661656,0.0988610996082425
35,0.09877574447045724,0.09859403592348098
36,0.09874545908967654,0.09874383386969567
