epoch,loss,val_loss
0,0.16884511242286385,0.1293004426249577
1,0.10644328344663938,0.09684260899896403
2,0.09222771949786172,0.08812746668459397
3,0.08838770629095136,0.08700132008933043
4,0.08528790146493608,0.08467562325539886
5,0.08334714323758698,0.08326717457295217
6,0.07950719202355706,0.07309361839492018
7,0.07008533788432511,0.0693499979569673
8,0.06702802006265433,0.06677408287949983
9,0.06520148531364785,0.062889272495575
10,0.05839246358993433,0.05656146564489288
11,0.05405603797673036,0.05147532191665603
12,0.053634889021837454,0.05547845760844031
13,0.056080707203712964,0.056650888110086874
14,0.05715050860095939,0.05531450367775976
15,0.057151326276868177,0.05600588384136593
16,0.05709162031372579,0.05755533862215097
17,0.058369365661478725,0.05777094925400208
18,0.05779716813807293,0.05755803466501815
19,0.05638340392487226,0.05520668866343637
20,0.0551506053510425,0.055292976745231565
21,0.05540108467511041,0.0550405198844898
22,0.05524582489669847,0.05643242306201686
23,0.056835400299440855,0.05913055619047021
24,0.0568060033845244,0.05500799689762406
25,0.05648687894907977,0.05467133503333734
26,0.057147391619894815,0.056107031179984536
27,0.05823446505611463,0.05838598948980563
28,0.05850504567440179,0.05828518949113874
29,0.058290686720400026,0.05826581610865074
30,0.05911085255545297,0.060259745377626774
31,0.06466807747821061,0.06490393892083472
32,0.06466574587231631,0.06523266322940188
33,0.06517109552102028,0.06243421033248246
34,0.07083501776964735,0.08034351089970747
35,0.08699975459933948,0.09309723958573006
36,0.09243121802759209,0.0910561988166965
37,0.0887025720912585,0.087388790397072
38,0.08767730410960461,0.08777105721226808
39,0.08809163287389192,0.08644969761959662
40,0.08764627724766827,0.08705825219849667
41,0.08659802474301877,0.08756909613521813
