epoch,loss,val_loss
0,0.16687792091727924,0.1247218515967984
1,0.09572137828520257,0.08946301018923591
2,0.09668465199278031,0.09869763709681187
3,0.09842669369457818,0.09910535429558043
4,0.09852468717893918,0.09913161942689741
5,0.09870374278365661,0.0993917932897077
6,0.09877369314027157,0.0992275035595367
7,0.09885400724854115,0.09922999751055062
8,0.09895494934633005,0.09951106116069802
9,0.09904458327330559,0.09957387739382302
10,0.09912614344502334,0.09949790531124011
11,0.099150425417246,0.09959347720751165
12,0.0992695623569542,0.09944482528161325
13,0.09926982251979369,0.09951889791894165
14,0.09924862051991631,0.09971747339218737
15,0.0993063678379825,0.0996526407155825
16,0.09922871282465642,0.09970605941437885
17,0.0992155092344772,0.1001631008092117
18,0.09917159619138871,0.09942453542772765
19,0.09916297115867945,0.09972664473935573
20,0.09909823111635889,0.09992191099635991
21,0.09913126225594422,0.09971198280824858
22,0.09914454714142733,0.09968805501874074
23,0.09912478550375223,0.09984349183614741
24,0.09907877214735361,0.09976611309923708
25,0.09908494966731464,0.09952742101267369
26,0.09898544959932398,0.09961495256814415
27,0.09910067144057734,0.09983884501428988
28,0.09910258084392662,0.09950381694413021
29,0.09899859982047626,0.09970327712530777
30,0.09903379409409446,0.09936294616468327
31,0.09899607599734497,0.09935480724335093
