epoch,loss,val_loss
0,0.4514595070402685,0.25133036380455825
1,0.21937307136521922,0.2137657482274047
2,0.21140418036712064,0.20914941091140424
3,0.20551790774678536,0.20167835371976023
4,0.197547452829534,0.19165842786678294
5,0.18425273163903721,0.1783953076309356
6,0.17069679510583885,0.16275740147295578
7,0.15398122136779635,0.14615557695009054
8,0.1410636388771921,0.1377479405551796
9,0.13470082180343754,0.1311081394776643
10,0.1264186485422601,0.12069753125227617
11,0.11556007721417433,0.11077883823141867
12,0.10833750591932727,0.10652642731790761
13,0.10461094484126253,0.10268650191594224
14,0.10227865548275834,0.10049591432218959
15,0.10108189185341294,0.10012656251511051
16,0.10002452966501768,0.09845564340336076
17,0.09893049430146778,0.09807105602339299
18,0.09801436231719504,0.09740955486082147
19,0.09725751679578273,0.09634598178146576
20,0.09651881743439858,0.09546422479702152
21,0.0957527693977459,0.0948086006312551
22,0.09501308277785349,0.09421656343677237
23,0.09463479554505466,0.09375863112421043
24,0.09412328275940496,0.09342130445878903
25,0.09383817187411417,0.09281384844947445
26,0.09335778312955638,0.09209322962313067
27,0.09282556584151053,0.0926996621214318
28,0.09287665355548584,0.09225496954351499
29,0.09287729669365284,0.09152824421660959
30,0.09266764858214975,0.09159815478437795
31,0.0924737836412198,0.09180978080515045
32,0.0924106027118022,0.09162972632857318
33,0.09228802871384877,0.09121145946050875
34,0.0919445041986964,0.0917994406812287
35,0.09200822223099968,0.0911558514553539
36,0.09183560101558073,0.09121305549013022
37,0.0916548978558166,0.09157237908034788
38,0.092004015142445,0.09097523622114825
39,0.09188050101939246,0.09124575330101795
40,0.09214501486693641,0.09095486760986256
41,0.09196046453347499,0.09111818573610371
42,0.09214178702051787,0.09116652499128725
43,0.09209740573434616,0.09103250865778212
44,0.09198053799373068,0.0910952706786715
45,0.09176245692084066,0.09142164701350391
46,0.0917914462484997,0.09135505021935668
47,0.09195171728384771,0.09142254131251465
48,0.0919115433125473,0.09072207539520964
49,0.09168003412554686,0.09084325994128963
50,0.09176213861845857,0.09126260948985604
51,0.09183911889267388,0.0912070146922813
52,0.091914607716693,0.09102500066596311
53,0.09186895832502776,0.09091592837645486
54,0.09173436399153191,0.0910200385616441
55,0.0918264165401554,0.0914308822698356
56,0.09181813898680212,0.0907353808913724
57,0.091600650226136,0.09128401267335653
58,0.09170787334799481,0.09129348329041262
59,0.09171793488361281,0.0907905067728087
60,0.09179305768222641,0.09073857891343198
61,0.09168098812742675,0.09097926295711567
62,0.09164691355517156,0.09045413007699511
63,0.09153073989778018,0.09093669865459744
64,0.09168878937963483,0.09049799418534081
65,0.09159578278148583,0.09090962627316049
66,0.09167137290004918,0.09064194127834962
67,0.09151468755339356,0.09107462221487544
68,0.0916199714398022,0.09114134367540679
69,0.0915949837588292,0.09122579247229853
70,0.09182576819670667,0.09061094727470072
71,0.09162050158047466,0.09050512559059198
72,0.09139577124854453,0.0915713314416847
73,0.09163221925330295,0.09109840074579077
74,0.09168334438098516,0.09038358986754068
75,0.0915746068913969,0.09078522662807847
76,0.09160968055018037,0.09105552751762055
77,0.09161171547586111,0.09113120946271644
78,0.09158065322515585,0.09063723940334643
79,0.09159818373852782,0.09099599940742012
80,0.09151274696599951,0.09093065789791197
81,0.0915582419859229,0.09094613710537423
82,0.09159275957291646,0.09062942228593879
83,0.09137640755287083,0.09092139718493986
84,0.09151652659610403,0.09154335277679876
85,0.09166042998040037,0.09067470002875332
86,0.0915121254529789,0.09064422005636069
87,0.09166034144892109,0.09085921647987125
88,0.09159599813959486,0.09120670925964026
89,0.09164522426853554,0.09082123209099743
90,0.09160536419239929,0.09074259329449029
91,0.09143297472517553,0.09105986943608113
92,0.09163872733843222,0.09073243248434451
93,0.09172687529445551,0.09067994267948049
94,0.09172446800650452,0.09039950780658715
95,0.09161492160184206,0.09147955498407465
96,0.0917707517278566,0.09053566020449598
97,0.09154802382730846,0.09092097403665368
98,0.09165675350301843,0.09074220351210333
99,0.09149985599050896,0.09084508102901732
100,0.09164992014138247,0.09078268765603452
101,0.09156156520691992,0.09079831629262351
102,0.09159229712472926,0.09083504347981858
103,0.09172808937579513,0.09080822023121315
104,0.09161904141557016,0.09079562647425479
