epoch,loss,val_loss
0,0.17883797696263765,0.11929489040619384
1,0.09230782076430549,0.07149855577296503
2,0.0618172504311557,0.05098213468573182
3,0.035214240167686026,0.02929777527652863
4,0.02835591408840234,0.028741215050643885
5,0.022331940304997158,0.017905926418614933
6,0.019012535803859754,0.021335769488807728
7,0.020198615470366606,0.022457358877938285
8,0.022294577826812066,0.02444558105657161
9,0.022424567272688607,0.024397661718345103
10,0.02090596364249738,0.018351999140140948
11,0.019948023194960838,0.019493057027212164
12,0.01894885862616898,0.02027183523711814
13,0.01944998268940323,0.018616857229134372
14,0.020260362468993397,0.020920503625812357
15,0.021764865675144535,0.021121559142713575
16,0.021410089167062756,0.021614524214613032
17,0.020498124835677714,0.017968719722975073
18,0.019803630381667738,0.019243280303347696
19,0.02016347253190385,0.020809555172643844
20,0.01966148952794947,0.01774616617909335
21,0.01977652624892674,0.018782236162005632
22,0.019480764247226914,0.019212776712702783
23,0.019837629842868954,0.01911551204099134
24,0.02071523137441237,0.020154195489992564
25,0.021009510577314622,0.02241068266349791
26,0.0214658933531621,0.019829749067232377
27,0.02104432312853569,0.020587806840557325
28,0.02160599399998272,0.022523854989279134
29,0.022295471674633874,0.02626400267750895
30,0.022460933279642145,0.025210444939682216
31,0.022591471509765284,0.02236755877356879
32,0.022617633404622643,0.02130933867322006
33,0.022264079592055935,0.022620022171945108
34,0.022176049823175184,0.02071881201779786
35,0.022102922743869772,0.019948353689537335
36,0.021951268269247908,0.022895073641647293
37,0.02202819122655167,0.022761163622987676
38,0.021945480112847,0.023474323541960947
39,0.02209981426828914,0.020476772177202927
40,0.022028978564869538,0.019588940266017003
41,0.021878110446619522,0.02457843738113366
42,0.021204244503252607,0.021328433548359768
43,0.021042693027412053,0.01862691266237278
44,0.02097264281976566,0.020442642139207687
45,0.020845372540255386,0.019150952415301185
46,0.02124606903201694,0.018810065802783597
47,0.021069999060613645,0.01949927277110323
48,0.021252502117017142,0.022543948542123812
49,0.02067247996602556,0.019858793370225763
50,0.02048855478749525,0.02146232539336561
