epoch,loss,val_loss
0,0.1650242440336995,0.10045883031863345
1,0.07195999569220128,0.05598104935971507
2,0.05463659792816896,0.03408724878162687
3,0.029824577327028548,0.02391004701010477
4,0.023492542465480208,0.024082246866450597
5,0.02359850758345698,0.023744024940558373
6,0.02339840744086783,0.022374800805534636
7,0.023406584353314983,0.02096540476735784
8,0.023225091528787697,0.022459011657226715
9,0.023425712463089363,0.023748542465146075
10,0.02403433773470082,0.023225040685888248
11,0.0242139175541693,0.023522669889015198
12,0.02443953475160755,0.024034796113584958
13,0.024873781901636093,0.02469371562351744
14,0.025012151026230254,0.025275263460477978
15,0.0253018137055645,0.026041131618049735
16,0.02542884631393601,0.025157206798385425
17,0.025866007730871034,0.02610901800949412
18,0.02583565203685888,0.02681153612145191
19,0.026012562102169918,0.024593960345320656
20,0.02572414735041791,0.02613837601971278
21,0.026311384357637066,0.02394534190256669
22,0.025958526727678677,0.02639785998492798
23,0.02601181356225916,0.025481557988083166
24,0.026460000318657462,0.026720643271387047
25,0.026243168471320022,0.027382235874105085
26,0.026471034331853202,0.02591551441167082
27,0.02620999827433071,0.025304674405395845
28,0.02610553165958773,0.02608255639043067
29,0.02631036604536499,0.02563220646523451
30,0.025788527163717864,0.02577452918172071
31,0.026295818779304873,0.026631811820411643
32,0.02614501656831907,0.025321048616057506
33,0.02598941453369997,0.026797830598353868
34,0.026207706680317387,0.02522285987829588
35,0.026195837120763024,0.026300344253054452
36,0.025798173293733385,0.025300939149137266
37,0.025910491621096453,0.02618615807496429
