epoch,loss,val_loss
0,0.15027574074866293,0.06666882417290439
1,0.04890310777415284,0.03482368794264715
2,0.021462641291612152,0.021599076408966376
3,0.02145810805106287,0.020601521132200745
4,0.021636059436259222,0.02159456825199895
5,0.02155947736609611,0.02056854625762497
6,0.023272339788397295,0.022292801178256733
7,0.023898822390180315,0.025044337736814627
8,0.024320701600240767,0.025123056036073954
9,0.024113670856558637,0.025083286595114027
10,0.02282920980053268,0.02228731021355623
11,0.01915347638527314,0.016836500652399042
12,0.01831120794131268,0.021718779431792724
13,0.022884315444822077,0.021867223188351624
14,0.022394033018603838,0.021706091901603514
15,0.019445715104337697,0.017897716119897204
16,0.01769337466628336,0.01602450604737981
17,0.016191568174998727,0.01462851693793461
18,0.01654170160751334,0.014460478163226534
19,0.01582053919091261,0.015051350864892695
20,0.016043248548389052,0.014736259520059743
21,0.016533807147112636,0.017089440837949398
22,0.01727143948604401,0.01645502060337173
23,0.017800021305424178,0.01934867063956225
24,0.01885651080585498,0.019390562632295355
25,0.019690047459696217,0.020173001866831776
26,0.020568860706677444,0.02177105113369984
27,0.02040948544879802,0.02049739882291163
28,0.020861941016019344,0.02153588005803943
29,0.021128674683203515,0.023835627069577703
30,0.022171384849988346,0.023966465104186072
31,0.022894936697118336,0.020649881036724268
32,0.02258108283797328,0.024055883097267566
33,0.02249970403592959,0.02576392223939429
34,0.022455110053846733,0.020030060252314397
35,0.021658197595484013,0.02289615885370015
36,0.021503683462512673,0.02165927878936022
37,0.02155479696243525,0.01950772466239444
38,0.020853492135790994,0.023599883864891747
39,0.02248035296708417,0.021318722042918865
40,0.021137843500349304,0.019832248256292602
41,0.021182674327962024,0.01912637509335047
42,0.021320719108860985,0.023270462972612576
43,0.021146096444750528,0.018269021433778843
44,0.02162493698278086,0.017857915385910725
45,0.021054482377088853,0.018601558596813124
46,0.021364348202788954,0.019203008450244294
47,0.020836788219221823,0.02304936646415478
48,0.02107758906712349,0.018802391967185625
