epoch,loss,val_loss
0,0.16819903031170225,0.10609357213658804
1,0.09254304769275476,0.08965166478220082
2,0.08764777379594356,0.08634972565270073
3,0.08500725858741337,0.0828444322169815
4,0.08083259783012213,0.08026126648086963
5,0.0816835506642751,0.08378682644257135
6,0.08311875235381648,0.08379444522281848
7,0.08323888742118526,0.08241200292425638
8,0.0833002160624158,0.08470612149259285
9,0.08394893164114414,0.08382822749599661
10,0.08321942833902167,0.08282781786328709
11,0.08275028622502999,0.08269746908543142
12,0.08322148384760134,0.0833558245093783
13,0.0826075060261811,0.08262026509315645
14,0.08284259262345106,0.0817771365876356
15,0.08179926637598842,0.08336685067476395
16,0.08177030197293353,0.08251631104085233
17,0.08140554838924766,0.07985769006428797
18,0.08094403536604654,0.0809273077461695
19,0.08045928866909943,0.07964165731617665
20,0.08000074459804143,0.07918093665175863
21,0.07952934932961261,0.0784967769210792
22,0.07856243244892687,0.0790565657799133
23,0.07827316166209183,0.07883731776814623
24,0.07756942938224112,0.07729951797410457
25,0.0758845745433244,0.07662039421845725
26,0.07555238106887308,0.07210044913881862
27,0.07216803783433233,0.06981219544759772
28,0.06910139236518804,0.06861567401989482
29,0.06813605990019633,0.06920612180618761
30,0.0682807098821008,0.06751799979192023
31,0.06765712254481922,0.06810986575830048
32,0.06682088448525332,0.06783115856155413
33,0.06597320182170037,0.06553357394431271
34,0.06558391821982382,0.06492575710226253
35,0.06486272034968595,0.06489941293716242
36,0.06376535304301649,0.050924123547847755
37,0.05672505122723339,0.05883956797003464
38,0.05953659143724697,0.05891837047937825
39,0.061142813715098096,0.38638666236880453
40,0.06118294025222651,0.062435106257448636
41,0.06090904570085635,0.06167129232550382
42,0.06096812456155376,0.06026011614250967
43,0.06065236584102507,0.06248868776642627
44,0.06035829272618492,0.06095260241154902
45,0.060494920880579166,0.060390406300702616
46,0.06042027366247109,0.060355006557637154
47,0.06001516941675751,0.0591779191873162
48,0.06009057720454572,0.060934049786666104
49,0.06009124136037773,0.062170143664800566
50,0.05996085505048148,0.05849157686285739
51,0.06010936733653886,0.05939931556547168
52,0.0597516943504818,0.06018110841583246
53,0.059023856842737026,0.059427351353435694
54,0.059326625410482274,0.05903648043782013
55,0.05938272067397047,0.05980065455270642
56,0.05901191186466568,0.05835670618532959
57,0.059613868037311675,0.05731614532673933
58,0.05917596635069969,0.06107416753116892
59,0.059008495422075695,0.05927949106789708
60,0.059340781183075085,0.05884056003512881
61,0.059304872541118867,0.05869273924884028
62,0.05902850524865561,0.060226654564783905
63,0.059198860757999856,0.056966157660958514
64,0.05863294217714684,0.05913708627741451
65,0.058674919772610294,0.057846853140544593
66,0.05891893789184084,0.061168368291271515
67,0.058376216616252245,0.058569613420761
68,0.058240711998691755,0.05963145007968137
69,0.057925330932072694,0.05732078801167228
70,0.056699648612647126,0.0567171251446879
71,0.05445800900018568,0.05401346235056044
72,0.054098172659734836,0.05646599891530122
73,0.053969159737217436,0.05396849101654826
74,0.053205707218411634,0.051016151910940305
75,0.05199515354409397,0.050861248598031955
76,0.05158509877767208,0.05276727516148254
77,0.05117845502224186,0.0490277676233741
78,0.04847997580643752,0.04880657671541328
79,0.04758347225763338,0.048983859117330296
80,0.04688519451150791,0.04779501947638268
81,0.04765989170145455,0.04693842936239566
82,0.048009031268356324,0.0488201147349641
83,0.048720908226917305,0.04948633072431763
84,0.04884235852425523,0.046732644426276955
85,0.048113232593146635,0.04719158616019876
86,0.04813870657488501,0.04688037731100371
87,0.048495763927686224,0.04585045351166846
88,0.04843233016540678,0.04976005599067356
89,0.04987839103447829,0.05045485787017193
90,0.05076705086395609,0.04982312422042864
91,0.05199568823492117,0.052201062132146474
92,0.05307407403509203,0.05435060494488962
93,0.054377523463049665,0.054840770412615744
94,0.0543855081984608,0.0542823781260093
95,0.05430226672074492,0.05314245016770562
96,0.05480375713248142,0.054250328539155464
97,0.05540862337624331,0.05568066539556
98,0.05679513318099373,0.05717244782524026
99,0.05794524280525607,0.057956093024012605
