epoch,loss,val_loss
0,0.11198626766256768,0.0615451473892676
1,0.0426672065495063,0.03912867597747526
2,0.036828054605032516,0.03493894606346489
3,0.024152805092189904,0.017090714906343063
4,0.018274793492184936,0.01948451101133084
5,0.019774220089504805,0.019283232597403388
6,0.019993643542166522,0.01947558463948772
7,0.020164077926567086,0.018992491827979272
8,0.02059476769981172,0.020743175670680986
9,0.021209830786738035,0.02064457026346283
10,0.02507050250464087,0.02118616962060038
11,0.020589381457119586,0.01892444046380347
12,0.020310951255375055,0.02110449186487281
13,0.020823530900440246,0.02106571639061045
14,0.02061273063645422,0.02360694270930896
15,0.021651973539172746,0.020809614592788253
16,0.020761298373800148,0.020335099318056663
17,0.020718801048227684,0.019471499133905088
18,0.02097820067222861,0.019595630214076957
19,0.0207042027135297,0.02279575788302034
20,0.020961444546505035,0.020478681681035255
21,0.020729471803557196,0.019887346850786043
22,0.020793404080253614,0.02065156514873256
23,0.021012568381800354,0.01940668982195638
24,0.021003115873822538,0.02016422431107431
25,0.020450496643358806,0.02050741950980584
26,0.020862688600040265,0.020694816749669383
27,0.020605471910541052,0.020829222915545634
28,0.02065918462903356,0.02370397464593471
29,0.020718131711681208,0.01989531963063961
30,0.020377240476491067,0.023399848252793606
31,0.02093991925113564,0.019765315872882425
32,0.021041847013538596,0.019998575864328863
33,0.020795457315989297,0.02321241723980693
