epoch,loss,val_loss
0,0.16882231379512974,0.11299428397873394
1,0.10536121774158128,0.10593789050850985
2,0.10454427642073277,0.10506146237689298
3,0.104878868988092,0.10542840919888857
4,0.10519455783634925,0.10555291241115722
5,0.1052881454725822,0.10587195584575491
6,0.10539444898077242,0.10552368904063339
7,0.10534564966111065,0.10568778643762397
8,0.10534660624180861,0.10558325046380863
9,0.10555666497499823,0.10569308205392292
10,0.1053712265752107,0.10568978439872437
11,0.1053790760864552,0.10598170413873095
12,0.10514964560548559,0.10552445468040743
13,0.10497625303163613,0.10496632799494426
14,0.10463507624743558,0.10486945387008346
15,0.10448801993942565,0.10409704275905568
16,0.1037774313327601,0.1002251590471994
17,0.09731878440895622,0.09931411637668075
18,0.10112403735196848,0.10112422209559413
19,0.10056204358927257,0.10103602873215829
20,0.10071072043727437,0.10087506424844406
21,0.10073383779024525,0.10103948366105697
22,0.10095506636120623,0.10173549057346869
23,0.10111805744808641,0.10177554721755123
24,0.10120702006047864,0.10156683910758645
25,0.10117676336583283,0.10179785609057125
26,0.10126023238701977,0.10201981082123476
27,0.10138167393841237,0.10189334347244314
28,0.10137231864755769,0.10219678724362517
29,0.10152373349757123,0.10184805565046906
30,0.1015757424570769,0.10214798571137622
31,0.10162968424369963,0.10244220020080422
32,0.1016819111222653,0.10214201690248363
33,0.10177443820319111,0.10222289390750258
34,0.10193337226133171,0.10239176005242656
35,0.10184257718132173,0.102340950579886
36,0.1019462400274597,0.1024077518033812
37,0.10199162944686785,0.10226023163067231
38,0.10202640247383087,0.10261529659956764
39,0.1022358304447979,0.10253842510194786
40,0.10227860612787312,0.10285295103842006
41,0.10245439313727317,0.10271182642174971
42,0.10243282764911842,0.1028254442534394
43,0.10242833796855834,0.10270687184445766
44,0.10255130250557816,0.10322133736315918
45,0.10257716515033746,0.10312403553851307
46,0.1025797864384979,0.10305196110338513
47,0.10262250120667435,0.10345949347835878
