epoch,loss,val_loss
0,0.15400328129815827,0.0859131679915027
1,0.0647202513867812,0.050625938131240944
2,0.051645720265895055,0.059259411576773675
3,0.05872046928718793,0.059029982264294054
4,0.057427541773429784,0.05499708576638019
5,0.055549640190615646,0.0553371707402352
6,0.054402875478009434,0.0535825201690244
7,0.054406465582853315,0.052996118153844564
8,0.05404785873411561,0.054130990049362934
9,0.05060293537964352,0.051367510510013155
10,0.04811171704767753,0.04784108885661673
11,0.047392138285185695,0.049059959497499764
12,0.04796165128429826,0.047013308120790014
13,0.047412085158528565,0.045955932301475766
14,0.04686217821932001,0.04594912146230617
15,0.04682668833304748,0.04595708066998924
16,0.047021664143037455,0.04719162587702698
17,0.04652009292734231,0.04863120634887947
18,0.046048781396054346,0.04547489023434429
19,0.04562990018408552,0.04909342217487713
20,0.04540804236216082,0.04326281760655338
21,0.045511300668870804,0.043766563706799766
22,0.04571411292032181,0.04676611204032552
23,0.04443812409310127,0.04412539409445606
24,0.044547426710121164,0.044205443326445576
25,0.04388543591647745,0.041695671454483635
26,0.04332403090449689,0.0461032089719221
27,0.0430006157609818,0.044853818388957155
28,0.044500637302200476,0.04211220787669037
29,0.04380240721507467,0.042817127027187936
30,0.042510626775076346,0.03902336545788405
31,0.04334002334049804,0.03907057913439238
32,0.04242024046601914,0.04606215671092954
33,0.04264667536988914,0.042634295692171933
34,0.04218804613530017,0.04148562946419313
35,0.04224065136757019,0.04140325587157575
36,0.03718231915593814,0.035613925342507596
37,0.042907367788737626,0.04584443680324607
38,0.04463146334226659,0.04520591141122387
39,0.04271796860581012,0.04583355187840507
40,0.042684551904634604,0.044079812518493716
41,0.04248288490449925,0.041577581583794966
42,0.03999536991012182,0.03977275498934684
43,0.03951085118694509,0.04255008788657358
44,0.041175745960643634,0.036270255830077175
45,0.03599034121883907,0.03578220427494964
46,0.0361152426566747,0.03861940002043885
47,0.03830539564089142,0.03379320081884972
48,0.043851312507482934,0.04389276411663667
49,0.0446075336586276,0.0349192439704169
50,0.031541891259064585,0.031071149950645624
51,0.03331171741171611,0.033438874836408346
52,0.03652869428036739,0.0404043579275625
53,0.04159132920676093,0.032208034257097985
54,0.028770084858393306,0.027616668648388597
55,0.02711182878279,0.025915560207455387
56,0.027146134920847075,0.026597998289489895
57,0.03105937581149032,0.027491452706053018
58,0.03704312022069661,0.04192791588680896
59,0.03898037976319556,0.03509156587044837
60,0.030594899806735232,0.026834219235459367
61,0.025652128575499252,0.02536517519565577
62,0.024323515053525816,0.02409494535493258
63,0.02321844381078494,0.02291240192649867
64,0.022193724161488928,0.022053653065588593
65,0.022137653060275302,0.0216042397664338
66,0.021766509422265608,0.3244669916315538
67,0.021998420597421086,0.02078726765094729
68,0.02132502192189153,0.02127397169477373
69,0.0217291832165264,0.021238192599840115
70,0.021932997888953185,0.021955634340138162
71,0.028405850936325906,0.025747743846103253
72,0.025674279440465353,0.02563014033014556
73,0.025181028091138025,0.024788287898265385
74,0.02475809708660503,0.025232762282077683
75,0.024883751027869713,0.024688318736363134
76,0.024635193473417506,0.024877612434192353
77,0.02426249067858159,0.02412186309565873
78,0.024005494088673,0.024877766144315652
79,0.02439048742990104,0.024102212673004633
80,0.023631854186044465,0.024194403494919203
81,0.02360281631273093,0.023881049598872238
82,0.02356173757159953,0.023564243430437868
83,0.0234771062553727,0.023761685789160682
84,0.02313860893684278,0.02381353032052658
85,0.023471816384838782,0.024293643586343446
86,0.023515282841257864,0.024713181262069926
87,0.023606623831144768,0.024504395275308375
88,0.023605399520890556,0.02398618201459828
89,0.02296508359034165,0.023435527910114558
90,0.022881813600456876,0.02401462371219258
91,0.02306585925758528,0.02214827838970529
92,0.023115530795455693,0.024308562025886497
93,0.023738003841383186,0.02362440720541607
94,0.024634301185244612,0.024593890342499765
95,0.025394684788462022,0.024005865653199104
96,0.024868668325030974,0.02437094055504289
97,0.025364966708705198,0.0250268840490478
