epoch,loss,val_loss
0,0.3593664995724444,0.6347506168138916
1,0.13054082609361692,0.3713779286455713
2,0.1227248065191493,0.21310380491668443
3,0.11080046962324283,0.14346420599093282
4,0.10793993567867721,0.11963493708041868
5,0.10658369572471371,0.11053976871149693
6,0.10605637544541241,0.10665554923741198
7,0.10596468250790565,0.10632710081202455
8,0.10584280150923893,0.10605444985529336
9,0.10573145810315172,0.10606493355137396
10,0.10558640917571042,0.10585495142741004
11,0.10549110134871457,0.10598397551908584
12,0.10546511337220621,0.10581262539645866
13,0.10530866073261348,0.10563857313583663
14,0.10525325913247253,0.10607164447220085
15,0.10528962536872052,0.10567249319477164
16,0.10527208332511351,0.10568382773304325
17,0.10530873382691856,0.10584058372661083
18,0.10548394827319564,0.10598625170380088
19,0.1053021685372916,0.10580171719957922
20,0.10534881979084129,0.10581421395785806
21,0.1054307302946953,0.10601629643762027
22,0.10548293760878671,0.10592287965265897
23,0.10561878978014945,0.10612538412225087
24,0.10567594341022506,0.10621796306090366
25,0.10579304915252064,0.10608189219598613
26,0.10576446829058474,0.10623519660665373
27,0.10574691654514257,0.10641380791694231
28,0.10582010322909276,0.10625364285053564
29,0.10582340072146613,0.10633502956465087
30,0.10585383076271375,0.1062227647454605
31,0.10587178624505333,0.10655249902227307
32,0.1059522320517152,0.10661189700899486
33,0.10595600899579904,0.10639646501760362
34,0.10596475589999574,0.10647370465740785
35,0.10606541544746914,0.10638263149461882
36,0.10596453811196115,0.10650813710694249
37,0.10602670639967747,0.1068280988799933
38,0.10599568249176827,0.10622388334399428
39,0.11263796559674182,0.10741622841254689
40,0.10646657215105258,0.10657290626249637
41,0.10602378471196888,0.10618728098783704
42,0.10573609661665276,0.10628261555930058
43,0.10581875292898463,0.10602870400062958
