epoch,loss,val_loss
0,0.16794415793830542,0.1378800669757042
1,0.08112154675306653,0.07240008672768428
2,0.060712607170966604,0.055128458913800846
3,0.052359313344498046,0.0487770663622852
4,0.049542490255942255,0.04895798689976111
5,0.04761351119402311,0.04660921414171793
6,0.04769720797606414,0.04650043842001232
7,0.04714886019591519,0.045711861513172816
8,0.045007557364747965,0.04044989434724355
9,0.04048079116750869,0.03701660146417821
10,0.037256100476324126,0.03621614933449072
11,0.036146132083390826,0.03423693944900734
12,0.03460248268330745,0.03478257141084114
13,0.034126562911341134,0.034184582751970546
14,0.034326376758224,0.03681504208044735
15,0.03409978033726116,0.0338667806681913
16,0.03264298403321458,0.031709445915357654
17,0.03278149258669951,0.03134349407811944
18,0.032267964081012374,0.03088448145048253
19,0.03221107396385748,0.03372273191033429
20,0.0318880591654687,0.030683940376471888
21,0.03193325891221265,0.033267975503309746
22,0.0313361534338108,0.030212874308922392
23,0.03134017752752982,0.03086700043754965
24,0.03050566213480908,0.030104942528652975
25,0.03111754677189197,0.03227584576050456
26,0.030939872121270137,0.03000762195700534
27,0.03052040538657531,0.03176623221777891
28,0.030059374011248995,0.028604090182903063
29,0.029776809530125722,0.02766823713045094
30,0.030019111323842614,0.02959372810196152
31,0.02950636214084572,0.02677726102867932
32,0.029421367303585168,0.02753948367214758
33,0.029003346996972983,0.026917227422605373
34,0.02845856792581596,0.028465791888411533
35,0.02829584829378233,0.027518611416020727
36,0.02871969352281994,0.02865268824285377
37,0.028404828635968275,0.028463700333435232
38,0.028396962812061693,0.028895702477670978
39,0.027880971800151776,0.027379556327481954
40,0.028277347784498325,0.026111858847662043
41,0.02803267202794933,0.027569889945831465
42,0.027785519273470727,0.02845154849675667
43,0.027530749987283772,0.02739880079934234
44,0.028269624961413543,0.02821944451110986
45,0.027767277957736064,0.02756003883903245
46,0.027542952391550506,0.02599440851552381
47,0.027296903740456825,0.02727652062245166
48,0.026470993989430886,0.0265933719302668
49,0.026811590812784687,0.02546995033928279
50,0.026389952707324003,0.025435920132893038
51,0.026356238301554553,0.025365303656425923
52,0.02631494986246244,0.028518091505003805
53,0.02651867338215752,0.026770803728967833
54,0.026764419619187556,0.026561739127539046
55,0.026391736332246726,0.025686782269482077
56,0.026284645276544668,0.02633504078803612
57,0.026110066834250562,0.02516085483374893
58,0.026245048768419346,0.02443111080003001
59,0.025937470347642138,0.025698797036353395
60,0.026360916511284457,0.026501868641990417
61,0.026261254634371668,0.024521945697132678
62,0.026044126411678074,0.023961555067194006
63,0.026010766810031054,0.02503080483917044
64,0.026207611441231078,0.02444376582875201
65,0.026454236889950376,0.02566971458000702
66,0.02629300605261521,0.02689778193943173
67,0.026228263183570594,0.026201585681128427
68,0.02650039894528669,0.02427562189765492
69,0.02661666261265985,0.026417052127779613
70,0.026490278752724663,0.02717154263426868
71,0.02624157007983167,0.02584402865032653
72,0.026572288643065496,0.02602002355428126
73,0.02634826608055787,0.026123217370981482
74,0.0263319554776668,0.025134907564958345
75,0.026427448025162368,0.02580459112479354
76,0.026304229785748524,0.024846136443546274
77,0.025878858755526545,0.024924513940488436
78,0.025837200221052462,0.02430609646293716
79,0.02592717055127108,0.027020685839295483
80,0.026600181315686824,0.026187800829487705
81,0.02721460277198268,0.02388562263087344
82,0.025777098607364223,0.02482063381182178
83,0.02628263788406464,0.02449475662913629
84,0.02359507355740745,0.02299929191906008
85,0.023690535104740486,0.023305119776064802
86,0.023943144411182136,0.02323675120797746
87,0.024327818908059386,0.024681686755231542
88,0.023537028543680883,0.022433422902788623
89,0.023205200143956498,0.02421205504940736
90,0.023675022326665913,0.02294974294127257
91,0.02308501821565185,0.021418284648336946
92,0.023522510204455265,0.022128135617160854
93,0.02320520468592215,0.022299089653515965
94,0.023302032961417064,0.022558528863793295
95,0.02319225121206112,0.023595921801081207
96,0.023405437673375808,0.022687760067790535
97,0.023065815910512356,0.02176342505870509
98,0.022821147666334345,0.022302605840947183
99,0.022581708589218836,0.021179286656488137
100,0.02258724022915752,0.02129801106069534
101,0.02256391741570642,0.023181370448471055
102,0.02237093164924261,0.022305547466300188
103,0.022932242337825724,0.021876555650650092
104,0.022568005560000215,0.02107935941292248
105,0.02268188728315891,0.02241619114911782
106,0.02289411762832023,0.023349632240755407
107,0.022663819547787272,0.02435867335197487
108,0.023010168530547218,0.022202143699942185
109,0.022745482003439864,0.02317801842373379
110,0.02290957026127026,0.02324662076775352
111,0.022674399841990735,0.02141731308557052
112,0.022996204533725143,0.023466998977320536
113,0.02251052369864629,0.023193153035962966
114,0.022591612903292563,0.024529135019328054
115,0.023202278864957827,0.022698599114520115
116,0.02250343479430504,0.02565296385187329
117,0.023558420735857278,0.023130343471313427
118,0.02319294903397584,0.023596964598631143
119,0.02244245759148201,0.021405033089496907
120,0.022623508357160763,0.021178052814320118
121,0.022421994560705625,0.021328699884564272
122,0.02178928949427214,0.020981858504293655
123,0.02225649603854695,0.021464118412045294
124,0.021690331966721182,0.021502600375624653
125,0.021909527578871314,0.022319252296235492
126,0.021970021813887533,0.02105830775628244
127,0.022370081942835206,0.02131671818956768
128,0.022819205656272473,0.02206654293461164
129,0.02213041103861148,0.021803913918054047
130,0.022849415172841385,0.021635850603326907
131,0.02216496467471218,0.021787764429575644
132,0.022086656992610313,0.02160500194627465
133,0.022131453006923627,0.023089228616917142
134,0.021899739205152344,0.0221001363146959
135,0.021738554211072833,0.020334386355710388
136,0.02185185701935459,0.02123650122028147
137,0.02173793796065757,0.021234956629509614
138,0.02170356087011399,0.021241580522027462
139,0.02161317818510018,0.020648716783537673
140,0.021518518466302913,0.022836158672478506
141,0.021484342015844933,0.021436229573111414
142,0.021291980289851877,0.021200687465005818
143,0.021219614254449196,0.021885428008724124
144,0.021333497155347554,0.020582350860360858
145,0.02157948153773896,0.020766781090266986
146,0.021467824674231542,0.02049633784729755
147,0.02139650485876629,0.020384140655210194
148,0.021933704324298912,0.021160307017632045
149,0.021704651422048214,0.020785846767304633
150,0.021784871512894436,0.020588784072115934
151,0.02196653352396713,0.021329143651317873
152,0.02283247557805954,0.02261544182020421
153,0.02272502405436443,0.021479028117590847
154,0.022773911836270474,0.022869660781480332
155,0.02275588782541424,0.02207259079786907
156,0.022986384914915482,0.02325689142838932
157,0.02302635665521395,0.022501508544339566
158,0.022934450930971607,0.021640005292872227
159,0.023347702804211376,0.024779685341474476
160,0.02325973793012585,0.021950714725298307
161,0.023237795492322993,0.02400942032549592
162,0.02311552816675864,0.022432702614822157
163,0.02331922684001813,0.023260278972755198
164,0.02308794480192361,0.022822344807971153
165,0.023303617082303947,0.023161880372073018
