epoch,loss,val_loss
0,0.17539291988483532,0.12039048799211431
1,0.07582189761799016,0.06413328875482506
2,0.06749858239964901,0.07080026724226567
3,0.07004918716103434,0.07155352416900358
4,0.07076171890413352,0.07009767289931321
5,0.07018477933929503,0.0705918969135164
6,0.07011850495680536,0.06986251600445399
7,0.07027470738851099,0.07120206288775781
8,0.07063079574744668,0.07211663284072184
9,0.07037594075278222,0.07309987297503612
10,0.07177618100381583,0.07099879351345309
11,0.07233422949052543,0.07191492237838687
12,0.0763752374449651,0.08774940146172996
13,0.07379054367470798,0.0721295981681902
14,0.07254804921843451,0.07294113071372213
15,0.07155345563741801,0.07376314547345124
16,0.0713995024264097,0.07380654307077886
17,0.07061799870525523,0.07030949137675639
18,0.07014351085924225,0.06929291919426553
19,0.06969698517323493,0.07038357743336257
20,0.06935717185123932,0.07045694083657525
21,0.06894999042713194,0.07013111131084934
22,0.06872404024874468,0.07003255835318999
23,0.06798817549380276,0.06825219570484892
24,0.06731457301645542,0.06767479319128354
25,0.06448611586714248,0.05700157649209392
26,0.05391990037844907,0.052400757791658224
27,0.05106426843350454,0.04991684148371831
28,0.049638113928593984,0.04721883043717379
29,0.047141805853989485,0.0427589640138934
30,0.040353436128710576,0.03545456650154555
31,0.032959013018938756,0.029484638425315
32,0.029283382315679993,0.028455082649084276
33,0.028354418910682487,0.02601319304340311
34,0.027403397277164326,0.027334536645552635
35,0.026880212119973296,0.025665407669572447
36,0.02646144342457624,0.02508189767193352
37,0.02818001168284961,0.025912443134748473
38,0.026407915114653673,0.02474752291243144
39,0.026163101666044894,0.0247404565895013
40,0.02566936482443846,0.024218851368177474
41,0.026070535022893446,0.024904376222224994
42,0.025917380460077147,0.024604236386604635
43,0.025752539150148846,0.026433014205782642
44,0.027005472146778654,0.024821568571542697
45,0.02786509981297022,0.035082134490960586
46,0.03805699145836796,0.0309624899966729
47,0.02651005704030335,0.023894612779568853
48,0.023643286687304838,0.023464004420208573
49,0.023719548815779454,0.02357353928080674
50,0.025741651260422813,0.0241612957550864
51,0.024858112318171775,0.02395036188266648
52,0.024491491172161938,0.025519012533063577
53,0.025840467891002968,0.027132679657582797
54,0.026709895751488914,0.026780087253830052
55,0.027062684608746966,0.027696470720450898
56,0.027035849383301874,0.026434705184732916
57,0.02634868309494379,0.026120790933871138
58,0.02574776074842369,0.02575646673682739
59,0.024966962726341545,0.02456204247261797
60,0.02485415710137783,0.023921166046066086
61,0.024324859205118232,0.025135217787258343
62,0.024346928246212093,0.02424257743777303
63,0.023819735825365538,0.02403007074602495
64,0.023576930626857576,0.023561785550348477
65,0.022458431508234268,0.022462345405401634
66,0.02200686318843032,0.02236036932200264
67,0.021657154515689368,0.021753303174461638
68,0.021048078425883722,0.021083452067710607
69,0.021106953754258764,0.021599166742845746
70,0.02101877912191107,0.02195561742196896
71,0.021099892594545578,0.021272952804355143
72,0.020576430080409387,0.02101680755044827
73,0.02045694065557943,0.020742847061559454
74,0.02021393918251391,0.020776238342439836
75,0.020192264795875093,0.02036353884133986
76,0.019733487149710946,0.018940531853777552
77,0.019521630987030664,0.019378512897826407
78,0.019029635924854866,0.02061680319403675
79,0.019123640704265744,0.019857433062243763
80,0.019147863221480595,0.019549770527699375
81,0.019626900811287328,0.019394021494506662
82,0.019545818278513892,0.019535524084070298
83,0.01894848086207891,0.020645923581747626
84,0.019040880570683975,0.018473085634933745
85,0.01874475666715635,0.01833946394183524
86,0.018909529875145017,0.018976434018542283
87,0.019631746773727886,0.019341101384800347
88,0.018920174611510514,0.01833053630054138
89,0.018749729116007294,0.018309479069197
90,0.018545443729998515,0.01933242425016747
91,0.01854600321030993,0.018924975514870605
92,0.018322893606348457,0.01920363049727777
93,0.019121550441199214,0.019065339191748385
94,0.019532808441769994,0.018810627608609274
95,0.020089873385955866,0.02062459791339375
96,0.020622581542044473,0.021009464615157673
97,0.02023865425732913,0.020182340494823814
98,0.019841870185818605,0.019356478721597296
99,0.019749511545486778,0.019919976905199987
100,0.01968249501764691,0.02020747511373464
101,0.019420208457074196,0.01910800603089741
102,0.019448183255075073,0.020613331402098464
103,0.019583508516732545,0.019332127006108497
104,0.01913370620563543,0.019247711051752367
105,0.018988040928765357,0.019218579550650802
106,0.01893833826119594,0.019385331672717006
107,0.01871924473681479,0.018869283153354274
108,0.018727047301138,0.018671252536157406
109,0.0187679651188854,0.01811213417665264
110,0.01857840592751829,0.019184315340459675
111,0.018709571669540768,0.018835405826101104
112,0.019042643039471667,0.019128163516427366
113,0.01902375876349654,0.019308879058558166
114,0.019041306555842897,0.019044618243564748
115,0.018755239088365214,0.018478334207314154
116,0.01851861627860297,0.018534538757288277
117,0.01861867121384322,0.018927969585372035
118,0.018515919100680796,0.018061571558253824
119,0.018619377656633573,0.01921948358040206
120,0.018617492120007247,0.01861915131553055
121,0.01884478319966369,0.018545662211702625
122,0.01897193721125571,0.019016729044450863
123,0.01878345136468907,0.018848358017657815
124,0.018696781754833188,0.01979047804997371
125,0.0189476535647369,0.01827023421203234
126,0.01862489598297732,0.018959995176887172
127,0.01865354682178163,0.018858427192865863
128,0.018154867769901654,0.01745884621188033
129,0.018078803587302888,0.01818903823748478
130,0.018380790929511774,0.017866068343972256
131,0.018464218775222866,0.018098831845663528
132,0.018292591126142836,0.017852645293877836
133,0.018389565693728214,0.017360973022672352
134,0.018402741107491138,0.018234252393092804
135,0.0183369369684554,0.01921623793519569
136,0.018516843379895797,0.019283962610229886
137,0.018523603139503252,0.018294186977450548
138,0.01830890585782288,0.017956934285650785
139,0.018133019115016472,0.01775641759288598
140,0.017741923448261167,0.01757527993670014
141,0.017925656791463743,0.017896501344482355
142,0.017650069536374723,0.01732621726013232
143,0.017494971739600223,0.01819302129023359
144,0.017943965471375712,0.018542939281030818
145,0.017859644457537065,0.01799950735377414
146,0.017872405593558183,0.016947153802805277
147,0.01766364291596184,0.01763387700585441
148,0.017407048969335263,0.01826828133150194
149,0.017692291951305766,0.01805715680478145
150,0.017463071815234772,0.01702922853569911
151,0.01724349745034838,0.01786234530443127
152,0.01729060899984422,0.01765533105779701
153,0.017144895511583314,0.016944544342800023
154,0.017078819672772878,0.0173668674257273
155,0.01716022010368528,0.01723483079881205
156,0.016869158558860172,0.016815613218727973
157,0.0169708542868221,0.01711670515416359
158,0.01682928191955022,0.01659946898608553
159,0.01692238426972017,0.01707503214278556
160,0.016699907859023526,0.01644333953592094
161,0.016613745229612058,0.016101819565247717
162,0.01690827123932451,0.01659167794497491
163,0.016681635882601225,0.017273298090569315
164,0.016661580772229213,0.016675731736134618
165,0.016783660913123,0.015967567490256483
166,0.016970200516986285,0.01726685107730464
167,0.01667526074283891,0.016855292724946774
168,0.016703459853343636,0.016103152797249422
169,0.01650196960870382,0.016996960474682448
170,0.016442127666509838,0.016709860672273077
171,0.016631265785053764,0.015963224111964314
172,0.016454206857023288,0.016411849555589594
173,0.016490225596420414,0.016234925035872417
174,0.01658168952237609,0.016684254598322353
175,0.016513382022877297,0.016753713832616854
176,0.0163761659303485,0.016384102943652525
177,0.016369551989725596,0.01665146414840325
178,0.016184146512302752,0.016591810816112426
179,0.016508064243933567,0.017058695323218392
180,0.01655706512942005,0.016493974829823274
181,0.01674591233212349,0.01688406186879575
182,0.01684189785411842,0.016407876557008243
183,0.016472436592643924,0.01744523618940702
184,0.01680201013013423,0.016380662598368588
185,0.01687951489976294,0.016662311787998572
186,0.016928874722999827,0.016205517093679664
187,0.01673544404416276,0.01670941651226172
188,0.017130732406034983,0.016457299977517447
189,0.01665849782389512,0.016426730520241167
190,0.016183731330039024,0.01655902605115685
191,0.016560611304649107,0.016576296438910683
192,0.016540016678216266,0.016075637085685227
193,0.01649195324855862,0.016037173079651645
194,0.0163294733874202,0.016091128800949338
195,0.016324253896508906,0.016030993551492175
196,0.016343822230031783,0.016448299088842443
197,0.01673053195409709,0.015958943848234278
198,0.016443320331897,0.01627094031700419
199,0.016017395710434132,0.015712753566012858
200,0.015721278062624803,0.015767276095227878
201,0.01579008787218258,0.015270409117663763
202,0.015499975362555872,0.01515054446957482
203,0.015552050769061064,0.01494925929896457
204,0.015675190472893483,0.016189493616012345
205,0.015484726904771573,0.014787543312173804
206,0.015707182043569266,0.014770504025464558
207,0.015612498922593636,0.016808388273995414
208,0.01585429678108993,0.014772697936246597
209,0.015267383488867399,0.014932779765790057
210,0.01525071501504067,0.014721020221880739
211,0.01507018886277263,0.014234522176022923
212,0.014854197262329973,0.0146505064702201
213,0.014466458206086589,0.014779552542431766
214,0.014985363181534527,0.014345700406390754
215,0.014949829325818424,0.01424361407115832
216,0.015063812924946527,0.014608986145760144
217,0.015093957242235053,0.014527896416227273
218,0.01578428808951097,0.015152513157596904
219,0.01569007193821547,0.015254508487104005
220,0.015350343666220312,0.015014229161516362
221,0.015639841970470216,0.01561656397059501
222,0.015520663343840462,0.015637118878003266
223,0.015501015757818778,0.014791525488729635
224,0.015368224086640455,0.015028394811625732
225,0.015729589866463847,0.015690280583958365
226,0.015833218333696265,0.016089566466534522
227,0.01582755725145888,0.014859514102933674
228,0.015551823384532754,0.014923447539446244
229,0.016115826295523477,0.015006205658762824
230,0.015574854788192503,0.014829772963367209
231,0.015683868245931147,0.014557620499433028
232,0.015516982779731686,0.015010922440072638
233,0.015534374635103794,0.01458170150877833
234,0.015844324537047403,0.01594716028458106
235,0.01561387057425819,0.014781254426750406
236,0.015288800222249769,0.015001689186782798
237,0.015355359403703877,0.015650621021420775
238,0.01544116963956246,0.014750239398145215
239,0.015327892055903241,0.014739586723984559
240,0.015276155013927548,0.0145798506062322
241,0.01504371767650715,0.014592683364673214
