epoch,loss,val_loss
0,0.16344440421111864,0.08693075100667098
1,0.07047918784639819,0.05667020267885599
2,0.05532989374918046,0.04987730520123935
3,0.04090840329559777,0.03217406351863162
4,0.03184094631539689,0.029196654644154524
5,0.029059969252057307,0.028232497002138524
6,0.025761334291792556,0.024339163950817172
7,0.02537474130689026,0.02662490070859983
8,0.027952752938921407,0.02859317681854319
9,0.029595538760892017,0.028155429923837825
10,0.03270446361123706,0.03400795775353203
11,0.0345972913930075,0.0339681328242702
12,0.03226648975643132,0.02952441406431119
13,0.02746266051739764,0.02493098708517973
14,0.02402319852783859,0.022203377497271467
15,0.02248674098828094,0.02426643209456927
16,0.021998223505443712,0.0211323098894782
17,0.02163915315957116,0.02026375570285245
18,0.020809040703385663,0.022766683096302805
19,0.020547396267394272,0.01856045533359733
20,0.019824843534709907,0.01888626222899323
21,0.01927918196543396,0.017694216805209582
22,0.01893341300158883,0.018527167075223214
23,0.018694016478693697,0.0192965012361261
24,0.018314328860583828,0.01949793815277605
25,0.018220970112321187,0.021692127821453935
26,0.017321932361089736,0.016821753192507758
27,0.01721548001176948,0.01611011163217634
28,0.01720782686367357,0.018737398970051836
29,0.016689384825896922,0.015793269614070866
30,0.017759276198879848,0.020225045698288396
31,0.016553831296034164,0.016488519825053054
32,0.016497429540689043,0.019532177410578767
33,0.016236635587579436,0.01457728287491774
34,0.016571617976343222,0.016620143335062683
35,0.016214420881976995,0.01789264241270221
36,0.015848308265265777,0.016756494212733918
37,0.01586513493737157,0.014230065358671835
38,0.015369049325915906,0.014419691582028802
39,0.015495613527422448,0.015189927291116238
40,0.01576192960661235,0.015563559275923183
41,0.015798075424267543,0.017725511024034954
42,0.016366479947022516,0.014008860146419543
43,0.015404569513672929,0.013905698007182898
44,0.015448968067652077,0.01508578999686895
45,0.015465345641644262,0.014706312682429636
46,0.016001361658979807,0.013928545345629447
47,0.015407712613459495,0.01426766888880198
48,0.015604129297841938,0.015049103863578476
49,0.015328672929681082,0.01304026372839521
50,0.015241254104686965,0.013752069202234827
51,0.01567708443274065,0.014540726930526363
52,0.015788638530645986,0.015486745700393028
53,0.015307745366222519,0.017409022881310573
54,0.015414675020595653,0.014102238071634013
55,0.015229203435275956,0.014727624846973706
56,0.0155545365486702,0.016924171310856103
57,0.015745868793220447,0.014388796201544714
58,0.015917385566151805,0.01588145866563754
59,0.016282464746091005,0.015104191141069265
60,0.016054143329604354,0.015168296439307076
61,0.016083967823201685,0.01667798435772698
62,0.01595572867787344,0.014846939272331787
63,0.01573553958723097,0.0146625678458537
64,0.015681494610290305,0.015351031335025156
65,0.016024640687241805,0.01653717568213298
66,0.016385541617242004,0.014076441703562719
67,0.01622780367693336,0.014003267097150893
68,0.015473196285216213,0.015422564569563733
69,0.015461542764209586,0.017196963262621493
70,0.01565696591724285,0.02011416917453625
71,0.016783490919580254,0.014495808367294737
72,2.6315238078431538,0.37693536702628766
73,0.2065548972188712,0.16448378190104193
74,0.1534170396298432,0.14456971350766207
75,0.13904087208538984,0.13420520096005845
76,0.13090449110638325,0.12762426470289479
77,0.12494431865467823,0.12271327621817306
78,0.12086547194100875,0.1188165895352706
79,0.11763161937181327,0.1154925368120563
