epoch,loss,val_loss
0,0.14276382959575104,0.10419695894362518
1,0.0875835841436752,0.07501199382821123
2,0.07067919406983302,0.06879662179579957
3,0.06892865459076601,0.07106420607103921
4,0.0666857005225764,0.06318797512772334
5,0.06065292646594757,0.059657995360473434
6,0.05798648714387922,0.05592670870890463
7,0.05545292129154972,0.05396069821790625
8,0.053759196846128746,0.0520893274244118
9,0.05392017751205549,0.055181785618214504
10,0.05534470255831353,0.0558944309502252
11,0.05625324040877638,0.05823350458713902
12,0.056602975346153966,0.05553856514388403
13,0.05607497777870233,0.05424049991199889
14,0.05472895909222863,0.054068913890582514
15,0.054764217752918634,0.05384174887540779
16,0.053678086919369074,0.0537880263023002
17,0.05340795349672163,0.05270699756521358
18,0.052897472509282006,0.05267547800454834
19,0.053000974235870094,0.05107622358715713
20,0.0522596610905074,0.053400023513265546
21,0.05170023295697834,0.05153265675116733
22,0.05104323304433236,0.05018912023190635
23,0.05016222746549941,0.04944229759011291
24,0.049044829725528316,0.05172612130841874
25,0.04937474999270088,0.050398951391935724
26,0.04863994825872586,0.04894037845220355
27,0.04803243335440671,0.04883194682147904
28,0.04742408300832593,0.04636003421626885
29,0.04652990887074066,0.04768122769686398
30,0.04610052800697865,0.045135873527910736
31,0.04581028538094245,0.045970631591334715
32,0.04560225228254172,0.04831007638124377
33,0.04554827642931546,0.04556330594204031
34,0.045640144488222595,0.046055552129940246
35,0.045563426160578915,0.045918073208198455
36,0.04542828615692308,0.04476982424507578
37,0.0448822210387265,0.04591163735610346
38,0.04599775055603539,0.046407421620087826
39,0.04521624276713788,0.04588063870980783
40,0.04524333235457075,0.04353999859567411
41,0.044910703381474355,0.044492230145664974
42,0.04516157203857943,0.045407553218840234
43,0.044331882011999994,0.046858380492056276
44,0.04514798769752661,0.04521762389739668
45,0.04519570248721124,0.04821664078165531
46,0.04540755432679785,0.04574072842604548
47,0.04563748287401802,0.04564326806633418
48,0.04634523271120709,0.04815335081921098
49,0.04641344325600578,0.0528407550983619
50,0.04693029886729521,0.04726976159174986
51,0.04642797032479855,0.04789702061213841
52,0.04716347278260308,0.04935879457003974
53,0.04754576380613992,0.04745581149819712
54,0.04761467117676251,0.04758914988179233
55,0.04805637787667205,0.04797286829295926
56,0.047804733042975216,0.04895726674263554
57,0.04870140163315762,0.04887755293966563
58,0.04874341554647917,0.049604119084651954
59,0.04888103078666637,0.049362631233875076
60,0.04788197054684781,0.051933096687955566
61,0.048127161191521786,0.049567860325514655
62,0.04782377032162569,0.0480816109398499
63,0.04853842290137693,0.05067558231121833
64,0.049503479831867654,0.0500607646901775
65,0.050795647502541064,0.052025534650685754
66,0.052537031930318175,0.052502463894419156
67,0.056255875609451826,0.057795714745746414
68,0.05842277202472317,0.05886537282071249
69,0.058129781507235544,0.05863090332571032
70,0.058059810502208965,0.05825281893538977
