epoch,loss,val_loss
0,0.14243451136050464,0.1009436726758305
1,0.08985060896518991,0.08043228539666888
2,0.06182445323676895,0.0477598481991673
3,0.042140328061047026,0.04345644447708469
4,0.04273758671409506,0.045728394166281966
5,0.04354372205172511,0.04307709333811017
6,0.046320896959014174,0.04779964640748341
7,0.0392505315681108,0.033561393496563514
8,0.031083290476343044,0.028767259347516436
9,0.02926095567947383,0.030249011508044335
10,0.030082818108806603,0.028359672860275503
11,0.030579248400067063,0.029127262466555517
12,0.030463073113791758,0.030547122249781098
13,0.030633072884713144,0.03070040634923689
14,0.03008444984849218,0.03126998883014179
15,0.030270138334074943,0.033239579059024825
16,0.033722910631022195,0.03927959048945601
17,0.0372297861765948,0.03286877415497988
18,0.03454730480605607,0.03376391618244273
19,0.03468960787293961,0.03699447482165711
20,0.035939844322206975,0.03574650726283311
21,0.036236843747867765,0.034443340513446524
22,0.03383245295454129,0.0317484001454845
23,0.030716225443829258,0.030864621263406083
24,0.028646413923250878,0.02692298786222182
25,0.02697552794994091,0.026413408885015307
26,0.02518527421632783,0.027682557984328025
27,0.02487136625039349,0.023759937059390047
28,0.024522301073905996,0.022747449823835277
29,0.024064762130689372,0.024375876752864026
30,0.023984351416500353,0.024428100396468116
31,0.02188560211037894,0.021824332527469348
32,0.01929743340511402,0.018675868678029447
33,0.01781373818313404,0.024437190279740936
34,0.020603482888417422,0.019908888783708698
35,0.030201119857637,0.03267193655612061
36,0.033091124552164335,0.03660092186756085
37,0.037849558953591864,0.040178037944654826
38,0.034156512550944144,0.0288645146383765
39,0.029617464317263458,0.02714094084458927
40,0.028469065619672804,0.023758533889252836
41,0.027147560451123164,0.022485920021511854
42,0.025477205487273388,0.02566630298590792
43,0.025071052792701696,0.029702363578395383
44,0.024855165981310164,0.02351056418771949
45,0.02404213162343041,0.024269777131814513
46,0.023461797984121895,0.023062687315746566
47,0.023979756922321876,0.024503056540638325
48,0.023354885276320646,0.020211325257122752
49,0.022434126746525868,0.020332082409202912
50,0.021982759594631425,0.024461001716407152
51,0.022433637922777118,0.01968568681659149
52,0.02217415998802244,0.022192709969728597
53,0.021984121486020507,0.019682745635215465
54,0.021648485186717494,0.021387869672998258
55,0.021059973581547407,0.023326474324974283
56,0.021401487013919175,0.02672405473317513
57,0.021665344581299786,0.02035076451806121
58,0.02095831284890596,0.021386476048366142
59,0.021166382428946542,0.020020130587316866
60,0.02149218149024615,0.023796151529618295
61,0.021958188305673698,0.020888137034983642
62,0.0210162305930476,0.02051575394419346
