epoch,loss,val_loss
0,0.18144343216284858,0.12408375513064362
1,0.11196216145793883,0.10919591924432892
2,0.10640342814697445,0.10499553234208354
3,0.10186539557006814,0.09681097809710461
4,0.09221412616072418,0.07644204836523993
5,0.06398119891194894,0.051620085847923484
6,0.04585674756186472,0.04083556132045616
7,0.037830648284188084,0.036770196250789075
8,0.035647958095708816,0.03505721308096902
9,0.03427930802499934,0.03407665324745069
10,0.032539140178466874,0.030037358692819996
11,0.028716106616931376,0.02731392144768748
12,0.026915623862251676,0.026125043276300466
13,0.02546885087535226,0.024046473484412835
14,0.03245137035429811,0.024678789082864607
15,0.022279962806476296,0.02367846818895159
16,0.019485856141734252,0.01720297831274575
17,0.01805610988187871,0.01742540337307042
18,0.01702707503095186,0.017648934505015448
19,0.017793272421297003,0.015419717244480479
20,0.016658082690765914,0.015447301667362993
21,0.01620896711802597,0.01523551542602991
22,0.016620244177953183,0.016109609037002617
23,0.01623675667030884,0.014864393487137514
24,0.015434655569327011,0.014040810270668629
25,0.015092762885429115,0.015535413348590096
26,0.014656501165185448,0.014268718329835285
27,0.014006489203300335,0.012806331811600674
28,0.013883885175218994,0.012365116984763527
29,0.013559472480629511,0.017541166472130387
30,0.01244310538979064,0.01166384790060364
31,0.011750856526106667,0.009945943482637687
32,0.011463950575738074,0.010320653941926283
33,0.010707037102023094,0.01105881883044622
34,0.01105704029696695,0.008127277424807448
35,0.011322066532451656,0.008852004554657811
36,0.010110306425588123,0.0080011578145545
37,0.010325686052273348,0.010065506765914415
38,0.008798839142013766,0.007355379858792957
39,0.008833569480380941,0.008471032769228871
40,0.010216771898758437,0.00801936639219246
41,0.00903738199703047,0.007774643237234314
42,0.015255185809797145,0.009053988739460025
43,0.008491888156549322,0.009310294985374246
44,0.007422037538700104,0.005780500155669985
45,0.007536742240387789,0.007559698950881528
46,0.006609451791311024,0.006413139719861518
47,0.007282399787721288,0.005447433984139383
48,0.006952843900552566,0.007574441131930607
49,0.007696472541082927,0.005750838546144858
50,0.006022356547337833,0.005154138187647759
51,0.007977894513862584,0.006160198865405445
52,0.006820659030094478,0.0062300900365619225
53,0.006312928997336788,0.006200106827918537
54,0.006333822898341895,0.004316348666486925
55,0.006144729150367229,0.008779201903560543
56,0.007065214418598058,0.006624317587953834
57,0.006575410754671491,0.007689339125671534
58,0.008000251891699691,0.035181761772945915
59,0.014113014834716345,0.006002657287280004
60,0.006779675440621569,0.007467648885473786
61,0.006650884312277527,0.005046371496984501
62,0.005400261033228118,0.005614482953423382
63,0.005556620877153492,0.004241926376152881
64,0.005983221968695474,0.007808374422187046
65,0.005899897482946699,0.005232199537237017
66,0.005981442395602907,0.007217281434799661
67,0.006417160886872134,0.007172618971677422
68,0.0061592139411352125,0.004991118841559789
69,0.006959585686509075,0.005584341789402461
70,0.006706662736624646,0.009341361087136082
71,0.006750038252111605,0.009685679751241781
72,0.005777907470125053,0.006399188184266838
73,0.006339166162842267,0.004667948324478804
74,0.005785612783731251,0.006292304922161358
75,0.0057149052026783595,0.005884319631494553
76,0.006184549496075858,0.015413866455548377
77,0.006163659866517342,0.004900377608715147
78,0.005446435033372022,0.003504100806320905
79,0.005023170536118586,0.007556281788693631
80,0.006493567808275874,0.003153750512830916
81,0.005092687092440055,0.004441961948282064
82,0.006276996032860455,0.00553776041136712
83,0.004780600440865613,0.007102746981024836
84,0.006277653904219302,0.004808367892747691
85,0.005011029207182275,0.005053130264968068
86,0.005266480031237155,0.004443276132642194
87,0.005933676871125304,0.004777609874717098
88,0.005616818360534298,0.005110634800951543
89,0.005146291083069987,0.004767155889443753
90,0.0053042439502577554,0.005893991384732419
91,0.004952349093482851,0.005068470212691937
92,0.0061043277582924944,0.005948084958034385
93,0.004996411855655278,0.0041614384641253405
94,0.004764653613381788,0.005382163719154289
95,0.004787822372464688,0.004836632505547323
96,0.005170011334614434,0.0043413911400518685
97,0.005950078900803333,0.004607928952646178
98,0.005189339052882049,0.0061333377613306
99,0.006380790897369978,0.004351280917686976
100,0.005322473618504535,0.006870431101667065
101,0.00560666465710999,0.003835169154575099
102,0.0053345405127775735,0.006461179728495529
103,0.005621018770236826,0.0035619326143495403
104,0.004912570478060736,0.003142498340329042
105,0.005567446370035124,0.005005270635765031
106,0.005590534110707666,0.006923941167103804
107,0.004638463642792873,0.004403950761281095
108,0.005312881652648441,0.004999489370210136
109,0.005482437391244292,0.006799387233956602
110,0.008045280999684563,0.0061301363071323105
111,0.00534004654623099,0.004488768758386044
112,0.005871956192364963,0.006178999230913942
113,0.005412561284293674,0.009703666366300096
114,0.005430915485434741,0.006149367467539228
115,0.005963425282563874,0.0030529977513577174
116,0.005686638612651172,0.005745889052260599
117,0.006359239138545934,0.0048089349492994775
118,0.005336081553341748,0.0058239584646445726
119,0.011407931174094275,0.004478579430529243
120,0.006720324884243995,0.004967552535132974
121,0.005028719937071118,0.004864331540462709
122,0.0053634963306445,0.003342961778091715
123,0.005288014847723444,0.0035515435906634286
124,0.004926874610209402,0.006626799454469302
125,0.005009598162579465,0.008337515044292905
126,0.005219534969377554,0.004857646117072138
127,0.004819541113876584,0.011899601246561817
128,0.005108531380126582,0.003221941265978078
129,0.005705815196983877,0.0033177893777688833
130,0.004299039151601428,0.004873972140519417
131,0.0050402073691011694,0.006580573306349124
132,0.006110845656088776,0.0033389362564913917
133,0.005255820558097088,0.006087631091362287
134,0.005998962419312284,0.00614073623858257
135,0.00519932430091617,0.0046602530027655175
136,0.0061767794407080025,0.004096706626803013
137,0.005581256525358743,0.003551940354615988
138,0.004910351097839494,0.005588297547949677
139,0.007121293885941557,0.00797390922956939
140,0.006081384411284538,0.004083193078083622
141,0.00667787627913512,0.012045340605180097
142,0.006383033040788123,0.004594589431785583
143,0.005261672690207753,0.009478138335601918
144,0.005322439618297755,0.006858115516869085
145,0.005524683076630367,0.008045594991150222
