epoch,loss,val_loss
0,0.17701756160893886,0.11790594395070728
1,0.06326713453945544,0.03515777021540651
2,0.029808170133107287,0.02796572189845715
3,0.027444096998297435,0.02679852094874668
4,0.027788627627703975,0.026480877247139895
5,0.0278465419763522,0.029861459483546165
6,0.02914314999354543,0.030003369982106627
7,0.029738668526569718,0.030969149135376586
8,0.03044413704332783,0.03213000932051238
9,0.03204776781598489,0.02980796138931657
10,0.031890684972516445,0.031942631111384005
11,0.03273225140323837,0.03313248414596236
12,0.03328443070997199,0.03200325680030738
13,0.03334782149145405,0.033311413787746394
14,0.03368061208884588,0.03186651976410103
15,0.033814361875803826,0.036184353155584534
16,0.0342058429537679,0.03342785894129816
17,0.03490015600236962,0.034280232538269936
18,0.03568322933483705,0.0355950725465519
19,0.03613259758559062,0.03773038972230906
20,0.03787955578913887,0.0366262005143685
21,0.03825472959642597,0.03725371150492493
22,0.03785056399582006,0.03766066170258605
23,0.03833954203739869,0.038061131829809
24,0.03839081037733004,0.0379875362854401
25,0.03774429210792962,0.036706988947449844
26,0.037961388042540574,0.03720601061513411
27,0.03852238238816686,0.038472519545053624
28,0.038068448280473406,0.03761589947585149
29,0.03748999290811501,0.03793343118941022
30,0.037289152110961794,0.0346078744544791
31,0.037066887663625224,0.037020700708055174
32,0.03749094422397425,0.035483702196906476
33,0.03802678810148168,0.03862871381071203
34,0.03767053412644269,0.03726889332131598
