epoch,loss,val_loss
0,0.07959717406305394,0.04277261628621591
1,0.028379177666741234,0.025305524684529936
2,0.025441314638622082,0.026416418665612812
3,0.025738590519590904,0.02308357052502076
4,0.02587464779083484,0.02409392695002193
5,0.024851923080278095,0.03036683904401805
6,0.025881700667100018,0.04579424006304312
7,0.03171186372161293,0.028261040847700005
8,0.026279755974289692,0.027044503433937127
9,0.030453107868534158,0.06830967850571508
10,0.033051756907628176,0.021654745539056393
11,0.01718603649438522,0.015480911007464144
12,0.014719535294975297,0.013632368915949543
13,0.013476687161416428,0.014702094979484983
14,0.014480412702217957,0.014987784547543105
15,0.015577372020504309,0.013534105750757851
16,0.014810714577931426,0.016413646982615226
17,0.01482709847869155,0.01388614523336997
18,0.014266167316992628,0.01224566753463042
19,0.013476442707014634,0.011593626923186539
20,0.013262715410358525,0.01253838998933735
21,0.013967296877447114,0.031624988291299394
22,0.016260701355425348,0.012015070793683469
23,0.011610620538517982,0.011780133484675305
24,0.011886150258893651,0.010788884725430489
25,0.012883398384280164,0.012439105093358606
26,0.0133964081079778,0.013570655675089662
27,0.013765906547211099,0.014913788107396549
28,0.013420650421846122,0.012759504680453426
29,0.014105072911435307,0.01485420470249096
30,0.013442233351407666,0.012761651106096434
31,0.01332102981295517,0.014081932820420898
32,0.013686439081420488,0.011607321981585423
33,0.012750316392040353,0.01316979763372974
34,0.013789369043693852,0.012834087180414023
35,0.013222675745442085,0.011920713823698107
36,0.012491325001350695,0.011974724973665864
37,0.012369041274672822,0.012006416794735183
38,0.012808125175349192,0.013471335506554761
39,0.013782759766802743,0.011949608055948212
40,0.013041591633194618,0.014286695248241542
41,0.01262430113744546,0.013625772574720956
42,0.01319064077948943,0.010925953148646632
43,0.012468509316445513,0.01210631688431217
44,0.01230107732009229,0.011288123726462556
45,0.012200601199010147,0.010760396144620415
46,0.012531019155269966,0.0135383313322725
47,0.0123306311295944,0.011947050188971653
48,0.011800955732970563,0.010343377995536307
49,0.012336023244839296,0.012726221242335191
50,0.012138392279787417,0.01166149904727627
51,0.012029003200568274,0.012431143313236888
52,0.012097286081111295,0.013208326394522699
53,0.011761527611512236,0.01069584323608573
54,0.011713443124919183,0.010656675403598099
55,0.012167842855001781,0.013442150571463658
56,0.011713092573817899,0.010696641167558894
57,0.011822850522475404,0.012374005792129581
58,0.011799190452952923,0.009979229852547627
59,0.011687766919204732,0.011901751228522923
60,0.01192106952792857,0.010741394086856315
61,0.011690309736598506,0.010349744412737097
62,0.011231273002552165,0.011688911716671309
63,0.011554316344702963,0.010572124291420858
64,0.0112836512171743,0.010143695682071843
65,0.01182052151308016,0.010292953784939933
66,0.01091945420458003,0.011019127900824656
67,0.011310804917763317,0.009761075736387341
68,0.011550704759138403,0.011292259047420192
69,0.010993935616421167,0.010736933113009637
70,0.011113319742522365,0.011002263923645337
71,0.011077072416848356,0.009881617453047784
72,0.011171315438493782,0.01213653288069001
73,0.010995581395273431,0.009717560488191869
74,0.011071278170930395,0.009958964070447095
75,0.011124528611903722,0.009712388125673118
76,0.010913206512794467,0.009841436291522924
77,0.011184079506999175,0.009942012782787115
78,0.011115819798549078,0.011355776169510806
79,0.011148689974968186,0.011397898640232227
80,0.011160283899472595,0.009341599610001996
81,0.011054321151259516,0.009629023201920198
82,0.011314230497420611,0.011861054758940424
83,0.010959901186327885,0.015296160540324448
84,0.011093060806137528,0.010319672619016883
85,0.011025539663755041,0.010119246266471352
86,0.010762519025665185,0.010856888594819585
87,0.01060803344222545,0.009277460155857913
88,0.010335724007018725,0.009482928045000661
89,0.010320922193809045,0.008897855178465525
90,0.010625448193099405,0.00863928429482118
91,0.010894312109756502,0.009941025765450274
92,0.010593418572131518,0.011964159471059296
93,0.0108864738885183,0.00926203132057952
94,0.010519807543910796,0.010911750527989669
95,0.011109962317777862,0.009930057372477409
96,0.010929639529839582,0.012501993088765422
97,0.011229252242643258,0.009378486903409687
98,0.01130073734599692,0.011188902231627941
99,0.010718127871177895,0.00960342183282074
100,0.011041878825297384,0.010478040699159025
101,0.010784589840859685,0.015359700008276364
102,0.010956615676171334,0.011602256009715367
103,0.011007685134344422,0.012561038556661613
104,0.011220239580645755,0.010396857861533831
105,0.011247718830680032,0.012418910028007185
106,0.011226445382597188,0.0111887805730225
107,0.011337925249915034,0.009279198695290996
108,0.010812670029576966,0.009839691318742102
109,0.0111185974327659,0.010905957908679062
110,0.011030302317679036,0.010069164799764494
111,0.01114640473047544,0.009213945806510129
112,0.011084828855159753,0.00989593803541163
113,0.011374589982771983,0.009436981302565485
114,0.019586193339648297,0.03467653233053688
115,0.02390386954463235,0.02013257608290294
116,0.025152148467936754,0.030507639835896626
117,0.02814958579170121,0.018315142147381214
118,0.017374871018985518,0.02186509237651167
119,0.017762394456883712,0.027772121833036078
120,0.020788698868310862,0.01708087158384244
