epoch,loss,val_loss
0,0.15839900751765684,0.09581627625598621
1,0.06564190155334419,0.04616484128897267
2,0.04322420575951549,0.03940011791432101
3,0.03342217407066473,0.026077470604709593
4,0.02497801739427683,0.022596887129799247
5,0.022617047006408753,0.02251374493511107
6,0.022762536415927036,0.022857289762774978
