epoch,loss,val_loss
0,0.38974138983576706,0.19688307214601827
1,0.1586658326651362,0.1412708603004442
2,0.13145285977019394,0.12673059334036113
3,0.12392918275986359,0.12178075534674532
4,0.11764498257475028,0.11392328020805624
5,0.1105129178360307,0.1084617299293098
6,0.108983468708041,0.11526067777821278
7,0.11142259303757326,0.10947526441541543
8,0.10829671606909838,0.10809527412821386
9,0.10751591510266709,0.10760908615617368
10,0.10717625439548188,0.1073667636668955
11,0.10694837754221558,0.10708138165552972
12,0.10676676710303738,0.10703312428616688
13,0.10673989693847873,0.10708998451222561
14,0.10683851481246338,0.10712017484109235
15,0.10688948357919995,0.10719383029295124
16,0.10700410769449817,0.1072934732640834
17,0.10712435208469462,0.10737048510547313
18,0.1072081871193757,0.10762363140072141
19,0.10738997306111905,0.10766039808128608
20,0.10751378337303988,0.11810287471563682
21,0.10760474727927542,0.10775828051021369
22,0.10761863071260025,0.10771686898951655
23,0.1076340310984283,0.1079511848449613
24,0.10762979280200603,0.10784944887225234
25,0.1076516821730337,0.10793455379067582
26,0.10764101127997863,0.10787827735024356
27,0.10762881809215752,0.10785362149729161
28,0.10762163762637465,0.10785304610312409
29,0.10761881155742825,0.10781011227650632
30,0.10760535330747624,0.10782735763616043
31,0.10759737421211293,0.1078615018123233
32,0.10757435523539328,0.10775852113985696
33,0.10756638136317881,0.10771922500776135
34,0.10751581965066451,0.10775691462532215
35,0.10750195783057469,0.1076389597795004
36,0.10746278495287342,0.10766062157518203
37,0.10743622721837674,0.1075893435818338
38,0.10741583965450739,0.10759319008666884
39,0.10738414849975793,0.10768070885795444
40,0.1073899124856952,0.10763459642665445
41,0.1073653002460893,0.10752900332894585
42,0.1073126347778703,0.10751551146241936
