epoch,loss,val_loss
0,0.628315725534273,0.4381951026165683
1,0.379154946854551,0.3601297021806005
2,0.3572273714174565,0.35648969015740184
3,0.3560260111670033,0.35684805141722203
4,0.35654561999413986,0.3567257567522746
5,0.35624443634236747,0.35637265417927727
6,0.35571635600855406,0.3556895761999824
7,0.3542255742086781,0.3531761047589845
8,0.35127308781293753,0.35101120410326814
9,0.3502453554639046,0.35059139311266585
10,0.34987768302146766,0.35025125327972134
11,0.3492612156460135,0.3491066128556523
12,0.3465978996359187,0.34581213556788715
13,0.344309521474236,0.3443223900134486
14,0.3430399331066915,0.3428933718304231
15,0.34162411610666604,0.34149274185311634
16,0.34038486593156503,0.3404373165275887
17,0.33950981695493826,0.33940020036584484
18,0.33878269915481646,0.3388356335678718
19,0.3383331233315426,0.338403747720613
20,0.33789239763070067,0.3380806662712684
21,0.33750385358083923,0.33782283720672834
22,0.33714516948071793,0.33748182299199214
23,0.3368723058490921,0.33723834135820285
24,0.3366475985538092,0.33697435320976127
25,0.3365034341430969,0.336784893895287
26,0.3362678393995543,0.33643295765863973
27,0.33598763205641086,0.3361070321692005
28,0.33574440696542496,0.3359021783439588
29,0.3354517139976831,0.33566345395586483
30,0.33522712660255094,0.33553594647191504
31,0.33506145546857496,0.33535240187170756
32,0.33491366799119754,0.3350486920024809
33,0.33460207968402345,0.33471467677024563
34,0.33434915206701066,0.33454571484390355
35,0.334032831241568,0.3342167136701149
36,0.3338632435678578,0.3339467699027193
37,0.3337449114814365,0.333956861199595
38,0.3335922447135218,0.33393554004892745
39,0.3335520936478433,0.33367427546110506
40,0.3333806038665162,0.333540251876956
41,0.33331797031952226,0.33350175353327227
42,0.33326396367532746,0.333611857425348
43,0.3332565147146809,0.333558727223382
44,0.33319757153376117,0.3336079494870358
45,0.33314380914473135,0.3334731157360438
46,0.3330784383818781,0.33337962935548554
47,0.3330300602552702,0.3333391442530345
48,0.3328780336536282,0.33318749498267203
49,0.3328816236066018,0.33322969565922195
50,0.332769641082445,0.3331370963858354
51,0.33278026497907204,0.3330574815162261
52,0.33275158294766166,0.33320215629044725
53,0.3326617510532208,0.3331408736831858
54,0.33272293460169,0.3329087747488797
55,0.33259243780760456,0.332821447475745
56,0.33254447379272334,0.33293977596200913
57,0.33256690450709503,0.3330777994318091
58,0.33260352015018846,0.3328065260151003
59,0.3326199222192299,0.3329593379053433
60,0.33267088885978163,0.3331193942062104
61,0.3327954618288554,0.3329659490342581
62,0.33276663783738175,0.3329790661489295
63,0.3328074469840784,0.33310797580039303
64,0.33294215417213197,0.3332346083380241
65,0.33296075251272067,0.3332583153915857
66,0.33296661358847796,0.3332153188025001
67,0.3329130925958772,0.33289464550782305
68,0.3326425285791036,0.33259180545712796
69,0.3323803415401376,0.3324127240075591
70,0.33197104909437164,0.3321096090792481
71,0.3315555310601906,0.33189975622609175
72,0.33125260131631634,0.3312791755515567
73,0.3310258967651547,0.33117629504147345
74,0.3308919646042428,0.3310448468766442
75,0.33082193603142085,0.33106361704730763
76,0.33089930760107644,0.33123085029781946
77,0.33086534736634826,0.33101923969569125
78,0.3308586025361916,0.3310171459120093
79,0.3308597788583937,0.33124823420181365
80,0.3308731515487607,0.3312280368127499
81,0.330865367496614,0.33094661818683474
82,0.33079046756624697,0.33113225094897597
83,0.330745896847128,0.3312840457732224
84,0.3307145252692804,0.33103987440502164
85,0.33069940010230126,0.33117441229681
86,0.3306309135078336,0.331047388847738
87,0.33066496588915084,0.3311419666472061
88,0.3306935295450697,0.3308342321237054
89,0.33066900847531816,0.3310004702306866
90,0.3306311479003595,0.3309347922395512
91,0.3306581954971301,0.3309078071187026
92,0.33059528803558563,0.33084585493534874
93,0.3306207196127406,0.33098505986611865
94,0.3305811864151943,0.33083180268166473
95,0.3305851944106565,0.33099028820961407
96,0.3306022241866465,0.330761145138797
97,0.33051239407891564,0.33087115049738536
98,0.3305167728286091,0.3307116996047058
99,0.33050934113949226,0.3308713648530001
100,0.3304723381376762,0.33082502537010783
101,0.33049304753565767,0.3307957030838648
102,0.33040194517131044,0.33077727435796206
103,0.3304154526034324,0.3307771903140016
104,0.33039940425532044,0.3307872795174229
105,0.3304247619341508,0.33100461451764546
106,0.330420673393803,0.3310270872328727
107,0.3303903753665997,0.3309219690788046
108,0.3303786847326491,0.330750686805269
109,0.33036221048052455,0.33057719549045095
110,0.3303707513353712,0.3309560804359538
111,0.33044861775222156,0.33110336579482386
112,0.3303140116681298,0.33061677989003785
113,0.3303739236031981,0.3306233165484295
114,0.3303627133560028,0.33067538892084347
115,0.3303670644950714,0.33070741827881234
116,0.3303461574154983,0.3307385593770335
117,0.33042072720950744,0.3306969319541528
118,0.3303170011674376,0.33077794638033825
119,0.33032203490118517,0.3304779464180486
120,0.3303238654451119,0.3306411567784334
121,0.330289261351577,0.33063598105356085
122,0.33023116368946315,0.33048709563693385
123,0.33023556530904424,0.33050378084465004
124,0.3302675237615617,0.3304883439943559
125,0.33025860386214956,0.3305009426380013
126,0.3302539872656242,0.3303999110950479
127,0.3302645242090324,0.3304544028656259
128,0.3302274672962207,0.33048164766890475
129,0.33016544423229116,0.33045846767188436
130,0.3301628339443085,0.3303685849730952
131,0.3301724152837535,0.3306136188915421
132,0.3300910133252041,0.3304101602242702
133,0.33007340949121045,0.33041540938469965
134,0.33008592827714606,0.3303383540570877
135,0.3301157348638149,0.3303495978123575
136,0.33014616186765555,0.3303373059656268
137,0.3300679988807721,0.3304865800355868
138,0.32998559243387454,0.33034583603950024
139,0.3300352534420675,0.3302218671991022
140,0.3300186801823876,0.3304201548458933
141,0.3299617430479597,0.3301579255284337
142,0.3299238788519355,0.330128508354607
143,0.3298435535648172,0.33013909041364076
144,0.3298813531772315,0.3301219167018746
145,0.3298945332126175,0.3300989707483489
146,0.3297858085754297,0.3299908013962909
147,0.329787014009093,0.3300446667535717
148,0.329709311302522,0.329989487694866
149,0.32968136096458067,0.3301386044499624
150,0.3296057684101361,0.33002685209193755
151,0.3296114260391842,0.329749690493732
152,0.32959233473340194,0.32980822879400606
153,0.3295938951982488,0.32985042253157804
154,0.3295085708157336,0.32981710489942223
155,0.32940931009541125,0.32977475935112516
156,0.3293697590307652,0.3297789123647309
157,0.3293609204385683,0.32972907653076966
158,0.3293555833929353,0.3296217622489749
159,0.32927728406816936,0.3296700519139878
160,0.3293032459170222,0.3296436691199501
161,0.32928959576250744,0.32944051517966044
162,0.3292902140594501,0.32952345389028936
163,0.329248236595012,0.3294711344196934
164,0.3291416861694589,0.32953847941208186
165,0.3291578559662036,0.32937143558390797
166,0.3291155910320419,0.3292557341006203
