epoch,loss,val_loss
0,0.13884905681645365,0.10292228565337437
1,0.09372132164325646,0.08821384499368465
2,0.08369795863124296,0.08176960484451823
3,0.07679104632872948,0.07253116604467029
4,0.06829206977816794,0.06515811757723365
5,0.06494343954084111,0.06664407978917825
6,0.06346061426124794,0.06305777031601933
7,0.0619655625669838,0.061764540416853767
8,0.05939545719136151,0.05997939166137339
9,0.05570718725558094,0.05581701309629661
10,0.054432817128040996,0.0544030401817484
11,0.05359557721552422,0.05569095468852778
12,0.05300938427376804,0.053437917657202405
13,0.05240851525458501,0.05237164931414442
14,0.051535134856625614,0.05212598503071112
15,0.050837772864875175,0.051333966008560244
16,0.05017019556961853,0.051882193595076884
17,0.05017063312000222,0.0509142578706651
18,0.04956006926955651,0.04939584907999919
19,0.04922836823917502,0.04806496707197711
20,0.04952550355157406,0.05066376746629954
21,0.04876519141973351,0.048280508305227655
22,0.048007361668286376,0.047980043307922916
23,0.04796311442705272,0.046760522170196675
24,0.04757297839180266,0.04705899578372889
25,0.04648825804964244,0.046157015630153564
26,0.04593883897010371,0.0458114426862375
27,0.045158326039187534,0.046939724449130055
28,0.04509975549450024,0.04603635400663047
29,0.044440768763339585,0.04522536627671901
30,0.043125273863808045,0.04288086332174954
31,0.04224714225561594,0.04253014383195137
32,0.04016418571618916,0.04147696527692871
33,0.039245244819852566,0.038100048834965185
34,0.03804032451255049,0.04011322915459959
35,0.03668942182160301,0.03580240691529077
36,0.035463584689713785,0.03533985855053425
37,0.03532633458753284,0.03543113836843664
38,0.03472913076712502,0.036386514783799416
39,0.0344894062206566,0.034766410748697026
40,0.03437213099700846,0.03400740374523585
41,0.033820528090357495,0.03611611526374189
42,0.03379878504343218,0.03546015023538327
43,0.03384636010644104,0.03564116081785949
44,0.03387346709345123,0.03598661592852063
45,0.033873166997643776,0.03912326581805545
46,0.03480858473385648,0.03553154405085892
47,0.03572688340920386,0.036206829422627644
48,0.03518226907121764,0.03374985528149846
49,0.033868197280225706,0.033949280344390834
50,0.0343388584684387,0.03554867305620129
51,0.03314460004619557,0.03379946808318219
52,0.03300573409860321,0.03376624447123781
53,0.032411500985781064,0.034926531164544534
54,0.03171151114119995,0.03224195550536206
55,0.030307245157140908,0.03079821913405347
56,0.029527974598627868,0.03357567947178538
57,0.02927779369234896,0.030964645953303543
58,0.02912466903980211,0.028741290041590265
59,0.029389960752378742,0.029792268633336748
60,0.02863668874471927,0.03733798453691632
61,0.029393025108878847,0.027788105747870506
62,0.02901991894193214,0.028089111934003628
63,0.028313540327224992,0.028119290235798566
64,0.028592035166925187,0.028296292054554376
65,0.028874788547960592,0.0307236201649542
66,0.029183944590467154,0.02895618779930244
67,0.029036163630114374,0.0278967019294013
68,0.02904018043852348,0.02974362614628548
69,0.029525545354989125,0.029718748672373577
70,0.02929312587796832,0.027281361200568142
71,0.029654079882932796,0.03009533926979848
72,0.029954410654654224,0.03198328797118158
73,0.030245659734419495,0.028577902804892554
74,0.029691068750384044,0.03042917723907856
75,0.029378950954686633,0.03336725642150466
76,0.029508456444854645,0.02782754140487786
77,0.02908015927876071,0.028987593942960604
78,0.029551450463888837,0.029024930188657264
79,0.02931492511692236,0.03362289243087396
80,0.02917548097360382,0.029484615678110268
81,0.029035967014592996,0.028765071057012537
82,0.029338508184781845,0.03129562590897507
83,0.029705922907705216,0.03355571454142433
84,0.02940785785099204,0.02977734594955017
85,0.028865929435399607,0.02745197569303091
86,0.02875950174044362,0.02923627759476252
87,0.029694422022353926,0.03169621146433261
88,0.029433632881449852,0.03457547505786782
89,0.028774617516772925,0.029039572745020593
90,0.028903217466591264,0.0277321728971076
91,0.029156319612412336,0.03167479597296692
92,0.029328867961331714,0.028318240694648746
93,0.0287072701732532,0.02983610916385852
94,0.028733780637359638,0.02843938291884353
95,0.029201106928425917,0.03247189742895968
96,0.029065589656492027,0.03150144453294981
97,0.029137197910226603,0.030257234430703574
98,0.028608003363227674,0.03064975985447158
99,0.028820544653992763,0.027307404925563057
100,0.028570125268088827,0.03185641522142204
