epoch,loss,val_loss
0,0.14635470391010685,0.110300331184642
1,0.09111528576825925,0.07872387473401632
2,0.07437415481757204,0.07136485736226132
3,0.06923585421116137,0.06807383422717017
4,0.0655540956242336,0.06439581055608715
5,0.06101649304886135,0.05794610602056406
6,0.05348925159679805,0.050991687050417074
7,0.0496602821097576,0.04946522886593603
8,0.04774572689839595,0.0477438567716396
9,0.04495916711531288,0.04541670173794713
10,0.04298592244478153,0.046432442298627974
11,0.040301125282220705,0.03967184471679468
12,0.03718889757639451,0.0379384407786845
13,0.03613735707424623,0.03743059936125822
14,0.03574768325491108,0.04051392578064878
15,0.04009130384198291,0.03466773545038728
16,0.03425133683913046,0.034064542900568026
17,0.03878853105747109,0.04064728536340978
18,0.037895366257662585,0.03514129120853583
19,0.033810831974152564,0.033251969659761266
20,0.03233855948310724,0.03089059450190982
21,0.03341358487935756,0.03351367908899673
22,0.03486674467025758,0.03374155370875805
23,0.037743262705399835,0.03763080174257742
24,0.03988762853665651,0.041515676144454644
25,0.041441048453037116,0.038923075309445186
26,0.043356119853844174,0.045972943958703605
27,0.0490619365414746,0.05275562067164054
28,0.05027943728960675,0.048735111475508325
29,0.047668428357532745,0.0456716121389768
30,0.059692070316925326,0.06642844267454125
31,0.06304503750088784,0.0562571260810557
32,0.05551013246559792,0.05425505647354928
33,0.05146785549742045,0.05178271004990414
34,0.048191741951625885,0.04603624921042146
35,0.047939704726639984,0.060147814843700735
36,0.0503629744529343,0.048032010601864336
37,0.046104895062655284,0.04706670143939231
38,0.0448705039674239,0.0465743029115232
39,0.04979797673346899,0.0529550737491864
40,0.05019370509351758,0.05010480161729815
41,0.04962190717970915,0.04773020179796708
42,0.04847765806541264,0.04676002301069913
43,0.04495017424964314,0.043546608101573625
44,0.04269560150278034,0.04147085938793802
45,0.04168329050512813,0.04186249712530609
46,0.04151908170244248,0.04039822078964893
47,0.04103790679507309,0.043175203365515606
48,0.04129978413466546,0.0407570825173757
49,0.039344582172165764,0.042289517849283885
50,0.03769194406511591,0.03686455668677188
