epoch,loss,val_loss
0,0.16179641751314905,0.0927460213921723
1,0.07998331673115754,0.07117805101900658
2,0.06896137525673679,0.0487308554533625
3,0.03559477312965311,0.021165286763420516
4,0.019478238640363507,0.017352184239589705
5,0.017830922828166843,0.017290643036318463
6,0.017351243262299053,0.017617199087740402
7,0.017319674902914955,0.016449632145164515
8,0.01677778507281336,0.016745113717699343
9,0.01644813014063344,0.01603710112671332
10,0.016783846383668678,0.01658293394549752
11,0.016472577672752498,0.015196724094291701
12,0.01661921763118151,0.015875283114159304
13,0.017317618459290404,0.017719890860562824
14,0.0185145662478108,0.019060809088792968
15,0.019799612810184584,0.021319936522839103
16,0.020720116686906747,0.02095739281168112
17,0.02051145355660114,0.019818366172222896
18,0.01948141462231378,0.0203232525376678
19,0.01818724681618069,0.017790018859442144
20,0.018190447075797214,0.016748470779811196
21,0.017900718446764396,0.01750213146245
22,0.01739949774336543,0.016728142920319922
23,0.016810678183097394,0.016692509470417824
24,0.016349885510734852,0.016101935021314642
25,0.015998653012612978,0.015645621684780484
26,0.016441077354262104,0.017908073964675017
27,0.01693790313005328,0.016124939144645606
28,0.016422018393141617,0.015406293640149891
29,0.016245969282321745,0.016683038657100396
30,0.016376585273413086,0.01618303212277656
31,0.01616633227608687,0.0162702581030041
32,0.016871410596231335,0.016169835183396052
33,0.016459731833278226,0.01688285815752249
34,0.01661030239173227,0.0153208533595974
35,0.01632721368282986,0.015768652096032013
36,0.01619678911798411,0.01538832230021517
37,0.026111282817691827,0.044456707306306194
38,0.03577626621474227,0.022614306000655997
39,0.027040951323213814,0.037148604403237424
40,0.027379740028828977,0.0222838378328339
41,0.02339678526529186,0.020250520213920955
