epoch,loss,val_loss
0,0.1685931956310638,0.11206012728441016
1,0.10708991336307937,0.10024191617918654
2,0.09837984186496666,0.09762104110235102
3,0.0985503242039185,0.09963520048825686
4,0.10050852156633572,0.1024953044698101
5,0.1014020548199864,0.10145780440028859
6,0.10166356025887527,0.10156322100685634
7,0.10143800455627205,0.10212765664050404
8,0.10169291934616369,0.1014508198426291
9,0.10173183453859662,0.10137768890105935
10,0.10165305557749349,0.10248454116819972
11,0.10158668216064774,0.10127199150110289
12,0.1013283925376636,0.1017841298806451
13,0.10145423744174598,0.10267360475511182
14,0.10191589612945569,0.10228293945964341
15,0.10183510127113306,0.10186693129947831
16,0.10182229070950279,0.10171673863232371
17,0.10201747259266561,0.10417667551711496
18,0.10181729233474564,0.10260050197520779
19,0.10163024129222432,0.10334642700727473
20,0.1013820188568174,0.10301806744196891
21,0.1011733684501202,0.10171665270072602
22,0.10140621346487796,0.10134325295851375
23,0.10143823589947965,0.1023795295509656
24,0.10166081998178618,0.10245040938222888
25,0.10160945964564713,0.1012773897966345
26,0.10131236673187581,0.10186599228522301
27,0.10143893899963342,0.10117516845417662
28,0.10160030834942603,0.10133333961702089
29,0.10168533543531272,0.10375707363673055
30,0.10171059382666978,0.10074156258128812
31,0.10117972093067772,0.10190423550973657
32,0.10122013925243434,0.10169035947830919
