epoch,loss,val_loss
0,0.2960990333943058,0.2702299941216479
1,0.11221520983867889,0.10282881126313484
2,0.10390387594604568,0.10754319358596486
3,0.10314252677200128,0.10361530180159007
4,0.10280788187786258,0.12607149519878952
5,0.1048790934226877,0.10293576105452938
6,0.1021012199475325,0.10180532091959499
7,0.1022415270122121,0.10220445759576799
8,0.1018114040057055,0.10383733675977613
9,0.10172657819865323,0.1040029798258734
10,0.10133054826876148,0.09964204935361384
11,0.10123850345063648,0.10319424074822368
12,0.10167659889998958,0.10006048472123345
13,0.10121091750028322,0.10226097318984056
14,0.10158824369752055,0.10121187073749732
15,0.10154939952680914,0.10056261644767041
16,0.10086241215586567,0.09953474943197517
17,0.10096863286791564,0.10060476763401807
18,0.10114903662273352,0.09981626121072949
19,0.10068014530922106,0.1001425909015167
20,0.10650864001110398,0.1015797957201689
21,0.10187443810329734,0.10035263708165619
22,0.10094488901700333,0.10205106680658546
23,0.10195699248382513,0.10264314836936385
24,0.10132785753713999,0.09930757351437232
25,0.10131117677707657,0.09960951106277337
26,0.10124183417581539,0.1001069048903265
27,0.10147684150271946,0.1025584924439793
28,0.1012319603936373,0.10425276752640718
29,0.10271487221848384,0.10132288826363427
30,0.10103983115806854,0.0996838427180367
31,0.09894906322089889,0.10163631264911266
32,0.1003815379205177,0.10123266843636392
33,0.10053901837693512,0.10167162432596263
34,0.10171206927390027,0.10091879328193867
35,0.10165414972890385,0.10038170048521557
36,0.10248865034106633,0.10137404252693422
37,0.10247621623327216,0.10067919197756188
38,0.10213555896477543,0.10179388121464353
39,0.1007384307485976,0.09727515049143484
40,0.0986158920349263,0.09735266149232212
41,0.09898875096290231,0.09992561741616657
42,0.09986108917888882,0.09916519398353377
43,0.10065891342959721,0.0996077624756046
44,0.10039470927844897,0.0992178193042856
45,0.10104050462265952,0.09919834914363644
46,0.10142504451848525,0.10185855354205209
47,0.10185398904087065,0.1005021339457338
48,0.10221370601420589,0.10321670343133532
49,0.10270617258467739,0.10180842805280399
50,0.10199866329523014,0.1020943095176918
51,0.10223169051271548,0.10278289256457183
52,0.10180627446856906,0.10118727297790425
53,0.10182085451629046,0.10344181522056636
54,0.10126855635314251,0.10081459236079159
55,0.10112706970253722,0.09957347485665365
56,0.10017980946053703,0.0990891155170096
57,0.10024799962195276,0.099779822990804
58,0.10081776415558456,0.09898941943917391
59,0.09881728615382497,0.09717109514181314
60,0.09927754314373628,0.0987333218789797
61,0.0995661506383158,0.09867905885357507
62,0.0997991019504057,0.09915212051385767
63,0.0988459868503989,0.09646307054286692
64,0.09784479498815575,0.09583527026749447
65,0.09806190883751205,0.0987148386762193
66,0.09864701347933304,0.09756640781778562
67,0.09871351755827927,0.09640734189358299
68,0.099138882788394,0.10055870746263107
69,0.09918399008629705,0.1001515495572489
70,0.09815811813115884,0.09757082820550231
71,0.09739717154456176,0.09682544620726742
72,0.09744516664224086,0.09733508070364841
73,0.09570500373149471,0.09456287856612887
74,0.09465332456129633,0.0934129157342493
75,0.09587680878375264,0.09615056471341975
76,0.09541528262823319,0.09164942354669511
77,0.09380851408465207,0.09568424379980837
78,0.0945644618855487,0.09354543607702571
79,0.09358537630092421,0.09054343150112698
80,0.09162870782027713,0.08786474229457723
81,0.09034036424496382,0.09025993137587311
82,0.09150434567702474,0.09119939357747972
83,0.0888254450117465,0.09131312089800929
84,0.0873511169882987,0.08687127343928051
85,0.08487690957211,0.08523259457750591
86,0.08668345632813246,0.08556650775972087
87,0.08783035413872042,0.09067778008230672
88,0.08966492731079495,0.09058206972990247
89,0.09187467467132136,0.0938582697555411
90,0.09330124639683395,0.09190022630209799
91,0.09400866714884623,0.09345646359573317
92,0.09425503597390071,0.09447063114596994
93,0.09404814336225568,0.09307553065204206
94,0.09464455478125625,0.09402990206523307
95,0.09282607799001354,0.09128545633360638
96,0.0923894915691049,0.09214295558013968
97,0.0906720320872075,0.09021122560152033
98,0.09031092748939276,0.08986482028309153
99,0.09006477810210176,0.09001935283993771
100,0.09076226010120554,0.09011786220552608
101,0.0886643203042394,0.08634422491315602
102,0.08684171594494729,0.08591985098588344
103,0.0861797104839036,0.08490252087294067
104,0.0869538684686025,0.0844293569215377
105,0.08489529965378398,0.08242437020591045
106,0.08417417968420102,0.08364981514620047
107,0.08465973150244148,0.08506331316415211
108,0.0853992648404851,0.08500043841427296
109,0.08590007383379338,0.08501552883903155
110,0.08574239961463484,0.0842494849930058
111,0.08401811285484895,0.08513175643798208
112,0.08402168245124017,0.08555903128144679
113,0.08365082702071643,0.0852534059132284
114,0.08477416231954317,0.08365129204297875
115,0.08503188679425074,0.08413189749550236
116,0.08430028927149914,0.08527348935604095
117,0.08322537107933625,0.08300493872226837
118,0.08094975402017386,0.08151570030127159
119,0.07766551289746135,0.07467457823214234
120,0.07480561709720834,0.07224641984656464
121,0.07266858197468744,0.07254460649807433
122,0.0726569973521953,0.07118121094137266
123,0.07092701169333869,0.06954807092471676
124,0.0698774874799972,0.06963050700635917
125,0.06898461383202378,0.0708129630492443
126,0.06931168385010829,0.06878325421930583
127,0.06809167561532972,0.06881384964041476
128,0.06764626496141668,0.06847362651915276
129,0.06736438553169859,0.06739619406029852
130,0.06688434204502071,0.06643543001367243
131,0.0669153410134365,0.0673190953052693
132,0.06878221253875634,0.06818311354520289
133,0.06898982389915666,0.07053731040236699
134,0.06891220780632955,0.071866380058129
135,0.06885160930115256,0.06939700514007574
136,0.06884750957897813,0.06680204637272205
137,0.0679795713775116,0.06845373548596698
138,0.06861843573425314,0.06704133617873256
139,0.06912790773976907,0.06869874859336049
140,0.0687816372002772,0.0676840130407319
141,0.06884935750461502,0.06781098995748805
142,0.06957529909867081,0.06989898365623103
143,0.06878248399658074,0.06773940621395232
144,0.06989733925719055,0.07083958887216513
145,0.06947035786750125,0.06853127939407526
146,0.06870649897937867,0.06933148015928532
147,0.068374890816226,0.06911191745310574
148,0.06792512244815163,0.06741936858258289
149,0.06742787961181786,0.06935888410037959
150,0.06735163405954504,0.06617091984238885
151,0.06703937213590963,0.06487258144999078
152,0.06583980839553592,0.06651468644390543
153,0.0660645901043114,0.06711705946367184
154,0.06520730300213126,0.06499711440283668
155,0.06426908174674098,0.062224190773320365
156,0.06387121459956077,0.06256336252474841
157,0.06401106454938245,0.06570933516936313
158,0.06481875450633984,0.06207247920210849
159,0.06460899422816235,0.06515115034937764
160,0.06554513863867803,0.06619881932647942
161,0.06605785792406134,0.06764912245987717
162,0.06678121687351561,0.06807614979940602
163,0.06650744607861189,0.06581329222071707
164,0.06550545586670617,0.06374057316483714
165,0.06538375420309753,0.06557775226781098
166,0.06418250901974458,0.06413007366464377
167,0.06296552868364907,0.06444067406837829
168,0.06328073405712056,0.06418778225132679
169,0.06413305653847283,0.06249301112018049
170,0.06533079870420394,0.06696606837889296
171,0.06644706881577543,0.06867560583160162
172,0.06627639599269529,0.06823238591651043
173,0.06719629105618245,0.06851578649977294
174,0.06775860694779766,0.06613998130940037
175,0.06694898556629054,0.0666686847758933
176,0.06753102972877206,0.06943790756324754
177,0.06780193907489403,0.06776723175088345
178,0.06730974695200828,0.06747925010434078
179,0.06774922387955858,0.0675878473620012
180,0.06821194564779218,0.06713360959359672
181,0.06701884759094218,0.06563175736023105
182,0.06635129600644207,0.0668219587609066
183,0.06697372560330528,0.06682921860193586
184,0.06692652555583097,0.0694682664916378
185,0.0674073807269835,0.06674092015414701
186,0.06709652670103011,0.06582457292310441
187,0.06667542666030063,0.06577548225305169
188,0.06641455193598875,0.06831741089555535
