epoch,loss,val_loss
0,0.45896290384417626,0.2734071297163839
1,0.22245424734555083,0.20794014637406266
2,0.20077960514764992,0.1926665134969055
3,0.18889636199156062,0.1848895934358204
4,0.18257449916321977,0.18076006229599348
5,0.1778276770544662,0.175011346188698
6,0.17190545735408744,0.16954061630069503
7,0.16748587940808393,0.16584333818591102
8,0.16403790897459722,0.16237169063128915
9,0.16035955458236256,0.15870470033213202
10,0.15748746872996444,0.1568484056414632
11,0.15665308321170288,0.15663538273385688
12,0.1565083163104755,0.15705488428132405
13,0.15687340944648076,0.15701328568460438
14,0.15715530320561286,0.15776034128788238
15,0.15812929056817107,0.15892730770895777
16,0.15893296382838873,0.16007814082980815
17,0.16118100536860627,0.16330924998283763
18,0.16527654342561793,0.16706617308255717
19,0.16818214622999933,0.16865413564815235
20,0.16990019346503235,0.17016349147179038
21,0.17110138508579809,0.17188535630702972
22,0.1712779631074384,0.17289117523178682
23,0.173148353251336,0.17260721664590542
24,0.1725593104684572,0.17319369771250986
25,0.17356236298069014,0.17328975713667008
26,0.1732019092515409,0.17336655312292013
27,0.17361388383485335,0.17382839680800027
28,0.17362606933982158,0.17394307627391892
29,0.17360098258578044,0.17361921700042537
30,0.1735157365207192,0.17445425776251677
31,0.17436794661503616,0.17387379776471792
32,0.17311080920991662,0.17325900389203522
33,0.17295940550301764,0.17380819705497966
34,0.17414946718324575,0.17469312833958756
35,0.17658664317106268,0.174125604843096
36,0.1741917764516376,0.17455004148579245
37,0.17381393132831077,0.17442333659461473
38,0.174100036732108,0.17414079230181703
39,0.17399323971675548,0.17405910704111432
40,0.17415954115436516,0.17479783504754423
41,0.17406708999074622,0.1742212687455112
