epoch,loss,val_loss
0,0.15061152776439699,0.1068424628878449
1,0.09927897479870527,0.09211054768916087
2,0.0852377137167753,0.07841834065452183
3,0.07454866535967583,0.0797092778741984
4,0.066364684178651,0.05664889272464103
5,0.054620214217572474,0.054003942231541084
6,0.05129831033549625,0.048605460203131445
7,0.054802306752791886,0.050967739190797494
8,0.05623769880139189,0.057265478567806116
9,0.05558371782112274,0.062214331755792426
10,0.056140400907047076,0.05773601804190295
11,0.05213965958864283,0.05675407083324306
12,0.057486414936163445,0.06374514979422798
13,0.07292590410910922,0.07273745835533083
14,0.06985165065319704,0.06664658945286095
15,0.06216999318161838,0.05548946725553006
16,0.05236038855082697,0.051396388760470174
17,0.05031649001556144,0.050848453301986375
18,0.048630471822979165,0.04869216565857182
19,0.04712757502171061,0.045361564210200746
20,0.046894390374231494,0.05148310808798603
21,0.0492182615385067,0.048530760373340975
22,0.049779110305982054,0.05238792709506395
23,0.049987367502481436,0.048449913988032486
24,0.048755138975491434,0.04865950621788014
25,0.04695147157406254,0.045328949311279176
26,0.04414819054704585,0.044237769410990314
27,0.04279334151701961,0.04315964614159495
28,0.04201509958083967,0.06933806030977967
29,0.04074064893223685,0.04093080340357587
30,0.03945195661049238,0.038162595741656605
31,0.03835645277979229,0.03707709958469576
32,0.03761988288486938,0.03783365259948168
33,0.03798307890562321,0.03792232414082739
34,0.03838753625512314,0.03782281945235351
35,0.0386441554531729,0.03926607569489972
36,0.03851657126286476,0.03727366950512873
37,0.03846354564007142,0.038769299245271144
38,0.038249673859345065,0.03838671957625586
39,0.038425717718726535,0.03996288601453133
40,0.038581758231329595,0.038023631224421976
41,0.03828580836824281,0.03820424264071961
42,0.03867629380951778,0.037668429832573284
43,0.03800448231982718,0.039959991793276854
44,0.03758882757404344,0.03698016536122904
45,0.03698165619151769,0.03707189830909494
46,0.036624527581744816,0.03499297283137042
47,0.036868982274624276,0.03537479256468677
48,0.03639142329303576,0.036130097730713
49,0.03623998475720366,0.0349494944787463
50,0.03536462977671509,0.03485488751645905
51,0.03531439658656395,0.03494244837147002
52,0.0359064299243984,0.03563022755245195
53,0.0364580575457151,0.03565148046003521
54,0.03647426852761365,0.036082436901759045
55,0.03834756571564266,0.04157074984242432
56,0.04104359722811637,0.04090418220860053
57,0.04136401458347825,0.04027346454578398
58,0.041083855832890454,0.04236132995576113
59,0.03972088455480875,0.04113063153582195
60,0.03982535119858577,0.040298819186161516
61,0.04023467238953741,0.03871402779524968
62,0.03971907099504932,0.03833092217228501
63,0.03919880856260312,0.03950533174689868
64,0.0391499128514271,0.03781911195935748
65,0.03952484519677244,0.039974051138831575
66,0.038674522657319604,0.03965215068295798
67,0.039269735256461595,0.04008943353498085
68,0.038363075702727366,0.03756334745540521
69,0.03679268866729774,0.036018049004822146
70,0.034187473298655714,0.03440492645482332
71,0.030869632844718622,0.029973019015899584
72,0.029648987172866802,0.027122123747617122
73,0.02847361282782732,0.02768962770177091
74,0.027675803174539437,0.02794228867872456
75,0.028254508160703854,0.028140070676897676
76,0.02808705522127146,0.027461317611157
77,0.02849699859674886,0.029416869436379674
78,0.028163313477052202,0.027690827052660974
79,0.027825161469259042,0.027593413400210164
80,0.028066784220871974,0.02939260313353533
81,0.02905227638912096,0.02879545378962557
82,0.02919656738376827,0.028708939576534746
83,0.02905367307817574,0.028591992129184358
84,0.029485552320830066,0.028589456511959845
85,0.030100712814717462,0.03129181005913344
86,0.030415724784278755,0.030699140378277697
87,0.030191873620859056,0.032892968427704464
88,0.030616777263385214,0.030895964222671296
89,0.030909125433325007,0.03177631439401488
90,0.03189134146038482,0.03218160769310446
91,0.03172538342247669,0.03148884352975787
92,0.03228904503873355,0.03239281871447953
93,0.032648088769327635,0.03104594395875978
94,0.033214653357506084,0.03626609200078056
95,0.03252649552328028,0.0313563921122026
96,0.03314147700073956,0.03308258884701799
97,0.03258420746895573,0.03320704822464542
98,0.03301625741685895,0.033023805855152265
99,0.0330274918367513,0.03414483847656679
100,0.03350074726084677,0.03392366141421925
101,0.03452522828609204,0.03345813494890152
102,0.03437236399738956,0.03679954751608592
