epoch,loss,val_loss
0,0.15853131982943805,0.09624190438000725
1,0.08665813480040058,0.08177336141314202
2,0.06579898510107415,0.04708221817026011
3,0.02997319759290329,0.025776650612525518
4,0.026112634877709272,0.02585199174354325
