epoch,loss,val_loss
0,0.16787659812221328,0.12133167320075897
1,0.10018253914839167,0.09757532513955491
2,0.09937065321025994,0.10276064968240854
3,0.10198404060469733,0.1014643303032644
4,0.10117489846347333,0.10314166818722648
5,0.10231242281832188,0.10382353791403977
6,0.10292011494640348,0.10462123457851048
7,0.10329107799642473,0.10454506684027041
8,0.10392318440260266,0.10468547036775756
9,0.10404349854000085,0.10571219780333134
10,0.10538489207756414,0.10641407866645443
11,0.10553186771561869,0.10273244453633781
12,0.10049293398094787,0.10127357292358764
13,0.09960692137074795,0.09998202980176238
14,0.09959886409491181,0.09960408861607008
15,0.09972755899794286,0.10024540627929482
16,0.10005389390994224,0.09991574047490566
17,0.10008993317230905,0.10134180605223354
18,0.10026345223331337,0.10028611473451003
19,0.10009431846731667,0.10059571090347671
20,0.10028364420008602,0.10086168745722278
21,0.10039786186268766,0.10091104110866056
22,0.1004571810805445,0.10140902943021214
23,0.1004210115193749,0.10089540254580476
24,0.10023070125580787,0.10071489811178823
25,0.1003516417958563,0.10165755219622305
26,0.10046258449649735,0.10218264425398331
27,0.10076553578213822,0.10131168516607104
28,0.10043545801648134,0.10187910202576028
29,0.1004491720875676,0.10208316958246968
30,0.10042948034003103,0.10189954230845587
31,0.10097659811627664,0.10060051887427716
32,0.10032797140254678,0.10081385264809713
33,0.10062124906517238,0.09997490911076365
34,0.10018470189530405,0.09970419003018828
35,0.10019690479687172,0.09994057444789416
36,0.10236038742877311,0.10317534484092702
37,0.10233009765021425,0.10263804980827865
38,0.10194925712548095,0.10228423813053635
39,0.101960196507444,0.10176806487642881
40,0.10172334882757551,0.10223023718092135
41,0.10138610739120953,0.10166685648950519
42,0.10146975794808566,0.10185988748412295
43,0.10157854830642207,0.10207771027097574
44,0.10163197507389443,0.10163541616255972
45,0.1015502912975806,0.10195651200571301
46,0.10169921330601382,0.10230958911030896
47,0.10167639906243454,0.10187232588442086
48,0.10151377720512646,0.10261859829466269
49,0.10145435515615485,0.10198232146375463
50,0.10155587487345595,0.10182858818896473
51,0.10166337542968402,0.10175159256008542
52,0.10155464886880512,0.10217615996723393
53,0.10185959985811743,0.1025173802990187
54,0.1016920665614039,0.10186999252370331
55,0.10187009236604856,0.10203378108912975
56,0.1016364452793158,0.10233619676251626
57,0.10179135630385196,0.10285023830966303
58,0.10206087319542179,0.10254614289788251
59,0.10201613750937079,0.10230142750792741
60,0.10184812969822202,0.10260297539743177
61,0.1020390141627295,0.10243997515870909
62,0.10209326654505863,0.10258839379969599
63,0.10219347283398982,0.10268729982196391
64,0.10186371952890873,0.10219350430141214
65,0.10112387279002405,0.10058086804733939
66,0.10016450581314276,0.10055351350824007
67,0.09928567723618995,0.09967716918536407
68,0.09856267835644128,0.09960498372658841
69,0.09845927811497979,0.0988916221891413
70,0.09825755301996958,0.09880101617246326
71,0.0981982147796072,0.09886687257177922
72,0.09802513647017529,0.0985429553225366
73,0.09786257490241747,0.0985571493959935
74,0.09796390061279377,0.09921461226743511
75,0.09796527013790121,0.09787169666321333
76,0.09788220996955792,0.09859624737322377
77,0.09781708900662635,0.09851904573902523
78,0.09774718232911458,0.09805125030435345
79,0.09769029901634685,0.0978323099362916
80,0.09748258270162473,0.0982167802063047
81,0.09746491459967326,0.0980273517996849
82,0.097548787965239,0.098103357259928
83,0.09748314698036913,0.0980956874781927
84,0.09760185625913331,0.09779364012340531
85,0.0975208438688712,0.09814280426775082
86,0.09751219220227189,0.09777619481533648
87,0.09743044812449639,0.09864148534040519
88,0.09741867688014734,0.09785576641630167
89,0.10180144634344976,0.1002576101421369
90,0.09956066987568812,0.10025195312857534
91,0.09948618530774479,0.1002803951701783
92,0.09944241274770596,0.1001502356852898
93,0.099445590470954,0.0994059209018687
94,0.09921169268498889,0.09999309352583648
95,0.099294910858051,0.09949060615913644
96,0.0991389117628741,0.09993519092415296
97,0.09902802215134211,0.09984657159567632
98,0.09879793199918253,0.09932510487752913
99,0.09873151149061754,0.0989791146863984
100,0.09841790433815248,0.09906922986447199
101,0.09837400623791509,0.0985770958998397
102,0.09829861051935276,0.09863779288088137
103,0.09815456507970198,0.09865147235855495
104,0.09808950790231653,0.09818457987309442
105,0.0981640114689426,0.09856295021693351
106,0.09800318012134634,0.09889017044321796
107,0.09793082571668114,0.09881150041542941
108,0.09785276207087232,0.09870122060262038
109,0.0978378377836957,0.09842556386292216
110,0.09778014440640366,0.09870492891006424
111,0.09784477360123735,0.09817834498967913
112,0.09775649570375324,0.09827426318799592
113,0.09768283071754266,0.0983119967092937
114,0.09758463123743293,0.09875685560510397
115,0.09757777177196422,0.09817542502658048
116,0.09763470924586701,0.09831433796750906
117,0.09757846306792076,0.0980063329532378
118,0.09852823267856853,0.09842710539216401
119,0.09793556703747415,0.09857534119108105
120,0.09797538828840263,0.09791561116735674
121,0.09781783125359568,0.09832716086363359
122,0.0978195138102908,0.09836611012915691
123,0.09785097369925677,0.09888956053645571
124,0.09777000600056683,0.0984600093612637
125,0.09768667756963215,0.09832379831722993
126,0.09769865221900048,0.09797904171173086
127,0.0976531844642713,0.09800059022565667
128,0.09769864817508024,0.09820509013361882
129,0.09764554318811873,0.0985581638157697
130,0.09771374881648713,0.09814843900601697
131,0.09760407421538393,0.09791678875308386
132,0.09761884860950504,0.09824014408624163
133,0.09753021334024738,0.09805507460445895
134,0.09781951029642785,0.09885613664972942
135,0.0977986889015094,0.09796847099616195
136,0.09781107427976686,0.09859095222736403
137,0.0977944462276477,0.09842729543783388
138,0.0976779781204524,0.0983501410063271
139,0.09771192608643874,0.09818883503668875
140,0.09766815951783403,0.09805010490842757
141,0.09755004548149811,0.09815904592188118
142,0.09759540664111015,0.09798296201671308
143,0.09751485283378598,0.09841064092627452
144,0.09759128133622672,0.09824545962564006
145,0.09758956045460263,0.09773347740250492
146,0.09767173152628372,0.09743379853260074
147,0.09760461811372322,0.09790159414368722
148,0.09762753806502032,0.09787904027182
149,0.09750296392267366,0.09784331751932944
150,0.09758404668548601,0.09768601514005058
151,0.09753148669271255,0.09850677216885687
152,0.09760152403232482,0.09832070556181853
153,0.09770857127045365,0.09803309161642357
154,0.0976265130354632,0.09816455394735277
155,0.09763091304104962,0.09860939453719823
156,0.09776543397054398,0.09847390741674375
157,0.0977723933905244,0.09805983750718546
158,0.09777349989405638,0.09830136458965014
159,0.09768890598409181,0.09856372247813909
160,0.09770268641358656,0.09807043059213762
161,0.09764703475742889,0.09809647621065025
162,0.0976264693444486,0.09849992516173466
163,0.0976522022740637,0.09797807701737653
164,0.09761680126023425,0.09822640282226154
165,0.09762311240227865,0.09853047715248606
166,0.09767970456470021,0.09853845431330455
167,0.09771713251166111,0.09863106540647565
168,0.09769169853435908,0.09828975756712194
169,0.09768177878013332,0.09824473775435172
170,0.09776649622322559,0.09819797893373065
171,0.09772347873873372,0.09851233470646904
172,0.09769387175734762,0.09874803041296863
173,0.09758107426712553,0.09823755845251099
174,0.09759554198439077,0.0986008543606433
175,0.09762244971750451,0.09818968015716315
176,0.09761904215784095,0.09832059242707496
177,0.09767738963774354,0.09822724079206033
178,0.09753949606685425,0.09860062174610765
179,0.09771647283451544,0.09821955382753378
180,0.0976394083883932,0.09842449476047116
181,0.09758425398553304,0.09796976787938598
182,0.09767500504100923,0.09811398141150787
183,0.0976355411499429,0.09812256844968616
184,0.09765502930783349,0.09827484876129132
185,0.09760524341456896,0.09786212861232148
186,0.09764447349081222,0.09825628910040235
187,0.09758489916650512,0.09792194822428259
188,0.09752240732943507,0.0987770983209832
189,0.09756097123086405,0.09883426410905376
190,0.0976905337662148,0.09811717234169674
191,0.09760535790694418,0.09846159529996464
192,0.09767493834908156,0.0983871273114254
193,0.09764446858331549,0.09868667661061697
194,0.09762865082203723,0.09801482397477836
195,0.09768948846941086,0.09828619681292852
196,0.09762604264832801,0.09821089522967492
197,0.09757314306154526,0.0986456447696253
198,0.09782163688033033,0.09830468788966477
199,0.09762736989987744,0.09811541459860534
200,0.09754118856956824,0.09816895765211983
201,0.09753717226590469,0.09865676706925847
202,0.09760061183945834,0.09819337036445937
203,0.09758316692140558,0.09799999270320597
204,0.09755973567922624,0.09824594624205282
205,0.09770777208103741,0.0979435466929694
206,0.09754369052336942,0.09826590543599607
207,0.09751130038981053,0.09792819807942495
208,0.09761161888412816,0.09766058941337191
209,0.09754098965514668,0.09808708793221257
210,0.09749350577688141,0.09831624983235805
211,0.09754963110176494,0.09802834417938527
212,0.09740517224124867,0.09795579989312103
213,0.09745157890015846,0.0985290577610177
214,0.0974481498761524,0.09858631410863142
215,0.09744086516179817,0.09777511522209165
216,0.09736922784722585,0.09771661306330795
217,0.0974760646764323,0.09778540374471525
218,0.0973135810806978,0.09756675237920591
219,0.09743102099731576,0.09746635590563069
220,0.09741512105333433,0.09741070921273333
221,0.09730979972939602,0.09792121337475321
222,0.09734231519470397,0.09828968262615971
223,0.09750616714822874,0.09743441742475144
224,0.09748265667737341,0.09879611062669529
225,0.0975387547251513,0.09781862162024182
226,0.0973584681129951,0.0980351066956298
227,0.09737109996789366,0.09807104496219164
228,0.09726554180363671,0.09851490812054185
229,0.09739039906209035,0.09796714368728361
230,0.09740007927806543,0.0981687019272592
231,0.09731608375513869,0.0980997172837758
232,0.0973427833008061,0.09792314773247575
233,0.09736883656965266,0.09821666878278366
234,0.09742535050395582,0.09826831471971761
235,0.09737679677949154,0.0977531752851222
236,0.09743348959919741,0.09788976159849408
237,0.09739485077506346,0.09727783729899278
238,0.09740345222915676,0.09792167506376966
239,0.09726174475310995,0.09800503809878275
240,0.097331601033489,0.09770928552607994
241,0.09750315483263451,0.09811023687436624
242,0.09741054169780058,0.09764553695305558
243,0.09738241947240395,0.09764337994234715
244,0.09732582413559433,0.09776484088908996
245,0.09730246131249565,0.0979635072335448
246,0.09714489356338454,0.09802656561347943
247,0.0971431113261399,0.09773434749153909
248,0.09719411006195844,0.09805392839702548
249,0.09736391315333467,0.09782351167091913
250,0.09731800090089786,0.09794106701390425
251,0.0971051479736678,0.09787931243853015
252,0.09718881270510973,0.09735030189285904
253,0.09709216128412387,0.09732375591522893
254,0.09717455486670959,0.09764562264943367
255,0.09713364702810963,0.09787541307985265
256,0.09731669083749839,0.09802921196326743
257,0.09712585216636757,0.09756738517871501
258,0.09717215103902024,0.09753762734811326
259,0.09721818154783463,0.09768028599640094
260,0.09714559803930499,0.09730700731583251
261,0.09712323203361292,0.0976396633022492
262,0.09712874022819441,0.09740859591758619
263,0.0970799429811162,0.09798345620131624
264,0.09712192010607937,0.0974756854438556
265,0.09706963867925816,0.09781706184384008
266,0.09707779576071351,0.09768264870076267
267,0.09698641114979148,0.0972925735065668
268,0.09696099507532341,0.09805818648322323
269,0.09705815924038227,0.09753330894573146
270,0.09702650348631313,0.09772327135963146
271,0.09706963463533792,0.09758629102403946
272,0.09702644523956792,0.09755036561810886
273,0.09704493163682097,0.09762672534258043
274,0.0969128264881057,0.09752116259407978
275,0.09696781035545442,0.09717137959874701
276,0.09687937932501403,0.0977308885168634
277,0.09694681813915094,0.09700086638154999
278,0.0969827087353364,0.09744556508105669
279,0.09696534207518057,0.0973498654899488
280,0.09700272011933185,0.09732879199022934
281,0.09692569913790762,0.09744533296636267
282,0.09690045319396338,0.09804044569230211
283,0.09684116125916786,0.0973759654089044
284,0.0968467022517888,0.09739611808860406
285,0.09674558388314945,0.09759978219666816
286,0.09688409088517455,0.09775354433878257
287,0.09683813996833386,0.09748816124994922
288,0.09679539448065723,0.09751251830933315
289,0.09684687622373911,0.09713689463055783
290,0.0968221552390084,0.09744622987043039
291,0.09682452760273509,0.09786114341269916
292,0.09682091383291758,0.09762372416991744
293,0.0968179641236409,0.09764220209199798
294,0.0968267458389036,0.09707110462197188
295,0.09682828355893243,0.09730954581155679
296,0.09673365245429541,0.09763672988458985
297,0.09676328636735654,0.09746500185228467
298,0.09673712361487839,0.09720799913181502
299,0.0967070829275129,0.09724660592937244
300,0.09662424233986987,0.09698145273828845
301,0.09665185587702514,0.09722802656296209
302,0.09668626292622823,0.09705778582414117
303,0.09673575696041829,0.09747495708638698
304,0.09677403975281117,0.09730973571021442
305,0.09678536092491745,0.09750675607028682
306,0.09677024139798612,0.09721004514827819
307,0.0966672480142088,0.09771381543791943
308,0.09670566701345878,0.0976639487666696
309,0.0966832285507215,0.09713984886515112
310,0.09660320972605384,0.09740377388653458
311,0.09660891157021816,0.0972974421934246
312,0.0966082876570505,0.09717620757497382
313,0.09657995140166592,0.09731041312499976
314,0.09659183810321356,0.09734085692649953
315,0.09667937474237452,0.09738856787486817
316,0.0966142716108085,0.0973080808168899
317,0.09656344783558643,0.09745614622273403
318,0.09662580737273851,0.0971733350086231
319,0.09663280071042996,0.09712346910183695
320,0.09655498869294267,0.09672469452858536
321,0.09650109509984367,0.09695361798074928
322,0.09655978849275317,0.09728722465419355
323,0.09655809024278876,0.09724965110574073
324,0.09663649036777582,0.09720972769591596
325,0.09659245207036238,0.09710345370217205
326,0.09657988573411862,0.09739077691615051
327,0.09655792721741491,0.09747976366351134
328,0.09658736495567645,0.09708857099395525
329,0.09653948050299041,0.09748714136131749
330,0.0965275765954257,0.09748651504798865
331,0.0966305070751005,0.09711775926383537
332,0.0965139226113959,0.09721149120776787
333,0.09652813825366213,0.0969430855354081
334,0.09657817152287844,0.097802282079478
335,0.09660692545149824,0.09735353349251548
336,0.09660020900025165,0.09695514496165933
337,0.09660786509418563,0.09703312349676992
338,0.09656275078046808,0.09728733586013646
339,0.09650311585095861,0.09709099276195668
340,0.09656300549384216,0.09703198549261974
341,0.09651406958615846,0.09721598044425932
342,0.09654201554666034,0.09703386040447072
343,0.09645157652221424,0.09744327397165847
344,0.09651190903094366,0.09739631472042252
345,0.0965802850399753,0.09736747633380596
346,0.09652454370288827,0.09729174144077979
347,0.0965213531391512,0.09708709376198905
348,0.09644838090208795,0.09779354788792256
349,0.09649640630236823,0.09713012185873907
350,0.09641847135327894,0.09689329711583626
351,0.09647683948159314,0.09742855264172369
352,0.09642352860012977,0.09675432832201541
353,0.09644921798762277,0.09669210305459497
354,0.09651591349467575,0.09715692601927454
355,0.09642109109295739,0.09720152842899712
356,0.09640236324567399,0.09695460252763723
357,0.09634761504537101,0.0972472912416556
358,0.0964232308091782,0.09714960789671072
359,0.0963852023073047,0.09671265384933567
360,0.09635858507536584,0.09698220228316187
361,0.09638554324730218,0.09684288163611338
362,0.09635028044144503,0.09694781507223539
363,0.09634821775029127,0.09666553818883158
364,0.09631657554543943,0.0971750403153868
365,0.09635863037441941,0.09692847371783517
366,0.09644694453020462,0.09692089151423469
367,0.09634081019367055,0.09661683035042687
368,0.09632455227638988,0.09737045521941257
369,0.09630365310598621,0.09728734573347887
370,0.09632991035159924,0.09700682593455161
371,0.09633572986848253,0.09673789415828996
372,0.09622807855562245,0.09735931775987666
373,0.09634931181236613,0.09677204012212173
374,0.09626977389855541,0.0968190497750359
375,0.09630817705564362,0.09708123732925684
376,0.09642441266422554,0.09710047479304348
377,0.09635167241358547,0.09725322740206872
378,0.09636059822105199,0.09680948614627241
379,0.09640379277445811,0.09695712259390642
380,0.09637091390425258,0.09707281708529171
381,0.09638061307722048,0.09694096608338812
382,0.09639391863493801,0.09726189116299765
383,0.0962827783360851,0.0970035961519665
384,0.09630529179895143,0.09756774522346498
385,0.0962905922679783,0.09718052784735139
386,0.09634299247527865,0.09708440392009837
387,0.09626869510689513,0.09697715936327131
388,0.09638571221050884,0.09698042049474762
389,0.09636249261008178,0.09706208344487195
390,0.09638543408527839,0.0969510664891425
391,0.09642873443573785,0.09702423912926555
392,0.09633618923757288,0.09763871615527649
393,0.09646884300154177,0.09686282731669102
394,0.09647085414611274,0.0970695425639401
395,0.09629422582263093,0.09709242609018591
396,0.09641295413581207,0.09682839309124845
397,0.09646489706447275,0.0975284648393211
398,0.09645148311301673,0.09691836753155927
399,0.09642618868967517,0.09768763836105696
400,0.09645867569269322,0.09700743049006812
401,0.09638003871547614,0.09717357951938965
402,0.09644079894470654,0.09717230023059115
403,0.09636348583024563,0.09701740043127546
404,0.09635002646062205,0.09694045509234506
405,0.09641715394054576,0.09684498587530621
406,0.09634225504051486,0.09732269621568114
407,0.09638734971233409,0.09718057590271416
408,0.0963259022251117,0.09706812877069802
409,0.09633659486838286,0.09718775134695357
410,0.09642362451667694,0.09686207618408535
411,0.09629130199682608,0.09716065169180484
412,0.09636519957694123,0.09683889731023852
413,0.09633828160002363,0.09711665895362491
414,0.09638377653656723,0.09723505140197682
415,0.09637226096445994,0.09707001371466464
416,0.09635241862109525,0.09714406716395478
417,0.096332095974355,0.09681372652043484
418,0.09628735772735304,0.09681655346006508
419,0.09636773983184858,0.09683416325719506
420,0.09632331074522935,0.09684000308342401
421,0.09629960739903218,0.09760338041546218
422,0.09637239067960414,0.09704910395718411
423,0.09624143445687137,0.09689181479136588
424,0.09634162646998985,0.09671473490175715
425,0.09624771143702104,0.09715175775674355
426,0.09630819465473688,0.09722828973252282
427,0.09629440545845185,0.09682122815544433
428,0.09625802003293872,0.0974073509120433
429,0.09638252174206298,0.09715977215870403
430,0.0963165341056794,0.09686975420438688
431,0.0962155845037086,0.09687583664786467
432,0.09626381986027809,0.09717620792780321
433,0.09637719214105492,0.09674852187932714
434,0.09632732350525143,0.09661232441334434
435,0.09633134772999585,0.09704286909729078
436,0.09628154432697357,0.09698695228409372
437,0.09639410909822138,0.09737438033463547
438,0.09633547178418231,0.09680831797520947
439,0.09620742466476419,0.09696644202944982
440,0.0963005461245418,0.09662548980095674
441,0.09628992112611028,0.09696474266786131
442,0.09627464105137627,0.09654580776439281
443,0.09627726730063474,0.09690472924671685
444,0.09627018510390052,0.09709672126463294
445,0.09625785013468717,0.09738620230082742
446,0.09624714179219102,0.0967695347982405
447,0.09633028774048022,0.09686250701229122
448,0.09629908989635494,0.09686443203767643
449,0.09625611501894028,0.09709226168345163
450,0.09622159024341692,0.09676371143738303
451,0.09618144295365214,0.09679222333332452
452,0.09626748223456262,0.09736987692028308
453,0.09625010837396558,0.09751841746382386
454,0.09629965174517376,0.09649999657294463
455,0.09622227215319037,0.09685620215104712
456,0.09620100091830146,0.09690564713237224
457,0.09626415661341853,0.0970084464328912
458,0.09623059064602489,0.09718499717250431
459,0.09624840334641467,0.09686336614009237
460,0.09622724266718331,0.09709160145145754
461,0.09623624572007776,0.09687551116275336
462,0.09615508322831062,0.09656455117294707
463,0.09617434177014658,0.09670403616792494
464,0.09624724536181259,0.09676144188586049
465,0.09622515549214719,0.09681319667066093
466,0.09622619095609057,0.09713507840599521
467,0.09630165833959001,0.0967939436118153
468,0.09621005741764697,0.09642473506522913
469,0.09618281399746308,0.09634228534085033
470,0.09606244862317849,0.0968314351156742
471,0.09600840073576172,0.09691135612946378
472,0.09594090033373197,0.09684205020541926
473,0.09629551280769322,0.09685031020015643
474,0.09706140811042153,0.09702714028655778
475,0.09568835300602596,0.09544039129528739
476,0.09511855525745572,0.09560152977093431
477,0.09489007419843278,0.0954911510306451
478,0.09498535308072702,0.09558281269521345
479,0.09480653750262767,0.09444992074885515
480,0.09447474056463256,0.0947069432160096
481,0.09411419027572056,0.09444739812457288
482,0.0937809870540381,0.09390954839708114
483,0.09328143209290447,0.09359677026567256
484,0.09309136123656274,0.09319559928109163
485,0.09278086857567969,0.09288557674721083
486,0.09264893488560935,0.0924225207462307
487,0.09226695849574346,0.09217995515162303
488,0.0920630909210677,0.09166761308367458
489,0.09162944449271135,0.09252753552128785
490,0.09149259428302352,0.09161732952686022
491,0.09087571240276646,0.09133491269367928
492,0.09088127678937669,0.09131600908882145
493,0.090601774571325,0.09138065291349588
494,0.0902341031651798,0.09050553270278244
495,0.08997542348554094,0.09038773301368448
496,0.08971431108711245,0.08986248699293987
497,0.08930757884189285,0.08948554968918603
498,0.08880148044855093,0.08878474412066972
499,0.08853169512167441,0.08836379584921752
500,0.08760436944705215,0.08743613265637064
501,0.08720933179632365,0.08769787786838663
502,0.08632212549710064,0.08661258932211875
503,0.08529959261703263,0.08566615388867604
504,0.08470626183146004,0.08460475759023554
505,0.08390201794967758,0.08099726796879388
506,0.0790201580698351,0.07893995665478348
507,0.07813238831375428,0.07786814773774278
