epoch,loss,val_loss
0,0.1481996553836109,0.11276574650428008
1,0.09418373420346174,0.08580550047456513
2,0.08156600907790384,0.0803160607085608
3,0.07696453263338426,0.07378416899488775
4,0.07242655070375005,0.07065171746047538
5,0.06979795424141091,0.06935460750828037
6,0.06829431242079471,0.06920869941893015
7,0.0665073149340997,0.06497609713530107
8,0.06429380288631986,0.06372797783484775
9,0.061768242262964915,0.062408693658148294
10,0.060309705739136604,0.06092043884610132
11,0.0595576485677017,0.0609585048179506
12,0.05879583467337058,0.057354695389331
13,0.05791753742823021,0.05803585174216373
14,0.05769302046818318,0.05792875575003138
15,0.05686541782211152,0.05679820212752403
16,0.056316413372445355,0.056687703595776774
17,0.05564752036183,0.055879715924175496
18,0.05545666841842192,0.05615202054651873
19,0.05493438499961063,0.05398610193391155
20,0.05482111788756079,0.053911375186178945
21,0.054465402254193045,0.05431972250295325
22,0.05425967664407979,0.05555129276431256
23,0.05423919114170315,0.05639469918472238
24,0.054032836189801745,0.05505841248907625
25,0.05411486989028639,0.056675261020331096
26,0.05384769446427207,0.05448613230847616
27,0.05358063122875494,0.05373112262236197
28,0.053295989616883456,0.052755597934726665
29,0.05295431303034583,0.053186935505696704
30,0.052743214080564316,0.05230930313209238
31,0.05227893057594196,0.054296701776059296
32,0.052521454740604524,0.0518045921757782
33,0.051921002962868466,0.050907716687236516
34,0.051717441001956126,0.05199330224234378
35,0.05158077911745539,0.05167046883794014
36,0.05095655401404813,0.05190067665670552
37,0.05115342476099229,0.050174709300686265
38,0.05072518958033417,0.049980074811165225
39,0.050320875763202266,0.05093387079196552
40,0.05031478339783865,0.050239048348394266
41,0.04980839482195181,0.05137289616543191
42,0.0498866265554794,0.04925153004600951
43,0.0497221371485032,0.048763232236550186
44,0.04940031039760077,0.05031497897940446
45,0.04921792093798411,0.05205983563304983
46,0.049315700499559766,0.05129983341108181
47,0.04902964025187931,0.0488557050647045
48,0.048736710012030546,0.04830705474741645
49,0.0484191954826756,0.0493161645383466
50,0.04823585576135859,0.04857701695602808
51,0.047732880525142074,0.04896995704253546
52,0.04788329953150593,0.04959712070196091
53,0.04772012278163652,0.048023609125482446
54,0.047570796890391245,0.04750276263729738
55,0.04742852607660061,0.050032786522192944
56,0.047175143110594876,0.04706440122699587
57,0.04692486409160445,0.047441654401260185
58,0.04709336676781507,0.04893036035272486
59,0.04679714517591954,0.046741150807656916
60,0.046483795470494825,0.04765601764597004
61,0.046635032736426066,0.046591527968786225
62,0.04621336583515628,0.047438339777908275
63,0.04607883489710821,0.047113290516734595
64,0.0459337980924941,0.045639344735839936
65,0.04578931407510138,0.045950261145336194
66,0.04530968649877156,0.04514673584520864
67,0.04518054480806624,0.04591731782693889
68,0.045093036366166545,0.04472969272177616
69,0.04455593048478011,0.04613702234407062
70,0.04471116055020516,0.0453493761423543
71,0.04457416340446682,0.04499064557895288
72,0.04403148842848938,0.04752073944755775
73,0.04436515397031149,0.044749501407522804
74,0.04374513185793738,0.04417785974814841
75,0.0435510738689503,0.04412735584350016
76,0.04370700525973055,0.0435311723773933
77,0.04337708618667581,0.042571625677426214
78,0.043629252007134335,0.044412992277198075
79,0.04342141891900393,0.04199344069706518
80,0.04344966983516439,0.04240575413371788
81,0.043268000354155074,0.043257352361645206
82,0.04325215846633644,0.04274993638589614
83,0.043337869427377565,0.04394601375429105
84,0.04319597821501043,0.04285909006726394
85,0.04340149575083566,0.04358539451869247
86,0.04286949772783797,0.04415453983957408
87,0.04305780245710334,0.0454264386441638
88,0.04340312968519666,0.044466398038916825
89,0.04284361982159763,0.04689362070625376
90,0.04318931951023025,0.04399244787190595
91,0.043345224457702856,0.04383868390977994
92,0.043220034576386665,0.044484354226299413
93,0.04317515541156895,0.04336550988803817
94,0.04315752843074756,0.04391091797080394
95,0.043511714994740616,0.04297822664749839
96,0.04321116756358974,0.044250025821889395
97,0.0432699216689042,0.043898744915848
98,0.04331236949069894,0.04385067284659974
99,0.04379544459837232,0.04909876966591698
100,0.04371323328402688,0.04355864282094689
101,0.04343231603336468,0.04291535560526807
102,0.04341933882231716,0.044572795393576094
103,0.04385779297454275,0.04438400970391147
104,0.043767515138137064,0.04554767587355205
105,0.043308810727725876,0.0438747613792967
106,0.04356947280972791,0.04448727196363266
107,0.04375969311244768,0.04408616417961602
108,0.04350558911367572,0.04705265191131534
109,0.04360991694944368,0.04365596437169608
