epoch,loss,val_loss
0,0.13997085052404662,0.09732215862130215
1,0.08833174835101401,0.08354838500012539
2,0.07358934236563844,0.06575251333033276
3,0.059132407918917856,0.05545716027963698
4,0.05399579390716686,0.05345346244388711
5,0.05096445870783022,0.04802102335356029
6,0.04676914772243618,0.04811258491749075
7,0.04498890092332872,0.04559739294220071
8,0.044625998844655394,0.045689496669650734
9,0.044069944549616956,0.04387005292108516
10,0.04334392095450684,0.042991031208255676
11,0.04281964697402349,0.043298411152921705
12,0.04223719046270247,0.042131964899393734
13,0.0411404458065923,0.04237224520922836
14,0.04152458737925183,0.04177588658979208
15,0.04152523318855025,0.04147466654053521
16,0.04331941942242886,0.04371416337652854
17,0.041757592766119137,0.04467039524732656
18,0.0425213771216351,0.04146397122032735
19,0.042549944726182974,0.04535832827368306
20,0.044937276868797324,0.04666862648859585
21,0.049690019577551044,0.05683633548390611
22,0.05373877106155518,0.053486709075008874
23,0.05062411027513057,0.053486453435415346
24,0.05421003046557962,0.0509882854163976
25,0.05328376794294964,0.05828256160608877
26,0.053630013980692046,0.052669151667755425
27,0.052520784807743595,0.05471528665513247
28,0.05045234959581487,0.053403946205726645
29,0.04988634163479534,0.05473068483826581
30,0.048071202608368856,0.05022145027402074
31,0.04607024658128893,0.048887384066030375
32,0.0466242420534007,0.04664254194712112
33,0.045714788826749765,0.04664495722894228
34,0.04675607118818114,0.04505497172192598
35,0.04608781412720299,0.051188247465038264
36,0.04821562031499869,0.054679102366518205
37,0.052666446746443864,0.052035448583167845
38,0.05170001023166852,0.05118195016316381
39,0.052583312548750594,0.056023209131577864
40,0.05167858104268424,0.04940658365247658
41,0.04965645696917217,0.05125326243094694
42,0.04846655443715725,0.05032880926811987
43,0.04870965214763328,0.05168907205855743
44,0.04928498370029467,0.05040497421900776
45,0.050959624457273554,0.05204480954967057
46,0.04758039180585425,0.04683011704680952
47,0.048611945939435665,0.05072964652314276
48,0.054680997861637104,0.07341347133774595
