epoch,loss,val_loss
0,0.4699030227548494,0.43389445751212363
1,0.2123239480369673,0.20143138761668242
2,0.14428795451723683,0.3305693425873453
3,0.12479220489113349,0.35705050502636637
4,0.11812619788674858,0.29708240152329435
5,0.1149901350534807,0.22440915849319723
6,0.11262407951702283,0.18287668244321217
7,0.11093337170955703,0.15516368813754977
8,0.10746100638795086,0.12708681977765504
9,0.1036997441583731,0.11798668860696084
10,0.09979806957751747,0.1054295947154363
11,0.09705534002442998,0.10330551533504974
12,0.0998893502777017,0.101613770679448
13,0.09780484103546368,0.0971530019197353
14,0.0927896701444791,0.09293988266194514
15,0.0907920958606277,0.09230909357930339
16,0.09035257426068538,0.09155686898517978
17,0.0901072281669444,0.09130691569442898
18,0.08992551484211224,0.09047116801258205
19,0.08963284019644804,0.09107657452655393
20,0.08944708807027246,0.09081235077492027
21,0.08912165410171344,0.08975476142047911
22,0.08869203461671439,0.09047931224800819
23,0.08854997369248098,0.08909317134886749
24,0.08838866521993022,0.08953659490559453
25,0.08810570049942948,0.0895452032140059
26,0.08802886524303692,0.0889065014415009
27,0.08766507357358932,0.0894144082716269
28,0.08796039956995821,0.08827733716299367
29,0.08833366204199829,0.09063418059386025
30,0.08784792396261937,0.08893965161585993
31,0.08821546438876099,0.0898331189455912
32,0.08844610984165838,0.09022226444510527
33,0.08859597193443869,0.08965697428283766
34,0.0884444741752204,0.0900251846327338
35,0.08836064763425842,0.09020459802113762
36,0.08827732157284819,0.08920060802799787
37,0.08834136066239649,0.08951557098433029
38,0.08824705361850618,0.08953889892544857
39,0.08860956906803011,0.089403426635635
40,0.08828998609321324,0.0904207887460095
41,0.08822809646683415,0.08971160124669704
42,0.08819713173654135,0.08997803880262745
43,0.08842622166074167,0.08900662396074266
44,0.0883706839769844,0.09003775393547014
45,0.08840630109619907,0.0902149227931518
46,0.08819639383573231,0.0898712318419486
47,0.08856844145247317,0.09002482937287914
48,0.08867453420021403,0.08966412828412167
49,0.08817774121920893,0.08977984388669331
50,0.08801850688269758,0.089367424159549
51,0.08841086489947762,0.08889872702055199
52,0.08814047587903466,0.09047622886276985
53,0.08883391250306227,0.09006218831668529
54,0.08791782894707102,0.08965922557106314
55,0.08827901901457254,0.08959045157183049
56,0.08867458177833107,0.0899261212510656
57,0.08820476723233546,0.08968245382456816
58,0.08860519862785114,0.08953412622213364
