epoch,loss,val_loss
0,0.11660923036954386,0.07742692785956488
1,0.0518564237601799,0.0414227954984511
2,0.028449643927393294,0.017186142085965403
3,0.01855106436931115,0.023000128307007105
4,0.02178435066906954,0.02194560746990891
5,0.01995733336692186,0.016586945639907043
6,0.014308582862941838,0.01231264382609605
7,0.014759862444830312,0.015934651501435602
8,0.015640831014199507,0.015628950593915152
9,0.015556331709411434,0.01729634151982927
10,0.018829571700719694,0.012666721886351717
11,0.013762431196886287,0.014166617373499987
12,0.01625791129668792,0.017721782314231663
13,0.01645324748868553,0.015066458357772962
14,0.01683103751099343,0.02289741259912101
15,0.02075842400338295,0.019035513448104814
16,0.018031556432475622,0.01990962359133958
17,0.020916731486902488,0.018674746717325608
18,0.020124191175595368,0.017002158280059212
19,0.01835647436881737,0.02005215977548659
20,0.02179692720147155,0.03637288894795393
21,0.021549127491222297,0.014409731727331619
22,0.01933367085828484,0.02339652727704257
23,0.021752770066255336,0.02112551984960109
24,0.022144518406997674,0.02185799466518078
25,0.02167067652587577,0.020907730882915344
26,0.02093143303834682,0.017268607783959715
27,0.017881638355565062,0.015778022857960653
28,0.015589046245850295,0.01504038563902301
29,0.015373302401779749,0.011836942244503403
30,0.014194696429568967,0.013884152822349376
31,0.014314830733491457,0.01448970989654195
32,0.017589014033220416,0.016000316329094585
33,0.019798035763924738,0.021659806776488967
34,0.023355192638826457,0.024824062476982822
35,0.021693673211899547,0.018309276514255162
36,0.019077445707953188,0.02033241947005843
37,0.020972975896005865,0.018106281672087634
38,0.0194257514589994,0.019860147796982888
39,0.018377300479905687,0.016369725175454753
40,0.016853931838636108,0.013940410769376212
41,0.016024016608059,0.01752009058860737
42,0.015931496981808322,0.014239835933632943
43,0.014737726602745024,0.014222513932452465
44,0.014551774705488452,0.013046176391106097
45,0.014605194700213311,0.010981027812394883
46,0.014335732272774767,0.013640651979205077
47,0.015555853354666445,0.016133644342446008
48,0.016193113454299673,0.01525950181755901
49,0.01603962332166606,0.018772717438867548
50,0.015755735216014605,0.013360024366642465
51,0.014631695439778478,0.015084070037394738
52,0.014712741932750559,0.013593502058232263
53,0.014260383381275273,0.012941147305876982
54,0.014911459788656253,0.01139200870873849
55,0.015646077114433575,0.01440056666787699
56,0.016690387881899194,0.01746534765495874
57,0.019684449621408487,0.017680913678884223
58,0.020857490815049548,0.021898362262214182
59,0.02021218837349773,0.01854164399730002
60,0.018549762918598216,0.014290022044115492
61,0.01576265218860502,0.016173685553918085
62,0.01708259816236085,0.016894248478120485
63,0.016487445266132685,0.016259930269306066
64,0.016097436219805198,0.01584529288880521
65,0.01573029161467374,0.01462567959645294
66,0.015355990499817878,0.01421956324857243
67,0.01486813296362174,0.015424785363004965
68,0.015015701788643615,0.013268655557082502
69,0.014945889240224584,0.015792384050527755
70,0.014548848177656996,0.014285713365858667
71,0.014020214857850715,0.012262022024610072
72,0.014288942625509391,0.0134456673498841
73,0.01368774046717907,0.012788277661138242
74,0.014089615308314108,0.01338499932731454
75,0.01605961451583879,0.012587434214913972
