epoch,loss,val_loss
0,0.35324546989438244,0.1519381465558008
1,0.12622867510307303,0.10602646722894128
2,0.10137811511325492,0.0967519730933778
3,0.09032339801351197,0.08258066629116262
4,0.07612631438349227,0.06942748563592258
5,0.06298081190873375,0.05720728907102699
6,0.05396584909650877,0.05094923963959103
7,0.04827673886242726,0.044533166064543155
8,0.039258564835051905,0.03254919089467566
9,0.0294688197092904,0.027320076484121353
10,0.02664357882136221,0.025933500430686436
11,0.025456883250366602,0.025312457197411507
12,0.025035844283630315,0.024876349774058622
13,0.024466062315088733,0.024045310091206144
14,0.02398533117118552,0.023866246763347903
15,0.023515088857264162,0.023739355410066255
16,0.02292169359109228,0.02331217447566193
17,0.02234985692064174,0.02311690821065375
18,0.02168238884713456,0.02195794920875885
19,0.02104931509717285,0.020983735115296793
20,0.020550114216001107,0.020371224765196767
21,0.019926561441591637,0.020327900605093437
22,0.019291186581453006,0.01833833067467178
23,0.018342008166987483,0.01773080844447222
24,0.01793686043265297,0.017082614458595845
25,0.017345385232252822,0.01706399509965745
26,0.016896199863747036,0.015732105124578642
27,0.016231677893868344,0.01535028890636353
28,0.015704169439925874,0.014821301106384684
29,0.015315374894122824,0.014510967932635463
30,0.014887726784059651,0.0144748759417457
31,0.014701286908328604,0.013845292577899189
32,0.014377681041856686,0.013779638029199882
33,0.014092550328518864,0.013700578628381335
34,0.013692629410608637,0.013147514711518598
35,0.01359614243490802,0.012917047680717412
36,0.013229727896051206,0.01309163450049682
37,0.01313662234010746,0.0129809369350461
38,0.012776263583872058,0.012605030018615704
39,0.012651851206489975,0.012222031014310521
40,0.012496211274480038,0.012221930886181457
41,0.012140358327324983,0.012338396037920451
42,0.012133701845371218,0.01189746035358114
43,0.011896812094165217,0.011550395604485867
44,0.011824653193121962,0.01154532473661241
45,0.011673866023642836,0.01108310557524194
46,0.011765720698538066,0.011182457065875949
47,0.011546189985495267,0.010966632328625384
48,0.01153279165383145,0.011113719404006598
49,0.01139499444635309,0.010707681436266898
50,0.011343862087032598,0.010990304005274131
51,0.011314909726238137,0.010731043198711668
52,0.011080417150125994,0.010779330507676144
53,0.011044483769049733,0.011085652295327824
54,0.010928477181883766,0.01058385382834686
55,0.010917987269957104,0.010468212871027496
56,0.011101115378644392,0.01060985299756347
57,0.010887008067518711,0.011040087929033257
58,0.010956671812591717,0.010647591035390109
59,0.010882868602263441,0.01142641146186156
60,0.01087176686471956,0.010786217989344135
61,0.010798537837500998,0.010761413238308145
62,0.010820771911270243,0.010850098957318966
63,0.01097202097387124,0.010482687735741252
64,0.010791492466483,0.010786583969658066
65,0.01090849691992991,0.010814385177810817
66,0.010728489306328104,0.01031026033539588
67,0.010813669634131407,0.010637121920497289
68,0.01083711820473377,0.011042198933289362
69,0.01101173797743119,0.011255967811456997
70,0.010890081694485356,0.010761186214268135
71,0.010860322837048979,0.01108689037879018
72,0.010808001142263627,0.010676939178270266
73,0.010980595802490094,0.011259204863637856
74,0.010856871547220683,0.011114672187410616
75,0.010923144536568605,0.010881703656653224
76,0.010687772926536677,0.01239008498389428
77,0.010893199997346363,0.010746767634143698
78,0.010910767131299378,0.012200482765972518
79,0.010976270491777776,0.011761201897580162
80,0.011010418948400512,0.011523289245682477
81,0.011038576971942349,0.011440859474574079
82,0.011099050264042004,0.011434318744770076
83,0.011199974277473575,0.011227777572190095
84,0.011121740786909006,0.011035972163050956
85,0.011199390038466149,0.011011874788521584
86,0.011204708948823883,0.011140953387614923
87,0.011197816425810655,0.011091727931853097
88,0.011340886380171495,0.0113312496874702
89,0.011287730311701974,0.011598227121878569
90,0.011406359654978765,0.01171743531582238
91,0.011410093015123956,0.011391401998638286
92,0.011480236624339946,0.011405785147339371
93,0.01163813331983894,0.011467572173408843
94,0.011574402736355249,0.011731478109176286
95,0.011641018412890938,0.011476059630437659
96,0.011397624263812819,0.011640351904678518
