epoch,loss,val_loss
0,0.16509982087700772,0.09826691915599399
1,0.08482427178598423,0.07510701942109836
2,0.056952111219032875,0.04079238227594294
3,0.040459688078406615,0.03887629799468365
4,0.03934658981478519,0.03694473156130681
5,0.03604159704882273,0.03365652622756472
6,0.035064756420614435,0.03361283563189179
7,0.035199374279124944,0.03403751454194794
8,0.03588612345929483,0.03506610159862907
9,0.03710509624948605,0.037632746964504894
10,0.037035200990539946,0.04080240269674498
11,0.03799676303591707,0.03530160127017991
12,0.038061956172998096,0.03879006022635933
13,0.03759857795411925,0.03695835717810405
14,0.03786520169620558,0.04013056997224489
15,0.038733396479647034,0.035719246345542036
16,0.03833178972168792,0.03721275101779668
17,0.038091403666696104,0.03501340975042583
18,0.037936275945507365,0.03981037528181321
19,0.03812425101933767,0.04047078485494066
20,0.03817758509974114,0.039210376897922346
21,0.037690261581378115,0.037151850430675634
22,0.037948727857866446,0.035863784060246755
23,0.03545019411735779,0.035709954710014244
24,0.03660356308326876,0.0367670933294809
25,0.03692541096946128,0.038417549440732786
26,0.03629602879571686,0.03416155474797044
27,0.035280984643992666,0.036798392117446864
28,0.03857746679666374,0.03181119494569424
29,0.029714480311953003,0.02655590364846218
30,0.026574933748069903,0.025501947949957263
31,0.025992978242137355,0.026148677210381582
32,0.02584370483251975,0.027642749277867477
33,0.025735215942035143,0.025045118543842032
34,0.02612842084746138,0.026335747328887518
35,0.02695052866205323,0.02498746488681438
36,0.02726634149607137,0.025110453433388788
37,0.02726145481302155,0.02879800591044475
38,0.03059641835685495,0.03590213005808083
39,0.03763064469019477,0.0371560935245646
40,0.030839725928328975,0.027271837240118817
41,0.025112640953881087,0.02308360779924052
42,0.02376671444154162,0.02192068709341343
43,0.023516320851262953,0.02316744482966512
44,0.024743964343214873,0.025665374271330536
45,0.024337016374355168,0.024937629882002217
46,0.024698758462100005,0.024305664721785237
47,0.025129161216020823,0.024560456555968866
48,0.025271229893356253,0.028867162014309968
49,0.024855645709960676,0.02608297968719922
50,0.025164009858783393,0.02394504865724079
51,0.024582077061190165,0.0264922085776043
52,0.024775361114417572,0.025541709071494223
53,0.025368909117022005,0.025187686848694543
54,0.025314282380241,0.02527238870070455
55,0.025606948962743334,0.023726749039110276
56,0.025441022415598518,0.028361119241722004
57,0.02473248895347047,0.024415521368666624
58,0.02547630937926346,0.024567706247272694
59,0.0250198566864768,0.025217709188138582
60,0.02503479091073874,0.025709748600375115
61,0.02500936372144569,0.02524197297707353
62,0.026098272503375246,0.026285464526245982
63,0.025513060315014074,0.023362532087499548
64,0.0247127374568634,0.022586763975369996
65,0.025075366667700376,0.025817642832246933
66,0.024554359463812542,0.024659719068230657
67,0.027013350337696113,0.023136609411065562
68,0.02451474380662306,0.023576565957154075
69,0.024555293514097718,0.023602693918695485
70,0.02450410148529388,0.0215594338572157
71,0.02354583004526764,0.022430670543940594
72,0.02364001576405325,0.02470822872236759
73,0.02425281619645661,0.025088465439586444
74,0.024170708021433424,0.02390374833954632
75,0.02464251706509186,0.02355788680765228
76,0.02466103428011413,0.024032532191161294
77,0.024057926769427165,0.02356903899340481
78,0.024715640645423573,0.023264018283611503
79,0.024397855599244817,0.02093899535381286
80,0.0244986092869779,0.025175366585966915
81,0.024265850472042886,0.024470208120115553
82,0.023600979440128633,0.022691651477515933
83,0.023996648525329328,0.023083539293004288
84,0.024106890716546064,0.02708195417607828
85,0.024491946445219664,0.027531038658089212
86,0.02413020475948457,0.024615006982962637
87,0.02393735797448958,0.024608632825291476
88,0.024640356699714986,0.02397004729717523
89,0.024443043057890915,0.023335052968753354
90,0.026150314552749663,0.023438294596776026
91,0.03626062266743012,0.06658788667528669
92,0.07277678417490065,0.07540587010045831
93,0.07536498547124443,0.0740075519671568
94,0.07234216951649729,0.06932014074020718
95,0.0636933736151738,0.06740495060359575
96,0.06887269945000764,0.06763420773239331
97,0.06697738999657207,0.0658025860715872
98,0.06176808340062531,0.0581099451905456
99,0.05841267743794847,0.05937664936448799
