epoch,loss,val_loss
0,0.14673823960345808,0.10094172502820098
1,0.09080011818072588,0.07934914910379318
2,0.0740106787732084,0.07059024047362306
3,0.0663823897508885,0.06317166702111782
4,0.06158142047022268,0.060561334013045066
5,0.055543921733026407,0.05244460928047277
6,0.047616450099660146,0.04538809266103095
7,0.043096534130599,0.040745126684773314
8,0.03970058516060992,0.03997756163247853
9,0.035822521530383594,0.03135275407955227
10,0.031079597309601012,0.0301397607089171
11,0.028263366257818005,0.026544938038890534
12,0.026425171170017418,0.027410213207060084
13,0.025404304533982448,0.02520398687991742
14,0.024992311181281684,0.02424172465061003
15,0.024227092988032706,0.023632919973007975
16,0.02408685215966974,0.023843112077502254
17,0.0235424448388348,0.023460357685903443
18,0.02329990219959109,0.022521079933210536
19,0.022937888291468627,0.025259408394158498
20,0.023235494732487497,0.023421858488078557
21,0.024158701711564326,0.024345386469032507
22,0.024656486086291278,0.026707288796624613
23,0.025240738016309786,0.025275107136476953
24,0.028326374217331838,0.02942707132321695
25,0.028256110785950382,0.02773720503806033
26,0.027279483690429075,0.02583212591413682
27,0.02605116352450838,0.02593701687107052
28,0.025194872913660286,0.027828035092579632
29,0.024829603013970393,0.024236609409515466
30,0.024175387629263884,0.024497819876249795
31,0.023948037818961626,0.02260127358855981
32,0.023901049859172626,0.023278256475443244
33,0.023695575758266887,0.023649199079977968
34,0.02376572350762207,0.024210720932391936
35,0.023881017461978942,0.024218748192043407
36,0.023321775819281403,0.0245690575823623
37,0.023849939573094617,0.02434227335977573
38,0.02361680052989869,0.02323983111157837
39,0.023632632538700085,0.023223013341450372
40,0.02432408262130549,0.030639053558329476
41,0.02441385004231684,0.022746769861327728
42,0.023306714869636615,0.02502236196855061
43,0.024021520625522954,0.023567326915257075
44,0.024002122967470466,0.02632972243482331
45,0.02397124730884362,0.024970769729309412
46,0.024605026306341784,0.0254649746054585
47,0.02407978108371619,0.029055884259369964
48,0.024099225583348535,0.024839340714295267
