epoch,loss,val_loss
0,0.14059146499033454,0.10395382722838244
1,0.09142274486956646,0.08291205099909534
2,0.07518909485946647,0.06693855075616957
3,0.06163918747485494,0.05821175204667879
4,0.053863311920472855,0.050572245924982766
5,0.047166782234021896,0.04422551092133808
6,0.041884651817053815,0.041297923341311146
7,0.03849438189578761,0.04010234458552822
8,0.03731568083822203,0.03560738895608857
9,0.0371531255760615,0.03739330103443002
10,0.03740729811600596,0.03798493202819821
11,0.03613508741954248,0.03641866998719059
12,0.035717040964429805,0.03575194183363629
13,0.03491676809619085,0.034337928205516836
14,0.033870483062964835,0.03334869423494531
15,0.03368428436448153,0.0353014095265186
16,0.03405295807621081,0.033005374774113354
17,0.033551686476889275,0.03794912322650016
18,0.03340452130315163,0.03392176961507163
19,0.03214864271263377,0.03108440374260167
20,0.0319611349349304,0.033925425437673774
21,0.03167443736184606,0.031057436000070614
22,0.031727359895940596,0.03313781067305601
23,0.03190431761280667,0.031467714066886955
24,0.031460562335263245,0.036761470968175704
25,0.03159978018729664,0.03661862815470797
26,0.032668750993699,0.035440126841192465
27,0.03155605926764288,0.030694511599233042
28,0.0314339910485714,0.03165597442593411
29,0.0314213105400713,0.031430939819602016
30,0.03147344286445614,0.031022206304599283
31,0.03126165502482086,0.031412985283166946
32,0.031263255751688035,0.030850636704450717
33,0.031486346226313605,0.030641170590527903
34,0.03131410312339318,0.031158620778297758
35,0.03203253585586159,0.030767417488577052
36,0.03210767055991933,0.032459524443230484
37,0.031633261747533184,0.031911975579908165
38,0.03244318290919566,0.030778277793277315
39,0.03226989024965692,0.03457774889038695
40,0.03282896498088642,0.03196064048485673
41,0.03245213775963282,0.03421151453089601
42,0.0325270596069755,0.032579256055528194
43,0.03266687452983704,0.0359711718893277
44,0.03288140833723269,0.03144922612886214
45,0.03295463963979773,0.03202963873432345
46,0.032872350940065416,0.03406206667776078
47,0.03303279789636652,0.0366172806845703
48,0.03300648913097134,0.03282395328359051
49,0.03295273685323106,0.030886988969256582
50,0.03318050008067648,0.031794145291681446
51,0.033557476621749495,0.03488245042483451
52,0.033430808647383126,0.03470211060189928
53,0.03385986661691841,0.035502689481134386
54,0.03395195450815413,0.03370258543014103
55,0.03424177463981602,0.03592889851669251
56,0.03409991157855347,0.03349316917836149
57,0.034085306473713606,0.03715777610617542
58,0.03506287389980565,0.03755642857105598
59,0.03464016861034383,0.033912610342018985
60,0.03460724522277034,0.036279750289579214
61,0.03531547917051615,0.03601450227853719
62,0.035251813341411566,0.037794682825750124
63,0.0356764743085221,0.0365059960930481
