epoch,loss,val_loss
0,0.08298281602543607,0.049876174180170825
1,0.03842392853266901,0.03841039892094946
2,0.03820095872052377,0.03854839010686035
3,0.038328706423084224,0.0387615785561355
4,0.03853195380988262,0.038718375682407415
5,0.03848208390551505,0.03868362164358596
6,0.038411240223690954,0.038593626348118006
7,0.03838990081390507,0.03858182408744741
8,0.03833548617150953,0.03859603115090631
9,0.03829034654904517,0.03836976850277435
10,0.0383018122094093,0.038887005346373675
11,0.03829893448667751,0.038373164044606375
12,0.038265374427338204,0.03848948776604345
13,0.038257618265734206,0.038469220631430254
14,0.0383101933889633,0.038474596031274774
15,0.0383178300047807,0.03876127157692563
16,0.03824908089497202,0.03854334923632049
17,0.03816939558652189,0.038668694214244105
18,0.03818596089534241,0.038528882117020206
19,0.03812886269794379,0.038418127337048726
20,0.038037242592691325,0.03831759716759729
21,0.03798714216104705,0.03843198085369891
22,0.03794133593495801,0.038270141197267064
23,0.0378747288343146,0.03810029416017958
24,0.03784682974814892,0.038216240251261885
25,0.03769392359385387,0.03786256012301701
26,0.03757853945382207,0.037586392365813535
27,0.037475398312107645,0.0378442059264422
28,0.03742175834546749,0.037863890569136666
29,0.03733624069453429,0.03761570431709572
30,0.037211340569930494,0.03754431632918548
31,0.03709334575479551,0.03726241452988434
32,0.03684710040628958,0.03718607883897464
33,0.03651910042353004,0.036234614313613175
34,0.034816181026607586,0.03229245234754204
35,0.03289198789069597,0.0330744747957472
36,0.03505910001695156,0.037575659566303835
37,0.0380252204853282,0.038743289127275524
38,0.03852575390542345,0.03899345931544865
39,0.03866440744744502,0.03885732761098347
40,0.03882166239128505,0.03918232781123061
41,0.038994789790573546,0.03936254122862688
42,0.039203652616241855,0.039674220899239054
43,0.038970331881019615,0.03807198828131831
44,0.0356550720899249,0.03172893085367772
45,0.029959142158964842,0.029177488645960613
46,0.028107247622810205,0.02762275952007842
47,0.02763519902601183,0.027349566979055905
48,0.0302936819588228,0.03415076236145743
49,0.03434097470877935,0.03519333570595792
50,0.03504643082130346,0.03511988480693728
51,0.035374216056413214,0.035361952476950266
52,0.03532968435159547,0.03610500382831366
53,0.03532585798860263,0.035670450176299794
54,0.035448004006982135,0.035987500692317126
55,0.0354224638648623,0.03552072513745635
56,0.03539716811935536,0.03541749008970178
57,0.03540025749872867,0.035130456331073534
58,0.035495243141715,0.03544988343822928
59,0.03553045817839204,0.036084207211457185
60,0.035625296306136034,0.03580917619703883
61,0.035582530918977055,0.03545515970477647
62,0.03553027021650264,0.03649911081569818
63,0.03550879170985626,0.03566424028202597
64,0.035426355532104735,0.03609089740355747
65,0.03553947744121273,0.03556532531847329
66,0.03554004130008028,0.036020255535135326
67,0.03568541289096494,0.0355739216360645
68,0.03561981507449699,0.036193670532956496
69,0.03552404158025813,0.035848453543909725
70,0.035770088489309584,0.03674426792452631
71,0.03564571687053862,0.0361385381771009
72,0.03585234753561201,0.03607765251760325
73,0.03602670125669236,0.036052251371372
74,0.03583199266406844,0.03618000434518989
75,0.03580331882770113,0.03624118838956155
76,0.03574509905438295,0.03571679881511472
77,0.03582021282117763,0.037794234511907776
