epoch,loss,val_loss
0,0.1586146851738008,0.08767014952419118
1,0.07632572838454414,0.06942800373050671
2,0.0655262529713025,0.06136885135719037
3,0.049648018975218804,0.03160753170794263
4,0.024577703667904356,0.017839391896282135
5,0.016395197727149435,0.016798603004425317
6,0.015731459642074806,0.01626895313337151
7,0.015575008411005103,0.01492375949649074
8,0.01574889144195403,0.016766037822839964
9,0.015719783751087055,0.01579393232395636
10,0.0158408709722076,0.015163998449575554
11,0.01550838563942628,0.01689402019309546
12,0.015729988629235137,0.016176970147813694
13,0.015886995524501533,0.016193360437204637
14,0.01563565644973831,0.01610233154421306
15,0.015609699173374094,0.014825715823062264
16,0.015551248776743548,0.01746225775231996
17,0.015528697990994754,0.01623713287091928
18,0.015424072365019676,0.015595849604149597
19,0.015577322951585745,0.01692575855355566
20,0.015709353880368645,0.014313317748593738
21,0.015278405434326183,0.014380575944952543
22,0.015471864070335357,0.015362812420051919
23,0.015609220667875451,0.015615962317100216
24,0.015055127350314201,0.014275308360287592
25,0.015163011795697475,0.01569019741692596
26,0.015386124010488902,0.016035411361349127
27,0.015440292121897594,0.01540888710669297
28,0.0149725445264803,0.01466532030099475
29,0.015235063145689065,0.014851351866929336
30,0.01494449411602996,0.015380154009511504
31,0.015403854786503992,0.015068741946024694
32,0.01586668951873132,0.016203449190033404
33,0.0159988605579604,0.01590626197995731
34,0.016037212938240036,0.016607622640250043
35,0.016278349424821797,0.017435375358483034
36,0.016041828300818788,0.015736760102629945
37,0.015822467929069443,0.01552762124384588
38,0.016360778430049464,0.016865442579004974
39,0.016256243946755844,0.01579979092585424
40,0.01643081081191377,0.015268251125648582
41,0.016132884458612672,0.015967262289159723
42,0.016339930891097306,0.01561650101995153
43,0.016145806670260374,0.01618093614126155
44,0.016292329429820788,0.01548230570491812
45,0.01840786257986542,0.014675972148211527
46,0.014215345778461579,0.015764335083650997
47,0.014173731444586666,0.013974719347863002
48,0.014114770691002088,0.014491093867614971
49,0.01457564210590663,0.015002515823407584
50,0.014823972283275151,0.015063939760891161
51,0.015120554878060027,0.01507878286768436
52,0.015141827818884743,0.015051300044229582
53,0.015251132559856112,0.014671933832089545
54,0.015153861625475896,0.016010994322439208
55,0.015729616526410067,0.014667522878883716
56,0.015151327638942703,0.015269194632598097
57,0.01537983224903651,0.016357005404010003
58,0.015897803931689852,0.015927173832362338
59,0.015779025899953576,0.015333487307498467
60,0.015777939237463626,0.01579246662951118
61,0.01581487395494676,0.016853103924310386
62,0.015930173902971138,0.015414866558537063
63,0.016088364671894926,0.015277122771448288
64,0.01618693275027257,0.01592583925519859
65,0.015954813989568696,0.017797577724848662
66,0.01619166628882694,0.01581345008423033
67,0.0164205740703989,0.018199480596662227
68,0.01623338796898163,0.01586362935496816
69,0.016396752366577266,0.01691189408302307
70,0.01672066900273152,0.017326642708425082
71,0.016250164894987162,0.016207044032323686
72,0.016380159465743484,0.016804923933372785
73,0.016503580118180344,0.016226107470732366
74,0.01656528250861475,0.01661274650802317
75,0.01663048118189108,0.01718040444427291
76,0.016922388611425407,0.01701068679045742
77,0.016508402582034648,0.016989757705276984
