epoch,loss,val_loss
0,0.11712684925440119,0.0802138877742951
1,0.07347627413376487,0.06800264532618289
2,0.06578183476980641,0.06660170522654442
3,0.0636340355103036,0.0626140428411509
4,0.0610107482030547,0.05895007303500608
5,0.05833179730591442,0.0570645227663707
6,0.0571926667345323,0.05789045256510342
7,0.05574943865988133,0.05369921874522504
8,0.055414236642771675,0.05628369192592065
9,0.06049094024858029,0.061542756802563416
10,0.061089089448503456,0.06277103590372518
11,0.06028542823815565,0.059143058317636256
12,0.05999303635188954,0.06195124798258083
13,0.05971254413570765,0.0600921574865351
14,0.05885112305714501,0.0590043530697275
15,0.058626418227521924,0.058302814874506975
16,0.05878159167955248,0.058493546400610254
17,0.05855646375254047,0.06446787370361488
18,0.05815450773893786,0.058013200039527694
19,0.058421165833501314,0.05879205890770211
20,0.057318299984951006,0.059553329748319846
21,0.058277450661233764,0.05858236191692838
22,0.057302061812304475,0.05815139498441071
23,0.057185552926431835,0.05708045690028613
24,0.05834224338469793,0.05606787795261219
25,0.05795508881600545,0.06125071827960278
26,0.05926308332593273,0.05855826142037489
27,0.05846314414364876,0.05972426788677074
28,0.05731501020223117,0.05641013033094139
29,0.05682588587675116,0.054173491848154905
30,0.056545020937979175,0.05505759780307689
31,0.05616121848436187,0.05900905098128055
32,0.05597095019210109,0.05770815622823015
33,0.055560043307957795,0.056065793360135834
34,0.056603217293485275,0.057267451213397845
35,0.05636895612197862,0.058812539903968925
36,0.056817925757736705,0.05818917674924693
37,0.05618935327032964,0.05860154018476429
38,0.05716024332647796,0.05726243788119179
39,0.058447187422491095,0.059169096365018256
40,0.0578865385119268,0.05893269391479037
41,0.05755116715193462,0.055827802251480464
42,0.05757589527308274,0.05799517677927826
43,0.05714814419851458,0.05808105294158258
44,0.05661920406412688,0.05927136865898014
45,0.057818242304807276,0.05908813041759083
46,0.05752797194009872,0.05587641790144634
47,0.05648591957962532,0.0578114931966342
48,0.05633995453600022,0.05411312654144009
49,0.05568523211427015,0.05550228542080053
50,0.05639854278400552,0.059811591043562616
51,0.057307930380332286,0.0580803388207798
52,0.05819634656063754,0.058450748475052376
53,0.05417106803253496,0.05166492090158417
54,0.05041128216530207,0.04972862414633466
55,0.04928066082697787,0.05117499963883913
56,0.048834532703296074,0.04726929958812722
57,0.04890121603243166,0.04854219690282795
58,0.04905652024632068,0.05057227940849178
59,0.049863931585213454,0.04943014296167181
60,0.04862739978809294,0.048825296225656935
61,0.04937289378417434,0.050168177167331504
62,0.05046201314774158,0.051365586416685594
63,0.051500050075572554,0.051885232135312424
64,0.05092630615617207,0.05661492686257084
65,0.05467503747458367,0.0667040287189909
66,0.06277651328006856,0.061735977839910805
67,0.06086951488856789,0.058577429529664646
68,0.05982885928563982,0.05912573186014709
69,0.05940016345541588,0.05841650179607151
70,0.05806692152304186,0.05640320624823916
71,0.0573879023217302,0.05636070322924556
72,0.057102502123426664,0.06294175225362217
73,0.05617727686187251,0.05568962804414479
74,0.055041463987575735,0.054077461147247194
75,0.055052418441926355,0.055340094105197205
76,0.054708928664882694,0.05591407315930515
77,0.053229660668271145,0.05808843048649598
78,0.05346092290664129,0.05636098801548686
79,0.05404935550572965,0.05306906335132274
80,0.05411504415257705,0.054030881855039965
81,0.05406953812800914,0.050740565745940616
82,0.05387334471834983,0.057403630870317225
83,0.05407017683811325,0.0516182319529431
84,0.05414075283058208,0.053480429420484366
85,0.05365551827098731,0.052904411797553605
86,0.053647010450919186,0.052335958807319755
87,0.05454896822077431,0.050692714697842346
88,0.05387120221188362,0.054340273112458516
89,0.053817311682992225,0.05277313091795841
90,0.0536720658809566,0.05466760778189552
91,0.055275474549185556,0.054342266619087864
92,0.055767930594446374,0.05653995853255561
93,0.05616055287831693,0.05321990600077769
94,0.055755219417069554,0.05974441795259267
95,0.056592636839222374,0.058014386695910365
96,0.057968298769850046,0.0572716390542045
97,0.05763137684040647,0.06237521121350441
98,0.056802443902400565,0.05910396616503114
99,0.056080451202418787,0.055983289511728776
100,0.05915543260417587,0.056894178145756945
101,0.05771912934242202,0.05739650666278558
102,0.056269655641403606,0.06382225744055779
103,0.056494595235783894,0.05571137764730036
104,0.053833511855295425,0.05042239905415131
105,0.05341147276298176,0.05343442813632238
106,0.05468939978340499,0.054004034816912995
107,0.05542803098627036,0.0602180511112183
108,0.05371713470354927,0.05050602571740335
109,0.055598860523171374,0.052428003135942154
110,0.05586219271518391,0.055461974807183574
111,0.054266940625153665,0.055776455872578234
112,0.05546065201487044,0.053844984209175266
113,0.051573391741723845,0.053420108861356806
114,0.05319487167109879,0.04999669777095647
115,0.05077452710319719,0.04773375702450006
116,0.050080546260559015,0.05122888985589064
117,0.051019293849440595,0.04971883638858231
118,0.05287793263358226,0.06091539395036619
119,0.053771375278703314,0.054665060968218396
120,0.05018231066779124,0.05086531508317028
121,0.051355741600945984,0.04661835896493698
122,0.04895170771335955,0.04799810726410212
123,0.0483185223815181,0.05093998977092654
124,0.047660092341540145,0.0493710590519111
125,0.04969409848157641,0.04376956063374912
126,0.04802299453783855,0.045754085135394036
127,0.04788715878038479,0.0476306263142763
128,0.056022146600577756,0.054731123840352544
129,0.05001450606065688,0.04440316210935317
130,0.048216589008101364,0.04724467312292311
131,0.047395679192970414,0.04760162164210897
132,0.04708388211469142,0.04682498577255947
133,0.04761036867045051,0.050834375053597135
134,0.04988707749427651,0.04823986934564108
135,0.05064501913099123,0.04753404965693309
136,0.05027935438775283,0.05134337089350116
137,0.05018271251673178,0.04950291456415038
138,0.049931894779372085,0.04908111383043224
139,0.04930704993178709,0.05197338313275938
140,0.049654089011174504,0.05342097733325627
141,0.04951802236463526,0.048973885833064494
142,0.049108231474431774,0.04681305122438997
143,0.050411604831723286,0.05202683227779175
144,0.04943124568320626,0.045691344366594853
145,0.04952492506401859,0.049671240462594454
146,0.04909587409838641,0.051532608372377615
147,0.049067012018722884,0.04949544528359584
148,0.04919027589070949,0.04950127365463064
149,0.048583986828748364,0.04748378016919062
150,0.048317936427003855,0.0485079239115954
151,0.04878076298279966,0.04764798578189505
152,0.04839654055258019,0.04749308163395714
153,0.04770970222004931,0.04711594724558711
154,0.04771167520421753,0.0449606120474666
155,0.048453912668996194,0.052889186089186566
156,0.05669297992015819,0.05897629572094757
157,0.05089809497644147,0.04997102185589832
158,0.047959147031596906,0.05254398502156597
159,0.047399841385970205,0.04558298660805353
160,0.04716685517794556,0.04586925414032887
161,0.047874723538029774,0.04658562152248814
162,0.04736713551991373,0.05534213231236989
163,0.04844733415324863,0.04808011952414227
164,0.04836772724861007,0.044971085285096066
165,0.04901781220206444,0.05375385695764091
166,0.04982716116092378,0.04984442232545662
167,0.05074659201333658,0.06019637645490544
168,0.0651680251641525,0.06741662852130918
169,0.070802272922046,0.06726564891818666
170,0.06272886145851023,0.059389637246575054
171,0.05853059840538233,0.06089506547342348
172,0.06343969587626741,0.06785096864685734
173,0.061868247890965546,0.055462736448224546
174,0.05388325704432887,0.05249268620406537
175,0.052254510767978254,0.048766095523487984
176,0.05058240616391841,0.05021965347859647
177,0.04943850147370383,0.04698384757247043
178,0.04849189576312459,0.04908279203107814
179,0.049457191261086914,0.04808047239175441
180,0.04993065012891373,0.0518788673518771
181,0.05465041070009212,0.06777381731436868
182,0.06084569223630104,0.05470621085416264
183,0.05313858527579992,0.05072950966944352
184,0.048085887354316945,0.04578142240937526
185,0.04671702650840953,0.0446798315870075
186,0.045683335320805186,0.05321722529716819
187,0.04376092551947593,0.0545962776668258
188,0.046535034751821816,0.04364027058222017
189,0.043531613208526235,0.038949430882695535
190,0.04283416668380455,0.04486170172068013
191,0.043206142138788026,0.04171451547086803
192,0.042328259055253316,0.03929710847596861
193,0.04267638364507497,0.04112309732142874
194,0.04329212201233629,0.04201428523550329
195,0.043047990460100646,0.04262316804717353
196,0.042351108191789485,0.03845650888832423
197,0.04227453760198242,0.04501412478999632
198,0.04296653609958103,0.04271177167033199
199,0.042240176760821604,0.04011595423826573
200,0.04197190505944544,0.04321724570987727
201,0.04216695728999891,0.042211090932705315
202,0.041691422457252145,0.04032835641900855
203,0.041976686460609966,0.04192711816455261
204,0.04212476829101118,0.043557468775274624
205,0.0421533417217225,0.04143589432479927
206,0.04161776301728712,0.0452935379130829
207,0.04273895740949755,0.043157065426894035
208,0.04174574072078931,0.042876271647125506
209,0.04182551244867863,0.042716517012445776
210,0.04321654209142013,0.042704692182455276
211,0.04206846378740671,0.041321822445789656
212,0.04276744232212992,0.0450816118961822
213,0.04195375267943318,0.04488758384099417
214,0.044030492345867256,0.04120773688435037
215,0.043206880489985146,0.04130053392154971
216,0.04417911288719312,0.04332099608406601
217,0.04499058664398942,0.044438534949177724
218,0.04399043535344678,0.041348004294669616
219,0.041358183250486326,0.04015942396862166
220,0.04140491043772105,0.040568419230106595
221,0.04289769619066033,0.04674070337882828
222,0.04341159042099016,0.0341499199562992
223,0.04292434836320168,0.041170248608880376
224,0.041781888213112864,0.04420532195901626
225,0.04188473673491217,0.03945199277578326
226,0.04250744799841389,0.03663092302989094
227,0.044616273442040576,0.04455219148919163
228,0.041735651343763114,0.04106434871572722
229,0.047949583595730275,0.04123978081123276
230,0.041028001490119786,0.036309283885343296
231,0.04103539956303285,0.03866625285980122
232,0.03986289383892676,0.04013834754776889
233,0.04222636027998632,0.03808434579106843
234,0.04107970659874922,0.04133677786332279
235,0.04356108853246549,0.049568424796672346
236,0.044899715192550475,0.04486899711515081
237,0.04140621089010978,0.03972936635829608
238,0.04141195049266711,0.046332577888831064
239,0.04083912692171969,0.043555607588486873
240,0.040908000553302244,0.0415380242388716
241,0.041062657555325524,0.041169248062649766
242,0.04266800374971877,0.041623276517959495
243,0.04151958304358353,0.046303707250668104
244,0.04264595692487453,0.0418720911341501
245,0.04086551728913729,0.04070397069047028
246,0.041147646010309145,0.043475959927796286
247,0.04173758708545082,0.04354881479360028
248,0.04212884764692528,0.045955190189541466
249,0.0425494367466699,0.04437228829115512
250,0.04182897370791049,0.04224105365721372
251,0.04319742027533164,0.041781266079517265
252,0.04329929633332576,0.04225267254068989
253,0.043921055873747256,0.044042332446307016
254,0.04298003277347552,0.042535359141341135
255,0.045370618661613966,0.04392561081711618
256,0.044112566670181035,0.04501289244073766
257,0.04422455717050891,0.04840342032163747
258,0.04296039607149544,0.04345419027658081
259,0.042511392665429894,0.041461397181452496
260,0.04186984287317303,0.039472255966057905
261,0.0411019373973973,0.04104270754733374
262,0.04268065954206421,0.045292990385086496
263,0.04156773257628381,0.04380183353514397
264,0.043648380118397646,0.04160246723746821
265,0.04290085282477496,0.04031414719299952
266,0.04635318141686712,0.04528026270438294
267,0.04337088343166976,0.048635192424200044
268,0.042215082873340894,0.042058876563442815
269,0.04202736303475287,0.047550692630971426
270,0.04204176274909199,0.041931724349285264
271,0.041124452002269093,0.04768010012470274
272,0.04093748686401893,0.043816377518326635
273,0.0407433140558376,0.038998310465215694
274,0.03993507078011259,0.04136943784207929
275,0.041389595376227876,0.04104100119972332
276,0.041155010283880716,0.04234034195983372
277,0.04057578292550991,0.04358088467549459
278,0.03989536267482668,0.03800007670635582
279,0.040120306814150464,0.03852357697138752
280,0.039706483025470085,0.04087479448720707
281,0.040250070520388564,0.04150066857285733
282,0.03976885009881594,0.04080004219315658
283,0.040821236544113744,0.040028635693247994
284,0.041098483966932976,0.03858408179713359
285,0.0403435128777445,0.04168105448707174
286,0.04028391011794813,0.04180190634003002
287,0.040506891999319256,0.03992710038196316
288,0.04090390596345222,0.050883392996692055
289,0.04083071260986258,0.03985923720669257
290,0.040545567523965015,0.03745873729627059
291,0.03991703129262566,0.040125760515150634
292,0.0402727439808998,0.045979186917501545
293,0.03951468742002162,0.03955189037212445
294,0.04094253167760172,0.03892594449157402
295,0.04066037110236885,0.04431953896116392
296,0.03939642845619497,0.038501983730456164
297,0.039266047306168235,0.038264266715841495
298,0.040052188360850685,0.04147429732516138
299,0.04012961689677599,0.04372919440833997
300,0.04054327525770207,0.04186014440307583
301,0.03988213161398157,0.03809453559937963
302,0.03965973387063622,0.036951517470139826
303,0.04051867910071934,0.043454321176284116
304,0.04122281680888624,0.045355531550949735
305,0.03956714332949439,0.040043633854591476
306,0.0404356148408102,0.04370133332090766
307,0.039949062749368255,0.03905903779840554
308,0.03982502236801515,0.04006014113485719
309,0.03997906780675899,0.042782199266936334
310,0.03993109191621212,0.038333110077616826
311,0.04012022718197579,0.04000821955143324
312,0.03957486065621261,0.04163961076481237
313,0.04032277371913052,0.03868854875605033
314,0.039718407757884024,0.04251005451158924
315,0.03933928877064626,0.035948077397569486
316,0.039801900231128305,0.0398235110361673
317,0.03948021181922355,0.03668423258532618
318,0.03943444527075183,0.038196712641167474
319,0.03972601218314337,0.038202580385021834
320,0.039540475554508174,0.03901400475894361
321,0.03968823854428091,0.03912037472669168
322,0.04057566155504575,0.043499660853887505
323,0.03993054324512382,0.040956494690234393
324,0.039715437438907764,0.03901785503464274
325,0.039242168832614985,0.03982114329957642
326,0.03951173035247768,0.03892656703403877
327,0.04082875461619106,0.03970403672029112
328,0.039076486611359124,0.04149350967631626
329,0.039385489081676536,0.03882091556805838
330,0.04002199642178562,0.04203376784808963
331,0.04043672084853017,0.043817086380501385
332,0.03935141363244453,0.03870848568351888
333,0.03987251026116663,0.03976785853628625
334,0.03925930580599226,0.04081425659840702
335,0.03935016802981865,0.03791156147872028
336,0.03974320007701048,0.04092358645042897
337,0.039632678314817135,0.04097744112580003
338,0.039823761144332843,0.037970611521270015
339,0.04036753965194801,0.039548985955570756
340,0.040185478732561605,0.03829804761004476
341,0.038672563971297966,0.041267076264640525
342,0.03944558059970895,0.044022589663209745
343,0.03961997333881285,0.04146403594099826
344,0.039310368702566025,0.03667704201499684
345,0.038941429618993204,0.03890220695208308
346,0.03937836086897136,0.038883245741947015
347,0.03873701802760863,0.039825374444310085
348,0.03911884176692993,0.03831215572985214
349,0.039517672866475666,0.03890542016050763
350,0.039208607314873654,0.04161433165932652
351,0.03997492137849688,0.043138219993311584
352,0.040428199918477604,0.0374200302878161
353,0.04001080902065519,0.04700294716523309
354,0.03925163057564998,0.03953760048784698
355,0.03957460419632953,0.0370981852349773
356,0.04014140571639549,0.04262077021570589
357,0.03979407502062839,0.037247074620934954
358,0.03911388217122387,0.03955400257056025
359,0.03916318646872596,0.044997591387124725
360,0.039960660782607675,0.038118519169743736
361,0.039598492503487806,0.04017371866608005
362,0.040154352418625715,0.0402520797549855
363,0.0395447312594413,0.03846392471375622
364,0.03913561319582444,0.03923923027390745
365,0.039750286101770824,0.03740823203910969
366,0.03920919881488898,0.037787697374256184
367,0.03951570883074658,0.03858776411575272
368,0.040063149748380475,0.03854593327496827
369,0.039511360420133,0.041277968838528654
370,0.03911518694968413,0.039802887755568894
371,0.03937808221591701,0.03725195729600791
372,0.0399933204659336,0.042880931460455164
373,0.03949343984489508,0.038701033779811746
374,0.03902749118985509,0.038471318385912945
375,0.0391289346235738,0.03937174502580817
376,0.03954994933401271,0.03979639561689549
377,0.039453818233494614,0.03890442698988137
378,0.03993562936818571,0.04302302642263055
379,0.0398268288241135,0.04078157438257828
380,0.038939039217684865,0.04085566667103353
381,0.03978045505257867,0.04275151291287312
382,0.03978967263573985,0.04102810283192237
383,0.039496914259523605,0.03784723280713656
384,0.03938744805133838,0.043328795933415314
385,0.04004810645366363,0.03852414922978385
386,0.03914311162600343,0.038442847726906294
387,0.039310041910333694,0.0402073274971513
388,0.040091385275012346,0.03784391122128471
389,0.039425866230190704,0.040013387915402675
390,0.03953977537711414,0.03996409281894223
391,0.0393398302345932,0.03844430676757725
392,0.03978806992636906,0.038728888623634
393,0.03919506191888707,0.03714899457667696
394,0.03942935850075204,0.03584626125908312
395,0.0394820634113382,0.037326919003121475
396,0.03994205546863883,0.04038723101861475
397,0.039456505624712895,0.04045000372141388
398,0.03952304665505481,0.04369741631782045
399,0.04023084033512883,0.04015056792008613
400,0.03962610243074447,0.03919177143683844
401,0.0402889703054258,0.03752678462643038
402,0.039050747801979285,0.04191777946452457
403,0.03975987351156301,0.038981768845829705
404,0.039816360480690316,0.037717778110713494
405,0.039518016622030284,0.03868099416134954
406,0.03975751142290761,0.03947612248661016
407,0.039875731807199125,0.040521748225780196
408,0.04050472817665858,0.04338742717777121
409,0.03964982300603704,0.04013039596855123
410,0.04042425270614435,0.04223464822195229
411,0.040182555252931816,0.03932170875829181
412,0.04018739840949325,0.040234895650923676
413,0.0397813219300134,0.04070770038525561
414,0.039627451087823874,0.038979037503852274
415,0.040506260549213344,0.0391864764556324
416,0.041313310828265386,0.038430067259985906
417,0.04000668281348323,0.03727316081629744
418,0.03905192489395563,0.038941958705999764
419,0.04025294242067922,0.043750015229292526
420,0.0406744253652678,0.03720943741617987
421,0.04062664094377312,0.040656275001972705
422,0.04128154412174015,0.044842193301564234
423,0.040820098936194475,0.03744151082621989
424,0.03931682103117712,0.044631411522132916
425,0.03997785431652261,0.0435884190795336
426,0.04170625251260021,0.03949352269279223
427,0.040343043996656926,0.04020219161406736
428,0.03962022234885979,0.04150794361642288
429,0.03973451423362719,0.03916966339430662
430,0.04001286745273905,0.03816660684140159
431,0.039957619233460404,0.03905811622568304
432,0.04015178931095331,0.03939048462968552
433,0.04006254595580051,0.038463403584748715
434,0.04012531403907769,0.03897220636082147
435,0.040486681989753706,0.041587885658844026
436,0.04021557387363591,0.040890380721054116
437,0.03938777776707491,0.03749470275274721
438,0.04021919560547975,0.04113582961243631
439,0.0409387651545038,0.041980601950080354
440,0.0415743662738245,0.03903457996800789
441,0.03992390642605192,0.04357206313661355
442,0.042644178185859125,0.040954775514335455
443,0.04011029147913011,0.03936748229255334
444,0.04106740454594485,0.04502598170393927
445,0.04096926827070048,0.041024252125477355
446,0.04049618370819101,0.038702424972861325
447,0.04140268265233218,0.03926737824544581
448,0.040343009828062035,0.0405946899081956
449,0.044883743363271035,0.05121382474370048
450,0.050340458161854965,0.038531149191386414
451,0.03810466298063715,0.03946039921235831
452,0.03738782288496205,0.03606454633770256
453,0.038198272725172656,0.03725318702991873
454,0.036681360686473326,0.0377088081291579
455,0.037045056914551844,0.03770123112685067
456,0.03873778056043634,0.04115830667922604
457,0.039099804689284326,0.043324271293434934
458,0.04586346689715898,0.04030083296871976
459,0.038048678991212836,0.03727721824548145
460,0.0373916139678775,0.03587301904901615
461,0.037997118358929854,0.0401149025303036
462,0.03664597046288322,0.03841712402992815
463,0.03987881925469227,0.03980234582432867
464,0.038686081222880135,0.04055149489227203
465,0.03785228707509742,0.035886387726631615
466,0.03719194463307528,0.0376804351450871
467,0.03686963751849582,0.034928492860664226
468,0.03917739730846467,0.03828596676998987
469,0.03801984998280648,0.038093017358347574
470,0.03745123628395901,0.037089535215282965
471,0.03719431151681357,0.03851010885762952
472,0.03723383558724972,0.03721061189994863
473,0.03607500433627007,0.03768884827218944
474,0.03685366176589906,0.03808493174953591
475,0.03864775943554205,0.03942731163672509
476,0.03660904026354293,0.03723739067293945
477,0.03750264238890746,0.03506305195602876
478,0.03776491906785732,0.03900626124615686
479,0.03665575330673481,0.038994816536908554
480,0.03651643719607525,0.035382920415997034
481,0.03777826621571629,0.03770936237267368
482,0.03952166073837226,0.03643975325146338
483,0.03714682137240752,0.03698568218391338
484,0.036663998737276125,0.038833975434691394
485,0.03661879547592476,0.0378827326890631
486,0.03646707901065584,0.034008125157845986
487,0.03718169275328791,0.03363197149551564
488,0.03550748194796409,0.033744339149771665
489,0.03743733144361529,0.03775356560886706
490,0.03628427419457123,0.035193396705748906
491,0.03655411612888654,0.03955935396036485
492,0.03750946292717704,0.03672184854093131
493,0.036969173613259736,0.03587545084325272
494,0.03659792916013969,0.03921767969886995
495,0.03625320013594642,0.03481886660696346
496,0.036805975002993783,0.038090202810379496
497,0.03690546359435069,0.0350319226702415
498,0.03583147810574034,0.036495785286977896
499,0.037581719765566186,0.03757829811268184
500,0.03592880013332569,0.037643775251277246
501,0.036585835393050686,0.03450087631075704
502,0.03671692177164945,0.04007012777518549
503,0.036374551535909364,0.03501928360557923
504,0.0377165945001143,0.040406310694158405
505,0.03730772277541298,0.03577949849399131
506,0.03776381987941375,0.04350139463104267
507,0.03695644753621065,0.033041128781407296
508,0.0395580087680456,0.04505992165657132
509,0.04756141693028305,0.04944844966741086
510,0.04000661304543654,0.033657721010784326
511,0.03878757301167094,0.03619291428726493
512,0.03749106527059722,0.034876612274545145
513,0.037999731194463184,0.0373707437445281
514,0.036224619241998636,0.03519196540481854
515,0.037679719134903165,0.036921709171704356
516,0.03664681489998512,0.0411086301330327
517,0.038247143304039485,0.03870995329647386
518,0.03803778139965164,0.03662676910039893
519,0.038626467551497054,0.03660357738503247
520,0.03668881246193255,0.0348336254235507
521,0.03673818244857134,0.04014769887173844
522,0.03867744234763532,0.03620207088028434
523,0.03754502830343495,0.03645271766304546
524,0.03695895882110468,0.03660655798480185
525,0.03808410327023954,0.03691384680980806
526,0.03657366420335168,0.040886501907337905
527,0.038329676005819574,0.03563856214708292
528,0.03720943657584566,0.038948387178080045
529,0.037082284581002524,0.03700232642519728
530,0.036520189324246465,0.03443287737261807
531,0.03637284089287789,0.037198199000394803
532,0.037385922516409535,0.03853587430461524
533,0.038156008465493996,0.03814677214771862
534,0.03849687985554755,0.03565336400885561
535,0.03806306692443306,0.036595289579988845
536,0.0378317086332791,0.036623623189769965
537,0.03833261218821283,0.04221656542909409
538,0.04100227172893705,0.041381051341967026
539,0.03910295070810832,0.03875648529778199
540,0.03848671496917995,0.04016344723804033
541,0.03874158992437269,0.03522327994661672
542,0.035892289293428165,0.03294509525639435
543,0.037501365802497216,0.03485853217348115
544,0.03595586573789946,0.0342618668953217
545,0.03565107685157197,0.03669762149917722
546,0.0372923242916866,0.03533053659226072
547,0.03650320429417441,0.0349501515029332
548,0.034463289271977594,0.031732707811429825
549,0.03519981508206525,0.035860773774294655
550,0.03629485519080282,0.03434606831176787
551,0.03550626246703805,0.03255181986141741
552,0.0366472970645169,0.03260242965163541
553,0.03593047530644184,0.03483128020629557
554,0.037126036924417974,0.035044800279913406
555,0.03781241444881252,0.03597025712033191
556,0.03393097055761767,0.03566464807635324
557,0.03669967311475393,0.03626393977973107
558,0.03528643659443306,0.03498876062916458
559,0.03619112703743741,0.03679425613962014
560,0.036343681796503775,0.03585849393044482
561,0.03572395169433001,0.03554519790282801
562,0.03630568026799521,0.04038308486166015
563,0.03618611802058897,0.034727444542952665
564,0.03628384099482632,0.03240052451862532
565,0.03481384213465891,0.03275925716372014
566,0.03604081126866485,0.035597465114981144
567,0.03628179717058544,0.03321887781489243
568,0.035591946536605114,0.03285294481433322
569,0.035815555220402834,0.03563391906521691
570,0.03643246324841591,0.03645632041569714
571,0.03510462024586378,0.03673907109604591
572,0.034216208329839674,0.03500439442882363
573,0.04121090231506492,0.05903398313786726
574,0.03755400959047959,0.03765183596797552
575,0.034102704049907714,0.032424900623445635
576,0.03464395553245843,0.03546096415250859
577,0.03413115087435019,0.037866845757839426
578,0.03526276762304689,0.035207695174071386
579,0.03496640761845189,0.036833988013070876
580,0.035912559314115015,0.03378238256553213
581,0.04138055349961459,0.0619451161312276
582,0.05781310815498126,0.0409986445373005
583,0.04851195261367767,0.07728464375731507
584,0.05335137002664409,0.04438940050916918
585,0.053802721397422676,0.05359761775915982
586,0.045790473486093594,0.04494624483915841
587,0.04640111422983648,0.06081390600201645
588,0.05081276934025147,0.04447918844827537
589,0.053501384806254215,0.045681549299393664
590,0.0458560630174385,0.037756751368635266
591,0.048214180284826685,0.049567150256369374
592,0.0500461846414349,0.04368177758443045
593,0.04368386861550317,0.048131075015125445
594,0.0442160386130583,0.045478584334524765
595,0.04598553758561254,0.045906509830665666
596,0.04221582472500064,0.04277916057380806
597,0.0434964402391911,0.04538193767289054
598,0.04331529481957356,0.043430911215358865
599,0.04376255872649707,0.03973595237604915
600,0.042722896440512984,0.042052538498012965
601,0.04178007387539013,0.04072502781890609
602,0.04375565596085658,0.04682740352418635
603,0.04177422172648253,0.041989255617148495
604,0.03914392594661978,0.04115318179412818
605,0.04031082941628665,0.037776267880775274
606,0.03956075051991488,0.04670042346430841
607,0.03986206279693843,0.0372778680969409
608,0.041231230485716835,0.04784608697599563
609,0.040198348172985725,0.036914094096165806
610,0.03783461864930477,0.03483718130428817
611,0.03526691440641761,0.038984211432235204
612,0.03865461303464634,0.0405973291484714
613,0.03778696233268193,0.03584781995347474
614,0.037650230639933537,0.03914024186009672
615,0.03804745191155816,0.03721741932402376
616,0.03777159867937759,0.035938334899007
617,0.03843399676770496,0.03619481097898007
618,0.03822174758392034,0.03876603959861852
619,0.03746122569381762,0.03366801838648536
620,0.03793640647434907,0.03617457657664332
621,0.03766349893209221,0.03815455050240752
622,0.037989584798310445,0.03775711723065978
623,0.03846160262498519,0.03325331464539199
624,0.03928127500275485,0.04173851083749471
625,0.04030418227673125,0.038093383532038054
626,0.038568153963249314,0.03578855268122083
627,0.04533639342578457,0.05119561623332062
628,0.05198594949079408,0.057177344697285755
629,0.05372982193305671,0.053017435467492526
630,0.05271566208067844,0.046245152361532225
631,0.04828629908646992,0.053765177861996874
632,0.04863635204780064,0.04482886168720596
633,0.04277601552684959,0.03891840787500073
634,0.0411435208863301,0.03890338039500514
635,0.04067332890006802,0.04057426854891625
636,0.03968831276868006,0.03761995591858333
637,0.04031480812831677,0.0492456133911811
638,0.037560921555443064,0.039006967854633895
639,0.036214699536162936,0.03480668603380129
640,0.035914122085306616,0.0336915385698416
641,0.03783052089102239,0.06058874789216712
642,0.045522732279009576,0.03428131145819869
643,0.03659809926311842,0.04000513950523045
644,0.03757322629575702,0.03333181479171024
645,0.03580234672496025,0.0390117169367392
646,0.03634549160119441,0.03569769934878259
647,0.03595042863799681,0.03265143781253552
648,0.035476426526957705,0.037087476094148246
649,0.03463990472370296,0.033064858316081476
650,0.03476573350272781,0.03768606706806874
651,0.03589611123431382,0.034354803967565274
652,0.03390508168395594,0.03390751155159468
653,0.03628526740729047,0.03391569556893329
654,0.03554695234116581,0.034559419951986026
655,0.035586827714517294,0.03278912462429353
656,0.035359361824645795,0.035880271971649134
657,0.03528433213000008,0.031194475475748693
658,0.03466298476570278,0.03294943029027147
659,0.03539952150896656,0.03893734863132309
660,0.0348876580003378,0.036646832177605136
661,0.03451401063596173,0.0374841942880435
662,0.035775596640712254,0.040794556300378544
663,0.034746985868375886,0.03556232704783201
664,0.03471762446208681,0.034662648422412734
665,0.03404513885491162,0.03822615509521989
666,0.03476568114170306,0.031119014809074228
667,0.03519959497949679,0.03075575249323999
668,0.0341044844207849,0.04467572817092301
669,0.033754806086379326,0.03178562839304545
670,0.034911279849481766,0.030860017626395637
671,0.03412108686041656,0.03352000977735211
672,0.03449826518730294,0.033932450122325646
673,0.033489311226367426,0.03529885956971967
674,0.0342594037661783,0.034646764841598135
675,0.033982950682602195,0.03408806705619514
676,0.03304225833138092,0.03150887626216651
677,0.03468145839616859,0.03277821001326981
678,0.034579242364489296,0.03628243999180826
679,0.034089145752386175,0.04058495382230726
680,0.03418641864991398,0.03349254440278074
681,0.0345556772165864,0.03156101545752647
682,0.03341093129864771,0.039516685008649854
683,0.03440694036416346,0.039197797993611144
684,0.035186992285938426,0.03652108420971443
685,0.03398489022328199,0.03718320800442816
686,0.03376566397650041,0.03464933769408417
687,0.03507787954407654,0.0420119437067854
688,0.03462292387080993,0.03437300977733018
689,0.03388108012246357,0.031461443857899216
690,0.03429823623617276,0.03372363161204505
691,0.03422232303354475,0.03629538108871834
692,0.03467163645686935,0.03379429418273158
693,0.03529969268485153,0.033469191009227274
694,0.03483485443730482,0.035096089034425806
695,0.03340449940850981,0.03953596440326913
696,0.03377460396821074,0.037296287736016745
697,0.034477797972647356,0.03192049379136352
698,0.034963055142312405,0.036869775193677984
699,0.03459099311453047,0.034576816788647435
700,0.034487255909245645,0.03275124946845829
701,0.034954620034640116,0.034787846908514296
702,0.03473743721381199,0.0333585079682913
703,0.03429873209360311,0.03072710087686048
704,0.034407147188498965,0.036202954191599857
705,0.03468044046431685,0.0318813880136635
706,0.033679357872789,0.03332980709545896
707,0.03304351945530525,0.031044503032937706
708,0.03433184863643633,0.03458097045204728
709,0.03499923179597615,0.03772684267700754
710,0.0344680161501983,0.03163847203889087
711,0.03421168781587665,0.03438452513478314
712,0.03443047939930007,0.03057800204549705
713,0.03466371803817679,0.03436548421607774
714,0.033602324639745565,0.0341058996298013
715,0.0339347525253344,0.03416970241506126
716,0.03388426543029545,0.036245920291815864
717,0.03389485999212253,0.037363722254452315
718,0.03496944137754367,0.032694492539083665
719,0.03441657426936044,0.03599789878169711
720,0.034565524929177034,0.031736814545580694
721,0.0341072546922677,0.032511395844024474
722,0.034961521274132504,0.032934472729299794
723,0.03460896024696356,0.03986173821870464
724,0.03548910220985194,0.04104422493569476
725,0.03554480468004132,0.038175586965332
726,0.03479184498928553,0.03551603165391212
727,0.03486495185792327,0.032505519010402974
728,0.03445029553311835,0.03345448549339972
729,0.03493413003571004,0.034535688861922285
730,0.034719252815212515,0.03372736130536026
731,0.03420875327055641,0.032586245937971214
732,0.03538692802664259,0.035538527929321835
733,0.03448782178262869,0.03467589028726531
734,0.03548752476828252,0.03525398594592628
735,0.035042715719718634,0.0336779015831173
736,0.03438927819781142,0.03279432272884022
737,0.03477161186341521,0.03388834625758942
738,0.03484498681299549,0.03516621177614723
739,0.03508109031922573,0.03620578372011574
740,0.03542450308981392,0.03528840856916244
741,0.036217516739305546,0.03948581965541689
742,0.03610037227751588,0.03324777105618812
743,0.03531270599265179,0.03832340034955396
744,0.03628201904274124,0.034954842454926555
745,0.03550916528783375,0.03543035496811323
746,0.03524006006540917,0.031098461346061285
747,0.035362320043873206,0.035414722068169126
748,0.03522079318038208,0.03567522782288439
749,0.03543205225064481,0.03425858556289276
750,0.035811392701328465,0.035145896340660815
751,0.03533338291420163,0.03379341041567811
752,0.03612605952021244,0.03595947410878979
753,0.03499124215530167,0.03821214068836835
754,0.035254581063110337,0.03484990524058983
755,0.03552221098347462,0.038616763795384194
756,0.035181547408636146,0.03788887967973736
757,0.035364482321029754,0.03419048837941043
758,0.03513441175940059,0.03876650417201521
759,0.035470916512909886,0.03657778681365401
760,0.03500718426563852,0.03452224418926681
761,0.03466373552187837,0.03149001950129055
762,0.035399757526654134,0.03718937290560428
763,0.035754324379209564,0.04015702470231451
764,0.03526436688332297,0.03299194104210918
765,0.035897484591169704,0.03979738284381667
766,0.03558021942473692,0.0346001746866561
767,0.03542807123599221,0.03485082387600767
768,0.035345770771519174,0.0325143379750996
769,0.03534506562334909,0.0328491175592816
770,0.03568011861321309,0.033240468491930235
771,0.03609631937235403,0.03405321508075604
772,0.03500363899009238,0.03402959745621342
773,0.03480080543956954,0.034028475213246076
774,0.03495219259557845,0.036260576120444706
775,0.03491854484004678,0.03689675547341333
776,0.035524177215368054,0.033377412128855415
777,0.034690860096070406,0.03269522994515599
778,0.03482262322010635,0.03260391468260122
779,0.03496375049484505,0.03756003836853446
780,0.03499296572294643,0.04115002418426472
781,0.03558732779156104,0.037147101482351466
782,0.03456126175802961,0.03435096256405515
783,0.035690826950498,0.036095650059530464
784,0.0358176096651456,0.039526449413507025
785,0.03556580189317703,0.034407153921150374
786,0.036369875361539905,0.03336025579393663
787,0.03570617838791735,0.039948480499242364
788,0.03587490130144415,0.03349800504326538
789,0.03533169982893814,0.033293922969096744
790,0.03550838956834196,0.04055860951901564
791,0.03591187658915512,0.034677775848683354
792,0.035906127511823684,0.03528525626791116
793,0.03483991128512376,0.03553811030428571
794,0.03571908106859163,0.039281569975527515
795,0.03592152644818326,0.033986711132192385
796,0.03491202810277446,0.03465143922090107
797,0.03559459960884709,0.0374317412215396
798,0.035177829892759464,0.03423339234196067
799,0.03568145927923213,0.03811426388559938
800,0.0361762016603677,0.04113544248068013
801,0.03612922761904941,0.0358701899747681
802,0.0346555144762059,0.03758455913781461
803,0.0357207436245575,0.03632400334675244
804,0.035195596031487274,0.03176453063924574
805,0.03608505194225042,0.03731351644947431
806,0.03501126024690416,0.036723508262137966
807,0.03538519927902783,0.03541925990837902
808,0.03537424963390489,0.03568483380587579
809,0.03513801682719605,0.03629079100917716
810,0.03560141473338544,0.035561598205222984
811,0.03548810887801871,0.03634364604685329
812,0.035963251962692,0.03901582546443947
813,0.03596835616725883,0.034730111900790527
814,0.036147854327381275,0.03652176289468557
815,0.036284030033952946,0.03825454224833091
816,0.035295239890174426,0.034377958196279285
817,0.034768921771287015,0.039522287073444455
818,0.03411121323978682,0.038454043559124365
819,0.034985922660371906,0.039371815778391515
820,0.035126163590726234,0.03450184416881488
821,0.03538277096373381,0.034981260827397775
822,0.03460536780822977,0.03485397694319275
823,0.03531568083125982,0.0337592477350839
824,0.03495564217940509,0.03316568800828169
825,0.03535266962947605,0.037702484628231205
826,0.03524224173804696,0.03146378306529375
827,0.03630552734423289,0.035470385424904494
828,0.036043746068591266,0.0355141598102067
829,0.03500045531263335,0.033101983268428434
830,0.03550909849168133,0.039206605147343976
831,0.03619396980616638,0.03477849849979757
832,0.03673929706525555,0.037706257879804604
833,0.03556003044772563,0.040264029217547286
834,0.036240155105855015,0.03507943707352891
835,0.03550594760035034,0.03660405974838098
836,0.03652092400226566,0.042272686805420255
837,0.03620543301724892,0.03736788766119032
838,0.035701070170697694,0.03136308836267751
839,0.03589542042300236,0.035643802351526324
840,0.0352226916096098,0.03321971525544714
841,0.03547148043952352,0.03835163850428414
842,0.03506411711196247,0.03562107703691876
843,0.03587206557979711,0.035577933248882226
844,0.03525382798495624,0.03516707227263238
845,0.0355950359502237,0.03434802712350731
846,0.03640730496344092,0.035341503814556696
847,0.035971782398041635,0.03442658720965826
848,0.03605232888357721,0.036347346380352974
849,0.03631809448672951,0.035410688457909116
850,0.03593770172789419,0.047124680732953894
851,0.036210075821831736,0.04008112215505356
852,0.035878691094206105,0.03708823676343828
853,0.035776972548096635,0.03533545253326456
854,0.03596178019087282,0.03591076097206375
855,0.03515687191577481,0.03498407846115288
856,0.03547088998398907,0.031954883561773194
857,0.03528790583954655,0.0327208938110905
858,0.03584869603643553,0.0323864001716063
859,0.035453795173244894,0.03894963684685134
860,0.03593537405499523,0.034505976787411796
861,0.03547948116450001,0.033996179183884784
862,0.0357374538638466,0.03223801606526597
863,0.03527095553641625,0.03473213328829222
864,0.036369115825918175,0.03617778196695666
865,0.03563793029243068,0.03633122697425528
866,0.036290392355560114,0.03594287553097944
867,0.03536716085910011,0.03490479845015572
868,0.03629372063964653,0.03568076443488709
869,0.03588840271235346,0.04015243762035302
870,0.03582595930405729,0.035354120652437586
871,0.0352894716384671,0.03331714079971848
872,0.03616611993418251,0.033678020658625706
873,0.03798546828255117,0.03552364571359606
874,0.03659509464749973,0.03632175756269961
875,0.03638828973576939,0.03946909806952057
876,0.03627337028103457,0.04154829656956651
877,0.03641852219369438,0.037360661255156045
878,0.03644516719333964,0.03427063384414566
879,0.03523900408482404,0.037239950842679066
880,0.03536456467198144,0.03395163150976141
881,0.03598278790092964,0.0429059539384252
882,0.03611432550419911,0.03559320551749751
883,0.03640605695694566,0.03597050877148322
884,0.036034620982661046,0.03937948987934659
885,0.037161413529555765,0.0344271894556124
886,0.03639808102778132,0.03671288489266324
887,0.03622714997671968,0.03679866528531041
888,0.036140838249338614,0.03429168744281746
889,0.035128754542040216,0.036571224651578006
890,0.03531956227033211,0.03352261749526225
891,0.03652629609644818,0.0394941633530461
892,0.03815943096875311,0.0337438688428974
893,0.03686296085058023,0.03728225258573737
894,0.03751132939067438,0.04427310300589596
895,0.03680587793774099,0.03614252228392751
896,0.03828004825053265,0.036276284108363276
897,0.03746308157701406,0.040619863276594066
898,0.03897577643596964,0.03921827772557265
899,0.03735927766937908,0.04436678310890036
900,0.036823256106542454,0.035326043418781344
901,0.037711349365820324,0.033740740303235345
902,0.037108381091208335,0.040930160774828035
903,0.03745313305303538,0.04173127030946414
904,0.037025265562400926,0.03986017324836026
905,0.03782779111308779,0.03531458137972955
906,0.03729296261839253,0.036176191287110804
907,0.03821600590877944,0.039351797522278686
908,0.038155122039218746,0.032356852009868944
909,0.03755356207174315,0.04207335149056345
910,0.0378813045687503,0.03866445661273262
911,0.03766522255110488,0.04907502542413777
912,0.03779206178832254,0.03440586541174384
913,0.037292982633266566,0.03801691380712397
914,0.03685954000896139,0.03440191821234143
915,0.03634263440924916,0.03391159767756899
916,0.037860606226781245,0.038028590038606945
917,0.03765179478316951,0.03462653194760702
918,0.03747515995308554,0.0412059279310134
919,0.036962908259380776,0.03261875852960108
920,0.03719948665078857,0.03597321937885356
921,0.037166150166935245,0.03853058213575346
922,0.038023964066406804,0.03603630253623204
923,0.0376336030657593,0.04166716465104633
924,0.03791040613008537,0.03853392431655077
925,0.037851353259317926,0.040810826379326544
926,0.03777134595744067,0.03887018736895841
927,0.03769173288120807,0.0408562904395804
928,0.037816877407636,0.03672972406042356
929,0.03831569075608234,0.04288071325900005
930,0.03704981074231468,0.03789817762503073
931,0.036193543386985834,0.038570336375647205
932,0.03674671817779374,0.03821939484737431
933,0.03689086913606889,0.03868542303167278
934,0.0368419860271539,0.04088789487335516
935,0.036261022047733044,0.03601753229500274
936,0.03685442504095588,0.03656868375073339
937,0.037120901631842035,0.03596500541953092
938,0.037962625403222226,0.03430181856384029
939,0.037441040971409455,0.03669444598616251
940,0.037290196110167616,0.033823696665624604
941,0.03738877181928578,0.03979595462279284
942,0.03759846361510331,0.03491910995846436
943,0.037267726389683786,0.03687232692785496
944,0.037909320202007664,0.033140562801094814
945,0.03697893298123118,0.03695285647237216
946,0.03720689205963501,0.03739541836800355
947,0.03904569794764098,0.03720689894544768
948,0.03890353148069075,0.03652791363123184
949,0.0379214625534632,0.04278752193642867
950,0.03890011263646477,0.039036111651839664
951,0.03901212623299693,0.03630827652950548
952,0.03854217164986711,0.04007373046021153
953,0.03827582659359149,0.033816764927994764
954,0.03863288141298685,0.04705836013218222
955,0.05110162458673632,0.05084518417892441
956,0.049435938589370176,0.04500742669451773
957,0.049330881768487676,0.045138360572289364
958,0.047660478886565286,0.047781536124805436
959,0.046428625143582015,0.04826757628926397
960,0.045695263769575875,0.04190479014612787
961,0.045150061193064486,0.04637208373683498
962,0.04598887568394796,0.04381823768337928
963,0.0482601306552319,0.052921270544404764
964,0.049268953341374294,0.05144339065701828
965,0.049214072275361856,0.04612671551548221
966,0.04726819830948858,0.05066387783721289
967,0.045546376608687336,0.040337082220575145
968,0.04384888123890622,0.039661470094979424
969,0.042713698919871444,0.038523973979426356
970,0.043035981102402115,0.04232574902451358
971,0.04172964329919893,0.038678613246580985
972,0.04273171899326557,0.038377144664302525
973,0.04120803027779316,0.04167148639942683
974,0.04057136950247603,0.043719992326791586
975,0.03987934343743143,0.03876046187317127
976,0.04212164996693627,0.03660020829658388
977,0.04122970057286614,0.0402964533783713
978,0.040130386403728305,0.03831554446648733
979,0.038947431778581405,0.03730076426476969
980,0.037468535930579375,0.0429599081219748
981,0.03915887169590552,0.04200836820285341
982,0.03842941169321037,0.03802843213128404
983,0.03774618573016305,0.036785565790056526
984,0.03769741991503562,0.034905375909845285
985,0.038154070133821286,0.04210218207377003
986,0.03690107901849383,0.03505611409239865
987,0.036693355691679516,0.03591143924099023
988,0.03770170479619817,0.03630932408437168
989,0.036351240454442636,0.035986338456138536
990,0.03745153501293332,0.03969930716729249
991,0.03671097478492083,0.03629580352987562
992,0.037166322950723404,0.04058573529824038
993,0.03688119474997957,0.03563449200280981
994,0.03732078472490338,0.03735652423648262
995,0.03728695265385959,0.03498785069981192
996,0.03692229983614956,0.0344046130688198
997,0.03632914142937754,0.036133215736947666
998,0.03683760146023058,0.036412076335091616
999,0.037364908578923994,0.04288188955395967
1000,0.03713555551386423,0.038661481517101706
