epoch,loss,val_loss
0,0.30612033770216096,0.13703751167628403
1,0.12303882948845458,0.11768024090287749
2,0.11509457134527622,0.11450734413670798
3,0.11088019002190201,0.10125341079675948
4,0.09459018141770954,0.09244423944560475
5,0.09146149221470683,0.09069401836090714
6,0.08962043294842668,0.08857883688814738
7,0.08690277322399034,0.0854392453170074
8,0.08428619577108716,0.08352327977653838
9,0.08317242290159528,0.08297002091943396
10,0.08283754730458447,0.08276523872666115
11,0.08270854705137859,0.0828653373011514
12,0.08283299887724357,0.0831347277685577
13,0.08321658057795228,0.08344476137669804
14,0.08339409286781155,0.08329165855004163
15,0.08308874638534909,0.082762437592361
16,0.08259722623851798,0.08236302796143975
17,0.08233212165421157,0.08230894675896792
18,0.08236846037274652,0.08243469429252985
19,0.08273529385427554,0.083161105760596
20,0.0840858155794388,0.08559680404405912
21,0.08491306347523431,0.08145591122946504
22,0.07589677681294893,0.0720806758177058
23,0.06970392869080039,0.06790714080703036
24,0.0662226713239383,0.06512242271009733
25,0.06420954925606878,0.06365378907090846
26,0.0633744894414305,0.06323941287925257
27,0.0631891143522423,0.0635553974407481
28,0.06370355570323473,0.06415748863276291
29,0.0643713844118355,0.06474316591473972
30,0.0653551164283764,0.06599111098793108
31,0.06714535707994114,0.0682021891766221
32,0.0690075869860651,0.0683731787625794
33,0.0683006150416845,0.06662194330520196
34,0.06584181927377172,0.06465849187904901
35,0.06400985447309607,0.06295722155905022
36,0.06269014572756018,0.061996275424618885
37,0.06151262273172362,0.06019518228923027
38,0.059967353701400605,0.05930179213109484
39,0.05893335769100606,0.058083640681904504
40,0.057988954032417106,0.05724264840260813
41,0.05698287448852515,0.056396785757934186
42,0.05619942578520653,0.055917471662369184
43,0.05574917098323854,0.05538433640953591
44,0.05554097976156766,0.055085921302038966
45,0.055481982658251085,0.05502158443882324
46,0.05529680252492762,0.055044316293162636
47,0.055138906674255264,0.054663247795169755
48,0.05474550908415007,0.05455138244562679
49,0.054451106180301946,0.05437154957944556
50,0.054699130004362835,0.05444217555750606
51,0.05454057925421777,0.05453715933862974
52,0.05478776601837386,0.054757745989386084
53,0.05489567856940391,0.05494408793475506
54,0.0552897907292442,0.05521125516522637
55,0.055762779725204,0.055914496983320655
56,0.056363928463575456,0.056646200723263276
57,0.05709976228692228,0.05727080793240064
58,0.058064111361535095,0.058379270834281786
59,0.05902602605289035,0.05952776299558417
60,0.05994392623058598,0.06049167552761981
61,0.060905099556363036,0.06131956485815389
62,0.061721662553049644,0.06162410708021943
63,0.061829262063372505,0.06158464709530975
64,0.06140279674751936,0.06087081649152612
65,0.06092547468715806,0.06054093694769069
66,0.060730497171584845,0.06081351479522987
67,0.060461384494057455,0.05896751364180931
68,0.059167911945055544,0.05866154277242497
69,0.058734322353016385,0.05838807797344932
70,0.05793861009842687,0.05712190490678279
71,0.05765983364503798,0.058483457121777514
72,0.05759531677401572,0.05787597954369906
73,0.05728986781773517,0.05704310245733385
74,0.056833919203333895,0.05812122926587316
75,0.056551974389054856,0.05562375945742306
76,0.05589744085677153,0.05540994314562955
77,0.05552806831401191,0.055302831435701465
78,0.055633103255752187,0.05510711507979004
79,0.05540350159172348,0.05631832871208419
