epoch,loss,val_loss
0,0.1682231555239474,0.14723923690646487
1,0.10432273075639678,0.09384580084138154
2,0.07007652820109558,0.050432240389046375
3,0.04161086154552244,0.03225766555145206
4,0.03179226897442512,0.029766616018249373
5,0.030929693308987205,0.032401562444189444
6,0.03184982973763602,0.03165608357517571
7,0.029975770297441647,0.028859330273594268
8,0.028906936361212478,0.0280059125000977
9,0.02804324016061356,0.02669128871007566
10,0.02734837790118824,0.027059334191334182
11,0.027459009840107747,0.02705306670795347
12,0.026307660056729253,0.027027441488598026
13,0.025676949970352705,0.024894394743496636
14,0.024759096511863737,0.024009071743290727
15,0.023895570631626603,0.0225044605164144
16,0.023218234499944725,0.022383761931072565
17,0.02213943309837775,0.021610575158445968
18,0.021071464336253138,0.019884994053579543
19,0.02027108779863464,0.019310136276408266
20,0.019775925222769393,0.018882856330148516
21,0.020040497330458856,0.018361744542195274
22,0.01974625604452013,0.0207493995561102
23,0.023920001676507135,0.02607120310368741
24,0.026765254061136078,0.029323567922249872
25,0.027674027686591725,0.02785009738049031
26,0.024841505366352965,0.024116558511612825
27,0.02569277441020397,0.02765696235118697
28,0.028048346538266405,0.029102524485212663
29,0.02878383450436411,0.02923350383828217
30,0.028651245843639952,0.029060787685221353
31,0.028667500424239753,0.027830296299687123
32,0.027313125441126306,0.02622871024015153
33,0.02636437053061861,0.025532471257149466
34,0.024729339058230295,0.023225512505518516
35,0.02340087213506587,0.02229547802720516
36,0.024336953138966833,0.023354694294289706
37,0.022099057843776155,0.02110223195441332
38,0.021306995816117853,0.02092222448941188
39,0.021534135941859725,0.02046068641191735
40,0.020012164197349958,0.019477150660969653
41,0.01954722872002424,0.01834560939990684
42,0.019167974181428588,0.018903820204306702
43,0.01961205480657488,0.018769635403589086
44,0.018830582690086486,0.018392255847307765
45,0.018798050389503784,0.019411528808665302
46,0.01939439083368396,0.0191622790060908
47,0.019638546853423786,0.01906928456378858
48,0.019811158566523514,0.018673302199994378
49,0.01905492367483467,0.01806995437584153
50,0.01860991553317824,0.02021969418352339
51,0.018914092802625005,0.017433058582951962
52,0.01846868149507389,0.01884073376267466
53,0.018477180220788238,0.018113446393253865
54,0.018719762539882643,0.018620380167367896
55,0.019245403733172958,0.01839724494160492
56,0.017913042319764337,0.0179181319823887
57,0.01785922484274367,0.01737178530729278
58,0.017521031168873887,0.017036274948760855
59,0.01737445118359858,0.016637911590076424
60,0.017493240639483994,0.01786110833163749
61,0.018323835351770158,0.017261483298574926
62,0.018143001147996274,0.0180333080953656
63,0.019534388677679378,0.02057662428501514
64,0.021222600112591,0.023079982474328686
65,0.023505524193926108,0.021270873495498884
66,0.02362157297071269,0.027475464698030146
67,0.029662870930777276,0.02995056322619213
68,0.03249212182301888,0.03653710360926206
69,0.036405766099917705,0.03692211213667936
70,0.02952736177050667,0.019723531701135277
71,0.01924329467466195,0.019247915403918903
72,0.018742022670352822,0.018313792798059517
73,0.0186231397278458,0.018164660464075482
74,0.018969056008906245,0.018780922058502236
75,0.019344171865744223,0.018972112883202844
76,0.018383962719393767,0.01758608671571198
77,0.018376852405055773,0.017164447330873408
78,0.01728165205374515,0.016550692136457518
79,0.017706987170352163,0.017648863841374512
80,0.017670923766555737,0.01735003245443153
81,0.017200689550658926,0.016417972368629973
82,0.016774375647526804,0.017213182497384422
83,0.016797710612839124,0.01654227012614025
84,0.01589510370966056,0.015452410502398964
85,0.016149861065091656,0.015153220820151733
86,0.01618103515714121,0.01536795586912107
87,0.015581343687034482,0.014446514227884016
88,0.014964020102293038,0.01548419136556943
89,0.014126551966610954,0.013522298979384041
90,0.014124959024588029,0.014267927789862174
91,0.013540236980279835,0.01270900469937824
92,0.013176646707452935,0.012832045602893727
93,0.013216746265632953,0.013418365782972105
94,0.0131770386304751,0.012465746114772892
95,0.012981614105397467,0.012057983006285276
96,0.012496152892336547,0.0112132712288656
97,0.012456252343869276,0.012280641955741767
98,0.012665674233322235,0.012361745175118274
99,0.012684459786498837,0.012006556457930318
100,0.011630473256432752,0.012146476620915564
101,0.012057030634905437,0.011760100423878069
102,0.011792062043616597,0.011465909553437414
103,0.012119697246456342,0.011535386321882423
104,0.01134537534191192,0.01130000497093211
105,0.012502902727142322,0.011272880765473456
106,0.012318330285006123,0.010357558026015994
107,0.012148539254666685,0.012252612794354712
108,0.011926563442881993,0.012378496196173901
109,0.012016878172987513,0.011192709550808384
110,0.011226302928117802,0.01102805279501094
111,0.01198728388282571,0.009861030857701328
112,0.011429275243098645,0.011030778742374025
113,0.011845380994681118,0.011482858753982923
114,0.011950775416646835,0.010455554317397777
115,0.010554076194000854,0.012377361073831262
116,0.011843870958978896,0.012248349495837797
117,0.011764214930238484,0.011217210552454488
118,0.011989418696761012,0.010234333626961228
119,0.011320249274667862,0.011336926900103229
120,0.012032375572700437,0.012568608347558796
121,0.011691470337520948,0.011268076933067712
122,0.011588378124486962,0.010689657508971166
123,0.011446629090682803,0.01182605800216675
124,0.011112905570866465,0.011856314993736164
125,0.01155198152421964,0.011861527561347552
126,0.011071714042178948,0.009100008856993237
127,0.01104089467943334,0.01114710311948571
128,0.012172378233368163,0.011074698933686152
129,0.011557560418542626,0.011883513633699848
130,0.01173299396459719,0.012399855896759992
131,0.011575820804800657,0.012371555937346785
132,0.010900656355069958,0.010674786475364299
133,0.011281800086347224,0.009965892745168688
134,0.011639235665549716,0.011673700498106824
135,0.010987925830093934,0.009612846846127001
136,0.01093696479013355,0.012639536617886813
137,0.011561980012426082,0.01204633557229599
138,0.011712151227428092,0.010901064819258644
139,0.011946747299852511,0.011281362097436928
140,0.012510570651329727,0.011956387543470115
141,0.014059564873701235,0.015056007162424506
142,0.01371934984867974,0.011921428040334485
143,0.015137176929439286,0.01657340067990812
144,0.014146371795196566,0.01282597773862031
145,0.012840499633924661,0.012827280292841706
146,0.012436034542759307,0.011444162095190506
147,0.013089389895735909,0.013456655428072272
148,0.012942101779601556,0.01298839843706261
149,0.013419765692805763,0.013366834593506054
150,0.0153297846920961,0.01590056361773161
151,0.014814834222480429,0.013649512007362087
152,0.013293561428118286,0.01300210694340664
153,0.014691533642909605,0.013809636303597815
154,0.01525702152578391,0.0157413711255356
155,0.016577530239107942,0.01684681956759921
156,0.01615058944719158,0.015148918523696481
