epoch,loss,val_loss
0,0.15401107617776744,0.11130926792745809
1,0.0954096086686559,0.09059389207832627
2,0.08754720508480529,0.08610054323098372
3,0.08473522762219302,0.08447978723185591
4,0.08387693726449466,0.0840868288570252
5,0.08334030862525403,0.08338925381203571
6,0.08313465037410685,0.08352129121958597
7,0.08265235812234269,0.08304122106216984
8,0.08129714720016666,0.08045828295393825
9,0.079572011366022,0.07948642214076578
10,0.07836360763088404,0.07743454301154981
11,0.07680278242849331,0.0770252130825687
12,0.07523383200764179,0.07480457606236579
13,0.07432459677747495,0.0746606845576272
14,0.07337020368551274,0.07285346631798673
15,0.07243950899651677,0.07210368959449273
16,0.07194756692666993,0.07269310216759732
17,0.07128114332493356,0.0705622150470821
18,0.07043399415511212,0.07017053309725134
19,0.07016426607144537,0.07002586668508676
20,0.0695286496377868,0.07006393554719678
21,0.06909384438209683,0.06888958712379671
22,0.0685208865391503,0.06813058793991686
23,0.06803779700677172,0.06745284740484504
24,0.06744211489598242,0.06755774571680138
25,0.06733696762737419,0.06739338537370868
26,0.06720624359355842,0.06683144526116568
27,0.0668080815439411,0.0678918373954042
28,0.06673625761346756,0.06747858722024577
29,0.06663751764465674,0.06740059704764584
30,0.06666686303681321,0.06692985641669362
31,0.0666002273547659,0.06701760440359175
32,0.06650426715529031,0.06723490589090285
33,0.06640093803679724,0.06646095165114001
34,0.06597395754046291,0.06625333841781307
35,0.06612601792879051,0.06657934093578838
36,0.06571477057217218,0.06580026107880668
37,0.06535443415839991,0.06613550672120905
38,0.06535117149198179,0.06571648918509766
39,0.0652729030415642,0.06517345943409529
40,0.06496971781603057,0.06561632785466871
41,0.06485925736032325,0.06474464897716149
42,0.0648119161389381,0.06438913949616047
43,0.06460262867484352,0.06443800272650858
44,0.06446165204655638,0.0645427399542074
45,0.06444490497275222,0.06461690556796028
46,0.06425858927454403,0.06438129074171761
47,0.06415745688023136,0.0639090700502836
48,0.06391031115198974,0.06483271509267818
49,0.06385203431859958,0.06427175585759749
50,0.06379234895920105,0.06471197001912411
51,0.06358851557619852,0.0636761831832666
52,0.06378588822188613,0.0650839357098069
53,0.06355755021877521,0.06339766826089574
54,0.06344511031175402,0.06338846824633952
55,0.06340368953552082,0.06400713186355303
56,0.06348949926886722,0.06325868302816562
57,0.0633475603185874,0.06427376519744568
58,0.06312696145866796,0.0634192259895491
59,0.06309346517891906,0.06324744099881956
60,0.06317698756615511,0.06300404571414277
61,0.06306930822577123,0.06325215571975275
62,0.0631859518712659,0.06425856574840591
63,0.06293366414656361,0.06326795225020648
64,0.06310061679231367,0.06488968717741421
65,0.06294625012768354,0.06345706092577424
66,0.06287535506008055,0.06333363539559124
67,0.0629285435876448,0.06319809619457871
68,0.06313232241048039,0.06349300359094247
69,0.06290398679560513,0.06386801760405561
70,0.06279908890704171,0.0646668929509648
71,0.06302349222042292,0.06284436654672909
72,0.06305537178671712,0.06307664816433177
73,0.06281649694442272,0.06382644233523906
74,0.06294210398082825,0.06357570228937957
75,0.06282293292687094,0.06248892366815573
76,0.06294190602229653,0.06415588943539122
77,0.06278275587647367,0.062422155557698686
78,0.06290182241087527,0.06305773949637221
79,0.06278006408771546,0.06301276860927726
80,0.06284491497156718,0.06331737760539684
81,0.06290913020952238,0.06348271287489615
82,0.0630939405688422,0.06305738873691566
83,0.06312679117627376,0.06263720725781351
84,0.06297549566955303,0.06339564145893306
85,0.06330014785511984,0.06420659347368961
86,0.0629764740302456,0.06420661549612397
87,0.06324147212086059,0.06309491358609207
88,0.06338918383577935,0.0635812222728272
89,0.06365478712675288,0.06349894142435494
90,0.06339285049221213,0.06406887262565655
91,0.06373845373721812,0.06477242346556053
92,0.06341012080998824,0.06531129879752011
93,0.06380762128854732,0.06355191262081654
94,0.06385118925242687,0.0635302511132789
95,0.06388955569560294,0.06364425279394133
96,0.06385583221483573,0.0648468685084285
97,0.06379500935248715,0.06469038302915343
98,0.06383975123842175,0.06397028696659332
99,0.06399009106971092,0.06425358566742952
100,0.06388408824992027,0.06414324703796134
101,0.06380414902913771,0.06367840958375487
102,0.0637078589493994,0.06397556467680077
103,0.06374674505419392,0.06432975734559776
104,0.06364901587486171,0.06429948888854334
105,0.06348086833405933,0.06355942938044586
106,0.06364624707890357,0.06420882813038559
107,0.06360624692768312,0.06298792214024791
