epoch,loss,val_loss
0,0.3698177525670744,0.16464791109140386
1,0.1480543895231618,0.13576948422778456
2,0.11680806951941826,0.10106147389438998
3,0.09867520269462832,0.09544003923443982
4,0.09095494813614602,0.08482893382932534
5,0.0802986597220262,0.07626510381891972
6,0.07325258457345711,0.06959198471475982
7,0.06272827481643689,0.05512181877642749
8,0.05017860097478064,0.04575911379704027
9,0.04179667861904021,0.03820670534163979
10,0.03569448406131769,0.03414782537457088
11,0.03276302274599898,0.031217751793400215
12,0.030285676580378777,0.029493976633660404
13,0.028793713414938665,0.028337679020848973
14,0.02730342199812659,0.02673806201905278
15,0.02585456173142211,0.025551690799331433
16,0.02439130181737477,0.02431434263314354
17,0.02343057519759986,0.02300328099518555
18,0.022178793038197572,0.021699888030458348
19,0.021276362837583804,0.020797883925562165
20,0.020356609391345322,0.019954175618080616
21,0.01923947818607116,0.0194042280636613
22,0.018503768147350406,0.01811914688802573
23,0.017824282745172303,0.018097373805728657
24,0.01726808286591875,0.01711426297654394
25,0.01659870547077673,0.016676359880936166
26,0.01607971132216189,0.016327603186109832
27,0.015587275751230357,0.015874792230281518
28,0.015239376080385727,0.01581607455960252
29,0.014831154400690065,0.01565639988918821
30,0.01463400834896941,0.014752956051364336
31,0.014395233794369753,0.01410924699248116
32,0.014136900936288414,0.01440475796955877
33,0.013911686910747336,0.013997650515689951
34,0.01370969084535149,0.01402307389151465
35,0.013528796559344348,0.013813356736739862
36,0.013341027884270617,0.013553317329587243
37,0.013250983109156355,0.013485438090319301
38,0.01300793287013952,0.013083484090656187
39,0.012883710740186316,0.012955469544599285
40,0.0128626573787595,0.013204818341461073
41,0.012571018947522529,0.012648573365071539
42,0.012594110688479472,0.012940818387999925
43,0.012501701479218454,0.012715117084368495
44,0.012425456059614929,0.01249827887479213
45,0.012319875817322393,0.012503628252679897
46,0.012332269058430835,0.012592425220929213
47,0.012264836544888295,0.01254295585835647
48,0.012207000305707618,0.01248891390965827
49,0.01226269528776813,0.012507624183203617
50,0.01218902881371321,0.012678548470079078
51,0.012261249075790612,0.012371400152148024
52,0.012320902551247704,0.012103826211673259
53,0.012140821691623347,0.01217854645674246
54,0.012245896030023538,0.012376884373912508
55,0.01224407680657766,0.012745733941631015
56,0.012303659473184207,0.012377361675599002
57,0.012284985354604174,0.012436055846433763
58,0.012380016210442,0.012363078626324419
59,0.012267343191395672,0.012465623497437241
60,0.012432360424368596,0.012267460038210208
61,0.012248689938095018,0.01257988555161985
62,0.012412361394288876,0.012193383600650429
63,0.012388540353563378,0.012563342685506823
64,0.012351084044583446,0.012336281210558742
65,0.0124744006568302,0.01238632620526032
66,0.01247219079203182,0.012200104485100493
67,0.012447056829932334,0.012863012824573125
68,0.012519980266278654,0.012853579881199955
69,0.012485049458800721,0.013050780218435996
70,0.012510524469512023,0.012892405229823819
71,0.012431074182888429,0.012677850647370988
72,0.01243029061959888,0.012584352213964893
73,0.012440670234672397,0.012399005692298105
74,0.0124431528766946,0.012425618538888291
75,0.01252144930647124,0.012379488167530477
76,0.012505462761890827,0.01262773507986964
77,0.012502490832515843,0.012396199096202706
78,0.012383428041348227,0.01258691011747498
79,0.012554496352234967,0.012501965021595226
80,0.01260692000894653,0.012617660282271863
81,0.012556519689675185,0.012623585575537428
82,0.012560723866190645,0.012613090092054925
