epoch,loss,val_loss
0,0.11571581368680767,0.09797533310144176
1,0.1014659100909718,0.10289857631818272
2,0.10180834873015884,0.10246926755442239
3,0.09492006246968329,0.10031989197104864
4,0.10178700523625175,0.10256881027202391
5,0.101197120210202,0.10021207385476688
6,0.099654572741162,0.09858777471939315
7,0.09895340281782104,0.10027197748422623
8,0.09873576259775033,0.09726418682977546
9,0.09837150356645206,0.09911366347767465
10,0.09697866920593212,0.09613724338991866
11,0.09849143771381734,0.0984008661996876
12,0.09721296249355058,0.09540692565120291
13,0.09509651769223593,0.09689220025453307
14,0.09824233454950661,0.09799476574162563
15,0.09776877356078223,0.09687048043311819
16,0.09240915788133605,0.09330595898623531
17,0.09519090668278203,0.09995273642400727
18,0.0982934976581761,0.09799848220824912
19,0.08988562929961416,0.0570381683942104
20,0.03885796776549112,0.02522200742411562
21,0.02491781755322985,0.024759824648675904
22,0.024843414642399163,0.022792486511038552
23,0.025801993691720527,0.02692120684047642
24,0.026826415083286977,0.02720277727895432
25,0.028112239909725344,0.028582036050129166
26,0.029162580259241087,0.027574108700373086
27,0.029805720517252512,0.028212739753036304
28,0.029749503339284198,0.034566469400115575
29,0.031658381626060564,0.030276627002332444
30,0.03140486623022815,0.03183857742079549
31,0.03259467213231472,0.03116416404039938
32,0.03216410486297838,0.031749964541011
33,0.03334622723899103,0.02792937010262035
34,0.0332733238626608,0.030975653812356865
35,0.0331417961817735,0.02973710846864481
36,0.03322335996487878,0.03030751017712486
37,0.03308522847717811,0.03243438846592651
38,0.03363379645518673,0.038633176060900644
39,0.033934437367375746,0.03299923661961011
40,0.03430809268800856,0.033958500421340646
41,0.03613518680454039,0.03529677408928935
42,0.039391089086164,0.03821564223926041
43,0.04000430506934002,0.05006179739974716
44,0.042436387886454784,0.0418843089043506
45,0.042551872739605576,0.03544101650159932
46,0.04105085175488886,0.03404972028654677
47,0.03408146305843521,0.033288160953509026
48,0.03625681896401431,0.037051293924347965
49,0.032852854452384034,0.023419487472379548
50,0.024146692523324072,0.022750878128448785
51,0.026391931262025856,0.029338103653267673
52,0.034041189112894825,0.04048700984670312
53,0.03483657627816883,0.0248413258948861
54,0.04016269757512876,0.0703642754973557
55,0.0715138746215571,0.07341507507962981
56,0.06961313044677654,0.06894154336682765
57,0.06956055969800905,0.06693525479455209
58,0.06928710435419608,0.07388567690750042
59,0.06965899977499514,0.06725439333137134
60,0.07129775769383216,0.07262795488037692
61,0.07223837031014294,0.0749654293136749
62,0.0730797813328312,0.07267939536034732
63,0.07322521283210134,0.07504515154044648
64,0.07400373731487446,0.07163748482202534
65,0.07254996351513573,0.07209190932391381
66,0.07155478253236992,0.07405522848378747
67,0.07295538704889974,0.06824145099293696
68,0.06952320214220993,0.07050137732680754
69,0.07009311035859118,0.07051476667434471
70,0.07015777305721474,0.0711041539878053
71,0.07045177995732767,0.07271972234524793
72,0.07104678738558536,0.0708437721438312
73,0.07052703622019858,0.07030848192305385
74,0.06900008956192256,0.06743619215234396
75,0.06778375310771209,0.06454451845836809
76,0.06457229073551729,0.06839338543912324
77,0.06351053645963864,0.06289564609606975
78,0.07212942960462887,0.0734606094073266
79,0.05253450124696504,0.023204156064928965
80,0.02320388546488959,0.02288103785149712
