epoch,loss,val_loss
0,0.17350105644106198,0.11628735314792973
1,0.10635107286351857,0.09469905662061477
2,0.08109887027673775,0.07844252979063857
3,0.07857362415007264,0.08076550520444914
4,0.08041157281036666,0.08149414424267734
5,0.08186844781005412,0.08233803393056097
6,0.08257644260815865,0.08139004216080306
7,0.0829440814366253,0.08206403329556818
8,0.08302631598415611,0.08263014430428643
9,0.08310745299148331,0.08323890220112187
10,0.0833538213222147,0.08296552965536584
11,0.08395728513562709,0.08378087072364909
12,0.08413445943003174,0.08474884056960304
13,0.08426084146677829,0.08410758065866879
14,0.08447025721069339,0.08628781256284315
15,0.08475418823014061,0.08542041164758926
16,0.08491480510702712,0.08413256764788278
17,0.08504100348189962,0.08387319158524534
18,0.0850768352774598,0.0861669270396703
19,0.08504343784446243,0.08465487466450272
20,0.08467958271979904,0.08468827251830059
21,0.08469341182522923,0.08453693035063822
22,0.08516552270078163,0.0858467948088612
23,0.08554846620697865,0.08538399847266988
24,0.08536033831435523,0.08464011225346608
25,0.08558126843923763,0.08704961694618239
26,0.08524991061499745,0.08445210446145653
27,0.08543537023494378,0.08440188292616826
28,0.08519925550519705,0.08564717656011739
29,0.08498590604530917,0.08563998641465344
30,0.08572346201951174,0.08609204595260199
31,0.08530918863132227,0.0863162887289285
32,0.08547846660863677,0.08500225771433176
