epoch,loss,val_loss
0,0.3042030685382495,0.23646931586626863
1,0.21969875850551707,0.21765777735655573
2,0.21722576734449842,0.21605107348174116
3,0.21728048783888537,0.21689079481970164
4,0.21615946693100233,0.21488648377823472
5,0.2157516523326139,0.2142772950473129
6,0.21491388178510154,0.21501790733909457
7,0.2149892182087155,0.21475102964732812
8,0.2144827506930041,0.21411349505021426
9,0.21425508106831642,0.21389171454082254
10,0.21391353905677415,0.21376027463220101
11,0.21394126127949722,0.21310736099000793
12,0.21391788167919187,0.21491759414501613
13,0.21441870079719,0.2142762472498765
14,0.21387926359876072,0.2131502822970629
15,0.21381170639126515,0.21372846265241868
16,0.21409981680526247,0.21402551496038308
17,0.21474445456985852,0.21358926994130661
18,0.2146190394290822,0.2143998271782001
19,0.21440001893386568,0.2147375850834617
20,0.21467461381598915,0.2147043178588646
21,0.21448990890829206,0.2149409217776138
22,0.21457088097251004,0.21474601281329037
23,0.21513967037343865,0.2149254130324512
24,0.21545422542914688,0.2141305429900643
25,0.2152152309100405,0.21436064848536662
26,0.21492305685052102,0.2148387388582764
27,0.2145709710346042,0.21570712411460108
28,0.2148140133689824,0.21490302380841833
29,0.21512441354975712,0.2145402386443485
30,0.21489492276732583,0.21494007434022644
31,0.21472744846182,0.21562677086716858
32,0.21492638359729238,0.21567057762309708
33,0.21499068227460344,0.21445453579772056
34,0.21558758567610709,0.21500223804479898
35,0.2149329672662093,0.21454441856707562
36,0.21511687469377602,0.21502097170938161
37,0.21456587177624614,0.21459604228163856
38,0.21512651487553625,0.21558047834586797
39,0.2148094222628527,0.21434346033111745
40,0.21520543131801625,0.21467585039590414
41,0.2154414024617937,0.21436575400895178
