epoch,loss,val_loss
0,0.45908613890099775,0.4538998436109231
1,0.452030818763492,0.45568643913743245
2,0.451550173125774,0.45852425934389623
3,0.45142233676666454,0.45988494468281
4,0.4513589195686755,0.4574282338935367
5,0.4513021566742044,0.4567525062677704
6,0.4512776445618255,0.4559458345527619
7,0.4512669988196912,0.4559900428050131
8,0.45127087929170673,0.45604085943410977
9,0.4512716390960794,0.4556467349169851
10,0.4512682937556129,0.45540391540282715
11,0.4512675933653026,0.4552659240405016
12,0.4512670203793249,0.45473258814759016
13,0.4512751509817384,0.45482808614962666
14,0.4512794443981634,0.45370337846905767
15,0.4512702184234211,0.45419890975142996
16,0.451274040458109,0.45377737013204134
17,0.4512706349174277,0.4535451991029301
18,0.45126633480679595,0.4537529967954616
19,0.4512682352706397,0.45364078907582733
20,0.4512721541211855,0.45387061661213707
21,0.45127096281444234,0.4531834688869723
22,0.4512760636331938,0.452853186777848
23,0.4512754497196463,0.4526949021274308
24,0.45127527364533393,0.4527391049225874
25,0.4512732789384947,0.45296120624798153
26,0.4512689626760048,0.4527647147144778
27,0.45126773756470895,0.45296900871708906
28,0.45127014352453887,0.45269300738656815
29,0.45126651035700677,0.45283096967575204
30,0.4512674449254378,0.4526999731325407
31,0.4512671641499209,0.45279134914643576
32,0.4512702936558224,0.45276357255870187
33,0.4512708900119666,0.4526622093796448
34,0.4512754313522677,0.45289059833644785
35,0.4512656252923534,0.4528721609309422
36,0.4512673307189362,0.452753436311362
37,0.45127428528502117,0.4526603242357415
38,0.4512689717763143,0.45265014332020104
39,0.4512690809323824,0.4527498244674731
40,0.4512686822340071,0.45256478271808037
41,0.45127075422200846,0.4525024605813512
42,0.4512669980811844,0.4526198256552078
43,0.45127456089099055,0.4524978326593879
44,0.45126695284168783,0.45241201312032003
45,0.4512633896178955,0.4523773273569256
46,0.45126881483171005,0.45232767586455913
47,0.4512646441741718,0.4522828874431827
48,0.45126749340483513,0.45230149510062956
49,0.45126638631168886,0.4522889663642471
50,0.45127095619170404,0.4522672872093595
51,0.4512672693990499,0.45220248809271
52,0.4512654751372471,0.4521678876669838
53,0.4512684080574057,0.4522232784703668
54,0.45126700317926355,0.4523059461609811
55,0.4512658710007092,0.45212276812698676
56,0.4512669426931752,0.4522155291608872
57,0.4512663620124332,0.45222600812317354
58,0.4512672525563305,0.45214290965139725
59,0.4512643859350233,0.45218226537049616
60,0.45126671447075434,0.45219206078464624
61,0.4512661371966727,0.4522865171402387
62,0.45126818610038116,0.4522429771938941
63,0.4512674467597934,0.4521767340876874
64,0.45126492106657234,0.45227537184789035
65,0.451266480959672,0.45221612857097515
66,0.4512650504958429,0.45230643007824906
67,0.4512681484841805,0.4522194486720033
68,0.45126747351279745,0.4522308209747805
69,0.4512732824404463,0.4522308399099577
70,0.4512714510388988,0.45230969624342465
71,0.4512658683325556,0.45236950734043646
72,0.45126983437606755,0.45231218698369113
73,0.4512666304953855,0.4524889146613623
74,0.45126415335303016,0.45246225873033363
75,0.45126565554730896,0.45253069688225694
76,0.4513357174005821,0.4530561806041609
77,0.4512667971358692,0.45322054147061724
78,0.45126541231652434,0.45305728098493725
79,0.45126761082741473,0.45286331585099027
80,0.45126451369669796,0.4528113700267172
81,0.45126961882737615,0.4527309810494285
82,0.4512656625988577,0.4530942559994951
83,0.45127411418967395,0.45373017957761896
84,0.451271192609168,0.4531698229751346
85,0.4512677857820555,0.4531305454195063
