epoch,loss,val_loss
0,0.14717551274932356,0.10251729388522085
1,0.0792696012301649,0.05158174111439472
2,0.045913757914178475,0.039693221220512886
3,0.035855044135086826,0.03642724364725454
4,0.037482933929676915,0.03589719343098394
5,0.026654008873474064,0.022832507840942096
6,0.022185961558795472,0.022871914445389514
7,0.02257792907376155,0.023279852875535564
8,0.022546546719074963,0.021666199133541043
9,0.022851233629675078,0.02118570210034323
10,0.02196212584446136,0.02347299477178089
11,0.02209130422153371,0.024268203361317128
12,0.02229196459373577,0.021169217285753803
13,0.021649585015398803,0.020162960773902845
14,0.02084765467066154,0.0218105882409175
15,0.02139211836740744,0.02105609720665447
16,0.020915505849271654,0.022415721349435806
17,0.020970152327708966,0.02237330623641434
18,0.020742994443558864,0.020008725411866532
19,0.020907260112011796,0.02118687831812142
20,0.021023374112646022,0.02097407379941081
21,0.02065595692480735,0.01890463601641986
22,0.020014133231400204,0.021490271042241483
23,0.020679335794794997,0.021330683050352284
24,0.020205210065759486,0.02100058223672899
25,0.020184570369567518,0.020751028872244264
26,0.02041158356594382,0.021968639538797602
27,0.02005323785231363,0.020666913409447613
28,0.019935661991633814,0.01982598152267434
29,0.019414557274326765,0.019072110400826986
30,0.01952829090230685,0.020080301872415624
31,0.020146573517772316,0.02085886463293572
32,0.019883012611993687,0.02086767249967794
33,0.019894028103334918,0.021074455784194188
34,0.020399837727866157,0.019343313507459346
35,0.02050850504442013,0.020174293405425623
36,0.020210134840721518,0.020496572703769946
37,0.020284730419189,0.02141799443734379
38,0.02015581723380027,0.022038842925556364
39,0.020371297182296393,0.021460400131290695
40,0.020846998377097883,0.020883769107116614
41,0.021131220354075483,0.021355172222290532
42,0.02084281127289426,0.020763747085359215
43,0.02055048161252535,0.020388247389361062
44,0.020669170730500865,0.020311497487774634
45,0.0203052639676858,0.020022682041435515
46,0.02067794488872484,0.020293030545303646
47,0.02082834053087792,0.021561936512824675
48,0.02178053200158546,0.020891179991467036
49,0.021574214767131637,0.021572306985954366
50,0.021051221387200267,0.020353877023097655
51,0.021012994148831763,0.02173542421261156
