epoch,loss,val_loss
0,0.07269046183632348,0.014895143914466464
1,0.01469789882892926,0.013890344280185032
2,0.013432072609043989,0.013715025013453829
3,0.01298440563630947,0.01188260096440646
4,0.012381857080157283,0.011484492490315794
5,0.011881671004763377,0.011446939111851162
6,0.012081368313208937,0.011478514417170915
7,0.011115817478106027,0.011098794794116601
8,0.01150062357157031,0.010469677146791019
9,0.010651599898894163,0.009037353261208548
10,0.010346834970439757,0.009396905313876635
11,0.01038351767024749,0.009286497793367666
12,0.008707271638759251,0.008008369343225193
13,0.008037039106549824,0.006366856143429093
14,0.007811401340403973,0.006505427520608951
15,0.019760832202331952,0.04026576162748856
16,0.03391061549102493,0.029586904607977846
17,0.030931074917651444,0.030538669305514684
18,0.030277755760068862,0.031012090682342425
19,0.030277721740831758,0.02888047390146256
20,0.029030836851828896,0.02762553247423944
21,0.024511655235270723,0.0224355793772699
22,0.025431004482590194,0.02663030585967998
23,0.02553594675144742,0.024047772045414115
24,0.02462660713042382,0.02572148707978304
25,0.0236022970708032,0.02151624721768235
26,0.030766301423975295,0.024358620165517198
27,0.025042751129231988,0.022991491993815706
28,0.02459519766706625,0.02395599709541464
29,0.024793768825614713,0.022940065800679088
30,0.02524803755691366,0.02589366604421867
31,0.025152235079726443,0.02633813026801469
32,0.02641488916481094,0.02425046416915418
33,0.026377160932763006,0.027745327847953166
34,0.027119721586110264,0.027599451962370358
35,0.027857487712302606,0.028937938456638952
36,0.028901316554581138,0.028231783593242552
37,0.030099162104748767,0.029972356788949318
38,0.030204755290010148,0.028898302977647405
39,0.03033199583782891,0.030160867486144664
40,0.03044444188545588,0.03072812003116605
41,0.030116933912186207,0.02902314088056665
42,0.029962890791419377,0.030728798660272533
43,0.03122756455494143,0.030146375294089693
