epoch,loss,val_loss
0,0.14377706032767476,0.0903076422477954
1,0.07865059608035237,0.07474864418923431
2,0.07223708471424764,0.06807248988251284
3,0.05429877073978253,0.04350918952754942
4,0.04478688862957924,0.047485927012532174
5,0.04764384299600058,0.04615825109166147
6,0.046060510804589325,0.043303619482170055
7,0.03166933104151683,0.023796871749959127
8,0.02228992747040175,0.021317031144825322
9,0.021472584956484162,0.02176465602604865
10,0.022345685933103904,0.02493484644623563
11,0.02220486896596462,0.020924227428346896
12,0.022639818733735242,0.02420789895148473
13,0.02287694492818807,0.025226776308035322
14,0.022600751959061402,0.023862585656186118
15,0.023212993861459714,0.02242056447968487
16,0.02383819036111295,0.025287763808795855
17,0.024709136885621374,0.023477958587322444
18,0.022683613283707084,0.02076746212155356
19,0.021507712366203847,0.020354602885768465
20,0.020411842130422353,0.02172075361954291
21,0.0206388359454622,0.020121040306367927
22,0.020359185665732714,0.018829724794046418
23,0.020040474835780267,0.019282224818170306
24,0.020386568871404914,0.021284675951855993
25,0.020956886606179267,0.023175683050418616
26,0.021273626914645412,0.020085920321724973
27,0.021608222386897278,0.02273209849791491
28,0.021007134763004302,0.022465119942517008
29,0.021858775685224936,0.020405223671032296
30,0.02086983712614893,0.019679077093113853
31,0.020965870934353172,0.021522208827752812
32,0.020924872828187415,0.02322543494038772
33,0.02063490118575301,0.020734686214820833
34,0.02015550795430355,0.019922704582162137
35,0.019522683723992722,0.020816039141111704
36,0.020055907838743368,0.0178143271048801
37,0.019542943544054538,0.02278022136577444
38,0.01973969240611096,0.020622629097471014
39,0.01898243549398238,0.022030498472284218
40,0.019114873085400278,0.01754693843383157
41,0.018000164024567576,0.017817659103609298
42,0.018187903345738957,0.01693216153371259
43,0.016993682898527426,0.01687939411680484
44,0.01821426078111386,0.0173721268005675
45,0.017420927751258457,0.017864880811396602
46,0.01703630254896496,0.017393783820556345
47,0.016744109202655767,0.017663303667851432
48,0.017342604108625273,0.0181044788359302
49,0.017455670198680256,0.01719716941936334
50,0.016885950058835635,0.01687066608212224
51,0.017078601393393046,0.017021914438330572
52,0.01766596229703759,0.018435009869128677
53,0.01693755360565883,0.01595199706904655
54,0.017242421768307925,0.017025935077700168
55,0.01707864447692625,0.018539659596609148
56,0.01668320532864351,0.01848911316499361
57,0.017226416529040875,0.0198058253999479
58,0.017988045411787446,0.017248099793304397
59,0.018822655232130385,0.01730069420179139
60,0.018120188132035645,0.01986307188009971
61,0.018245836079632826,0.01942422578292116
62,0.018475698549106873,0.01969447232424131
63,0.018240785212825527,0.02089846333240371
64,0.017675432587246433,0.019300683737448
65,0.01782258899047149,0.017483885824127562
66,0.01873047217104337,0.018658888905552447
67,0.01882759326969167,0.019801735758910803
68,0.019092681554915142,0.02034033100167032
69,0.019459198174669113,0.019056641938489726
70,0.019119739571554984,0.018013294190815234
71,0.01967884272077887,0.01927606854367275
72,0.019515410470638535,0.020444935559638392
73,0.019529645179333588,0.01825275709933433
74,0.01959444715274419,0.020882155494830603
75,0.020456764784505328,0.01988034760807336
76,0.020750022236463262,0.021730983812117917
77,0.021289147292193084,0.021018970297574525
78,0.021634423832068865,0.020241129709717882
79,0.02178528779100695,0.021281072087791744
80,0.021500283377996976,0.02070282044619816
81,0.020978300672152537,0.01965394069535486
82,0.021844352489794425,0.020823852227443585
83,0.019884971245902952,0.02048938014730517
