epoch,loss,val_loss
0,0.15221937848247594,0.10001283672938878
1,0.08660242242588223,0.07795928224580158
2,0.07389002274885642,0.07549198965035561
3,0.07516072993632034,0.07324350604106802
4,0.07178076842038943,0.07131869531138826
5,0.06977322388836425,0.06844746487857604
6,0.06791329966019764,0.06661661968940623
7,0.06612431133786838,0.06590555294548421
8,0.06503730788112258,0.06414167110785407
9,0.0638232251419295,0.06467425327192354
10,0.0634188302379432,0.06297839962198871
11,0.0631648265420914,0.06187506382895344
12,0.061443703956336235,0.06249572443698651
13,0.060334024216821915,0.06131166800997722
14,0.060038095520292635,0.05979185187402633
15,0.059479359159176105,0.058832459807419454
16,0.05869583860277939,0.06357783900651766
17,0.05771934969140757,0.05812948822222456
18,0.05668027913101095,0.05698372319858189
19,0.05538863253643473,0.055489537374490625
20,0.05476786927889577,0.05579819666381981
21,0.05416575513130946,0.05404625529013192
22,0.053761201576410914,0.053920070651768695
23,0.05331594370406785,0.05310161896020574
24,0.053291624580189094,0.05475313855363049
25,0.05279892373332779,0.05265059860477602
26,0.0525152478411758,0.051374484162304286
27,0.05151052113702829,0.050001071314691274
28,0.05073080029335621,0.052001394316754004
29,0.05063001586676692,0.05235621733289585
30,0.05095277954753545,0.054028117910156874
31,0.05089853810880491,0.050574596994795384
32,0.05045587980418468,0.051611175132884504
33,0.05093557211003906,0.05212360186518509
34,0.05078201053096808,0.050230488678015585
35,0.050382247750016804,0.05050941822784288
36,0.05042543091910253,0.05045787263852739
37,0.051030916731349,0.0508017122433848
38,0.05172994376110326,0.053153475747982536
39,0.05239435701931028,0.050908251720662184
40,0.05269772981961282,0.05183022600417073
41,0.05171307880017492,0.053961077700615305
42,0.0521354258364196,0.051967480561704076
43,0.0515439873404926,0.052458560510281985
44,0.05143081702643352,0.049593044602221734
45,0.05017314450763208,0.050144948353424916
46,0.04909913960418446,0.048675690234389564
47,0.04779245155296928,0.049189703199415576
48,0.04631318439611142,0.04636222249648189
49,0.045854384995264404,0.04734826872114977
50,0.045287812829946726,0.04276331542934502
51,0.04430502565573159,0.042767120188582856
52,0.04419161010977271,0.044243310855285524
53,0.044904335201691854,0.05344378047026606
54,0.046539145866505725,0.04813706519371803
55,0.04624100320404478,0.04786513383252562
56,0.046858712813432075,0.047927055022757924
57,0.04719412043023643,0.04605264201960229
58,0.04696949978443168,0.046145155899456
59,0.0468185905524962,0.0469012684390925
60,0.04696019411944657,0.046233135213062534
61,0.0466379357351483,0.04636711309698499
62,0.047108464973340695,0.04805448795973831
63,0.0469985234318115,0.04647465798512818
64,0.04623956738901939,0.04715452168868956
65,0.04601813548450752,0.044256729421506456
66,0.04581157017728503,0.0488411790846414
67,0.046166482041303296,0.04720784183635708
68,0.04568432730962809,0.04513303978455377
69,0.045550576261550686,0.04648464297156872
70,0.045232520716415224,0.04472321112535088
71,0.04455963278012119,0.047716722721505934
72,0.04437951865396816,0.0505998034497698
73,0.043604408058045295,0.04663940190669111
74,0.04257852867614927,0.041588465623622256
75,0.042406924176130366,0.042454150217955004
76,0.042018838590092894,0.04173855987195905
77,0.04152968088738162,0.04241237756755753
78,0.041299915127307296,0.04069052142368214
79,0.041493055655611316,0.042584028735980335
80,0.040980262111583586,0.03953474119670201
81,0.040557242727441656,0.03939017223013416
82,0.040761862941783106,0.041707079181331486
83,0.0409413205815567,0.041415018485983994
84,0.04107421485306643,0.0411872409178266
85,0.04081926652216178,0.03941688231459357
86,0.03976756296486115,0.041098237813883345
87,0.040203377541949706,0.042925435449889825
88,0.04039950675363068,0.041358226150180186
89,0.04036221767572476,0.03983283927921432
90,0.03982778028886524,0.04684360370028179
91,0.04003418646127486,0.04281162888681973
92,0.040441055866263564,0.09510022401221643
93,0.04012005538534489,0.03874785773273801
94,0.04030524976819539,0.03853020934063144
95,0.0410785068788355,0.041910571634957615
96,0.040800106980436616,0.03945709393310472
97,0.04073253546734985,0.04157442544258384
98,0.040584118960858534,0.04333777526053934
99,0.04106136658887783,0.03994220251477696
100,0.04086125965455739,0.04179935149948429
101,0.04085635056169771,0.040770709229414163
102,0.04039412750293025,0.040702181647001706
103,0.04026063675467345,0.04245211697685596
104,0.04089193965653054,0.043099894634526646
105,0.04135218439854497,0.04019092783719983
106,0.04085558422094436,0.04343772436997132
107,0.041726919708492086,0.0440807559842798
108,0.04121221240452058,0.041273150616564336
109,0.04116359098459319,0.040285431610121915
110,0.04156661024994606,0.04253591125464948
111,0.042060279877756616,0.04385370933748458
112,0.04257197162623314,0.041755872436791026
113,0.04201028996305786,0.04459897866259434
114,0.04179463424771238,0.0438615809523316
115,0.04209762760739532,0.04100815018590454
116,0.042289729455678014,0.04185102086722992
117,0.042078499784239,0.04415025926638327
118,0.04203660178074924,0.04070737882096088
119,0.04198562548005228,0.04764220267005012
120,0.04246256097281675,0.042902163079195164
121,0.04286087458606342,0.04618922641005399
122,0.04316917673456107,0.0423592516701101
123,0.04277666863634718,0.04342767844989531
124,0.043165078580224635,0.044054356883643835
