epoch,loss,val_loss
0,0.14320874140917253,0.09174624810490725
1,0.07944272576476173,0.07301127555432428
2,0.06864365039588355,0.0675385010552952
3,0.06667089985786297,0.06764899491793355
4,0.06473139955771627,0.0645300976538056
5,0.06184637008739604,0.061526109215280816
6,0.05943875053791786,0.05951986291931667
7,0.058913571475673734,0.05922376419746132
8,0.0586327970575848,0.05882418760184519
9,0.058153888060272836,0.0590272387423521
10,0.05782410852628932,0.05840964755594683
11,0.05752329001550099,0.05871211620372586
12,0.0574303525898287,0.05706489815625885
13,0.05684995741176186,0.05651613276366559
14,0.0559790577027771,0.054663637480988875
15,0.054483723830428724,0.053299249300546504
16,0.05276815829088362,0.050674470157701386
17,0.05107973533854496,0.050717512349985484
18,0.052839312764952226,0.05267579690351106
19,0.05119878450910346,0.05231637947831741
20,0.04514732652252241,0.04253419800334402
21,0.04179050360354398,0.04090870199423657
22,0.04086961038559556,0.043798525927216406
23,0.04158063743897765,0.04290122985134185
24,0.041678162730878876,0.04245207434624504
25,0.041663035072928234,0.0429572609989024
26,0.04116812545946128,0.04109620008009009
27,0.04083732770775243,0.040448682722301114
28,0.040689228080230934,0.040582640483187424
29,0.04044020961490657,0.0401320077711165
30,0.04000797142519606,0.03917152925902403
31,0.04057323676403716,0.040698048747611404
32,0.039859297619067986,0.039731871804197474
33,0.03879798997303755,0.04295192226391189
34,0.03845437783613908,0.039795421334402524
35,0.037138706744670104,0.03626768626919532
36,0.036991638958537514,0.03881295739828176
37,0.03654014941998761,0.03696769407723208
38,0.03608913163540604,0.03773289618112482
39,0.03582036338722725,0.03601848375678486
40,0.03489981851667809,0.0349089827112142
41,0.03492014250493974,0.03532409393349876
42,0.03479205380580265,0.03488278579210896
43,0.03419118314433536,0.03515293691439617
44,0.034344402592268876,0.03583994940005613
45,0.034253162463649,0.032824566548112444
46,0.034069192306183986,0.0348166017613029
47,0.03438139256896923,0.035103089845759154
48,0.034569752997429155,0.03606636547604789
49,0.034780396182807705,0.0347877447452946
50,0.03496942671088816,0.035101396105918906
51,0.036167625121945005,0.03781775173149715
52,0.03696515436301367,0.036617318810726024
53,0.03656425565439496,0.036582596711785
54,0.035693821563518684,0.03860842823341265
55,0.036201438958124575,0.037145986135728545
56,0.03631568927285101,0.037907366065312864
57,0.03655740884032181,0.03636484414680134
58,0.035014235358729925,0.03662951102431778
59,0.03582326454266036,0.035118321090607356
60,0.03533387875897612,0.03474625555361785
61,0.03501210471601795,0.03559462171291966
62,0.034604944328931596,0.03535315210048195
63,0.034816660039085186,0.0375361683313171
64,0.03408978064860895,0.03589211294946467
65,0.03494860926310984,0.03815161207457086
66,0.03420463253071697,0.03375864139189848
67,0.034364041448723404,0.03557270135210082
68,0.034255989744580335,0.03320426777322742
69,0.03360696674304472,0.03392987802695269
70,0.03289327348063556,0.032625123762893886
71,0.03351533340273811,0.03412939055625058
72,0.033964347736024074,0.03578983062632741
73,0.03431198342913966,0.03456065280990706
74,0.034446543733255085,0.03956523879292261
75,0.034355271595726,0.03502367857928904
76,0.03420415214098377,0.033816549902004146
77,0.0344496998358235,0.03496400777459286
78,0.035297946207862585,0.03510962986191051
79,0.03431180397943436,0.03412962078330737
80,0.03414778490003636,0.03530113818307702
81,0.034895046608899236,0.03613228438791084
82,0.034335515490896126,0.034577023246764385
83,0.03467702727726133,0.03432616095287224
84,0.03431111019399526,0.03357380261643251
85,0.03551059114567334,0.03483258175421815
86,0.03534412470986422,0.03533932641766019
87,0.03602715036262282,0.03543430998121648
88,0.036817264574156294,0.03718216779870411
89,0.03722796912083952,0.03894105626251063
90,0.03842930533557678,0.03612637797101521
91,0.038391486151243666,0.03866094088838998
92,0.03897287251858069,0.038483600987043544
93,0.040023483964298175,0.044374902024806345
94,0.04075460086802213,0.04151201635693224
95,0.04036862809630892,0.037548608025322776
96,0.04058455057489834,0.03954700498173532
97,0.041721265054316066,0.0429781054388423
98,0.042337269517038464,0.04434699734530302
99,0.04234407492261901,0.04320436920426733
100,0.04229439383776163,0.04227833304886472
