epoch,loss,val_loss
0,0.1567338213360281,0.10278889577432984
1,0.06559546050324525,0.060813230536613486
2,0.052648697959647765,0.044228966379480844
3,0.045336825919034575,0.04498262309719939
4,0.042462886113831276,0.04122525973696829
5,0.04023477057520625,0.04002180545875287
6,0.03893863211432807,0.03823701699206278
7,0.037791003706119805,0.03726269915147193
8,0.036831644928748374,0.1902092128827427
9,0.03592096521652383,0.03565480405701458
10,0.03430453498515008,0.0324581310758698
11,0.03244023228274118,0.029224078634778817
12,0.031085287989805834,0.031127618509620404
13,0.02991077978220537,0.028350529837956464
14,0.027930402851326287,0.02664379912539552
15,0.026443790008636305,0.025019681873571807
16,0.0270267884156925,0.02681250788930042
17,0.02840684817658721,0.028737999778167413
18,0.028075565727685187,0.025689040232029316
19,0.02582940522158484,0.02462400476306371
20,0.025420557344250447,0.02444037988093912
21,0.024683922738414542,0.02357257247829682
22,0.025025865539527244,0.02113001995103253
23,0.021847478835452662,0.021240096950893243
24,0.021402389829536135,0.01921685912955814
25,0.020585116491817552,0.020278378851394205
26,0.02056922547059129,0.01990325571770685
27,0.020373204474350055,0.020075065958524606
28,0.021002287440430777,0.02226063550465344
29,0.020702957343548347,0.020279255450865653
30,0.021031283579177135,0.0206747297829733
31,0.021192228569716906,0.020909364569723466
32,0.021353645555430845,0.020891613856945906
33,0.02160838419507495,0.021035559156405332
34,0.021237885956909303,0.020832753912990453
35,0.02191554653874452,0.022109565243489553
36,0.02215682360217821,0.02385387087465744
37,0.025589002894876388,0.024865788840574832
38,0.024572485568765685,0.02289074436329958
39,0.02174881913979872,0.02163901917809869
40,0.02053895862333828,0.018554536597075524
41,0.019062941325910323,0.017405392871118475
42,0.017782373102210598,0.019259072355073365
43,0.016217914989499524,0.01613629842654823
44,0.01443850922195031,0.01371279001550568
45,0.013246363018089229,0.012661335916326755
46,0.011988045460321933,0.011264289151906567
47,0.011646789354573694,0.011184976580269759
48,0.011598823947919834,0.010890858687442781
49,0.01129849788120134,0.01116967531275401
50,0.011222736283148125,0.010052122913694984
51,0.010465824681942423,0.00977493021284372
52,0.009802076270242484,0.008311921735599213
53,0.00953832818090999,0.009220717621095414
54,0.00887966329484231,0.011533719029177594
55,0.009179901456918946,0.009228726237388981
56,0.008231282592929757,0.00717849535617651
57,0.008453670488525298,0.007996531092394923
58,0.009034944741672529,0.00806871666584014
59,0.007896769872429571,0.0065413841903474304
60,0.0076515292520817225,0.0066733833827995696
61,0.008692968769544672,0.009863772593444505
62,0.0073436962825497035,0.006900579757523894
63,0.010053021209627139,0.00870017176082368
64,0.006601740943370678,0.00518348924326839
65,0.006625907481100848,0.006332471325586314
66,0.00704155197275131,0.006096348387535424
67,0.0075958760085439,0.0048491215168321306
68,0.006934523658021439,0.007687682203578027
69,0.00722196025622757,0.004788977400974562
70,0.006987105004398597,0.005710021368115435
71,0.006625440515794431,0.00863606438493531
72,0.006346151181630683,0.004679200424301499
73,0.007084135562635595,0.005131050062622366
74,0.006294237768302093,0.008962820007685564
75,0.0058441636873577405,0.0057421027418650865
76,0.006114380968633003,0.006822731375845698
77,0.006580712608445873,0.009563773000523178
78,0.006303197363245232,0.006164754325216717
79,0.006617057302461969,0.007508158693516417
80,0.005990520236268491,0.005939410665148212
81,0.006222522197135662,0.00531904155850828
82,0.006144222313371434,0.006474917031046894
83,0.005983213605962211,0.005013963046624092
84,0.006209917332073279,0.004509044584546947
85,0.005635957524599545,0.004738033067210098
86,0.006024182953355874,0.0052368626895823
87,0.006067359039904647,0.006635518593257168
88,0.006301108021962849,0.006772476894194414
89,0.0068293272144087465,0.007986406213879561
90,0.006608450075155117,0.004708341503848087
91,0.006052267659518073,0.005283480561110496
92,0.006180508763713242,0.005759929077649796
93,0.0066280651036917946,0.0062699761594871345
94,0.006621938612353768,0.006705923906756063
95,0.0066230318033144615,0.0054715137538039246
96,0.006295421812813624,0.005660962846884305
97,0.0066099745802302885,0.005597375757623267
98,0.0066487019380768965,0.005618020766080249
99,0.006282964892734548,0.005604262178728464
100,0.006620475371888608,0.0062113743004901445
101,0.006550992885939509,0.005590737547215306
102,0.006540704842583894,0.00565641623629138
103,0.006704903599864942,0.005826798607077047
104,0.006741634780000582,0.006029404728102256
105,0.006823880075708591,0.005832497651623334
106,0.00685659565774502,0.006454795552307377
107,0.006786077020155321,0.007387609702873837
108,0.006790996019112067,0.0049898209784991435
109,0.006157172495591567,0.006340154528804564
110,0.005931465968331076,0.005241998593891135
111,0.006092573280820696,0.005206914300697355
112,0.006419189542038389,0.0053489800509882775
113,0.006164352850170343,0.005759076045987056
114,0.006111707515101865,0.005932316945567315
