epoch,loss,val_loss
0,0.15361725496088,0.11749690288902741
1,0.10418977652736705,0.10475857767563874
2,0.10427956480821736,0.10381782017854037
3,0.10373221280024969,0.10402823728821649
4,0.103896032551305,0.10421645639562757
5,0.10402916128234231,0.1046454689355939
6,0.10415576176820614,0.10420627710898278
7,0.10403139243642394,0.10474942223519534
8,0.10463942071016458,0.1058714447135801
9,0.10528298061218956,0.10604999312614961
10,0.1054163236173985,0.10580763530688862
11,0.10570191338265257,0.10627576569426031
12,0.10585992387849555,0.10574253897264235
13,0.10518636239423074,0.10722709131363159
14,0.09931554453526374,0.08190557536475754
15,0.09089750957360371,0.09397641096584611
16,0.096561049963597,0.09813776418225635
17,0.09696582830447754,0.09575282967551638
18,0.0973040043450088,0.09725391027394861
19,0.09743699230712285,0.09685038604671407
20,0.09750682746859,0.09806160379462855
21,0.097588579217307,0.09807661312155208
22,0.09777790327652466,0.09911176856921805
23,0.09791976480270556,0.0993106599306157
24,0.09833603513707741,0.09924459627343617
25,0.09845727863166925,0.09899108830454223
26,0.09832211805404804,0.09852600325819255
27,0.09848163512756498,0.09976646289429329
28,0.09858879010430534,0.09801471703219056
29,0.09842844016188912,0.09815614801061934
30,0.09838575483869305,0.09923009264511486
31,0.0980974686183899,0.09781766670514207
32,0.098358131790285,0.09713731642633136
33,0.097772183160273,0.09803834752765526
34,0.09775156417577197,0.09797296680116051
35,0.09786216153515329,0.09772725209840753
36,0.0977771640848294,0.09587026368635512
37,0.09760131870957016,0.09706737330417137
38,0.09756616913347983,0.09962358737942169
39,0.09779080261977362,0.0979557357604991
40,0.09769992219458382,0.09882906788479369
41,0.09766517135260297,0.09805374146213472
42,0.0976194876441948,0.09920038750958236
43,0.09761959656799059,0.09820511566082511
44,0.09747490750776111,0.09707753442010263
