epoch,loss,val_loss
0,0.19411648437678575,0.12148639179278098
1,0.1062273517143812,0.10111885734237643
2,0.09991953633934092,0.10024336497310399
3,0.08941618448419632,0.08549062219090413
4,0.08509733988869962,0.08394496739733943
5,0.0826058578219631,0.10497022615988234
6,0.08440561023809545,0.07745282217895505
7,0.08136183423378009,0.0775420906429415
8,0.07155850952823195,0.06555841863743414
9,0.06344403962580135,0.06270542893126525
10,0.06307389973391064,0.0624221147235774
11,0.05902847647666931,0.058587156812459726
12,0.06251633220272575,0.05678416937354426
13,0.05507607833980371,0.052063518633805775
14,0.052098851960649686,0.05128528459119627
15,0.05492150725768529,0.051363657936512624
16,0.04843455902058825,0.04656566078491632
17,0.04592019644119947,0.045170649680314146
18,0.042636679912761724,0.0597329781035692
19,0.04013451566691879,0.03590866055665942
20,0.036449346686903236,0.035754005644461635
21,0.03607532335408062,0.03430842207458044
22,0.035552241625807744,0.035150811871500494
23,0.0353337231975832,0.03517307286116206
24,0.03766115751418231,0.03390761269307927
25,0.0349585434718193,0.03511208808306831
26,0.03490295533022339,0.03391109163054774
27,0.03473501711738386,0.03381900195305801
28,0.03804899155825591,0.09517629616309455
29,0.04651327341270866,0.0368122930396657
30,0.044683787925578325,0.03801231023038854
31,0.03640926954039424,0.03543827365040073
32,0.035883147513671075,0.035264982520687174
33,0.035721144717124155,0.034081642372620416
34,0.03694436889436605,0.03725845813633611
35,0.03453950302676855,0.03547670327762073
36,0.03428812410316164,0.03452360051101178
37,0.03916781062601234,0.035140037298461255
38,0.03505818104352072,0.03487227456063479
39,0.03476748548501687,0.03396318117399195
40,0.03576381279856896,0.03412926084440622
41,0.03453795138231332,0.0334582349569217
42,0.03435731323496948,0.03361428164433756
43,0.03391236400933003,0.03382610472326403
44,0.034810113346131204,0.03559843807436391
45,0.034475357102737914,0.03362148179251468
46,0.03562349310482768,0.03393548445066036
47,0.03395658913258311,0.03389948469916713
48,0.033903156154804666,0.033085185763938464
49,0.04950994301101954,0.0729203783063881
50,0.03982720456624345,0.037110281030587916
51,0.0347221929484682,0.03358132445386478
52,0.03424062223570477,0.03387353307293359
53,0.0339917120688277,0.033027473701885954
54,0.03380886466204405,0.03260954558531788
55,0.03502613143901602,0.03464839269643048
56,0.03527298593650952,0.03688351384525047
57,0.03552215528651345,0.044418936493882254
58,0.03476637320743381,0.03474730489027246
59,0.03376031733549041,0.03235677116930532
60,0.03370564838768624,0.03357445878500814
61,0.03358899189574684,0.033239250835075375
62,0.03362487106443309,0.03281493868675868
63,0.03381030376759364,0.03266703278773068
64,0.03766700165937368,0.06358706600664164
65,0.03793634179768136,0.03397191832784413
66,0.034017358009489795,0.03327266927352785
67,0.03386756435757299,0.033423227735081336
68,0.03629178714325769,0.03321368302547188
69,0.03381979946705173,0.03312887689473597
70,0.03380365208756152,0.03267084831414537
71,0.03483952107808763,0.03441190598760426
72,0.033799778967857554,0.032913404223586316
73,0.033621820157392325,0.03342524196602692
74,0.033621579643895776,0.033338173165411676
75,0.033670767363038756,0.03268217197204069
76,0.033747335151433466,0.03342458138267356
77,0.04167413260403583,0.034249297692348565
78,0.034357118437425505,0.03431259321038565
79,0.034074985320202644,0.0337310083086978
80,0.033889850653666294,0.033180720342621615
81,0.03391417104015343,0.03421913923279639
82,0.03836979933208127,0.04154896032250389
83,0.037993317785606585,0.04585221460075856
84,0.03593006786361015,0.041650870675257835
85,0.04258822770022469,0.04789984747532229
86,0.03764189491502577,0.03344524041076956
87,0.03315249973272296,0.032866417942678916
88,0.03530578348907731,0.03297437939001946
89,0.034973838327111574,0.032351646301848926
90,0.03308796962137989,0.03223564454016953
91,0.03528023106034854,0.032238274412825056
92,0.03575132203122361,0.03502064164148698
93,0.0365592017561364,0.033940560598258625
94,0.03280418191245086,0.032142982107382076
95,0.03281940634903624,0.03219278396387315
96,0.032481360105540064,0.031704478133425716
97,0.03519492739324661,0.03414587475706389
98,0.03723865257893249,0.034465526078475583
99,0.035830061218673756,0.06554162566974206
100,0.03826297579599704,0.03402933925272634
101,0.0363238366107813,0.036337846765131486
102,0.0359440946565877,0.03334719826626843
103,0.034754304048552405,0.03323254418495422
104,0.03649634379836962,0.036653414118708635
105,0.03767860776556434,0.03448748410971219
106,0.0348406767131661,0.03377637094079319
107,0.03885512132283976,0.033546941559217815
108,0.03498811027456483,0.03591986670913711
109,0.03569380934986708,0.03376451464283156
110,0.03259674200101746,0.031962426827710354
111,0.0330600967730502,0.03406681988944006
112,0.03379170270525008,0.03965974338029253
113,0.034142379630371915,0.032313350288178284
114,0.038644515239982774,0.05542650042600113
115,0.03864329530419015,0.0355781072011216
116,0.03653488639626,0.03613161824602448
117,0.04039955538638728,0.0548732174000311
118,0.04026523579528435,0.059377807762176854
119,0.04147063099818645,0.03746079296849803
120,0.036855477407920084,0.036335302538869886
121,0.03689622409868059,0.03775291736425145
122,0.03552147337822891,0.03469987185385252
123,0.03382760145627766,0.03363038763556785
124,0.03351851092200342,0.03324216058376321
125,0.03349742645339714,0.04665284803476782
126,0.03733104413790669,0.033863513050534734
