epoch,loss,val_loss
0,0.15108434911325966,0.10819915853199662
1,0.08818183175856166,0.06845614213522909
2,0.05626636894522525,0.052117615229587626
3,0.052756529777860946,0.0427481746205497
4,0.02567010585495608,0.01875736727507898
5,0.016201373165864928,0.014240604260790837
6,0.014253271321917204,0.0143309393757991
7,0.01647954520886298,0.017397527904165197
8,0.02024888603774597,0.022867777688397886
9,0.021327655304589573,0.020240114721004288
10,0.021612478066518677,0.021359377858929496
11,0.022412300622053474,0.021228198922035632
12,0.023008809799401404,0.022105893081946455
13,0.023636282096318396,0.020746473643425984
14,0.023711199828272432,0.024092496960073262
15,0.022518504397581806,0.020427153593527585
16,0.022137401280827897,0.02216478858081346
17,0.021155435828675184,0.018533738202105948
18,0.02065343038215459,0.021563591448782747
19,0.020761851843693654,0.019829274651365855
20,0.020610131353116054,0.019501752029713347
21,0.019770462652571576,0.018547998192913435
22,0.01965169642689369,0.021604780207704913
23,0.018553924276311095,0.018605724423271092
24,0.01846333602808124,0.015912031121963623
25,0.018112327967532912,0.017475285225539764
26,0.01787219424810198,0.01721710068539032
27,0.01786443041034525,0.01681286993935622
28,0.018056955802694355,0.021693260386151034
29,0.01785359291700746,0.01779404756390352
30,0.017586075664340832,0.017592860938541607
31,0.01769062217405374,0.01789444041656714
32,0.017636475052020484,0.01931302781909963
33,0.018159654420271194,0.01739172237736321
34,0.018271161448791158,0.020336363080891928
35,0.018370821805511542,0.01942896672275326
