epoch,loss,val_loss
0,0.14545611945464076,0.0994290216004839
1,0.07777153021342557,0.05664673184751053
2,0.050765674296233486,0.05112462000364192
3,0.051420323315450996,0.049387799480366916
4,0.04852897985030612,0.0471300382252368
5,0.0438307108510908,0.033167774057649396
6,0.023422944835937327,0.019281399891297932
7,0.020868564967801578,0.020380516460822527
8,0.021638793302037353,0.020525867364941944
9,0.02243960916483812,0.02230924076673405
10,0.022689232992813838,0.022207560485203903
11,0.023005692420793856,0.021850249305920236
12,0.02344180644749642,0.023014211986028685
13,0.023080299471428308,0.02257050764206694
14,0.023136553915141585,0.022345993556846713
15,0.023370771573560177,0.022529479620453402
16,0.02360733801560055,0.023238617012419846
17,0.023318334659792297,0.022492373423193653
18,0.023214311545177235,0.02300040156748837
19,0.0232098089511708,0.022806583464898365
20,0.02345691991971432,0.02455314334655429
21,0.02349306005898187,0.023166093885628087
22,0.02343340464707592,0.02155128399670218
23,0.023275569223498792,0.024715788972629462
24,0.023755645124073462,0.022468985795633663
25,0.023210946334262402,0.022856253426413228
26,0.023357066403267433,0.02586566236519917
27,0.023647142567490932,0.02387577218856977
28,0.02332077469218144,0.022874613127861564
29,0.023892739554681033,0.02260103667391598
30,0.023561776961109858,0.023068600824512925
31,0.023740995683514482,0.024833969840957787
32,0.02328566364649174,0.023050413946984975
33,0.023243795030658765,0.02482687584297245
34,0.023304876366661464,0.023420029019182748
35,0.023294809220774138,0.02249387125084037
36,0.023430677019893455,0.02348144368313388
