epoch,loss,val_loss
0,0.14826112275095962,0.11694008383632365
1,0.08904940230573873,0.08040123154139463
2,0.07191093579577885,0.06606356984249889
3,0.06009247466671667,0.06124428216582598
4,0.05245826918658593,0.051127437825572705
5,0.04805520825463233,0.04560419074726462
6,0.03741347780086392,0.03407032491423149
7,0.033547833905838945,0.0338589152352092
8,0.03780827206595958,0.03985658376209361
9,0.038102822302342604,0.037427755347625796
10,0.03630685751035297,0.036608106117833765
11,0.03687564020963024,0.03826451407717548
12,0.040202621135303825,0.04311776373185505
13,0.0461606992829999,0.047786232089916364
14,0.04780128322166505,0.043894888117215536
15,0.04137697225834111,0.04136061429354085
16,0.04033906266188545,0.040339527544348656
17,0.03552084399475087,0.034828531078776696
18,0.03218879968636661,0.03360080822196737
19,0.03236950149567579,0.031862886378507774
20,0.030765168093365255,0.03859741550347611
21,0.02912800887869083,0.027396208873487593
22,0.02841017710165583,0.027336030248802483
23,0.026504191596784608,0.027237609603634104
24,0.02672217551508634,0.02909072242741897
25,0.026082135261975222,0.027530260869223205
26,0.02614768034518718,0.03124090479047353
27,0.027474860590007855,0.029338070459740313
28,0.028411259669229853,0.028660386227418233
29,0.028336109063453335,0.03287550277461099
30,0.028085218204987897,0.025596871225261837
31,0.03168604621361438,0.028124007861693733
32,0.028627303188486542,0.02564727241392435
33,0.030051167930761496,0.032780102041756534
34,0.029886390623762357,0.028496760938201915
35,0.028590311660326356,0.03220767166609593
36,0.028262395057365667,0.02650562799355602
37,0.028696395435945973,0.02755459945210812
38,0.02894666850965896,0.025292826903176854
39,0.02941113904410367,0.028902210903831042
40,0.028032168811507267,0.03024008926577519
41,0.028188577355097808,0.033099456730680196
42,0.029282387849285926,0.027700049067599715
43,0.0286197924463869,0.029974428087108325
44,0.029773656453052872,0.02868658511795768
45,0.02986532696437159,0.030803501214934977
46,0.02994905822395945,0.033448931844147906
47,0.030204100022129685,0.030156016060178356
48,0.030635458312267595,0.02915635390093972
49,0.030695528386057994,0.030249450192584612
50,0.029959352901406427,0.02994241768489838
51,0.03106413472839873,0.030659402550831025
52,0.03090715308120544,0.030918959256235126
53,0.03006842508346295,0.030250927255486726
54,0.03190451690392624,0.031615435197984695
55,0.031955646626430925,0.030232585116856288
56,0.03192589025524595,0.030400606391226673
57,0.032572938945236725,0.03307971105144169
58,0.03156200123669432,0.033796416211876235
59,0.032257846124071204,0.030222464052941166
60,0.03321076750004892,0.034501749592897174
61,0.03234873092223367,0.03319091778821896
62,0.0333523802596221,0.03247341690930496
63,0.03316046074360347,0.03387871256131964
64,0.03281821483086577,0.03148104136643583
65,0.033124925939442156,0.03336530838870306
66,0.032903522544865796,0.030496351456162304
67,0.03261064957651637,0.03189596746355036
68,0.032047681584894704,0.030165653605228725
