epoch,loss,val_loss
0,0.6688820577149777,0.13100037202299464
1,0.07789366591790374,0.0381949045646268
2,0.03193769914309104,0.02541096724527499
3,0.023622468163112434,0.020424147904680594
4,0.01987570639344766,0.01815734393909779
5,0.017937576371409875,0.01672281029831319
6,0.016744486007055012,0.015785926103966563
7,0.015844368516020866,0.014845212895818968
8,0.014900937926224034,0.013806159283273943
9,0.013855281690086384,0.012806527485008996
10,0.012620752537884026,0.011451379121081044
11,0.011416726219232938,0.010202230498895641
12,0.00975121310751757,0.008248563982781993
13,0.007787125604189903,0.006643900706675221
14,0.006294907975175364,0.005296078843683222
15,0.005216738789434059,0.004549289179062478
16,0.004589504167307809,0.0037570929204605503
17,0.003932294059616384,0.003421784908074919
18,0.0035348257655389696,0.0030630084675406645
19,0.0032803452738879133,0.002773520180582396
20,0.0031337104185042174,0.0026735708607316913
21,0.002964392458304936,0.002450343896502694
22,0.0028122836649171813,0.002304971637695254
23,0.002652634525678312,0.002325436196668377
24,0.0025135900563723725,0.0020704669009256635
25,0.0023640127888164097,0.0019280309942781332
26,0.0023070881362248353,0.0018036170267414632
27,0.002292002278627653,0.0019079931542981305
28,0.0022087450376156274,0.0016289633073347763
29,0.0020653709610424535,0.0015851805898280088
30,0.001966000447072852,0.0015271863535111535
31,0.0019488767683010152,0.001594077090642869
32,0.0019651458845112183,0.0014450320311567451
33,0.001906724377972237,0.0015012430314530541
34,0.0018099055342056347,0.0014640623036075598
35,0.001818336666704456,0.0014568844622995067
36,0.0017233832747309361,0.0014558891323527257
37,0.0016565634891408695,0.0011969708923676443
38,0.0016685020991040317,0.0012216054002995341
39,0.0016793439291425802,0.0012820350414195641
40,0.001693818485271111,0.0012417458466481529
41,0.0015765307139339831,0.0012350214697384341
42,0.0015853087156243008,0.0011052072035157804
43,0.0016019133077967939,0.001133178744468134
44,0.0016068761395696875,0.0011799156545232363
45,0.0015347225304370115,0.0011076457795270833
46,0.001447866085728107,0.0011413174753405141
47,0.0016007326284029765,0.0011000920477793805
48,0.0014436844948569596,0.0011256219117580448
49,0.001515264112233528,0.000981101052394093
50,0.0015026326523348093,0.0012155326480039871
51,0.001554065561622942,0.0009427765061034967
52,0.001474633749710132,0.0009831770593530837
53,0.0013531716260369315,0.000949772995566558
54,0.001356618978203184,0.0008999857238047459
55,0.0013545369063902965,0.0010531410986190511
56,0.001319625233038119,0.0009074788308337584
57,0.001347583912747701,0.0008344294715106989
58,0.0012987498155065415,0.0008855779922098247
59,0.0013037417993677245,0.0009972517826539273
60,0.0012421448558863116,0.0008345934466458102
61,0.0012755474596747754,0.000822045100335068
62,0.001282453655033746,0.0008301334258043173
63,0.001294402783759702,0.0011326930206571157
64,0.001422401193083466,0.0008105277590829779
65,0.0013314472052879747,0.0009780417746710927
66,0.0013090794031227527,0.0009113637569405
67,0.0013155355170410906,0.0008417270974341451
68,0.0013028797711026865,0.000983009873591031
69,0.0013123904353472217,0.0007919920214213165
70,0.0013270739915581633,0.0008943379527227523
71,0.0012846330800682778,0.0008489043074274785
72,0.0012869256332996126,0.0009466083271848907
73,0.0012479309886291301,0.0008108808221114197
74,0.0012971306218019275,0.0008576590932651883
75,0.0012830141046773448,0.0008660941989469249
76,0.0013266971103755311,0.00081906755553881
77,0.0012217544483765065,0.000802880436403334
78,0.0013362685444666368,0.0008536306277747566
79,0.0012490948161361568,0.0008643599229808882
80,0.001291635457388654,0.0010181349946812115
