epoch,loss,val_loss
0,0.14557433920465024,0.11278375461050724
1,0.09646391991874297,0.08628291192728417
2,0.08172059677940288,0.08036667856534072
3,0.07740664145024084,0.07769463804051362
4,0.07378031548669489,0.07349870121657802
5,0.0717373497182612,0.07223533796647824
6,0.07085693295863416,0.07175456142698391
7,0.0693884289962687,0.06970643963673591
8,0.06829592196656455,0.06754755511609419
9,0.06627671271383906,0.06500969146802468
10,0.06390339631637891,0.06426340174562083
11,0.06213044527349331,0.06082699921837734
12,0.06065157440593012,0.06061013595692831
13,0.060053357191913896,0.06125972353527653
14,0.0595663367308301,0.05997167103692313
15,0.05910527580480972,0.058141916434573865
16,0.05845032056136955,0.06079632110876085
17,0.05897496755031659,0.05804917954890485
18,0.05837461742744457,0.05812746274043183
19,0.05698091777966177,0.05683473459405982
20,0.05745382279419689,0.05612437684315344
21,0.05683392726724668,0.05918867127189226
22,0.056482480295437225,0.0560021501272658
23,0.05596720680094165,0.05373268645924193
24,0.05566292543479388,0.05776402440095569
25,0.05518874424181396,0.05685365551107967
26,0.05509104615421318,0.05714521184563637
27,0.05464357294612746,0.05612628240411735
28,0.054181250995940726,0.057626339126945765
29,0.054007590406661414,0.052903585194741636
30,0.0533756992573456,0.052669336403342995
31,0.0530741450002344,0.055552990888057964
32,0.05262603752499671,0.05774471168748111
33,0.05257629174932683,0.05301347620720551
34,0.0517639707056262,0.054167940124763496
35,0.05118505378290237,0.0509960230207622
36,0.05071968572745792,0.05168041029405481
37,0.050155221516613384,0.05013581466197309
38,0.049780909779022255,0.05084558826266261
39,0.04973974666721243,0.04981843717308052
40,0.04945925578510733,0.05314773645460747
41,0.050015896573650846,0.051671507797000346
42,0.0496281525023359,0.05070247767227037
43,0.04988222213076363,0.051406516131210625
44,0.04944992881658361,0.04697121078502784
45,0.0487234135427111,0.04916676487582541
46,0.04873778659412615,0.05004461383963064
47,0.048266813236413054,0.05089007797279787
48,0.04854756647305523,0.0487298116958226
49,0.04807297819905239,0.04794757219579809
50,0.04824433953677722,0.048299954388211254
51,0.04738222690616294,0.049130110600823576
52,0.047025514020622494,0.04573441651997457
53,0.04629705386231843,0.04947951841208534
54,0.04719844322612913,0.048560583868432254
55,0.046725825669406224,0.04551613475501114
56,0.046190466850900724,0.04602780128699075
57,0.046393324520519315,0.04827872260040718
58,0.047664093757442814,0.04644145031225145
59,0.045625207890614236,0.046940382705279574
60,0.04607577684471647,0.04915188698078952
61,0.046309844329417184,0.045730957098381673
62,0.04617399465051486,0.047120611367845684
63,0.04611624115936571,0.04602582410460113
64,0.045505162197456275,0.04330384659550749
65,0.04656888064530065,0.05027560919123366
66,0.04868730616500433,0.06872193901060883
67,0.0774432700172031,0.07636439949038844
68,0.07405094242543817,0.07141207386140477
69,0.069443164924852,0.06939570786873939
70,0.0666020377356705,0.06773633235843518
71,0.06422983914566079,0.06564419362591116
72,0.06434200301492433,0.06449873476409028
73,0.06295162040909989,0.06322521266498807
74,0.06219492939938839,0.06035822499969764
75,0.06090152912217078,0.06113986816219015
76,0.06131870059563006,0.06312913127131789
77,0.06054271001824372,0.0642399074187783
78,0.0610950417715392,0.059224623281158795
79,0.0592763371420183,0.0593116039464628
80,0.0583747852501347,0.05824147619971536
81,0.057215230439683136,0.05709059455306302
82,0.055244731653532345,0.054518625995801394
83,0.05549695120035983,0.05450882602721194
84,0.05444382089112017,0.05511625070527678
85,0.05395037324117909,0.05487145886601382
86,0.052908163243751354,0.05529088478450147
87,0.05313317415763815,0.05106103612255561
88,0.05370653619904884,0.054406155380049184
89,0.054052836397926296,0.05797361814502947
90,0.05447654964493143,0.051893415201481816
91,0.052722070753264676,0.05276990766271702
92,0.05025130779825621,0.04757038155466248
93,0.049616318869052364,0.05888807761829108
94,0.05740355976598917,0.06442503586423237
