epoch,loss,val_loss
0,0.6412440903252549,0.17569211858082873
1,0.07972193911052246,0.046731696117907506
2,0.03726270402387845,0.031154721512237964
3,0.027947882467286765,0.025506026362199057
4,0.023627738646275515,0.02212333829592746
5,0.02095484711098776,0.020094682175104506
6,0.01939224507317221,0.01888518519670171
7,0.01842897339797706,0.01804564600250292
8,0.017645221636842765,0.01736530809036229
9,0.01701668818383742,0.016722134872388914
10,0.01637663107684,0.016076507809812287
11,0.015703065286604145,0.015351223430780792
12,0.015005325098230923,0.01469878592302739
13,0.01442774862786539,0.014092352198644143
14,0.013827745026226143,0.013842369867863623
15,0.013134537563234162,0.012777055687202698
16,0.012377880111658315,0.011965318056648184
17,0.011554946444726152,0.011123340473978558
18,0.010844568803840928,0.01043606097806295
19,0.01021428857531717,0.009909044650560443
20,0.00969493974723833,0.00934767249814325
21,0.009030260047395166,0.00855340933516892
22,0.008035030303825196,0.007474731755367206
23,0.007239077141215142,0.006971946952757209
24,0.00694566545151859,0.006827423361518906
25,0.006814926474107255,0.006723365119063746
26,0.006776407396020315,0.0067077309496689
27,0.006768964935647998,0.0067699912556203785
28,0.006790974169231052,0.006664592274718263
29,0.006768618599041927,0.006735948052613069
30,0.0067177601895636796,0.006663811800306061
31,0.006732601625882059,0.006621821136629149
32,0.006701641123843112,0.006625002229493626
33,0.006736531676866001,0.006626394601948942
34,0.006748375925440178,0.006760769777643864
35,0.006767133883625674,0.006655229777083001
36,0.006762518382949128,0.006728801713490472
37,0.006892515548901687,0.0067140383262925245
38,0.00677391710422403,0.006715442525147921
39,0.00677008096867209,0.006693048978219986
40,0.006782245255342657,0.006685408862085679
41,0.006767752281815219,0.00670642152188997
42,0.0067977011352658365,0.006667379951420598
43,0.006782774357862181,0.006735011581302089
44,0.006756081090619166,0.006704916027922186
45,0.0067846178941482265,0.006832264815828371
46,0.006743086617719904,0.0066803379540038375
47,0.006761597842424751,0.00666238481014226
48,0.0067606824290135405,0.006697373620904071
49,0.006754579354929242,0.0067015738188250145
50,0.006684294253361406,0.006779530808923511
51,0.006740673763422872,0.0066484581449766655
52,0.0067046266112425965,0.006631868516169224
53,0.006698282689398093,0.006634887718046474
54,0.006687808460254463,0.006609025061418668
55,0.006743511661506004,0.00661239580449008
56,0.006665969026281679,0.006659462273226729
57,0.006666844477318674,0.006634298750973397
58,0.006644319227005509,0.006658200427798676
59,0.0066486091087226105,0.006570035164650962
60,0.006617694943890178,0.00654328091550786
61,0.006648737299207637,0.006639569435465637
62,0.0066216306963400974,0.006597606850760065
63,0.0066041155602130815,0.006525829513046388
64,0.0066344065291674545,0.006541979084954242
65,0.00662047956302631,0.006499183317903656
66,0.006594845035346411,0.006543507304442451
67,0.006588862841125491,0.006454194319267605
68,0.006577014906717528,0.00646195797420209
69,0.006620659886358334,0.006452461805682697
70,0.006558775636393556,0.006398589984640985
71,0.006564013119474303,0.006448558343525891
72,0.006550879327492486,0.006479080752105744
73,0.006462220453190432,0.006422607680222559
74,0.006463972164495148,0.0064164748262458176
75,0.006471331074586709,0.006350296698716464
76,0.006436416825695003,0.006420905837802409
77,0.0064010713815236455,0.00631470971460724
78,0.0064240609761699735,0.006290108794250894
79,0.006387306177403501,0.006332238995703121
80,0.00636520488023889,0.006158154508526766
81,0.006352357144990889,0.006263385489347796
82,0.006326448769017542,0.0063174053076169535
83,0.006326785232934306,0.006190892603709976
84,0.006309666095761586,0.006254236966933123
85,0.006308599161527616,0.006177643979601886
86,0.006308571210311209,0.006195913435010667
87,0.006304677014501927,0.006167603724642753
88,0.006232889143558,0.006193724418266279
89,0.00623978256768317,0.006085448983274606
90,0.006230770474036249,0.006168620302191191
91,0.006181443497601102,0.006105797914766075
92,0.0061625730042322744,0.006065534546106889
93,0.006172628100994203,0.006145079986610536
94,0.006127419001940224,0.006051591355662319
95,0.0061513060636127544,0.006056135589802298
96,0.006179964676094379,0.006072320159445293
97,0.0061544173554949864,0.006040631228912366
98,0.006114645732297219,0.006167705501220244
99,0.006123710926592374,0.006108066742988369
100,0.006114893869834124,0.006097093673647861
101,0.006142269932016504,0.006229171057502962
102,0.00607807692333901,0.0060648835288403345
103,0.006101270075991667,0.006124226811938076
104,0.00607997912215255,0.006004786585261362
105,0.006088551000240062,0.006135040634674121
106,0.006008414398628674,0.006035858910419076
107,0.006039751453144992,0.006032397816561886
108,0.00606976778542014,0.006067216133179868
109,0.0060649633405359385,0.00601814268120133
110,0.006034141202806402,0.006057535103009904
111,0.00603968699013801,0.0059068221551084625
112,0.0060128830730629195,0.00592757127010326
113,0.005997704994529009,0.005910509896641796
114,0.005984630557052571,0.006012648626303428
115,0.006012992468103468,0.005966749858190529
116,0.005957545124464851,0.005998002575826555
117,0.00598245758345897,0.005941557240008649
118,0.006004616686646982,0.005936576304523584
119,0.005968436692580045,0.0059670070469255935
120,0.005959404439633365,0.005903095756705201
121,0.005909352343705156,0.005919574014916017
122,0.005976099058982732,0.005912012954984204
123,0.005921006491921431,0.00582875888691752
124,0.0059271911222437065,0.00589205082116359
125,0.005956238804595004,0.005834100055695756
126,0.00593393611283206,0.005816584935554413
127,0.005936301438038131,0.005920185548001232
128,0.005877331159055995,0.005817830748194513
129,0.0059338747106826035,0.005710449967615677
130,0.005856314224736701,0.005814217593323883
131,0.005848623510319099,0.005682231300093686
132,0.005878632725160614,0.0057519364417710685
133,0.005828582257371869,0.005631823638849543
134,0.005816752260787596,0.005726669758819955
135,0.005809248003700702,0.005652885307391022
136,0.005756804831981135,0.0057026334386245416
137,0.0057639658148084085,0.005716118019591685
138,0.005773569347052504,0.005690272528848713
139,0.005748058356222608,0.005664411472449198
140,0.005763941715440923,0.00571427979611666
141,0.005739735741671517,0.005716182521949415
142,0.005726790329594787,0.00564637868727639
143,0.005698125411143644,0.005620300918655807
144,0.005708228934818297,0.005624968783478616
145,0.005691942018490258,0.005843718173812954
146,0.0057062070792932495,0.005592352723527844
147,0.005677435276501303,0.005533294694905405
148,0.005642847944539395,0.005626201453591508
149,0.005642732637722215,0.0055539654700148735
150,0.005678091581231899,0.005621352303558527
151,0.005639616166242211,0.005589030890695416
152,0.0056063512527792575,0.005462231181397294
153,0.005640129636166146,0.005583130999305818
154,0.0056072305385425365,0.005457155200290393
155,0.005568327981499221,0.005491623764853239
156,0.005588358570765749,0.00555583949464696
157,0.005539144672227087,0.0054801914961486705
158,0.005540545693309092,0.0055173755389650745
159,0.005532785569675725,0.00545234711555545
160,0.005542128911535207,0.005576462814203612
161,0.005516759924691835,0.00538598838274756
162,0.005559957393040832,0.005402373204753097
163,0.0055007543545112095,0.005456037587841242
164,0.0055176602943772845,0.005383045169294774
165,0.00553224371674714,0.005449661251816137
166,0.0054966946989357425,0.005356118618492287
167,0.005525988428373274,0.005450255886211274
168,0.00547177238660834,0.005310529889649143
169,0.005476072703456159,0.005385275328886161
170,0.00541791943632227,0.005366344958611403
171,0.005472212132039688,0.005390509354037357
172,0.005434330089388491,0.005460032020440441
173,0.005433643537146939,0.005266797519344087
174,0.005402414170804796,0.005280014653429212
175,0.0054018941114572505,0.005359718646639524
176,0.005432256909130479,0.005301372517832359
177,0.005366975229403241,0.005289712816406256
178,0.005356818480382887,0.005320268277749242
179,0.005408524272987227,0.005367834239333703
180,0.005420113889147623,0.005297718819189632
181,0.0053256409079711926,0.005358671906956229
182,0.005335602389319505,0.005246126860374292
183,0.005342090469811091,0.0052665867386995895
184,0.0053214668843457455,0.005216235409607639
185,0.0053308316399242805,0.005388641244810495
186,0.005336966264515007,0.005250673695895953
187,0.005341152012680205,0.005277076828710282
188,0.005356750439675294,0.005175467020807745
189,0.005330031384809983,0.0052116915731357846
190,0.005329740316354685,0.0052644851435219905
191,0.005325008022169367,0.005149397887318927
192,0.005294795623600042,0.005168096042196277
193,0.005293166926718777,0.005187994185261775
194,0.005262138861358809,0.005217436231722748
195,0.00529238069839448,0.00519482423231629
196,0.005293070462805559,0.00536248686002316
197,0.005292867735805486,0.005178109994459524
198,0.005267722911456768,0.005141496320564562
199,0.005274143273220788,0.005088560025545092
200,0.0052681111663261315,0.005125483016512153
201,0.005251880016008155,0.0051331176505598295
202,0.005251732497601856,0.005101254564910633
203,0.005217043987418012,0.005065501178008369
204,0.005225494051900067,0.0051198834942943385
205,0.005260164555769673,0.005081321853385752
206,0.005206408584937096,0.005084544539322228
207,0.00518720570004744,0.005142677842912094
208,0.0052422217397148805,0.005108534221720441
209,0.0052121432554304336,0.005076923357630068
210,0.005176611493142853,0.005087542435817344
211,0.005198581914546238,0.005069199428712066
212,0.005185788789158054,0.0050628154120322
213,0.005193375018823573,0.0050190306065020455
214,0.005180101300463926,0.004976467606512317
215,0.005181991903343611,0.00503904800479842
216,0.005158062101335084,0.004998298678708857
217,0.005157776870210167,0.005046048551142192
218,0.005210228284432305,0.005060031465398061
219,0.005220190174490523,0.005073886929960494
220,0.0051403610738549686,0.005022522504937606
221,0.005189518624400016,0.0049389891316136605
222,0.005143385001761224,0.004977692683810264
223,0.005198057337800304,0.005039824772664385
224,0.005181215491315587,0.005064446340523067
225,0.005142815488142718,0.00500256500090013
226,0.005161195586946943,0.005176353566760187
227,0.00514986392015295,0.0050086927546545475
228,0.005169069019632397,0.004941931225935728
229,0.00517538775221633,0.005020537454085079
230,0.005157427409281143,0.005092660476392593
231,0.005171475875422918,0.005082954468842134
232,0.0051703334975463575,0.005058278800477145
233,0.005102722417953298,0.0050042592879934586
234,0.005160013613716173,0.005026386607873482
235,0.005127126554795485,0.005082107794080768
236,0.005139053233420487,0.005202313551374938
237,0.0051561753631462984,0.005071637379821469
238,0.005147062948339885,0.005018641619083795
239,0.005148265188817474,0.004970189552216099
240,0.005131022255721805,0.005015576233677183
241,0.005142783672421527,0.005000618093109733
242,0.0051388099356342275,0.0050314397392346106
243,0.00512640749987998,0.0049895441083159615
244,0.005115311729053942,0.004931806415781061
245,0.005087697362939683,0.004946311373460594
246,0.005171929216228253,0.005037486680357731
247,0.005184408014291804,0.005023055191680306
248,0.005084218404670473,0.004931603915601286
249,0.005171869747820113,0.004953922234893127
250,0.0051206172809457415,0.00495960338529267
251,0.005093580519268327,0.00510592054062609
252,0.005141255220206235,0.004947927826023187
253,0.005135600140011556,0.005028885296724543
254,0.005118615462628605,0.004955198664670985
255,0.005141953560080734,0.005091188372581045
256,0.00516343072669463,0.005050238659980265
257,0.0051550512569848534,0.004977173205750282
258,0.005090757583950659,0.005099709234299651
259,0.005168553446974162,0.004971313846739334
260,0.005124854239196681,0.005028926569677378
261,0.005129500858405297,0.005011230009595475
262,0.005196539961325703,0.004956833692230784
263,0.0051285319229800825,0.004985915074285176
264,0.005134380303232444,0.005022207793618692
265,0.005142436111174661,0.0051091650406070695
266,0.005139631342416783,0.005028207057200507
267,0.005131145288198471,0.0050058051228564415
268,0.005099561073624497,0.005008269167169282
269,0.005175568846625378,0.004957072395278581
270,0.005136136305991182,0.004982167679960557
271,0.005108682768341961,0.004992722170522999
272,0.0051017364576015235,0.004981274322195724
273,0.005101555092580361,0.005060925031920282
274,0.005103548029087764,0.00500250841882712
275,0.00511963763996381,0.005087247065796966
276,0.005137415769376713,0.005038593561280498
277,0.005130323814600408,0.004994055464269848
278,0.005139194565901844,0.005042182021401676
