epoch,loss,val_loss
0,0.3876867554753756,0.2072227222471825
1,0.16001818891617658,0.15028856520670175
2,0.14869203370174855,0.1467304530055757
3,0.14471996724128341,0.14183161710445608
4,0.13825146194168622,0.13432973832351255
5,0.1324267707604041,0.13033423452530077
6,0.12884675066551274,0.12642350043596917
7,0.12500266811316066,0.12343482029022285
8,0.1233727101734679,0.12233383513666804
9,0.12236243591392584,0.12152736384454821
10,0.12168393968891582,0.12085507588955027
11,0.12127563373459349,0.1204091925400597
12,0.12075238679651264,0.11979145052731763
13,0.12053491240195793,0.11965972342243643
14,0.12027688343540203,0.11946119230304031
15,0.11996246842120149,0.1194666961973891
16,0.11958910419260434,0.11909480121013892
17,0.11868846365172353,0.11797095465399053
18,0.11699777588045435,0.11517675266890437
19,0.11275604747838264,0.10846213098473406
20,0.10470446554110277,0.10022793372447956
21,0.09778654289613065,0.09486110319307155
22,0.09446864007853621,0.09293412898167883
23,0.09322946260961368,0.09260681867962046
24,0.09317883136894724,0.09247701056754792
25,0.09317353923169015,0.09272908435685791
26,0.09301010396382253,0.0919326129463854
27,0.09160791282609905,0.09012233728160726
28,0.08919354837784488,0.08707311121627556
29,0.08615591564328313,0.08431263071003718
30,0.0836682058483052,0.08233779302019466
31,0.08206792806295321,0.0810620074809226
32,0.08122789325286524,0.08037016222922665
33,0.08080975534774668,0.08000059773282897
34,0.08049014145083386,0.07994062032336059
35,0.08037070445626902,0.07954137356587763
36,0.0801847194663709,0.07940876432554758
37,0.07990042824116203,0.07922714679756497
38,0.07978394328116226,0.07937366823572892
39,0.07963694458464989,0.07880303128913274
40,0.07950574070143643,0.07886289009961865
41,0.07938017653789016,0.07863288090563555
42,0.07916463265498225,0.07825768475525764
43,0.07900051332359986,0.07832865948152078
44,0.07900529385233422,0.07811718858289023
45,0.0787700826616837,0.07812404499630182
46,0.07873502234108835,0.07800987647470187
47,0.07868827665276867,0.07796422042260785
48,0.07864083025792391,0.07830429762988582
49,0.0785864971822696,0.07818746139557499
50,0.07858885805591571,0.07794080982218887
51,0.07859795390843773,0.07808263610145084
52,0.07853634660247806,0.07817399307227386
53,0.07852127160832251,0.07794031123755332
54,0.07848848826031955,0.0779023984052839
55,0.07854820512312713,0.0776962729930781
56,0.07849454082805124,0.07797233609895056
57,0.07843837975930748,0.07795421919949347
58,0.07847110183239937,0.07781302839493423
59,0.07854974724417978,0.07784662522006983
60,0.07853559621746202,0.07812787557967968
61,0.07862507982002057,0.07800991957386334
62,0.07857591424396841,0.0780020896692829
63,0.07858932853413163,0.078075888153507
64,0.07865281029640912,0.07797058665670231
65,0.07857853687219948,0.0780016016290619
66,0.07863516612254304,0.07835914294891791
67,0.07861630536251969,0.07790401420236504
68,0.07857922165154266,0.077789610337892
69,0.07860751903419785,0.07796856599035827
70,0.07855114124244074,0.07801492345449118
71,0.07857389980740696,0.07790334720318624
72,0.07854365609329733,0.0778593433792767
73,0.07854364608363021,0.07789337441675662
74,0.07851736078126799,0.07808581375292618
75,0.07859447036532043,0.07807323844787654
76,0.07850165674694068,0.07802156842973111
77,0.07844092840070815,0.07790829085979825
78,0.0783936953704485,0.07774425910699687
79,0.07837940078434513,0.07789632320911635
80,0.07838266706757778,0.07785700741378834
81,0.07840148227705394,0.07778079231290051
82,0.07831719827303607,0.07779997302595426
83,0.07836019354548046,0.0775670531203567
84,0.07832346961582251,0.07773834078392167
85,0.07826116331536069,0.0777037669296489
86,0.0782659832206223,0.07768125536595528
87,0.07824552808407309,0.07777921849407032
88,0.07835108361499991,0.07753595683817349
89,0.0782753412095044,0.07767060876424392
90,0.07835206069093976,0.07763776399455027
91,0.07829182881345932,0.07766364684626037
92,0.07824725822938548,0.07780704767551253
93,0.07822198406446448,0.07760410157650927
94,0.07819890770151483,0.0779193677400924
95,0.07827699161749825,0.0773974644973427
96,0.0781543582522745,0.07776326839627044
97,0.07824560482684281,0.07753122910337533
98,0.07813503283610623,0.07770320857721717
99,0.07805820262198261,0.0774032079946289
100,0.07786358139508243,0.0771194142557602
101,0.07781085428044356,0.07718237158324984
102,0.07780501931858025,0.07742513432216568
103,0.07782522334849196,0.07738623586811869
104,0.07786713974226753,0.08520338046821462
105,0.07790574668835792,0.0774659710088012
106,0.07797688340024055,0.07736202027869243
107,0.07785994883438795,0.07739440266523338
108,0.07794834566030434,0.0774430454665582
109,0.07785778820777149,0.07733040524756918
110,0.0778022653716292,0.0771971289355486
111,0.07767461513499435,0.07721696057434693
112,0.0776365221417647,0.07713789403414398
113,0.07762872434263711,0.07703106559130204
114,0.07750039261946973,0.07705501346740892
115,0.07756910598974785,0.07692408533910379
116,0.07755400127678322,0.07703152998061269
117,0.07760073269029157,0.07695044052015933
118,0.07764950526462162,0.0771565938554251
119,0.07761665224861965,0.07719564371397122
120,0.07765938892208929,0.07712639012016713
121,0.07769013232021355,0.07731081756241227
122,0.07778142479727801,0.07704004573440126
123,0.07776508221419169,0.07728883143082346
124,0.0776701173405823,0.07721955313468888
125,0.07770671539778133,0.07712547734851094
126,0.07775432112409746,0.07726289460017056
127,0.07773195259613071,0.0771984714600775
128,0.07773740463155665,0.07703270367969851
129,0.07761671928893193,0.07733451155681292
130,0.07776680056623118,0.07717207054828883
131,0.07773188611356806,0.07720732401878197
132,0.07767732940119108,0.07735397336764348
133,0.07780593343741231,0.07735910940996922
134,0.07774610948071087,0.07731620106915585
135,0.07771221980201998,0.07720872646821579
136,0.07770800109717062,0.07714475963841776
137,0.07777224994116158,0.0772187696937517
138,0.07781284220152802,0.07712455327710967
139,0.07771721442906354,0.0773845719715878
140,0.07775083068516657,0.07715379744043026
141,0.07777107538606187,0.0771325397194157
142,0.0776668642942098,0.07714601906450029
143,0.07781967937087325,0.07689164998274167
144,0.07770670713592855,0.07738401775232487
145,0.07777519683369262,0.07728599369018327
146,0.07778468419662755,0.07732007760080205
147,0.0777762726820212,0.07735869212307199
148,0.07775888684465944,0.07736038758637745
149,0.07783908655254053,0.07709704626529854
150,0.07775131758567903,0.07719165232373947
151,0.07782622605108852,0.07704662498379759
152,0.07770312480252681,0.07723950624272578
153,0.07778892426895466,0.07724072834339359
154,0.07778966345125624,0.0772218567478589
155,0.07781981952410874,0.0773091750024589
156,0.07780211149834937,0.07716444558301594
157,0.07772692495150219,0.07727559459518825
158,0.07780176284816191,0.07725683432933478
159,0.07776452171458924,0.07742517975076658
160,0.07783758302060388,0.07734018556368806
161,0.07781677213523558,0.07725372595073533
162,0.07779631508981065,0.07722457778690699
163,0.07784962632638917,0.07740283866215797
164,0.07779347449779701,0.07730863744880935
165,0.07775387957727938,0.07720177728812673
166,0.07771312203213537,0.07698966077523607
167,0.07777817328397134,0.07725042183879711
168,0.07784757483377755,0.0772205062953805
169,0.07766375330398329,0.07742761157072374
170,0.07778407406625602,0.07712891762539902
171,0.07773388607846536,0.07720263076935564
172,0.07777171318320106,0.07737324333055563
173,0.07769724754713553,0.07748358976473581
