epoch,loss,val_loss
0,0.6219736095741213,0.17218616651848911
1,0.1201352647525801,0.05810889985409419
2,0.04008464278767911,0.03070249155475431
3,0.02713823074446641,0.0244763223344097
4,0.022445290301033823,0.020899863568176504
5,0.020015221358620102,0.01942655187902859
6,0.018954792802187082,0.01858540318447629
7,0.018202615071007674,0.01788938620172576
8,0.017585524386889356,0.017327630120581684
9,0.01704206371860062,0.01681623874848154
10,0.016550520446142563,0.01633357759432804
11,0.016072481723992133,0.01583449915492497
12,0.015515513829053116,0.015223399094278734
13,0.01484139670478664,0.01446191585036884
14,0.014032619076220394,0.013622915396509484
15,0.01327459666681447,0.012944558307516734
16,0.012714394685372317,0.012457975420892097
17,0.012272319850250542,0.012212795394325031
18,0.01199779882327282,0.011861376651072465
19,0.011733903326272822,0.0115991404130114
20,0.011521955318510723,0.011395991213131628
21,0.011316580968878442,0.011175802429577875
22,0.011081510390207874,0.010975645461811404
23,0.01083820165886129,0.010654275949482806
24,0.010481720113550587,0.010215807583362406
25,0.009980118920584377,0.009509012173646627
26,0.009093571469548057,0.008465050897563218
27,0.007955312626518244,0.007382725205951633
28,0.007114750143292424,0.00683919617967958
29,0.00669469395957643,0.006510019845578411
30,0.006469082469559855,0.0063398072658505085
31,0.0063553223874774295,0.00627393247420005
32,0.006284271968419937,0.006183858237566681
33,0.006232530205063135,0.006161646619762552
34,0.00618887792075638,0.006094248612185656
35,0.00617296567527677,0.0061751692269170905
36,0.006159089396980931,0.006150690664117531
37,0.006145892080387099,0.0060991345046216
38,0.006162432386434907,0.006044238446693465
39,0.006132660873999579,0.0060447012680717215
40,0.006108679273035482,0.006072089115367951
41,0.006095843538522816,0.006052424269709986
42,0.0061321283886425024,0.006086204830562989
43,0.006114859757446152,0.006088194392486266
44,0.006073342059269178,0.0060604132756726095
45,0.0060736341789055116,0.00602958626654102
46,0.0061180822991972255,0.009474867445452766
47,0.0060805635568466215,0.006192056992147838
48,0.006058086688033968,0.005984814720700224
49,0.00608843249930657,0.006026461257745572
50,0.006085363486938053,0.00613150738279652
51,0.006038405225246692,0.005943087520976069
52,0.006088780027424855,0.005967025122816227
53,0.0060658622525638336,0.00605799435346072
54,0.006074469157239254,0.00594999232927033
55,0.006067799200280774,0.005947902556817505
56,0.006016568828308635,0.005908021710713077
57,0.006052712763590421,0.005934448103804874
58,0.006040612882230994,0.006011414627567368
59,0.006055373341503213,0.0060119191026601765
60,0.006070955990360295,0.005922960626489197
61,0.006032241576855227,0.005910689563247145
62,0.0060577170959086445,0.00590907341463237
63,0.006007847922975473,0.005966929238857062
64,0.006024982214426633,0.005894749280544558
65,0.006082917796261757,0.005962800237863974
66,0.006031531597495817,0.005937939444328963
67,0.00601675021659425,0.005973383490269638
68,0.006020351268014581,0.005933704361872308
69,0.006056328176064409,0.0059392408639833555
70,0.005999929463709716,0.005954326960333897
71,0.006059482517979033,0.005974402567026247
72,0.006024026785784369,0.005970661292453873
73,0.006018602910513381,0.005915254470616603
74,0.0060246796146196,0.00590858632337005
75,0.00605416910716896,0.005949351030248257
76,0.0060616194711273,0.005920661540574084
77,0.006034933857330911,0.006181022243084711
78,0.00606119631753146,0.005919786011719313
79,0.006050545802275887,0.0060411541591874
80,0.006091800107018386,0.005997354831787645
81,0.0060196631676632814,0.005944701805843103
82,0.0060866304682932505,0.006007454221319898
83,0.0060865442844764365,0.005976642044988809
84,0.006058320269095812,0.005922986254766407
85,0.006122160194848153,0.006045418662102136
86,0.006101003508541367,0.005964564305789704
87,0.006099610061248501,0.0060968722353506345
88,0.006090927577996664,0.006026449454867449
89,0.006117672663923505,0.006029043996437573
90,0.006120216211588453,0.006021789638597544
91,0.006129440254822886,0.0060106499650572215
92,0.006120588243689587,0.006066135500925987
93,0.0061314120214227006,0.006130513007404913
94,0.006144078640113894,0.00604102917562438
