epoch,loss,val_loss
0,0.17313756071311012,0.10973919551722534
1,0.10261168693609947,0.10209449791094405
2,0.1009405111308864,0.10091495982003006
3,0.10024261329885867,0.10092803757070272
4,0.10005452330235383,0.1009712686502002
5,0.10020076126741657,0.10099055262866129
6,0.10014797960944789,0.10067758138784764
7,0.10003650066949767,0.10016733886646115
8,0.09988743800529949,0.10010392265284071
9,0.09981979216507775,0.10040161161203505
10,0.09982506803971686,0.10023924577819521
11,0.0997703401959962,0.10049731317898751
12,0.09988064058035684,0.1003928453188857
13,0.09996649956436371,0.1006829026313212
14,0.10013883052874717,0.1009913818071278
15,0.10022165208197326,0.10065449592558154
16,0.10025726002659634,0.10089163313419121
17,0.10045832455110588,0.10124758817402509
18,0.10056216583596907,0.1011463909012272
19,0.10055389931257204,0.10088633226073437
20,0.10059947122653706,0.10098302490191848
21,0.10057819159411126,0.100911482580553
22,0.10056242981045652,0.10132143818188956
23,0.1007668820383261,0.10137087213729627
24,0.10080312182910912,0.10141422202620999
25,0.10077127930429056,0.10143306800226763
26,0.10083866220631664,0.1011462143865644
27,0.10081965106425525,0.1011024776672696
28,0.10090197959868646,0.1017583696540642
29,0.10100948175104212,0.10173415018050051
30,0.10113830079468225,0.10146322501227907
31,0.1011034199099937,0.10198117567383594
32,0.10122515982408509,0.10207717098301569
33,0.10124040536171526,0.10177817158606829
34,0.10117778309481702,0.10171702586484878
35,0.10120338498712253,0.10182775016036105
36,0.10131056191061708,0.10194881429753157
37,0.10133063209523781,0.102040922267755
38,0.1013132495631417,0.10189944702099889
