epoch,loss,val_loss
0,0.4747078226307246,0.44726601081301076
1,0.1962575168590846,0.159196850172309
2,0.13567675356789838,0.13237197801124218
3,0.1283366801583861,0.12853985978651417
4,0.12571433661725578,0.12685902792122938
5,0.1224870651256381,0.1235811449298563
6,0.1196253727974854,0.12084659575953964
7,0.11749102456832496,0.11853730545718541
8,0.11565668593476137,0.11622062556503356
9,0.11523139089580596,0.11611690302920896
10,0.1124572610761237,0.11141308570323988
11,0.10870381520958397,0.10860402483579724
12,0.10675126261363818,0.1072618399941644
13,0.10588137999059648,0.10661672922067864
14,0.10544111468191222,0.10634753108024597
15,0.10548540034632045,0.10663420533718065
16,0.10555463964779546,0.10598174661628959
17,0.10490234712446768,0.10602201746646749
18,0.10511920818193692,0.10620766623999721
19,0.10497558064113452,0.10602824476569198
20,0.1050729502256461,0.10608957147644471
21,0.10508668727762117,0.10583864008040392
22,0.10491594197008554,0.10587850137967472
23,0.10475802075440489,0.10591833177925081
24,0.10490143715631305,0.10615174772665482
25,0.10481774718977335,0.10605712777884431
26,0.10490595338147456,0.10599968322487764
27,0.10442519140994455,0.10571429878473282
28,0.10489429539348197,0.10565016615067342
29,0.10451703970357189,0.10574751174034075
30,0.10466810491845363,0.10553330881882084
31,0.10440551401592615,0.10534980194282162
32,0.10438289763185922,0.10527712199115014
33,0.10433292183585054,0.10505370558925377
34,0.10424162201055391,0.10591666042342666
35,0.10436890643882,0.10530233983845674
36,0.10419373184911848,0.10475904985453731
37,0.10355795116171124,0.10543807457352794
38,0.10406006280127472,0.10483909236599309
39,0.1037216353134846,0.10463505613711453
40,0.10368781572017144,0.1049680869246638
41,0.10365390977052254,0.10483369364063869
42,0.10336181445149925,0.10447306711544362
43,0.10391327938226265,0.10441768030787624
44,0.10328868213366335,0.10455285261074702
45,0.10338658686932617,0.10451462194901104
46,0.10323800568974863,0.10429735060117042
47,0.10323460558502692,0.10437352296917937
48,0.10340746163617907,0.10470136104859123
49,0.10307794486678491,0.10498094951459604
50,0.10327220033472917,0.10480760956226393
51,0.10387509609535923,0.10440017698809158
52,0.10332561184571484,0.10392900538998981
53,0.1029033373425326,0.10420806532682375
54,0.10291713769510975,0.10457674194444981
55,0.1033163680804996,0.10470482256523399
56,0.10319425148053432,0.10475819523251334
57,0.1032812375956633,0.10424066750809204
58,0.10347978964330644,0.1044417841489925
59,0.10338078820564615,0.10479729091243227
60,0.10360737573208771,0.10438184497892394
61,0.10345302404850487,0.10422141740257426
62,0.10367618483586574,0.1040730727619903
63,0.10294830857768772,0.10452360024516896
64,0.10410625651830763,0.10566180066544881
65,0.10408739528552753,0.10489955192157464
66,0.10408408153714158,0.10552812956793364
67,0.10416440167060988,0.10472934358110723
68,0.10359706582985526,0.1045105084199314
69,0.10364224139864989,0.10441620422657145
70,0.10341090392174683,0.10424702337314916
71,0.10286083488952456,0.10367751340995464
72,0.10265328512182385,0.10347796699335408
73,0.10216850118608925,0.10291786890390307
74,0.10142362463896669,0.10252232774514561
75,0.10116874051140988,0.10234234574460244
76,0.10095142408853441,0.10150879991146945
77,0.1005924121718707,0.10175416618585587
78,0.1006317116965459,0.10182022724964822
79,0.10081703614766203,0.10148663657118184
80,0.10060654445661335,0.10149580286454785
81,0.10073470834671981,0.10152514388625936
82,0.10142413057445542,0.10191153313300406
83,0.10098537544565876,0.10175486232421195
84,0.10115880636483665,0.10224204943623653
85,0.10093416396792479,0.10214312120463497
86,0.10153916560289428,0.10189576637606289
87,0.10117535615765204,0.1015372004273326
88,0.10071044831764041,0.10221527095219886
89,0.10119775518422991,0.10145030846429426
90,0.10070071545407527,0.10156605225200802
91,0.10081907367612433,0.10130708693533905
92,0.10108678130887624,0.10161661957354509
93,0.10012376015111217,0.10129054479820784
94,0.10031269508318638,0.10121070143095283
95,0.10078059119267727,0.10120467928259871
96,0.10053566637940294,0.10145419529935186
97,0.10017786439009539,0.10103391185980434
98,0.10011184684873566,0.10114900253770888
99,0.10035794322180935,0.10101119758084763
100,0.10015541772673449,0.10090204051067662
101,0.10025561553990747,0.10090489933888118
102,0.09985339336507902,0.10066543236490368
103,0.09969636985636134,0.1006151917137841
104,0.09969944770880572,0.1005840031791103
105,0.09988407585329896,0.10059591665748478
106,0.09953766063911708,0.1006316130822019
107,0.09955824612397847,0.10030336833970491
108,0.09951646960391773,0.10018848841504534
109,0.09941428377637714,0.10032062220943067
110,0.0992801504458968,0.1004808451547179
111,0.09947646602870912,0.10021472601003426
112,0.09919028611868386,0.10014803979054902
113,0.09937332811083381,0.1004195857302163
114,0.09926198675172536,0.10019435964582503
115,0.09943009942300676,0.10029938447383023
116,0.09937988438709515,0.10034562930349232
117,0.09927935786838607,0.10006884017656016
118,0.09929658836267126,0.10001176503277565
119,0.09930609413019316,0.1002378500709238
120,0.09932312697876157,0.10051663427851922
121,0.09916887778466142,0.10036423374978147
122,0.09955951858927885,0.10005680078914923
123,0.09909335840640106,0.10016690974318704
124,0.09938243371764506,0.10000444925570673
125,0.09936434611326128,0.10000585013812827
126,0.09934667163477169,0.1005030196419982
127,0.09940880748230642,0.10016294736270756
128,0.09936318141738261,0.10036453287037768
129,0.09921006881815242,0.10048403481180354
130,0.09950477682699368,0.10040093952602194
131,0.09933479851859761,0.10014964461095574
132,0.09929202866601193,0.10004202894462172
133,0.09953171079318354,0.1004431863972383
134,0.0992339514489249,0.10019304170164951
135,0.09973360052493614,0.1006432377783827
136,0.09929108549290755,0.10018591363300648
137,0.0993644781704024,0.10024003632539927
138,0.0992262538258485,0.10022449614696724
139,0.0992570549366981,0.10014655683622804
140,0.0992648301162119,0.10036530299473179
141,0.09946612491617053,0.10010955569355987
142,0.0992853996439243,0.10037787686022677
143,0.0993764520747455,0.10028241187796112
144,0.09937439366119115,0.10026997859163801
145,0.09965180189121427,0.1004025526055994
146,0.09955090055550177,0.10051813144092411
147,0.09953289385151676,0.1004375969601232
148,0.0995213476808991,0.10053343458693156
149,0.09949442010930204,0.10025569057279779
150,0.09940127729196248,0.10030367312043212
151,0.09944808101794851,0.10034913864246635
152,0.09937618144853848,0.10026856494504352
153,0.09946353968203538,0.10036363181217696
154,0.09972514176931907,0.10087114913288013
