epoch,loss,val_loss
0,0.10982300753561522,0.05857002297335473
1,0.05408825567788739,0.05189705240498308
2,0.051927678346586265,0.05225177618491904
3,0.05242169673720615,0.05352811698214502
4,0.05659542240792041,0.060080748442457525
5,0.06006550480671924,0.06006113037866876
6,0.06003097758042536,0.06043796168953392
7,0.06003427547480848,0.06064963409561008
8,0.0600924869890598,0.06025492011230577
9,0.059979660563069664,0.0603695883170864
10,0.06006038153497912,0.06067532249494811
11,0.060061360896229266,0.06005560708450537
12,0.05992200132682741,0.06025237573903192
13,0.05982488636776126,0.05995496749972017
14,0.059434101336913334,0.05886737734443951
15,0.049720614341546975,0.04368562858195971
16,0.04442870094597959,0.045060346486677595
17,0.046435558059208876,0.047369476625344464
18,0.04668769403863296,0.04707194143507833
19,0.04739902702440842,0.04921263962360753
20,0.04913944880858504,0.05144376790220096
21,0.05046963839412784,0.050852602366843185
22,0.051010844301429395,0.05192023224323024
23,0.05162895190046369,0.0527952380548948
24,0.05246878298912212,0.05268042736878617
25,0.052395405716818874,0.05338342079118
26,0.053101359931327745,0.05393446168929174
27,0.05335914488914583,0.054143946847180824
28,0.0539835753957097,0.05445608291730884
29,0.05410280276974328,0.05449842224992817
30,0.053968653901756335,0.05536148229344868
31,0.05415834785460664,0.05421140675316105
32,0.05381381238321606,0.05445367543889767
33,0.05391901266946495,0.05434027464432611
34,0.054020064054347346,0.054430646126488576
35,0.05379150824235688,0.055211028955941516
36,0.05387647069103236,0.05473068179511233
37,0.054060522219736416,0.05424729795816289
38,0.0539758918757776,0.05450585275453287
39,0.05422179087948837,0.05463325448081356
40,0.05434094009687193,0.05485076611624897
41,0.054381053757777124,0.05456848294660155
42,0.0544340134405499,0.054673312262770876
43,0.054456279417284,0.054668418910198545
44,0.05474072184077174,0.05537873687077058
45,0.05465415118338107,0.054585315901624375
