epoch,loss,val_loss
0,0.1684931303016383,0.12291601032677277
1,0.10898762131385285,0.10408540639876379
2,0.1045771624377782,0.10646399703309022
3,0.10699787841354914,0.1086222319771854
4,0.10788768020679625,0.10802598198803749
5,0.10759281194943794,0.10762470505467153
6,0.10734506184272438,0.1075201877808138
7,0.107227573190614,0.10725904229643218
8,0.10709091197910736,0.10686055027483576
9,0.10674583826133673,0.10674211177636811
10,0.10631382913231183,0.10718366244973963
11,0.10666084054896205,0.10721336843206267
12,0.10702136248278675,0.10737348041528778
13,0.10689408142122624,0.10797264400484435
14,0.10742784789402327,0.10776283597866192
15,0.10749740889080041,0.10744132202092173
16,0.10739571853078526,0.1075434657585555
17,0.10717259666068758,0.10764285189929494
18,0.10738846787112317,0.10754192949823253
19,0.10755342649493953,0.10782593880921908
20,0.10757540799468923,0.1078971634547637
21,0.10753053027710659,0.10781304379476744
22,0.10753989901593168,0.10765416151017021
23,0.1075955412799506,0.10788868858692867
24,0.10756876326198105,0.10772933067655413
25,0.10747312866359782,0.10783202626875468
26,0.10743936512181514,0.10830243128251164
27,0.10757796694453862,0.10774587432323898
28,0.10734065333835417,0.1076504841693857
29,0.10741631487171523,0.10695830342119476
30,0.10694955150000483,0.1070975714437399
31,0.10749674123897256,0.10796123350240532
