epoch,loss,val_loss
0,0.16825939900726436,0.09374537884060002
1,0.06889613863709067,0.04669695396649621
2,0.027151793824414985,0.019736926466073685
3,0.02225702759220922,0.024849601053201314
4,0.025542940532000992,0.026037338585978714
5,0.022522461557422848,0.02128602251419305
6,0.020398911091682913,0.021669077262835137
7,0.02039690741779302,0.020022099564218014
8,0.02036976907402277,0.019663572542945654
9,0.02051289743415529,0.021484501531969496
10,0.02108207257981185,0.02015891729250562
11,0.020522243967897695,0.02030135394127682
12,0.021066622052946203,0.02191251801398907
13,0.021283359113458297,0.021631656416001618
14,0.02164880229572622,0.0210918581338148
15,0.0217033332618747,0.02200717528386669
16,0.021674922288512345,0.02180630007895458
17,0.02188346192142446,0.02168599447645629
18,0.022219203214505785,0.0226265673232342
19,0.02192929647133338,0.022378161214380257
20,0.022084883588413113,0.022177691148754265
21,0.022525250211173443,0.02160703555637443
22,0.022639710922166406,0.0227864520108267
23,0.023238895869673155,0.023312310150867856
24,0.023731352712997762,0.023775118142189994
25,0.023966737817392218,0.023308841479264476
26,0.024143862139752253,0.023774581593068077
27,0.024323564132959913,0.024434072696901534
28,0.024254807081969854,0.025025101749030925
29,0.02458435113427879,0.024084377263532252
30,0.024137562921763563,0.023770383871568407
31,0.024574384131252194,0.025083340191368333
32,0.02472837847083521,0.02621051448896445
33,0.024854094556106224,0.02439758719195742
34,0.024411953491367978,0.023886337786642415
35,0.023930424767777885,0.02416077338382543
36,0.024019570395850735,0.024775191440284488
37,0.024314374746315533,0.024270947738870355
38,0.024147487200087876,0.024475856877469414
