epoch,loss,val_loss
0,0.11304251321678539,0.06661383474235377
1,0.061697097297171224,0.06138059479826157
2,0.06133710062034506,0.0627747059585828
3,0.06240318237031869,0.06266360605560425
4,0.06223687377991341,0.0626491208214551
5,0.06222553783171564,0.062470013424224896
6,0.06222418157292975,0.0624123277479302
7,0.062190454545543256,0.06285626837585324
8,0.0622958565543262,0.06259172755545674
9,0.062201779621610824,0.06275245668138682
10,0.06214243097068499,0.06229773367848468
11,0.06211296636328328,0.062330050739417796
12,0.061972586293634085,0.0622209609466316
13,0.061926361742160686,0.06232183214920943
14,0.06184092171186452,0.0619847110333693
15,0.06189722263460441,0.06180222350707088
16,0.06180433528445703,0.06192765095298367
17,0.06163486413103785,0.062246702640848826
18,0.061843910460754166,0.062015395596823356
19,0.06153365966382263,0.06144788194427174
20,0.06167146888413399,0.06222865538820095
21,0.06197258960202539,0.061645800363928104
22,0.058872025120529914,0.057348841173543455
23,0.05959346187081364,0.06237778271053754
24,0.061893114461291796,0.061803570950746345
25,0.06215526337186686,0.06335711632667795
26,0.06225114228794996,0.06236039662488164
27,0.06216387338132309,0.06235781190262692
28,0.062124915310828616,0.06232816888270833
29,0.06206143787391275,0.06227750943910445
30,0.06206292948789067,0.06225595232790252
31,0.06117999744262817,0.059871365046444705
32,0.05908080025447263,0.05946113227116093
33,0.05921280254229463,0.0592580819803848
34,0.05917680839137684,0.0601317443030033
35,0.05935442841036333,0.06040466821443028
36,0.059350059213612576,0.05941680270146458
37,0.05930580067739403,0.05999706164237638
38,0.059403876496328535,0.06000820031035294
39,0.05946934444131516,0.05941939087556682
40,0.05934284100655934,0.05979782459344465
41,0.05933490809764889,0.06055804139742629
42,0.059458309485257675,0.059969822184462764
43,0.05950460210740328,0.060108902240091175
44,0.05941687322420468,0.06021023234433326
45,0.0594125314266514,0.059789249695537595
46,0.05932518620666364,0.059635924979538645
47,0.05937441689171475,0.059700223922306096
48,0.059406924322783515,0.06022506859374027
49,0.05937193326658006,0.05967924481032868
50,0.05928542090060233,0.05925843466276152
51,0.05925185279213458,0.059258077131920946
52,0.05925854308594712,0.0594636662947727
