epoch,loss,val_loss
0,0.146799959200654,0.09398286713797367
1,0.0712014019435687,0.06203277671346537
2,0.05873976218150102,0.05529738758303278
3,0.0449810831157638,0.04461726924109007
4,0.04145756324412202,0.03882654343497217
5,0.03963542894737945,0.039867305582728836
6,0.0391043785387735,0.040354258924040536
7,0.05170548249551242,0.048142757304983054
8,0.04854756719071707,0.048014379652612495
9,0.043452246628290746,0.043419892851913076
10,0.03896920514746393,0.037590970136019405
11,0.031381720961402834,0.02798603306323784
12,0.025948967415389778,0.02568986294342715
13,0.023925852121340095,0.02463589443280505
14,0.02327477785614993,0.023009032884284842
15,0.022476828038442333,0.0240659171586008
16,0.021969828464323098,0.02462498372054608
17,0.022254541674874527,0.021978700771669094
18,0.02148262743460689,0.023329295817800837
19,0.021742450651808753,0.022453591154025312
20,0.02135025514148289,0.020050770118714978
21,0.021113138026494584,0.0225904368116993
22,0.020882304097495252,0.020756531424449953
23,0.02096192625170346,0.023415728018640437
24,0.020962465859705404,0.02086906593319414
25,0.021244214276681175,0.021274430031910974
26,0.020300593765394438,0.020777574782248738
27,0.020124396605552625,0.024763394095703384
28,0.020668118077663066,0.020053185366723326
29,0.020201262761857346,0.018992482892574998
30,0.02023984639377569,0.02049499276757899
31,0.019927285161974142,0.020845789912185428
32,0.019782445003404366,0.019866821018724622
33,0.01976230905222283,0.023494440841693623
34,0.019939652495205306,0.02071767371962319
35,0.019940140147170098,0.02212330243670056
36,0.019746066679318938,0.019858003227185714
37,0.020117637774289893,0.023937341260952375
38,0.020146775599137294,0.02076666254841303
39,0.02007227364873929,0.020668807109463564
40,0.020352240408406698,0.021570108698617783
41,0.02002472036795841,0.020837733450021535
42,0.01995506007328546,0.019940725321151556
43,0.0202116385261587,0.021429751574075777
44,0.01983272083041122,0.01994245635064785
45,0.019609672433550027,0.02020615362066073
46,0.019868409915489972,0.019523952350361477
47,0.020147130139720002,0.02072777225170652
48,0.019640556244785598,0.019868061855000216
49,0.019427556088186807,0.01907284403015472
50,0.019134379453587827,0.021441888580159024
51,0.01954582919531184,0.020020618755443885
52,0.019484722250543957,0.02005327126450819
53,0.019323041071470596,0.018496682482235717
54,0.019395437835307002,0.020410294283619526
55,0.019452278475484832,0.020111534265241194
56,0.01898539588555134,0.02106957117149984
57,0.01898833176494836,0.02021417557537532
58,0.019629189627711104,0.020785163930707687
59,0.01955797128694997,0.01860764313962578
60,0.018893683788557943,0.020023693276926487
61,0.01934428930991321,0.02048070209384576
62,0.019060993228378675,0.01886578988145681
63,0.01907001383346524,0.02066288787604037
64,0.01856806215649243,0.023751251228982855
65,0.01898986612894028,0.020102567131312796
66,0.01877002584503042,0.019748783108043972
67,0.018463103122246874,0.022153623907840807
68,0.018920541012869607,0.01886332774683304
69,0.018417094639844173,0.018919548106504033
70,0.018201279058623655,0.01796180796504444
71,0.01797486093717156,0.020097026769027714
72,0.018175645100829793,0.018255597800780867
73,0.017527882153425905,0.01820329311814662
74,0.018273412861186063,0.018852343574760226
75,0.018635748030929017,0.019158742419240413
76,0.01889122020509794,0.01967114396246287
77,0.018310758783269845,0.018535332297046257
78,0.018304570665885266,0.01808123212034249
79,0.017703030201837982,0.017601508133395647
80,0.018117308160282678,0.018522153504857326
81,0.01776767978973264,0.016901388804074716
82,0.017569472553204003,0.017979078953343296
83,0.017738278655947255,0.01720720699355418
84,0.017248933738042458,0.016329981574837203
85,0.01745740374435576,0.017329962283884483
86,0.01711980408306221,0.017033059359472996
87,0.017029950139875846,0.017077655267579026
88,0.01748540907201888,0.019872428694976626
89,0.017148825678703405,0.01704728242006938
90,0.017106537895498992,0.016690190909423034
91,0.016596175707150086,0.01903798650500336
92,0.01742282265545629,0.01715430588959095
93,0.01692388176718514,0.019379317613455283
94,0.01685219546846992,0.017820973920282316
95,0.016815604455917954,0.017487374154208396
96,0.016657105476545583,0.01690061976978792
97,0.01688815606944114,0.017484604730913983
98,0.016704262892375414,0.017659957143577328
99,0.01700619955232246,0.018623855891148688
100,0.017004530165913245,0.01809563224763266
101,0.017062934690254102,0.016668989538452524
102,0.016740540829416423,0.016324629818972116
103,0.017098064168090586,0.01754198980906533
104,0.01681850574088754,0.017233619919221704
105,0.016828587194599457,0.01711486810678653
106,0.016893498037460087,0.017297911459922603
107,0.0167152282255564,0.01839502322198654
108,0.016517589423361775,0.01817793968767986
109,0.017056730300408426,0.0183499123843794
110,0.017277922444819786,0.017150376455148282
111,0.01704682264965382,0.019094868194849922
112,0.01722342406230555,0.01658722996747014
113,0.017024935031090854,0.017251159287195273
114,0.01649968678148078,0.018412929411974588
115,0.01675369667126049,0.019343634379326402
116,0.017439836266187787,0.018143767704150764
117,0.0170803901104392,0.018093555906218577
118,0.01702841344273848,0.019847545302351725
119,0.01732159555583692,0.01860360010441072
120,0.017352338857966648,0.017396345750767598
121,0.01707633014256172,0.018066703704286487
122,0.01760748386097183,0.016638396004980818
123,0.017144148450919525,0.01914449184603736
124,0.017584587229217748,0.018263959403031438
125,0.018108962484889274,0.01936155303448274
126,0.017778104826283874,0.017794260123028656
127,0.017971173385165625,0.019933152349920092
128,0.01784183679343604,0.01797959498837649
129,0.017889346243243377,0.018414414613474612
130,0.018056412078559302,0.01745960695908685
131,0.01853284473679096,0.019266875109384636
132,0.018622941119398335,0.01687848335977323
