epoch,loss,val_loss
0,0.16344010700686848,0.11129418797585187
1,0.10975572384661622,0.10923687469775788
2,0.10790740462730257,0.10773982044130023
3,0.10744894049364886,0.1076075665376369
4,0.10732342027050319,0.10766993386004982
5,0.10735350712049875,0.1075709738490049
6,0.10729031134947693,0.10745376486686994
7,0.10787144000772282,0.1071491622569623
8,0.10680864902613736,0.1075190324645016
9,0.10716466493100571,0.10779446814482666
10,0.10708885688147099,0.10756204651276145
11,0.1071917930369278,0.10737115543426824
12,0.10717374662891757,0.1072106958552901
13,0.10716990765621907,0.10774894266285667
14,0.10726493809053557,0.10739437832358134
15,0.10708333731150264,0.10728272906230393
16,0.10669301375806284,0.10678505665242626
17,0.10655866699705688,0.10633412089960351
18,0.10610502531274045,0.10653478085947676
19,0.10593557671057902,0.106489688610833
20,0.10573607570619034,0.10539003849711678
21,0.08765195046873878,0.06200079774835398
22,0.056377224195346555,0.06074749013583963
23,0.054861809352604894,0.06399387749236873
24,0.05655090822626075,0.057544685597366106
25,0.05730823647501848,0.062454333615613526
26,0.057769418134987593,0.05576261852139456
27,0.05696851474275406,0.05510092287338335
28,0.056459917730802923,0.05781510379091905
29,0.05619606116919113,0.05293143483874077
30,0.05635560810756531,0.05796126473839112
31,0.05575004869180141,0.05320687640543612
32,0.05569358204873346,0.05908929434294012
33,0.056596732402829336,0.05610594759682736
34,0.05676617830110301,0.05421132688434837
35,0.05612141140502134,0.05447716429100417
36,0.057379326252318875,0.060317520419725205
37,0.05730658392909524,0.05639921882040593
38,0.057465176803054664,0.06042980247463123
39,0.05720179679272749,0.058241576141580036
40,0.05755137577712488,0.06282567244608193
41,0.057294556154883644,0.05725724439135949
42,0.05699098932383348,0.05684511271182627
43,0.057063711728218745,0.05785694324074059
44,0.057093964426589906,0.05526381447005667
45,0.057557393106625235,0.05852803310648418
46,0.058452419710340354,0.05540952580997863
47,0.05836775329270714,0.06530654787335136
48,0.05859752185791612,0.06116691458714507
49,0.058020699352359505,0.06309126717962425
50,0.05882865742897149,0.06007784091071435
51,0.05872623370789128,0.056425529525518985
52,0.058075526641379535,0.05736949295099551
53,0.05804109877402738,0.05864203866826989
54,0.05803714073497614,0.05598958231208827
55,0.058620932734579585,0.057223143539705326
56,0.058464043601739894,0.057947525697236185
57,0.05778742051250833,0.05830132555813421
58,0.05814730896831131,0.05829058012439213
59,0.05737263291812153,0.05724671371016525
