epoch,loss,val_loss
0,0.13811225196321328,0.08305003543420392
1,0.07092524979183142,0.05694647795493526
2,0.04678550170515653,0.04165163676488936
3,0.039922128546890694,0.05049318428303467
4,0.045417667191615586,0.05092185301722366
5,0.03774214718642709,0.017127298980057475
6,0.0133680446031723,0.010975776708463609
7,0.012003131375702428,0.01116697396494995
8,0.011407363087796479,0.010765353133188944
9,0.01164564552108685,0.011014728870863225
10,0.010889151784257114,0.009112134206108014
11,0.01073931732090662,0.010756277060246459
12,0.010842752230311219,0.009388596961758413
13,0.010768347245594152,0.01285284746367699
14,0.010863189471976386,0.011037394790685991
15,0.011430216123827166,0.011383737184565982
16,0.011526184597444965,0.010294351425395297
17,0.01127671743210831,0.00982546833863492
18,0.01154152037453749,0.011309727311910564
19,0.011590638276127031,0.011540351921417578
20,0.011848391116344385,0.014298133562365289
21,0.011985478130616635,0.010628493201360988
22,0.012384175052710002,0.010354559192317814
23,0.01206057378203332,0.012148744721427242
24,0.011925950445767811,0.012375440974091345
25,0.012310022152111614,0.011910658837652573
26,0.012016089075877012,0.01212164476747612
27,0.012503908256993448,0.011885489088328057
28,0.013321675652776548,0.01295196041817635
29,0.013388030765895292,0.013555011622337205
30,0.01793705668303368,0.017066866859217374
31,0.016803530433090876,0.01733202262522084
32,0.016668141484528564,0.01624404304773321
33,0.016630311197281884,0.017689857201175888
34,0.018213087596076667,0.016740889741282766
35,0.01790982698887694,0.017429055516691123
36,0.017508985828325378,0.017726097310339736
37,0.01823927816837359,0.01710058272696426
38,0.01746585139287092,0.016912802533432546
39,0.01828790108913736,0.01760537508028341
40,0.018151065184296274,0.019196928235472144
