epoch,loss,val_loss
0,0.459026458309137,0.4546225120114264
1,0.4519160693402675,0.45350951984254223
2,0.45129305190986674,0.45296050988037756
3,0.4512860094614738,0.45263053510917295
4,0.45128535485858445,0.4525867837004146
5,0.45128327765339,0.4524796799871991
6,0.45129464922858464,0.4524984017261484
7,0.4512853806586765,0.45242811281942624
8,0.4512856524291751,0.45252078938597096
9,0.45128810832159316,0.45238058533645936
10,0.4512901297814364,0.4524766816665737
11,0.4512939302803134,0.45237991091484336
12,0.45128719152497065,0.45242498468110764
13,0.45128446653020754,0.4524418016588396
14,0.4512713483626322,0.4524940371325191
15,0.4512800447088923,0.4525435242063903
16,0.45127945013945814,0.45241427191054623
17,0.45128463805436514,0.4525826632882444
18,0.45128444975895654,0.45250792167463355
19,0.45128064432876003,0.4524508103104962
20,0.45128240793061963,0.45228503760900096
21,0.45127867656550724,0.45242499453680857
22,0.45128613981983356,0.45226741236970475
23,0.45127889814136696,0.4525950769552022
24,0.4512875844820512,0.45233394698355267
25,0.4512725366438798,0.45239712774236085
26,0.4512799438669813,0.45221179570846887
27,0.4512758706208709,0.45215893673821517
28,0.4512767929443829,0.45216585104166285
29,0.45128121850587766,0.45230604196592117
30,0.45128108250151433,0.45213762643117084
31,0.451270220567473,0.45210738855266347
32,0.4512727919528238,0.45212916633512623
33,0.45128024334339595,0.45210740894620216
34,0.4512711922994716,0.4521694765518101
35,0.45127355683145287,0.4521442342905332
36,0.4512735964725915,0.45209647283463755
37,0.45127831438748384,0.4521053965720212
38,0.45128151116897164,0.45209639307167365
39,0.4512738873489755,0.4521580352591264
40,0.4512706830156602,0.4520932149021477
41,0.4512749288341315,0.4520942990762941
42,0.4512737373844516,0.45211909587870647
43,0.45127192468380184,0.4520898875328341
44,0.4512689076215148,0.4521368080316422
45,0.4512785923042648,0.4521157530789876
46,0.4512706338692245,0.4521129454508859
47,0.4512721512624495,0.45215352167740713
48,0.4512695899303201,0.4521462594841819
49,0.451268542751515,0.45212001191788803
50,0.4512682713145356,0.45213502586687654
51,0.45127035059231363,0.4521539981617359
52,0.4512735399172651,0.4521363208683438
53,0.4512685372722711,0.4521084582843269
54,0.45126725398569845,0.45217574964664825
55,0.4512689451900699,0.4521194946935258
56,0.45127086230605057,0.4522827539560639
57,0.45126729789111825,0.4521310106449082
58,0.45127169083920027,0.45211163212581235
59,0.4512717701691232,0.452125350838114
60,0.45126624158818085,0.45212988754191924
61,0.45126828122482027,0.4521464513528037
62,0.4512680244388626,0.45212155001880433
63,0.45126856083301997,0.4521251046808103
64,0.4512664710017417,0.45211104718172934
65,0.45126704691792374,0.4521442171430249
66,0.4512709357040963,0.4521054655148838
67,0.45126417362623267,0.45210915893292747
68,0.4512716851217284,0.45212052749571313
69,0.45126721827532174,0.45212384329222277
70,0.45126538229979674,0.45210264078631773
71,0.45126346863812206,0.45211702095963585
72,0.4512670653567707,0.4522225246386163
73,0.45126711011981124,0.4521403002428463
