epoch,loss,val_loss
0,0.17022040463108526,0.09223683180777031
1,0.07777067357235008,0.06838428534879022
2,0.06620381584615825,0.05639006609674881
3,0.04991619754954875,0.04423432698401299
4,0.03655180451776579,0.0332033774494278
5,0.031112648312934487,0.02728735658339421
6,0.028693886841539378,0.04118730934908659
7,0.02993492283177176,0.026191370377953636
8,0.027251728342103064,0.025746267409473306
9,0.03327491329603201,0.044360691397770616
10,0.029078320443010827,0.02701571721792362
11,0.026606842718399068,0.02461592638431427
12,0.02448038007694778,0.02315968422229448
13,0.02324818521008479,0.02055460193445105
14,0.021486156938715185,0.01902077082565147
15,0.027806932125970137,0.01917947567087887
16,0.019545527730437873,0.017924173647609863
17,0.02170779576806499,0.022536605145214765
18,0.02851786541206826,0.0249159322609065
19,0.020580732549498264,0.01774859793290155
20,0.018649053004243486,0.018952114604584045
21,0.01950179306800655,0.01958018434384651
22,0.018159521617841044,0.01766518008363769
23,0.017963681993507247,0.017223436006101548
24,0.018006930186552444,0.01667790674849251
25,0.018033695309687195,0.01650402446269354
26,0.01919225249573481,0.017412436232206008
27,0.019422006860321802,0.016833295942752402
28,0.017829270722593167,0.017487675611638328
29,0.01766282650712821,0.01644232373422963
30,0.017340486427005246,0.017834514874932608
31,0.017358274977031848,0.017882216792339024
32,0.017304061005244866,0.018078483594103696
33,0.017325388000002034,0.015363510029174346
34,0.01645524544138119,0.01568037952680873
35,0.018238715682294872,0.01476501050642629
36,0.020152875843147438,0.015379962216601093
37,0.024586471747592105,0.022252906447580788
38,0.0177282120564954,0.01570708212319941
39,0.021057506199095317,0.016369536072868434
40,0.016116048231330827,0.015520852080442675
41,0.01739856599346935,0.02286522528237495
42,0.06562481188013566,0.09943975765190448
43,0.0942790261108717,0.08905683064446641
44,0.09492952161603313,0.08780219509386132
45,0.08384284801739487,0.07900600717494877
46,0.0687477839031189,0.05014013978869499
47,0.03977847160201231,0.03492700948358617
48,0.03825006986574399,0.03337295346944089
49,0.029570155852227855,0.027036859013651805
50,0.025118080848495927,0.021890973122444975
51,0.02245793753801633,0.023699816095847828
52,0.02233235785986284,0.020265404284941276
53,0.026755752754386523,0.027087101846604057
54,0.036887421895810166,0.023464180546759052
55,0.02565118125368127,0.03341770210636349
56,0.02734113197556312,0.0249984101131382
57,0.028243599809426295,0.03827963815303703
58,0.034203484935833396,0.026502813605831285
59,0.02685409691408098,0.026667636048104598
60,0.02504911885144923,0.024082430780239715
61,0.024753304482768957,0.02389124389693741
62,0.02497029947571093,0.02312652377710158
63,0.02611159957680318,0.024022406822727625
64,0.026408850586117742,0.024546908242620628
65,0.02767435506397157,0.08629582712357686
