epoch,loss,val_loss
0,0.39050513640534484,0.20828162768786596
1,0.17515493020546333,0.15939198648402705
2,0.15233152556857713,0.14078337692706341
3,0.12684666374318607,0.1186054770282713
4,0.11636288964943729,0.11297325699368893
5,0.10952093382533505,0.10552649999121182
6,0.10440338824054511,0.10296479034536733
7,0.10279891647690301,0.1019514188782004
8,0.10204177591011679,0.10142495849514535
9,0.10155702706316201,0.1008167795266518
10,0.10110365090181501,0.10043760488469862
11,0.10077786225256778,0.10009466605033099
12,0.1003177843922429,0.09944107450527193
13,0.09982534930360117,0.09915823077793279
14,0.09939176702408863,0.09866560395768804
15,0.09893767343317386,0.09809047757591331
16,0.09828796448538915,0.09747704283143933
17,0.09786103765288894,0.09712469897099904
18,0.09718317013207099,0.09643988672352816
19,0.09656779043418136,0.09562137894091309
20,0.09538473724890098,0.09420071401719324
21,0.09293635927444453,0.08910494182485243
22,0.08451957637362248,0.08072970521760532
23,0.07913357542930462,0.07644071247672696
24,0.07478476181733522,0.07211574137022671
25,0.06973807863908991,0.06505816393982451
26,0.06510267009754642,0.066038551604362
27,0.06747244932144571,0.06754146513970893
28,0.06818848589567734,0.06946056663707757
29,0.06915359597483413,0.06926440889193679
30,0.06940105857608987,0.070195637496325
31,0.07072708478493751,0.07019791737986815
32,0.07113482173588827,0.07047815413905958
33,0.0713126696259093,0.07197804343846245
34,0.07263284354663486,0.07283145386869735
35,0.07326968157772633,0.07333396967344616
36,0.07343514235042553,0.07339211158166274
37,0.07415126432046044,0.07438266883591732
38,0.07501144274819098,0.07438494456195417
39,0.07515347014061458,0.07534026951421031
40,0.07539183614279726,0.07532023246258192
41,0.07582119896376638,0.0758189750745622
42,0.07582888514589635,0.0754641191747213
43,0.0757325431890339,0.07558924764771112
44,0.07598074473780123,0.07579912246449688
45,0.07615267528856783,0.07629235165859642
46,0.07628469462160298,0.07619025359472706
47,0.07640216901576777,0.07596784736593595
48,0.076426792303197,0.07598565841694939
49,0.0764420591741443,0.07638689773282199
50,0.07667701476388317,0.07627080796667225
51,0.0768844990088023,0.07701808851632719
52,0.07705909902934166,0.07690162163436554
53,0.07760666622865876,0.07717680303054997
54,0.07795094463417379,0.0773601652062024
55,0.07803079783678245,0.07769014944499557
