epoch,loss,val_loss
0,0.15387614702673363,0.08146020423124038
1,0.058975514977408064,0.0320359819128392
2,0.03826761644312756,0.03941823441855721
3,0.038098263910872565,0.0373862439379884
4,0.03477588653725257,0.03255581415178226
5,0.030614245347946666,0.0298929505826407
6,0.029677565386005158,0.02996075760217379
7,0.029528114599265833,0.029657987513136187
8,0.029691879743997524,0.03011902622678615
9,0.029547509133553716,0.029868944429725573
10,0.029453174295209102,0.029716114808335584
11,0.0295934302860396,0.029646571137557937
12,0.029508936693139975,0.0294998599408928
13,0.02927245812224065,0.029778584532128043
14,0.02938058514067595,0.029139904883096986
15,0.028966191670686887,0.02872729532849911
16,0.029226724305551212,0.029331797944130444
17,0.030139057958821693,0.029862740193953078
18,0.029343802933033993,0.029068952105827658
19,0.029287935964179505,0.030298644084345194
20,0.028914166994089132,0.03045288741665039
21,0.029444991976475352,0.029684579724647345
22,0.02929679172740375,0.03075535367842067
23,0.029371457266733705,0.029633300054021587
24,0.02948441583928254,0.029025218604630906
25,0.029652372793220787,0.03015147690126862
26,0.029648533281531456,0.03104599937355556
27,0.029705787236861094,0.030623131683765195
28,0.02945593321215001,0.02973770170274831
29,0.029518358713889914,0.030352666803533483
30,0.02976632238232451,0.029844785579601515
31,0.02974416238875936,0.029013230614569965
32,0.02960980262348263,0.029655229013586665
33,0.029738323696011263,0.030147853558081854
34,0.029832966566133462,0.029982347305990528
35,0.029370002310088784,0.029455018842088582
36,0.02991849073409129,0.02960372532423124
37,0.029846283406924478,0.02999284126793623
38,0.02962627875463044,0.030353097053981242
39,0.02957359933518439,0.029104223635103538
40,0.029734838445731205,0.030280291984165007
41,0.029484282491161383,0.03075626538368126
42,0.02963382552871458,0.030605731706922226
43,0.02986628327706306,0.029762242943483633
44,0.02956438556664901,0.030479763394137868
45,0.029765021368611057,0.029071225584047275
