epoch,loss,val_loss
0,0.4583546727728977,0.46234524633438456
1,0.4524358389236563,0.48361030364469365
2,0.45141011488428123,0.47148338745876667
3,0.45137781090587736,0.46478807834442337
4,0.45136597857391425,0.4619963951203046
5,0.4513629243480597,0.46006011981708195
6,0.45134681706234137,0.4579656920803751
7,0.45134258103504077,0.4573585480898501
8,0.4513411572415956,0.45704068860955
9,0.45133198169972016,0.45650527219934167
10,0.451329652711356,0.4564060987970823
11,0.4513300941240111,0.45612679011443513
12,0.45131952158934013,0.4557856901856793
13,0.4513150891430563,0.4555946655789039
14,0.4513109317548174,0.45492944692944387
15,0.45130554306135473,0.454010584877529
16,0.4513027678243071,0.4537314834939088
17,0.4512938934026195,0.4532015336811213
18,0.4512866562981304,0.45316122021840705
19,0.45128843979202776,0.4528510633329754
20,0.45128466778521914,0.4527041688855464
21,0.4512750628850252,0.45246678320272005
22,0.451275583413198,0.4523895234222382
23,0.4512738477316596,0.4523591302517557
24,0.4512808626885418,0.4525089957108155
25,0.4512720576388468,0.4523701958752281
26,0.4512834076544078,0.45240248056406474
27,0.45127514686039405,0.4523546703941914
28,0.4512830372098729,0.4522658910634674
29,0.45127964057891873,0.452307504114431
30,0.45127484350086305,0.4523442228572427
31,0.4512805341721343,0.45230502842821846
32,0.4512782238846679,0.45221443348450274
33,0.45128608445564716,0.45221948538978174
34,0.4512735816071645,0.45221752671623383
35,0.45127250083821185,0.4523754587254377
36,0.4512775656130674,0.45218642372358664
37,0.4512702820779418,0.45225501161630266
38,0.4512721502857147,0.4523173179462752
39,0.4512678327129709,0.4523891948204673
40,0.4512665493072842,0.4524180329307008
41,0.45126777065457774,0.45235162677027246
42,0.4512720813425325,0.45226842807142775
43,0.45126510902846173,0.4523305464374238
44,0.451269151733743,0.452267196837992
45,0.45126909046150226,0.45220766360588494
46,0.4512715144790143,0.45241833855151753
47,0.45126948258478483,0.45226277790863684
48,0.4512704326380357,0.45232161345591015
49,0.4512696226390241,0.4523029879452962
50,0.4512696115375994,0.4524279036856864
51,0.45126742777302203,0.4522974979435259
52,0.45126884463403244,0.45226235105564205
53,0.4512673283366562,0.45245899950413604
54,0.4512716670164006,0.4522703849808287
55,0.4512705304782739,0.45236296818871713
56,0.45127199081589375,0.45243303342512864
57,0.4512654377116288,0.4525388812303731
58,0.4512666179645929,0.45241415514754046
59,0.45127131460572506,0.4522171295009077
60,0.4512647919946437,0.4524725944203661
61,0.451267217060359,0.45229340956826425
62,0.4512671576939422,0.4522686956572363
63,0.45126498007564714,0.45221454392010146
64,0.4512685853228581,0.4523107835695136
65,0.45127128161114755,0.45226941044253444
66,0.45126518266473553,0.45224242101716733
