epoch,loss,val_loss
0,0.08562083801122115,0.04488440435129823
1,0.03823487469844586,0.03734789450888852
2,0.036733198360049374,0.036836875507045
3,0.03619931897164868,0.036083136644764216
4,0.035683469894490276,0.03569383940114783
5,0.030534154468243545,0.028778789594369605
6,0.028555673193469418,0.028143481904936287
7,0.027797994588752636,0.02780432645863638
8,0.027251775210483564,0.026832417226980876
9,0.026936577979942783,0.0266895542978276
10,0.026680126948524816,0.02620801626136431
11,0.026260093531960682,0.026805632719042363
12,0.025822238934090098,0.026175057021540833
13,0.02550365180104709,0.025253725831338808
14,0.025398682796959872,0.025036469991329906
15,0.025379571782277642,0.025672837634642197
16,0.024897838529529905,0.02490363448664205
17,0.02472918795989,0.024874100141115515
18,0.024886757672893153,0.025105381879923186
19,0.024934278498831793,0.024840771121391183
20,0.024884029457585322,0.025501253455289256
21,0.025060987388856596,0.025871826618051284
22,0.02541063048189683,0.02529300097302602
23,0.02542804516732788,0.025499625313783032
24,0.025263612083405804,0.025261154758502106
25,0.0254117368469588,0.02576574982065287
26,0.02546255779024556,0.025956967111968016
27,0.025845047210058054,0.026028602637626942
28,0.02564286400112126,0.02520607370697991
29,0.025544532139202672,0.02537585804628498
30,0.025458652727145085,0.026058991521232318
31,0.025375388211292996,0.024833471713486203
32,0.0250237308394947,0.024985066799545437
33,0.02484477538582709,0.025360986333114007
34,0.02475540181822914,0.024704917387679607
35,0.024577838668732237,0.02484178915472838
36,0.02470596750630892,0.024375540280057485
37,0.02412439973430811,0.023723165046691235
38,0.02360944431141126,0.024005629991099602
39,0.023383450193358937,0.023251120990470064
40,0.02300582761071521,0.023052485650897778
41,0.023095730580478833,0.02276923846903286
42,0.02286278890173355,0.022746203386393136
43,0.022798098328945447,0.022653111347071563
44,0.022702969016610005,0.022862230894327068
45,0.022909901659492013,0.02318005364361765
46,0.02317024426732799,0.023347739605108112
47,0.023062081833323127,0.022983765891137892
48,0.023019924640750807,0.022696687778915207
49,0.022866823172254813,0.022978236866437175
50,0.022955783883289848,0.022666994398481844
51,0.022859235381265337,0.022788944479957187
52,0.02286462217932649,0.022597990890387106
53,0.022946106747900555,0.023325058904306663
54,0.023058816885871948,0.022917770268285283
55,0.022906600074063865,0.023181983074959847
56,0.02308610666075723,0.022778108111790717
57,0.02299661954178465,0.02266173487368915
58,0.023063276554171227,0.0228569231436374
59,0.02295636972315687,0.0229111989414659
60,0.022981529590859116,0.023230869008409007
61,0.022984005899416456,0.02345948148704036
62,0.023132199832468295,0.023520845462639405
63,0.022865045410718658,0.022942835897289588
64,0.022861185759830056,0.02313681836986081
65,0.023028582129046786,0.02327217607396554
66,0.023038963435126913,0.02281057833449146
67,0.022794120147717086,0.023048856072921686
68,0.022774978778321298,0.02281503138979919
69,0.02274696459081009,0.022780377494249177
70,0.022709257987072524,0.02299830637689924
71,0.022804336777205565,0.022871412579396528
72,0.022696231202267818,0.0231136431963122
73,0.02287463021191428,0.023022250131936928
74,0.02277648098004474,0.02252715886456579
75,0.022744955356529862,0.02272009099491864
76,0.02278289638108296,0.022648754483346124
77,0.022779082986626693,0.022863130569575618
78,0.022736989488776067,0.022755205931161083
79,0.022806729702986212,0.022734530518550334
80,0.022868388607133208,0.022887326159529923
81,0.022703655317223233,0.023019734542190605
82,0.022832054801160198,0.023083195062361558
83,0.02289513468617301,0.022078286161044968
84,0.02272714726585183,0.02299001889381243
85,0.02288771192762825,0.023178094210016417
86,0.022860098954775542,0.022576881935724425
87,0.022694410224684138,0.02286526062999923
88,0.022898728443349867,0.02259433296109949
89,0.022838869828173965,0.02289323490656965
90,0.022890416329069962,0.022753251544490233
91,0.02299672210191508,0.02278074836645102
92,0.022920635575763612,0.022964932619878507
93,0.02303174019401832,0.023194216528426688
94,0.022891286827570242,0.022689346003551228
95,0.022932048647297466,0.023053842062320216
96,0.02288126403526913,0.02265722051868546
97,0.0228562510142819,0.023036647757078685
98,0.022898226313823038,0.02294605128443561
99,0.022936012012233362,0.022981407082600675
100,0.022894253236629504,0.023008779499859158
101,0.02301821841461529,0.02316925270834257
102,0.02298623097123955,0.023170034969321084
103,0.023029315225083193,0.022827037629960273
104,0.022844098270130005,0.02352763253286916
105,0.02296899752222377,0.02301898452246763
106,0.022842581529054138,0.023198206693627935
107,0.02291994519549594,0.022822617201080166
108,0.022900069448099337,0.02300710828376503
109,0.02283292228905417,0.02282655976077611
110,0.0227943414481257,0.022923440898121015
111,0.022913755883249065,0.023064670221322903
112,0.023031124766234107,0.02341692596115319
113,0.023105126450494895,0.02315009141454051
