epoch,loss,val_loss
0,0.0950646089772574,0.04812015213172268
1,0.03912619835467076,0.03855110181241216
2,0.03838299123122157,0.03904936303573513
3,0.03859856096412733,0.03890174947202723
4,0.03852592865757043,0.03893714947677449
5,0.03853478798751446,0.038770090694514994
6,0.03847418393758085,0.03888084571558656
7,0.03854654443492706,0.03892517801088993
8,0.03856133838161099,0.03859567979458005
9,0.03853361276116112,0.03878062891155693
10,0.03854873419391642,0.038651873746441405
11,0.03859885641448885,0.03862316169332781
12,0.03857486374932323,0.03889031176938254
13,0.038508251511888636,0.03908853676837546
14,0.03854266445127894,0.03943027180767285
15,0.038562212371640356,0.03867571821822928
16,0.038545231697418324,0.03887777592348789
17,0.03852703494371937,0.039128731168812436
18,0.03844662404341473,0.038641329575403525
19,0.03844788308433301,0.03887461785935659
20,0.03851607848676465,0.03879433650973282
21,0.038591708636564984,0.038840604512331144
22,0.038589738068177545,0.03920001882674568
23,0.038573079055352365,0.03858212567718836
24,0.03865929784701406,0.03899596282225852
25,0.03860162892084804,0.039059062950730604
26,0.0386054848017786,0.03868422433498721
27,0.03860511692415038,0.03899260878198337
28,0.038643795856945426,0.038776051088426654
29,0.03869627589593641,0.039097439144879884
30,0.03866255060314751,0.03894843422493882
31,0.03863365039658204,0.03889539498826981
